{
"document" : {
"data" : {
"NAME" : "FE_MIDDLEWARE_INTERFACE_TABLE",
"COMMENT" : "No comment.",
"AUTHOR" : "admin",
"CREATION_TIME" : 1599494044,
"COL_TYPES" : {
"INTERFACE_ID" : "STRING",
"INTERFACE_IP_ADDRESS" : "STRING",
"INTERFACE_PORT" : "NUMBER",
"CALIBRATION_NAME" : "STRING",
"CONFIGURATION_DIR" : "STRING",
"CONFIGURATION_NAME" : "STRING",
"COMMENT_DESCRIPTION" : "STRING",
"AUTHOR" : "STRING",
"RECORD_INSERTION_TIME" : "TIMESTAMP WITH TIMEZONE"
},
"DATA_SET" : [
{
"INTERFACE_ID" : "OuterTrackerFEInterface0",
"INTERFACE_IP_ADDRESS" : "127.0.0.1",
"INTERFACE_PORT" : "5000",
"CALIBRATION_NAME" : "pixelalive",
"CONFIGURATION_DIR" : "${PH2ACF_ROOT}/settings",
"CONFIGURATION_NAME" : "CMSIT.xml",
"COMMENT_DESCRIPTION" : "No Comment",
"AUTHOR" : "admin",
"RECORD_INSERTION_TIME" : "1598345350"
},
{
"INTERFACE_ID" : "InnerTrackerFEInterface0",
"INTERFACE_IP_ADDRESS" : "127.0.0.1",
"INTERFACE_PORT" : "5000",
"CALIBRATION_NAME" : "pixelalive",
"CONFIGURATION_DIR" : "${PH2ACF_ROOT}/settings",
"CONFIGURATION_NAME" : "CMSIT.xml",
"COMMENT_DESCRIPTION" : "No Comment",
"AUTHOR" : "admin",
"RECORD_INSERTION_TIME" : "1598443136"
},
{
"INTERFACE_ID" : "InnerTrackerFEInterfacePixelAlive",
"INTERFACE_IP_ADDRESS" : "127.0.0.1",
"INTERFACE_PORT" : "5000",
"CALIBRATION_NAME" : "pixelalive",
"CONFIGURATION_DIR" : "${PH2ACF_ROOT}/settings/CMSIT_OTS_Config",
"CONFIGURATION_NAME" : "CMSIT_pixelalive.xml",
"COMMENT_DESCRIPTION" : "No Comment",
"AUTHOR" : "admin",
"RECORD_INSERTION_TIME" : "1599492021"
},
{
"INTERFACE_ID" : "InnerTrackerFEInterfaceSCurve",
"INTERFACE_IP_ADDRESS" : "127.0.0.1",
"INTERFACE_PORT" : "5000",
"CALIBRATION_NAME" : "scurve",
"CONFIGURATION_DIR" : "${PH2ACF_ROOT}/settings/CMSIT_OTS_Config",
"CONFIGURATION_NAME" : "CMSIT_scurve.xml",
"COMMENT_DESCRIPTION" : "No Comment",
"AUTHOR" : "admin",
"RECORD_INSERTION_TIME" : "1599492027"
},
{
"INTERFACE_ID" : "InnerTrackerFEInterfaceGain",
"INTERFACE_IP_ADDRESS" : "127.0.0.1",
"INTERFACE_PORT" : "5000",
"CALIBRATION_NAME" : "gain",
"CONFIGURATION_DIR" : "${PH2ACF_ROOT}/settings/CMSIT_OTS_Config",
"CONFIGURATION_NAME" : "CMSIT_gain.xml",
"COMMENT_DESCRIPTION" : "No Comment",
"AUTHOR" : "admin",
"RECORD_INSERTION_TIME" : "1599492033"
},
{
"INTERFACE_ID" : "InnerTrackerFEInterfaceGainOpt",
"INTERFACE_IP_ADDRESS" : "127.0.0.1",
"INTERFACE_PORT" : "5000",
"CALIBRATION_NAME" : "gainopt",
"CONFIGURATION_DIR" : "${PH2ACF_ROOT}/settings/CMSIT_OTS_Config",
"CONFIGURATION_NAME" : "CMSIT_gainopt.xml",
"COMMENT_DESCRIPTION" : "No Comment",
"AUTHOR" : "admin",
"RECORD_INSERTION_TIME" : "1599491993"
},
{
"INTERFACE_ID" : "InnerTrackerFEInterfaceThrEqu",
"INTERFACE_IP_ADDRESS" : "127.0.0.1",
"INTERFACE_PORT" : "5000",
"CALIBRATION_NAME" : "threqu",
"CONFIGURATION_DIR" : "${PH2ACF_ROOT}/settings/CMSIT_OTS_Config",
"CONFIGURATION_NAME" : "CMSIT_threqu.xml",
"COMMENT_DESCRIPTION" : "No Comment",
"AUTHOR" : "admin",
"RECORD_INSERTION_TIME" : "1599492013"
},
{
"INTERFACE_ID" : "InnerTrackerFEInterfaceThrMin",
"INTERFACE_IP_ADDRESS" : "127.0.0.1",
"INTERFACE_PORT" : "5000",
"CALIBRATION_NAME" : "thrmin",
"CONFIGURATION_DIR" : "${PH2ACF_ROOT}/settings/CMSIT_OTS_Config",
"CONFIGURATION_NAME" : "CMSIT_thrmin.xml",
"COMMENT_DESCRIPTION" : "No Comment",
"AUTHOR" : "admin",
"RECORD_INSERTION_TIME" : "1599492066"
},
{
"INTERFACE_ID" : "InnerTrackerFEInterfaceThrAdj",
"INTERFACE_IP_ADDRESS" : "127.0.0.1",
"INTERFACE_PORT" : "5000",
"CALIBRATION_NAME" : "thradj",
"CONFIGURATION_DIR" : "${PH2ACF_ROOT}/settings/CMSIT_OTS_Config",
"CONFIGURATION_NAME" : "CMSIT_thradj.xml",
"COMMENT_DESCRIPTION" : "No Comment",
"AUTHOR" : "admin",
"RECORD_INSERTION_TIME" : "1599492097"
},
{
"INTERFACE_ID" : "InnerTrackerFEInterfaceLatency",
"INTERFACE_IP_ADDRESS" : "127.0.0.1",
"INTERFACE_PORT" : "5000",
"CALIBRATION_NAME" : "latency",
"CONFIGURATION_DIR" : "${PH2ACF_ROOT}/settings/CMSIT_OTS_Config",
"CONFIGURATION_NAME" : "CMSIT_latency.xml",
"COMMENT_DESCRIPTION" : "No Comment",
"AUTHOR" : "admin",
"RECORD_INSERTION_TIME" : "1599492129"
},
{
"INTERFACE_ID" : "InnerTrackerFEInterfaceInjDelay",
"INTERFACE_IP_ADDRESS" : "127.0.0.1",
"INTERFACE_PORT" : "5000",
"CALIBRATION_NAME" : "injdelay",
"CONFIGURATION_DIR" : "${PH2ACF_ROOT}/settings/CMSIT_OTS_Config",
"CONFIGURATION_NAME" : "CMSIT_injdelay",
"COMMENT_DESCRIPTION" : "No Comment",
"AUTHOR" : "admin",
"RECORD_INSERTION_TIME" : "1599492161"
},
{
"INTERFACE_ID" : "InnerTrackerFEInterfaceClockDelay",
"INTERFACE_IP_ADDRESS" : "127.0.0.1",
"INTERFACE_PORT" : "5000",
"CALIBRATION_NAME" : "clockdelay",
"CONFIGURATION_DIR" : "${PH2ACF_ROOT}/settings/CMSIT_OTS_Config",
"CONFIGURATION_NAME" : "CMSIT_clockdelay.xml",
"COMMENT_DESCRIPTION" : "No Comment",
"AUTHOR" : "admin",
"RECORD_INSERTION_TIME" : "1599492200"
},
{
"INTERFACE_ID" : "InnerTrackerFEInterfacePhysics",
"INTERFACE_IP_ADDRESS" : "127.0.0.1",
"INTERFACE_PORT" : "5000",
"CALIBRATION_NAME" : "physics",
"CONFIGURATION_DIR" : "${PH2ACF_ROOT}/settings/CMSIT_OTS_Config",
"CONFIGURATION_NAME" : "CMSIT_physics.xml",
"COMMENT_DESCRIPTION" : "No Comment",
"AUTHOR" : "admin",
"RECORD_INSERTION_TIME" : "1599492225"
},
{
"INTERFACE_ID" : "InnerTrackerFEInterfaceNoise",
"INTERFACE_IP_ADDRESS" : "127.0.0.1",
"INTERFACE_PORT" : "5000",
"CALIBRATION_NAME" : "noise",
"CONFIGURATION_DIR" : "${PH2ACF_ROOT}/settings/CMSIT_OTS_Config",
"CONFIGURATION_NAME" : "CMSIT_noise.xml",
"COMMENT_DESCRIPTION" : "No Comment",
"AUTHOR" : "admin",
"RECORD_INSERTION_TIME" : "1599493849"
}
]
},
"metadata" : {

},
"search" : [

]
},
"comments" : [

],
"origin" : {
"source" : "template",
"name" : "notprovided",
"format" : "json",
"created" : "2020-09-07T11:54:04.744-0400",
"rawdata" : [

]
},
"version" : "17",
"entities" : [
{
"name" : "OTSROOT",
"assigned" : "2020-09-07T11:54:04.744-0400"
}
],
"configurations" : [
{
"name" : "notprovided",
"assigned" : "2020-09-07T11:54:04.744-0400"
},
{
"name" : "DefaultConfig_v30",
"assigned" : "2020-09-07T11:54:06.315-0400"
},
{
"name" : "DefaultConfig_v31",
"assigned" : "2020-09-07T15:14:41.359-0400"
},
{
"name" : "DefaultConfig_v32",
"assigned" : "2020-09-07T15:15:32.424-0400"
},
{
"name" : "DefaultConfig_v33",
"assigned" : "2020-09-07T15:16:20.580-0400"
},
{
"name" : "DefaultConfig_v34",
"assigned" : "2020-09-07T15:17:14.995-0400"
},
{
"name" : "DefaultConfig_v35",
"assigned" : "2020-09-07T15:18:02.798-0400"
},
{
"name" : "DefaultConfig_v36",
"assigned" : "2020-09-07T15:18:43.501-0400"
},
{
"name" : "DefaultConfig_v37",
"assigned" : "2020-09-07T15:19:34.486-0400"
},
{
"name" : "DefaultConfig_v38",
"assigned" : "2020-09-07T15:20:25.046-0400"
},
{
"name" : "DefaultConfig_v39",
"assigned" : "2020-09-07T15:21:05.638-0400"
},
{
"name" : "DefaultConfig_v40",
"assigned" : "2020-09-07T15:21:50.720-0400"
},
{
"name" : "DefaultConfig_v41",
"assigned" : "2020-09-07T15:22:28.814-0400"
}
],
"changelog" : "notprovided",
"bookkeeping" : {
"isdeleted" : false,
"isreadonly" : false,
"updates" : [
{
"event" : "addConfiguration",
"timestamp" : "2020-09-07T11:54:04.744-0400",
"value" : {
"name" : "notprovided",
"assigned" : "2020-09-07T11:54:04.744-0400"
}
},
{
"event" : "setVersion",
"timestamp" : "2020-09-07T11:54:04.744-0400",
"value" : {
"name" : "17",
"assigned" : "2020-09-07T11:54:04.744-0400"
}
},
{
"event" : "setCollection",
"timestamp" : "2020-09-07T11:54:04.744-0400",
"value" : {
"name" : "FEMiddlewareInterfaceTable",
"assigned" : "2020-09-07T11:54:04.744-0400"
}
},
{
"event" : "addEntity",
"timestamp" : "2020-09-07T11:54:04.744-0400",
"value" : {
"name" : "OTSROOT",
"assigned" : "2020-09-07T11:54:04.744-0400"
}
},
{
"event" : "addConfiguration",
"timestamp" : "2020-09-07T11:54:06.315-0400",
"value" : {
"name" : "DefaultConfig_v30",
"assigned" : "2020-09-07T11:54:06.315-0400"
}
},
{
"event" : "addConfiguration",
"timestamp" : "2020-09-07T15:14:41.359-0400",
"value" : {
"name" : "DefaultConfig_v31",
"assigned" : "2020-09-07T15:14:41.359-0400"
}
},
{
"event" : "addConfiguration",
"timestamp" : "2020-09-07T15:15:32.424-0400",
"value" : {
"name" : "DefaultConfig_v32",
"assigned" : "2020-09-07T15:15:32.424-0400"
}
},
{
"event" : "addConfiguration",
"timestamp" : "2020-09-07T15:16:20.580-0400",
"value" : {
"name" : "DefaultConfig_v33",
"assigned" : "2020-09-07T15:16:20.580-0400"
}
},
{
"event" : "addConfiguration",
"timestamp" : "2020-09-07T15:17:14.995-0400",
"value" : {
"name" : "DefaultConfig_v34",
"assigned" : "2020-09-07T15:17:14.995-0400"
}
},
{
"event" : "addConfiguration",
"timestamp" : "2020-09-07T15:18:02.798-0400",
"value" : {
"name" : "DefaultConfig_v35",
"assigned" : "2020-09-07T15:18:02.798-0400"
}
},
{
"event" : "addConfiguration",
"timestamp" : "2020-09-07T15:18:43.502-0400",
"value" : {
"name" : "DefaultConfig_v36",
"assigned" : "2020-09-07T15:18:43.501-0400"
}
},
{
"event" : "addConfiguration",
"timestamp" : "2020-09-07T15:19:34.486-0400",
"value" : {
"name" : "DefaultConfig_v37",
"assigned" : "2020-09-07T15:19:34.486-0400"
}
},
{
"event" : "addConfiguration",
"timestamp" : "2020-09-07T15:20:25.046-0400",
"value" : {
"name" : "DefaultConfig_v38",
"assigned" : "2020-09-07T15:20:25.046-0400"
}
},
{
"event" : "addConfiguration",
"timestamp" : "2020-09-07T15:21:05.638-0400",
"value" : {
"name" : "DefaultConfig_v39",
"assigned" : "2020-09-07T15:21:05.638-0400"
}
},
{
"event" : "addConfiguration",
"timestamp" : "2020-09-07T15:21:50.720-0400",
"value" : {
"name" : "DefaultConfig_v40",
"assigned" : "2020-09-07T15:21:50.720-0400"
}
},
{
"event" : "addConfiguration",
"timestamp" : "2020-09-07T15:22:28.814-0400",
"value" : {
"name" : "DefaultConfig_v41",
"assigned" : "2020-09-07T15:22:28.814-0400"
}
}
],
"created" : "2020-09-07T11:54:04.744-0400"
},
"_id" : {
"$oid" : "3855ed29dfa24f598abf64af"
},
"collection" : "FEMiddlewareInterfaceTable",
"aliases" : {
"active" : [

],
"history" : [

]
},
"runs" : [

],
"attachments" : [

],
"configtype" : "notprovided"
}