{
"ouid" : [
"36df9777945b422398b4847d",
"46afb0a83e21486b9793c984",
"718fb877f35b491e88c0cf27"
],
"version" : {
"2" : [
"36df9777945b422398b4847d"
],
"3" : [
"46afb0a83e21486b9793c984"
],
"4" : [
"718fb877f35b491e88c0cf27"
]
},
"configurations.name" : {
"notprovided" : [
"36df9777945b422398b4847d",
"46afb0a83e21486b9793c984",
"718fb877f35b491e88c0cf27"
],
"DefaultContext_v2" : [
"36df9777945b422398b4847d"
],
"DefaultContext_v3" : [
"36df9777945b422398b4847d"
],
"DefaultContext_v4" : [
"36df9777945b422398b4847d"
],
"DefaultContext_v5" : [
"36df9777945b422398b4847d"
],
"DefaultContext_v6" : [
"36df9777945b422398b4847d"
],
"DefaultContext_v7" : [
"36df9777945b422398b4847d"
],
"DefaultContext_v8" : [
"36df9777945b422398b4847d"
],
"DefaultContext_v9" : [
"46afb0a83e21486b9793c984"
],
"DefaultContext_v10" : [
"46afb0a83e21486b9793c984"
],
"DefaultContext_v11" : [
"46afb0a83e21486b9793c984"
],
"DefaultContext_v12" : [
"46afb0a83e21486b9793c984"
],
"DefaultContext_v13" : [
"46afb0a83e21486b9793c984"
],
"DefaultContext_v14" : [
"46afb0a83e21486b9793c984"
],
"DefaultContext_v15" : [
"46afb0a83e21486b9793c984"
],
"DefaultContext_v16" : [
"718fb877f35b491e88c0cf27"
],
"DefaultContext_v17" : [
"718fb877f35b491e88c0cf27"
],
"DefaultContext_v18" : [
"718fb877f35b491e88c0cf27"
]
},
"entities.name" : {
"OTSROOT" : [
"36df9777945b422398b4847d",
"46afb0a83e21486b9793c984",
"718fb877f35b491e88c0cf27"
]
},
"aliases.active.name" : {

},
"runs.name" : {

},
"configurations.assigned" : {
"notprovided" : [
"2020-07-21T14:27:47.243-0500",
"2020-08-23T13:00:05.716-0400",
"2020-09-07T08:42:40.669-0400"
],
"DefaultContext_v2" : [
"2020-07-21T14:27:47.651-0500"
],
"DefaultContext_v3" : [
"2020-07-21T14:42:50.370-0500"
],
"DefaultContext_v4" : [
"2020-07-21T14:46:44.249-0500"
],
"DefaultContext_v5" : [
"2020-07-21T14:51:16.530-0500"
],
"DefaultContext_v6" : [
"2020-07-21T14:55:16.855-0500"
],
"DefaultContext_v7" : [
"2020-07-21T14:55:56.861-0500"
],
"DefaultContext_v8" : [
"2020-07-21T15:50:01.208-0500"
],
"DefaultContext_v9" : [
"2020-08-23T13:00:05.871-0400"
],
"DefaultContext_v10" : [
"2020-08-26T07:36:02.920-0400"
],
"DefaultContext_v11" : [
"2020-08-26T07:36:45.193-0400"
],
"DefaultContext_v12" : [
"2020-08-26T07:41:34.836-0400"
],
"DefaultContext_v13" : [
"2020-08-26T07:49:46.388-0400"
],
"DefaultContext_v14" : [
"2020-08-26T07:52:48.500-0400"
],
"DefaultContext_v15" : [
"2020-09-07T08:30:59.377-0400"
],
"DefaultContext_v16" : [
"2020-09-07T08:42:40.980-0400"
],
"DefaultContext_v17" : [
"2020-09-07T08:52:41.407-0400"
],
"DefaultContext_v18" : [
"2020-09-07T09:05:05.343-0400"
]
}
}