{
"document" : {
"data" : {
"NAME" : "DESKTOP_WINDOW_PARAMETER_CONFIGURATION",
"COMMENT" : "GET parameters for FE Sub-config window added.",
"AUTHOR" : "admin",
"CREATION_TIME" : 1492613231,
"COL_TYPES" : {
"WINDOW_PARAMETER_GROUP_ID" : "VARCHAR2",
"WINDOW_PARAMETER_UID" : "VARCHAR2",
"ENABLED" : "VARCHAR2",
"WINDOW_PARAMETER_KEY" : "VARCHAR2",
"WINDOW_PARAMETER_VALUE" : "VARCHAR2",
"COMMENT_DESCRIPTION" : "VARCHAR2",
"AUTHOR" : "VARCHAR2",
"RECORD_INSERTION_TIME" : "TIMESTAMP WITH TIMEZONE"
},
"DATA_SET" : [
{
"WINDOW_PARAMETER_GROUP_ID" : "FE_Cfg_params",
"WINDOW_PARAMETER_UID" : "FE_Cfg_param0",
"ENABLED" : "True",
"WINDOW_PARAMETER_KEY" : "baseTable",
"WINDOW_PARAMETER_VALUE" : "FEInterfaceConfiguration",
"COMMENT_DESCRIPTION" : "The records in this table are the targets for this config subset.",
"AUTHOR" : "admin",
"RECORD_INSERTION_TIME" : "1492613231"
},
{
"WINDOW_PARAMETER_GROUP_ID" : "FE_Cfg_params",
"WINDOW_PARAMETER_UID" : "FE_Cfg_param1",
"ENABLED" : "True",
"WINDOW_PARAMETER_KEY" : "subLevelGrouping",
"WINDOW_PARAMETER_VALUE" : "LinkToFETypeConfiguration,FEInterfacePluginName",
"COMMENT_DESCRIPTION" : "CSV fields (tree paths relative to base table record) by which the records will be grouped. The user can also filter the records by these fields.",
"AUTHOR" : "admin",
"RECORD_INSERTION_TIME" : "1492613231"
},
{
"WINDOW_PARAMETER_GROUP_ID" : "FE_Cfg_params",
"WINDOW_PARAMETER_UID" : "FE_Cfg_param2",
"ENABLED" : "True",
"WINDOW_PARAMETER_KEY" : "fieldList",
"WINDOW_PARAMETER_VALUE" : "",
"COMMENT_DESCRIPTION" : "CSV fields that will be user editable. If blank, then all fields will be made available.",
"AUTHOR" : "admin",
"RECORD_INSERTION_TIME" : "1492613231"
}
]
},
"metadata" : {

},
"search" : [

]
},
"comments" : [

],
"origin" : {
"source" : "template",
"name" : "notprovided",
"format" : "json",
"created" : "Fri Jul 07 22:54:22 2017",
"rawdata" : [

]
},
"version" : "3",
"entities" : [
{
"name" : "OTSROOT",
"assigned" : "Fri Jul 07 22:54:22 2017"
}
],
"configurations" : [
{
"name" : "notprovided",
"assigned" : "Fri Jul 07 22:54:22 2017"
},
{
"name" : "OTMiniModuleContext_v3",
"assigned" : "Fri Jul 07 22:54:22 2017"
}
],
"changelog" : "notprovided",
"bookkeeping" : {
"isdeleted" : false,
"isreadonly" : false,
"updates" : [
{
"event" : "addConfiguration",
"timestamp" : "Fri Jul 07 22:54:22 2017",
"value" : {
"name" : "notprovided",
"assigned" : "Fri Jul 07 22:54:22 2017"
}
},
{
"event" : "setVersion",
"timestamp" : "Fri Jul 07 22:54:22 2017",
"value" : {
"name" : "3",
"assigned" : "Fri Jul 07 22:54:22 2017"
}
},
{
"event" : "setCollection",
"timestamp" : "Fri Jul 07 22:54:22 2017",
"value" : {
"name" : "DesktopWindowParameterConfiguration",
"assigned" : "Fri Jul 07 22:54:22 2017"
}
},
{
"event" : "addEntity",
"timestamp" : "Fri Jul 07 22:54:22 2017",
"value" : {
"name" : "OTSROOT",
"assigned" : "Fri Jul 07 22:54:22 2017"
}
},
{
"event" : "addConfiguration",
"timestamp" : "Fri Jul 07 22:54:22 2017",
"value" : {
"name" : "OTMiniModuleContext_v3",
"assigned" : "Fri Jul 07 22:54:22 2017"
}
}
],
"created" : "Fri Jul 07 22:54:22 2017"
},
"_id" : {
"$oid" : "12195b6808c74f32b5503ad3"
},
"collection" : "DesktopWindowParameterConfiguration",
"aliases" : {
"active" : [

],
"history" : [

]
},
"runs" : [

],
"attachments" : [

],
"configtype" : "notprovided"
}