{
"document" : {
"data" : {
"NAME" : "DATA_MANAGER_SUPERVISOR_TABLE",
"COMMENT" : "Data manager top-level records.",
"AUTHOR" : "admin",
"CREATION_TIME" : 1550871277,
"COL_TYPES" : {
"SUPERVISOR_UID" : "STRING",
"LINK_TO_DATA_BUFFER_TABLE" : "STRING",
"LINK_TO_DATA_BUFFER_GROUP_ID" : "STRING",
"COMMENT_DESCRIPTION" : "STRING",
"AUTHOR" : "STRING",
"RECORD_INSERTION_TIME" : "TIMESTAMP WITH TIMEZONE"
},
"DATA_SET" : [
{
"SUPERVISOR_UID" : "OuterTrackerDataManagerSupervisor0",
"LINK_TO_DATA_BUFFER_TABLE" : "DataBufferTable",
"LINK_TO_DATA_BUFFER_GROUP_ID" : "OuterTrackerDataBuffer0",
"COMMENT_DESCRIPTION" : "No Comment",
"AUTHOR" : "admin",
"RECORD_INSERTION_TIME" : "1550773483"
},
{
"SUPERVISOR_UID" : "VisualSupervisor0",
"LINK_TO_DATA_BUFFER_TABLE" : "DataBufferTable",
"LINK_TO_DATA_BUFFER_GROUP_ID" : "VisualDataBuffer",
"COMMENT_DESCRIPTION" : "",
"AUTHOR" : "admin",
"RECORD_INSERTION_TIME" : "1550871277"
}
]
},
"metadata" : {

},
"search" : [

]
},
"comments" : [

],
"origin" : {
"source" : "template",
"name" : "notprovided",
"format" : "json",
"created" : "2020-07-21T14:27:46.212-0500",
"rawdata" : [

]
},
"version" : "1",
"entities" : [
{
"name" : "OTSROOT",
"assigned" : "2020-07-21T14:27:46.213-0500"
}
],
"configurations" : [
{
"name" : "notprovided",
"assigned" : "2020-07-21T14:27:46.213-0500"
},
{
"name" : "DefaultConfig_v1",
"assigned" : "2020-07-21T14:27:46.765-0500"
},
{
"name" : "DefaultConfig_v2",
"assigned" : "2020-07-21T14:44:16.406-0500"
},
{
"name" : "DefaultConfig_v3",
"assigned" : "2020-07-21T14:57:50.290-0500"
},
{
"name" : "DefaultConfig_v4",
"assigned" : "2020-07-28T10:52:34.180-0500"
},
{
"name" : "DefaultConfig_v5",
"assigned" : "2020-08-04T15:30:35.095-0500"
},
{
"name" : "DefaultConfig_v6",
"assigned" : "2020-08-23T08:42:38.167-0400"
},
{
"name" : "DefaultConfig_v7",
"assigned" : "2020-08-23T09:13:31.509-0400"
},
{
"name" : "DefaultConfig_v8",
"assigned" : "2020-08-23T09:16:48.113-0400"
},
{
"name" : "DefaultConfig_v9",
"assigned" : "2020-08-25T04:49:15.844-0400"
},
{
"name" : "DefaultConfig_v10",
"assigned" : "2020-08-26T07:39:08.457-0400"
},
{
"name" : "DefaultConfig_v11",
"assigned" : "2020-08-26T07:52:47.198-0400"
},
{
"name" : "DefaultConfig_v12",
"assigned" : "2020-08-26T07:59:18.607-0400"
},
{
"name" : "DefaultConfig_v13",
"assigned" : "2020-08-26T08:29:39.168-0400"
},
{
"name" : "DefaultConfig_v14",
"assigned" : "2020-09-07T07:00:55.234-0400"
},
{
"name" : "DefaultConfig_v15",
"assigned" : "2020-09-07T07:05:07.868-0400"
},
{
"name" : "DefaultConfig_v16",
"assigned" : "2020-09-07T07:09:30.521-0400"
},
{
"name" : "DefaultConfig_v17",
"assigned" : "2020-09-07T07:16:07.832-0400"
},
{
"name" : "DefaultConfig_v18",
"assigned" : "2020-09-07T07:56:03.905-0400"
},
{
"name" : "DefaultConfig_v19",
"assigned" : "2020-09-07T08:00:30.403-0400"
},
{
"name" : "DefaultConfig_v20",
"assigned" : "2020-09-07T08:01:53.021-0400"
},
{
"name" : "DefaultConfig_v21",
"assigned" : "2020-09-07T08:06:17.917-0400"
},
{
"name" : "DefaultConfig_v22",
"assigned" : "2020-09-07T08:11:03.919-0400"
},
{
"name" : "DefaultConfig_v23",
"assigned" : "2020-09-07T08:26:52.491-0400"
},
{
"name" : "DefaultConfig_v24",
"assigned" : "2020-09-07T08:29:30.268-0400"
},
{
"name" : "DefaultConfig_v25",
"assigned" : "2020-09-07T09:02:56.398-0400"
},
{
"name" : "DefaultConfig_v26",
"assigned" : "2020-09-07T10:31:55.161-0400"
},
{
"name" : "DefaultConfig_v27",
"assigned" : "2020-09-07T10:37:39.965-0400"
},
{
"name" : "DefaultConfig_v28",
"assigned" : "2020-09-07T11:26:43.617-0400"
},
{
"name" : "DefaultConfig_v29",
"assigned" : "2020-09-07T11:45:30.403-0400"
},
{
"name" : "DefaultConfig_v30",
"assigned" : "2020-09-07T11:54:06.187-0400"
},
{
"name" : "DefaultConfig_v31",
"assigned" : "2020-09-07T15:14:41.237-0400"
},
{
"name" : "DefaultConfig_v32",
"assigned" : "2020-09-07T15:15:32.302-0400"
},
{
"name" : "DefaultConfig_v33",
"assigned" : "2020-09-07T15:16:20.456-0400"
},
{
"name" : "DefaultConfig_v34",
"assigned" : "2020-09-07T15:17:14.871-0400"
},
{
"name" : "DefaultConfig_v35",
"assigned" : "2020-09-07T15:18:02.671-0400"
},
{
"name" : "DefaultConfig_v36",
"assigned" : "2020-09-07T15:18:43.376-0400"
},
{
"name" : "DefaultConfig_v37",
"assigned" : "2020-09-07T15:19:34.360-0400"
},
{
"name" : "DefaultConfig_v38",
"assigned" : "2020-09-07T15:20:24.918-0400"
},
{
"name" : "DefaultConfig_v39",
"assigned" : "2020-09-07T15:21:05.510-0400"
},
{
"name" : "DefaultConfig_v40",
"assigned" : "2020-09-07T15:21:50.592-0400"
},
{
"name" : "DefaultConfig_v41",
"assigned" : "2020-09-07T15:22:28.685-0400"
}
],
"changelog" : "notprovided",
"bookkeeping" : {
"isdeleted" : false,
"isreadonly" : false,
"updates" : [
{
"event" : "addConfiguration",
"timestamp" : "2020-07-21T14:27:46.213-0500",
"value" : {
"name" : "notprovided",
"assigned" : "2020-07-21T14:27:46.213-0500"
}
},
{
"event" : "setVersion",
"timestamp" : "2020-07-21T14:27:46.213-0500",
"value" : {
"name" : "1",
"assigned" : "2020-07-21T14:27:46.213-0500"
}
},
{
"event" : "setCollection",
"timestamp" : "2020-07-21T14:27:46.213-0500",
"value" : {
"name" : "DataManagerSupervisorTable",
"assigned" : "2020-07-21T14:27:46.213-0500"
}
},
{
"event" : "addEntity",
"timestamp" : "2020-07-21T14:27:46.213-0500",
"value" : {
"name" : "OTSROOT",
"assigned" : "2020-07-21T14:27:46.213-0500"
}
},
{
"event" : "addConfiguration",
"timestamp" : "2020-07-21T14:27:46.765-0500",
"value" : {
"name" : "DefaultConfig_v1",
"assigned" : "2020-07-21T14:27:46.765-0500"
}
},
{
"event" : "addConfiguration",
"timestamp" : "2020-07-21T14:44:16.406-0500",
"value" : {
"name" : "DefaultConfig_v2",
"assigned" : "2020-07-21T14:44:16.406-0500"
}
},
{
"event" : "addConfiguration",
"timestamp" : "2020-07-21T14:57:50.290-0500",
"value" : {
"name" : "DefaultConfig_v3",
"assigned" : "2020-07-21T14:57:50.290-0500"
}
},
{
"event" : "addConfiguration",
"timestamp" : "2020-07-28T10:52:34.180-0500",
"value" : {
"name" : "DefaultConfig_v4",
"assigned" : "2020-07-28T10:52:34.180-0500"
}
},
{
"event" : "addConfiguration",
"timestamp" : "2020-08-04T15:30:35.095-0500",
"value" : {
"name" : "DefaultConfig_v5",
"assigned" : "2020-08-04T15:30:35.095-0500"
}
},
{
"event" : "addConfiguration",
"timestamp" : "2020-08-23T08:42:38.167-0400",
"value" : {
"name" : "DefaultConfig_v6",
"assigned" : "2020-08-23T08:42:38.167-0400"
}
},
{
"event" : "addConfiguration",
"timestamp" : "2020-08-23T09:13:31.509-0400",
"value" : {
"name" : "DefaultConfig_v7",
"assigned" : "2020-08-23T09:13:31.509-0400"
}
},
{
"event" : "addConfiguration",
"timestamp" : "2020-08-23T09:16:48.113-0400",
"value" : {
"name" : "DefaultConfig_v8",
"assigned" : "2020-08-23T09:16:48.113-0400"
}
},
{
"event" : "addConfiguration",
"timestamp" : "2020-08-25T04:49:15.844-0400",
"value" : {
"name" : "DefaultConfig_v9",
"assigned" : "2020-08-25T04:49:15.844-0400"
}
},
{
"event" : "addConfiguration",
"timestamp" : "2020-08-26T07:39:08.457-0400",
"value" : {
"name" : "DefaultConfig_v10",
"assigned" : "2020-08-26T07:39:08.457-0400"
}
},
{
"event" : "addConfiguration",
"timestamp" : "2020-08-26T07:52:47.198-0400",
"value" : {
"name" : "DefaultConfig_v11",
"assigned" : "2020-08-26T07:52:47.198-0400"
}
},
{
"event" : "addConfiguration",
"timestamp" : "2020-08-26T07:59:18.607-0400",
"value" : {
"name" : "DefaultConfig_v12",
"assigned" : "2020-08-26T07:59:18.607-0400"
}
},
{
"event" : "addConfiguration",
"timestamp" : "2020-08-26T08:29:39.168-0400",
"value" : {
"name" : "DefaultConfig_v13",
"assigned" : "2020-08-26T08:29:39.168-0400"
}
},
{
"event" : "addConfiguration",
"timestamp" : "2020-09-07T07:00:55.234-0400",
"value" : {
"name" : "DefaultConfig_v14",
"assigned" : "2020-09-07T07:00:55.234-0400"
}
},
{
"event" : "addConfiguration",
"timestamp" : "2020-09-07T07:05:07.868-0400",
"value" : {
"name" : "DefaultConfig_v15",
"assigned" : "2020-09-07T07:05:07.868-0400"
}
},
{
"event" : "addConfiguration",
"timestamp" : "2020-09-07T07:09:30.521-0400",
"value" : {
"name" : "DefaultConfig_v16",
"assigned" : "2020-09-07T07:09:30.521-0400"
}
},
{
"event" : "addConfiguration",
"timestamp" : "2020-09-07T07:16:07.832-0400",
"value" : {
"name" : "DefaultConfig_v17",
"assigned" : "2020-09-07T07:16:07.832-0400"
}
},
{
"event" : "addConfiguration",
"timestamp" : "2020-09-07T07:56:03.905-0400",
"value" : {
"name" : "DefaultConfig_v18",
"assigned" : "2020-09-07T07:56:03.905-0400"
}
},
{
"event" : "addConfiguration",
"timestamp" : "2020-09-07T08:00:30.403-0400",
"value" : {
"name" : "DefaultConfig_v19",
"assigned" : "2020-09-07T08:00:30.403-0400"
}
},
{
"event" : "addConfiguration",
"timestamp" : "2020-09-07T08:01:53.021-0400",
"value" : {
"name" : "DefaultConfig_v20",
"assigned" : "2020-09-07T08:01:53.021-0400"
}
},
{
"event" : "addConfiguration",
"timestamp" : "2020-09-07T08:06:17.917-0400",
"value" : {
"name" : "DefaultConfig_v21",
"assigned" : "2020-09-07T08:06:17.917-0400"
}
},
{
"event" : "addConfiguration",
"timestamp" : "2020-09-07T08:11:03.919-0400",
"value" : {
"name" : "DefaultConfig_v22",
"assigned" : "2020-09-07T08:11:03.919-0400"
}
},
{
"event" : "addConfiguration",
"timestamp" : "2020-09-07T08:26:52.491-0400",
"value" : {
"name" : "DefaultConfig_v23",
"assigned" : "2020-09-07T08:26:52.491-0400"
}
},
{
"event" : "addConfiguration",
"timestamp" : "2020-09-07T08:29:30.268-0400",
"value" : {
"name" : "DefaultConfig_v24",
"assigned" : "2020-09-07T08:29:30.268-0400"
}
},
{
"event" : "addConfiguration",
"timestamp" : "2020-09-07T09:02:56.398-0400",
"value" : {
"name" : "DefaultConfig_v25",
"assigned" : "2020-09-07T09:02:56.398-0400"
}
},
{
"event" : "addConfiguration",
"timestamp" : "2020-09-07T10:31:55.161-0400",
"value" : {
"name" : "DefaultConfig_v26",
"assigned" : "2020-09-07T10:31:55.161-0400"
}
},
{
"event" : "addConfiguration",
"timestamp" : "2020-09-07T10:37:39.965-0400",
"value" : {
"name" : "DefaultConfig_v27",
"assigned" : "2020-09-07T10:37:39.965-0400"
}
},
{
"event" : "addConfiguration",
"timestamp" : "2020-09-07T11:26:43.617-0400",
"value" : {
"name" : "DefaultConfig_v28",
"assigned" : "2020-09-07T11:26:43.617-0400"
}
},
{
"event" : "addConfiguration",
"timestamp" : "2020-09-07T11:45:30.403-0400",
"value" : {
"name" : "DefaultConfig_v29",
"assigned" : "2020-09-07T11:45:30.403-0400"
}
},
{
"event" : "addConfiguration",
"timestamp" : "2020-09-07T11:54:06.187-0400",
"value" : {
"name" : "DefaultConfig_v30",
"assigned" : "2020-09-07T11:54:06.187-0400"
}
},
{
"event" : "addConfiguration",
"timestamp" : "2020-09-07T15:14:41.237-0400",
"value" : {
"name" : "DefaultConfig_v31",
"assigned" : "2020-09-07T15:14:41.237-0400"
}
},
{
"event" : "addConfiguration",
"timestamp" : "2020-09-07T15:15:32.302-0400",
"value" : {
"name" : "DefaultConfig_v32",
"assigned" : "2020-09-07T15:15:32.302-0400"
}
},
{
"event" : "addConfiguration",
"timestamp" : "2020-09-07T15:16:20.456-0400",
"value" : {
"name" : "DefaultConfig_v33",
"assigned" : "2020-09-07T15:16:20.456-0400"
}
},
{
"event" : "addConfiguration",
"timestamp" : "2020-09-07T15:17:14.871-0400",
"value" : {
"name" : "DefaultConfig_v34",
"assigned" : "2020-09-07T15:17:14.871-0400"
}
},
{
"event" : "addConfiguration",
"timestamp" : "2020-09-07T15:18:02.671-0400",
"value" : {
"name" : "DefaultConfig_v35",
"assigned" : "2020-09-07T15:18:02.671-0400"
}
},
{
"event" : "addConfiguration",
"timestamp" : "2020-09-07T15:18:43.376-0400",
"value" : {
"name" : "DefaultConfig_v36",
"assigned" : "2020-09-07T15:18:43.376-0400"
}
},
{
"event" : "addConfiguration",
"timestamp" : "2020-09-07T15:19:34.360-0400",
"value" : {
"name" : "DefaultConfig_v37",
"assigned" : "2020-09-07T15:19:34.360-0400"
}
},
{
"event" : "addConfiguration",
"timestamp" : "2020-09-07T15:20:24.918-0400",
"value" : {
"name" : "DefaultConfig_v38",
"assigned" : "2020-09-07T15:20:24.918-0400"
}
},
{
"event" : "addConfiguration",
"timestamp" : "2020-09-07T15:21:05.510-0400",
"value" : {
"name" : "DefaultConfig_v39",
"assigned" : "2020-09-07T15:21:05.510-0400"
}
},
{
"event" : "addConfiguration",
"timestamp" : "2020-09-07T15:21:50.592-0400",
"value" : {
"name" : "DefaultConfig_v40",
"assigned" : "2020-09-07T15:21:50.592-0400"
}
},
{
"event" : "addConfiguration",
"timestamp" : "2020-09-07T15:22:28.685-0400",
"value" : {
"name" : "DefaultConfig_v41",
"assigned" : "2020-09-07T15:22:28.685-0400"
}
}
],
"created" : "2020-07-21T14:27:46.212-0500"
},
"_id" : {
"$oid" : "600a2968e6ce45ea8422b119"
},
"collection" : "DataManagerSupervisorTable",
"aliases" : {
"active" : [

],
"history" : [

]
},
"runs" : [

],
"attachments" : [

],
"configtype" : "notprovided"
}