{
"ouid" : [
"563bd076d1df4d48a2d073e4"
],
"version" : {
"0" : [
"563bd076d1df4d48a2d073e4"
]
},
"configurations.name" : {
"notprovided" : [
"563bd076d1df4d48a2d073e4"
],
"FTBFConfig_v0" : [
"563bd076d1df4d48a2d073e4"
],
"FTBFConfig_v1" : [
"563bd076d1df4d48a2d073e4"
],
"FTBFConfig_v2" : [
"563bd076d1df4d48a2d073e4"
],
"FTBFConfig_v3" : [
"563bd076d1df4d48a2d073e4"
],
"FTBFConfig_v4" : [
"563bd076d1df4d48a2d073e4"
],
"FTBFConfig_v5" : [
"563bd076d1df4d48a2d073e4"
],
"FTBFConfig_v6" : [
"563bd076d1df4d48a2d073e4"
],
"FTBFConfig_v7" : [
"563bd076d1df4d48a2d073e4"
],
"FTBFConfig_v8" : [
"563bd076d1df4d48a2d073e4"
],
"FTBFConfig_v9" : [
"563bd076d1df4d48a2d073e4"
],
"FTBFConfig_v10" : [
"563bd076d1df4d48a2d073e4"
],
"FTBFConfig_v11" : [
"563bd076d1df4d48a2d073e4"
],
"FTBFConfig_v12" : [
"563bd076d1df4d48a2d073e4"
],
"FTBFConfig_v13" : [
"563bd076d1df4d48a2d073e4"
],
"FTBFConfig_v14" : [
"563bd076d1df4d48a2d073e4"
],
"FTBFConfig_v15" : [
"563bd076d1df4d48a2d073e4"
],
"FTBFConfig_v16" : [
"563bd076d1df4d48a2d073e4"
],
"FTBFConfig_v17" : [
"563bd076d1df4d48a2d073e4"
],
"FTBFConfig_v18" : [
"563bd076d1df4d48a2d073e4"
],
"FTBFConfig_v19" : [
"563bd076d1df4d48a2d073e4"
],
"FTBFConfig_v20" : [
"563bd076d1df4d48a2d073e4"
],
"FTBFConfig_v21" : [
"563bd076d1df4d48a2d073e4"
],
"FTBFConfig_v22" : [
"563bd076d1df4d48a2d073e4"
],
"FTBFConfig_v23" : [
"563bd076d1df4d48a2d073e4"
],
"FTBFConfig_v24" : [
"563bd076d1df4d48a2d073e4"
],
"FTBFConfig_v25" : [
"563bd076d1df4d48a2d073e4"
],
"FTBFConfig_v26" : [
"563bd076d1df4d48a2d073e4"
],
"FTBFConfig_v27" : [
"563bd076d1df4d48a2d073e4"
],
"FTBFConfig_v28" : [
"563bd076d1df4d48a2d073e4"
],
"FTBFConfig_v29" : [
"563bd076d1df4d48a2d073e4"
],
"FTBFConfig_v30" : [
"563bd076d1df4d48a2d073e4"
],
"FTBFConfig_v31" : [
"563bd076d1df4d48a2d073e4"
],
"FTBFConfig_v32" : [
"563bd076d1df4d48a2d073e4"
],
"FTBFConfig_v33" : [
"563bd076d1df4d48a2d073e4"
],
"FTBFConfig_v34" : [
"563bd076d1df4d48a2d073e4"
],
"FTBFConfig_v35" : [
"563bd076d1df4d48a2d073e4"
],
"FTBFConfig_v36" : [
"563bd076d1df4d48a2d073e4"
],
"FTBFConfig_v37" : [
"563bd076d1df4d48a2d073e4"
],
"FTBFConfig_v38" : [
"563bd076d1df4d48a2d073e4"
],
"FTBFConfig_v39" : [
"563bd076d1df4d48a2d073e4"
],
"FTBFConfig_v40" : [
"563bd076d1df4d48a2d073e4"
],
"FTBFConfig_v41" : [
"563bd076d1df4d48a2d073e4"
],
"FTBFConfig_v42" : [
"563bd076d1df4d48a2d073e4"
],
"FTBFConfig_v43" : [
"563bd076d1df4d48a2d073e4"
],
"FTBFConfig_v44" : [
"563bd076d1df4d48a2d073e4"
],
"FTBFConfig_v45" : [
"563bd076d1df4d48a2d073e4"
],
"FTBFConfig_v46" : [
"563bd076d1df4d48a2d073e4"
],
"FTBFConfig_v47" : [
"563bd076d1df4d48a2d073e4"
],
"FTBFConfig_v48" : [
"563bd076d1df4d48a2d073e4"
],
"FTBFConfig_v49" : [
"563bd076d1df4d48a2d073e4"
],
"FTBFConfig_v52" : [
"563bd076d1df4d48a2d073e4"
],
"FTBFConfig_v53" : [
"563bd076d1df4d48a2d073e4"
],
"FTBFConfig_v54" : [
"563bd076d1df4d48a2d073e4"
],
"FTBFConfig_v55" : [
"563bd076d1df4d48a2d073e4"
],
"FTBFConfig_v56" : [
"563bd076d1df4d48a2d073e4"
],
"FTBFConfig_v57" : [
"563bd076d1df4d48a2d073e4"
],
"FTBFConfig_v58" : [
"563bd076d1df4d48a2d073e4"
],
"FTBFConfig_v59" : [
"563bd076d1df4d48a2d073e4"
],
"FTBFConfig_v60" : [
"563bd076d1df4d48a2d073e4"
],
"FTBFConfig_v61" : [
"563bd076d1df4d48a2d073e4"
],
"FTBFConfig_v62" : [
"563bd076d1df4d48a2d073e4"
],
"FTBFConfig_v63" : [
"563bd076d1df4d48a2d073e4"
],
"FTBFConfig_v64" : [
"563bd076d1df4d48a2d073e4"
],
"FTBFConfig_v65" : [
"563bd076d1df4d48a2d073e4"
],
"FTBFConfig_v66" : [
"563bd076d1df4d48a2d073e4"
],
"FTBFConfig_v67" : [
"563bd076d1df4d48a2d073e4"
],
"FTBFConfig_v68" : [
"563bd076d1df4d48a2d073e4"
],
"FTBFConfig_v69" : [
"563bd076d1df4d48a2d073e4"
],
"FTBFConfig_v70" : [
"563bd076d1df4d48a2d073e4"
],
"FTBFConfigNim_v0" : [
"563bd076d1df4d48a2d073e4"
],
"FTBFConfigNim_v1" : [
"563bd076d1df4d48a2d073e4"
],
"FTBFConfigNim_v2" : [
"563bd076d1df4d48a2d073e4"
],
"FTBFConfigNim_v3" : [
"563bd076d1df4d48a2d073e4"
],
"FTBFConfigNim_v4" : [
"563bd076d1df4d48a2d073e4"
],
"FTBFConfigNim_v5" : [
"563bd076d1df4d48a2d073e4"
],
"FTBFConfigNim_v6" : [
"563bd076d1df4d48a2d073e4"
],
"FTBFConfigNim_v7" : [
"563bd076d1df4d48a2d073e4"
],
"FTBFConfigNim_v8" : [
"563bd076d1df4d48a2d073e4"
],
"FTBFConfigNim_v9" : [
"563bd076d1df4d48a2d073e4"
],
"FTBFConfigNim_v10" : [
"563bd076d1df4d48a2d073e4"
],
"FTBFConfigNim_v11" : [
"563bd076d1df4d48a2d073e4"
],
"FTBFConfigNim_v12" : [
"563bd076d1df4d48a2d073e4"
],
"FTBFConfigNim_v13" : [
"563bd076d1df4d48a2d073e4"
],
"FTBFConfigNim_v14" : [
"563bd076d1df4d48a2d073e4"
],
"FTBFConfigNim_v15" : [
"563bd076d1df4d48a2d073e4"
],
"FTBFConfigNim_v16" : [
"563bd076d1df4d48a2d073e4"
],
"FTBFConfigNim_v17" : [
"563bd076d1df4d48a2d073e4"
],
"FTBFConfigNim_v18" : [
"563bd076d1df4d48a2d073e4"
],
"FTBFConfigNim_v19" : [
"563bd076d1df4d48a2d073e4"
],
"FTBFConfigNim_v20" : [
"563bd076d1df4d48a2d073e4"
],
"FTBFConfigNim_v21" : [
"563bd076d1df4d48a2d073e4"
],
"FTBFConfigNim_v22" : [
"563bd076d1df4d48a2d073e4"
],
"FTBFConfigNim_v23" : [
"563bd076d1df4d48a2d073e4"
],
"FTBFConfigNim_v24" : [
"563bd076d1df4d48a2d073e4"
],
"FTBFConfigNim_v25" : [
"563bd076d1df4d48a2d073e4"
],
"FTBFConfigNim_v26" : [
"563bd076d1df4d48a2d073e4"
],
"FTBFConfigNim_v27" : [
"563bd076d1df4d48a2d073e4"
],
"FTBFConfigNim_v28" : [
"563bd076d1df4d48a2d073e4"
],
"FTBFConfigNim_v29" : [
"563bd076d1df4d48a2d073e4"
],
"FTBFConfig_v71" : [
"563bd076d1df4d48a2d073e4"
],
"FTBFConfig_v72" : [
"563bd076d1df4d48a2d073e4"
],
"FTBFConfig_v73" : [
"563bd076d1df4d48a2d073e4"
],
"FTBFConfig_v74" : [
"563bd076d1df4d48a2d073e4"
],
"FTBFConfig_v75" : [
"563bd076d1df4d48a2d073e4"
],
"FTBFConfig_v76" : [
"563bd076d1df4d48a2d073e4"
],
"FTBFConfig_v77" : [
"563bd076d1df4d48a2d073e4"
],
"FTBFConfig_v78" : [
"563bd076d1df4d48a2d073e4"
],
"FTBFConfig_v79" : [
"563bd076d1df4d48a2d073e4"
],
"FTBFConfig_v80" : [
"563bd076d1df4d48a2d073e4"
],
"FTBFConfig_v81" : [
"563bd076d1df4d48a2d073e4"
],
"FTBFConfig_v82" : [
"563bd076d1df4d48a2d073e4"
],
"FTBFConfig_v83" : [
"563bd076d1df4d48a2d073e4"
],
"FTBFConfig_v84" : [
"563bd076d1df4d48a2d073e4"
],
"FTBFConfig_v85" : [
"563bd076d1df4d48a2d073e4"
],
"FTBFConfig_v86" : [
"563bd076d1df4d48a2d073e4"
],
"FTBFConfig_v87" : [
"563bd076d1df4d48a2d073e4"
],
"FTBFConfig_v88" : [
"563bd076d1df4d48a2d073e4"
],
"FTBFConfig_v89" : [
"563bd076d1df4d48a2d073e4"
],
"FTBFConfig_v90" : [
"563bd076d1df4d48a2d073e4"
],
"FTBFConfig_v91" : [
"563bd076d1df4d48a2d073e4"
],
"FTBFConfig_v92" : [
"563bd076d1df4d48a2d073e4"
],
"FTBFConfig_v93" : [
"563bd076d1df4d48a2d073e4"
],
"FTBFConfig_v94" : [
"563bd076d1df4d48a2d073e4"
],
"FTBFConfig_v95" : [
"563bd076d1df4d48a2d073e4"
],
"FTBFConfig_v96" : [
"563bd076d1df4d48a2d073e4"
],
"FTBFConfig_v97" : [
"563bd076d1df4d48a2d073e4"
],
"FTBFConfig_v98" : [
"563bd076d1df4d48a2d073e4"
],
"FTBFConfig_v99" : [
"563bd076d1df4d48a2d073e4"
],
"FTBFConfig_v100" : [
"563bd076d1df4d48a2d073e4"
],
"FTBFConfig_v101" : [
"563bd076d1df4d48a2d073e4"
],
"FTBFConfig_v102" : [
"563bd076d1df4d48a2d073e4"
],
"FTBFConfig_v103" : [
"563bd076d1df4d48a2d073e4"
],
"FTBFConfig_v104" : [
"563bd076d1df4d48a2d073e4"
],
"FTBFConfig_v105" : [
"563bd076d1df4d48a2d073e4"
],
"FTBFConfig_v106" : [
"563bd076d1df4d48a2d073e4"
],
"FTBFConfig_v107" : [
"563bd076d1df4d48a2d073e4"
],
"FTBFConfig_v108" : [
"563bd076d1df4d48a2d073e4"
],
"FTBFConfig_v109" : [
"563bd076d1df4d48a2d073e4"
],
"FTBFConfig_v110" : [
"563bd076d1df4d48a2d073e4"
],
"FTBFConfig_v111" : [
"563bd076d1df4d48a2d073e4"
],
"FTBFConfig_v112" : [
"563bd076d1df4d48a2d073e4"
],
"FTBFConfig_v113" : [
"563bd076d1df4d48a2d073e4"
],
"FTBFConfig_v114" : [
"563bd076d1df4d48a2d073e4"
],
"FTBFConfig_v115" : [
"563bd076d1df4d48a2d073e4"
],
"FTBFConfig_v116" : [
"563bd076d1df4d48a2d073e4"
],
"FTBFConfig_v117" : [
"563bd076d1df4d48a2d073e4"
],
"FTBFConfig_v118" : [
"563bd076d1df4d48a2d073e4"
],
"FTBFConfig_v119" : [
"563bd076d1df4d48a2d073e4"
],
"FTBFConfig_v120" : [
"563bd076d1df4d48a2d073e4"
],
"FTBFConfig_v121" : [
"563bd076d1df4d48a2d073e4"
],
"FTBFConfig_v122" : [
"563bd076d1df4d48a2d073e4"
],
"FTBFConfig_v123" : [
"563bd076d1df4d48a2d073e4"
],
"FTBFConfig_v124" : [
"563bd076d1df4d48a2d073e4"
],
"FTBFConfig_v125" : [
"563bd076d1df4d48a2d073e4"
],
"FTBFConfig_v126" : [
"563bd076d1df4d48a2d073e4"
],
"FTBFConfig_v127" : [
"563bd076d1df4d48a2d073e4"
],
"FTBFConfig_v128" : [
"563bd076d1df4d48a2d073e4"
],
"FTBFConfig_v129" : [
"563bd076d1df4d48a2d073e4"
],
"FTBFConfig_v130" : [
"563bd076d1df4d48a2d073e4"
],
"FTBFConfig_v131" : [
"563bd076d1df4d48a2d073e4"
],
"FTBFConfig_v132" : [
"563bd076d1df4d48a2d073e4"
],
"FTBFConfig_v133" : [
"563bd076d1df4d48a2d073e4"
],
"FTBFConfig_v134" : [
"563bd076d1df4d48a2d073e4"
],
"FTBFConfig_v135" : [
"563bd076d1df4d48a2d073e4"
],
"FTBFConfig_v136" : [
"563bd076d1df4d48a2d073e4"
],
"FTBFConfig_v137" : [
"563bd076d1df4d48a2d073e4"
],
"FTBFConfig_v138" : [
"563bd076d1df4d48a2d073e4"
],
"FTBFConfig_v139" : [
"563bd076d1df4d48a2d073e4"
],
"FTBFConfig_v140" : [
"563bd076d1df4d48a2d073e4"
],
"FTBFConfig_v141" : [
"563bd076d1df4d48a2d073e4"
],
"FTBFConfig_v142" : [
"563bd076d1df4d48a2d073e4"
]
},
"entities.name" : {
"OTSROOT" : [
"563bd076d1df4d48a2d073e4"
]
},
"aliases.active.name" : {

},
"runs.name" : {

},
"configurations.assigned" : {
"notprovided" : [
"2017-11-08T15:56:02.937-0600"
],
"FTBFConfig_v0" : [
"2017-11-08T15:56:05.608-0600"
],
"FTBFConfig_v1" : [
"2017-11-09T09:56:30.186-0600"
],
"FTBFConfig_v2" : [
"2017-11-09T10:05:59.147-0600"
],
"FTBFConfig_v3" : [
"2017-11-09T10:37:10.703-0600"
],
"FTBFConfig_v4" : [
"2017-11-15T11:30:09.476-0600"
],
"FTBFConfig_v5" : [
"2017-11-15T11:54:56.265-0600"
],
"FTBFConfig_v6" : [
"2017-11-15T11:57:48.893-0600"
],
"FTBFConfig_v7" : [
"2017-11-15T12:42:31.296-0600"
],
"FTBFConfig_v8" : [
"2017-11-15T13:01:02.279-0600"
],
"FTBFConfig_v9" : [
"2017-11-15T13:02:55.679-0600"
],
"FTBFConfig_v10" : [
"2017-11-15T13:04:23.253-0600"
],
"FTBFConfig_v11" : [
"2017-11-15T13:07:50.751-0600"
],
"FTBFConfig_v12" : [
"2017-11-15T13:11:58.191-0600"
],
"FTBFConfig_v13" : [
"2017-11-15T13:13:52.122-0600"
],
"FTBFConfig_v14" : [
"2017-11-15T13:27:26.680-0600"
],
"FTBFConfig_v15" : [
"2017-11-15T13:35:46.088-0600"
],
"FTBFConfig_v16" : [
"2017-11-15T13:36:50.727-0600"
],
"FTBFConfig_v17" : [
"2017-11-15T15:33:29.264-0600"
],
"FTBFConfig_v18" : [
"2017-11-15T15:35:32.874-0600"
],
"FTBFConfig_v19" : [
"2017-11-15T15:38:01.719-0600"
],
"FTBFConfig_v20" : [
"2017-11-15T16:26:29.497-0600"
],
"FTBFConfig_v21" : [
"2017-11-16T09:22:30.520-0600"
],
"FTBFConfig_v22" : [
"2017-11-17T10:23:26.721-0600"
],
"FTBFConfig_v23" : [
"2017-11-17T17:26:44.247-0600"
],
"FTBFConfig_v24" : [
"2017-11-17T17:58:24.707-0600"
],
"FTBFConfig_v25" : [
"2017-11-17T18:24:44.396-0600"
],
"FTBFConfig_v26" : [
"2017-11-17T18:32:21.503-0600"
],
"FTBFConfig_v27" : [
"2017-11-17T18:43:28.640-0600"
],
"FTBFConfig_v28" : [
"2017-11-17T18:48:30.623-0600"
],
"FTBFConfig_v29" : [
"2017-11-20T14:48:29.709-0600"
],
"FTBFConfig_v30" : [
"2017-11-20T15:39:54.880-0600"
],
"FTBFConfig_v31" : [
"2017-11-20T16:41:00.858-0600"
],
"FTBFConfig_v32" : [
"2017-11-20T18:55:33.716-0600"
],
"FTBFConfig_v33" : [
"2017-11-20T18:57:29.014-0600"
],
"FTBFConfig_v34" : [
"2017-11-29T17:50:38.504-0600"
],
"FTBFConfig_v35" : [
"2017-11-29T18:00:31.344-0600"
],
"FTBFConfig_v36" : [
"2017-11-29T18:35:10.191-0600"
],
"FTBFConfig_v37" : [
"2017-12-01T09:36:16.428-0600"
],
"FTBFConfig_v38" : [
"2017-12-01T09:51:59.812-0600"
],
"FTBFConfig_v39" : [
"2017-12-01T11:51:57.022-0600"
],
"FTBFConfig_v40" : [
"2017-12-01T12:18:19.012-0600"
],
"FTBFConfig_v41" : [
"2017-12-01T12:21:01.156-0600"
],
"FTBFConfig_v42" : [
"2017-12-01T12:43:20.304-0600"
],
"FTBFConfig_v43" : [
"2017-12-01T12:57:57.593-0600"
],
"FTBFConfig_v44" : [
"2017-12-01T13:00:50.485-0600"
],
"FTBFConfig_v45" : [
"2017-12-01T13:25:47.375-0600"
],
"FTBFConfig_v46" : [
"2017-12-01T13:35:42.188-0600"
],
"FTBFConfig_v47" : [
"2017-12-01T14:00:50.455-0600"
],
"FTBFConfig_v48" : [
"2017-12-01T14:03:57.713-0600"
],
"FTBFConfig_v49" : [
"2017-12-01T15:31:57.923-0600"
],
"FTBFConfig_v52" : [
"2017-12-01T15:37:29.301-0600"
],
"FTBFConfig_v53" : [
"2017-12-01T15:40:57.445-0600"
],
"FTBFConfig_v54" : [
"2017-12-01T15:52:47.748-0600"
],
"FTBFConfig_v55" : [
"2017-12-01T15:54:32.894-0600"
],
"FTBFConfig_v56" : [
"2017-12-01T15:55:32.425-0600"
],
"FTBFConfig_v57" : [
"2017-12-01T15:56:38.221-0600"
],
"FTBFConfig_v58" : [
"2017-12-01T15:57:36.316-0600"
],
"FTBFConfig_v59" : [
"2017-12-01T15:58:28.214-0600"
],
"FTBFConfig_v60" : [
"2017-12-01T15:59:29.396-0600"
],
"FTBFConfig_v61" : [
"2017-12-01T16:19:39.155-0600"
],
"FTBFConfig_v62" : [
"2017-12-01T16:22:01.686-0600"
],
"FTBFConfig_v63" : [
"2017-12-01T16:31:22.310-0600"
],
"FTBFConfig_v64" : [
"2017-12-01T17:06:29.480-0600"
],
"FTBFConfig_v65" : [
"2017-12-01T17:32:41.643-0600"
],
"FTBFConfig_v66" : [
"2017-12-01T20:38:47.938-0600"
],
"FTBFConfig_v67" : [
"2017-12-01T21:24:59.418-0600"
],
"FTBFConfig_v68" : [
"2017-12-01T21:42:59.079-0600"
],
"FTBFConfig_v69" : [
"2017-12-01T21:44:57.720-0600"
],
"FTBFConfig_v70" : [
"2017-12-01T21:59:16.948-0600"
],
"FTBFConfigNim_v0" : [
"2017-12-01T22:00:03.649-0600"
],
"FTBFConfigNim_v1" : [
"2017-12-01T22:13:05.379-0600"
],
"FTBFConfigNim_v2" : [
"2017-12-01T22:15:52.618-0600"
],
"FTBFConfigNim_v3" : [
"2017-12-01T22:17:00.746-0600"
],
"FTBFConfigNim_v4" : [
"2017-12-01T22:19:03.706-0600"
],
"FTBFConfigNim_v5" : [
"2017-12-01T22:21:54.423-0600"
],
"FTBFConfigNim_v6" : [
"2017-12-01T22:23:10.573-0600"
],
"FTBFConfigNim_v7" : [
"2017-12-01T22:25:14.359-0600"
],
"FTBFConfigNim_v8" : [
"2017-12-01T22:27:01.920-0600"
],
"FTBFConfigNim_v9" : [
"2017-12-01T22:29:26.168-0600"
],
"FTBFConfigNim_v10" : [
"2017-12-01T22:52:31.284-0600"
],
"FTBFConfigNim_v11" : [
"2017-12-01T22:57:26.069-0600"
],
"FTBFConfigNim_v12" : [
"2017-12-01T23:00:04.336-0600"
],
"FTBFConfigNim_v13" : [
"2017-12-01T23:52:32.452-0600"
],
"FTBFConfigNim_v14" : [
"2017-12-01T23:58:06.838-0600"
],
"FTBFConfigNim_v15" : [
"2017-12-02T00:00:31.119-0600"
],
"FTBFConfigNim_v16" : [
"2017-12-02T00:13:06.257-0600"
],
"FTBFConfigNim_v17" : [
"2017-12-02T00:28:25.215-0600"
],
"FTBFConfigNim_v18" : [
"2017-12-02T00:29:31.264-0600"
],
"FTBFConfigNim_v19" : [
"2017-12-02T00:31:08.174-0600"
],
"FTBFConfigNim_v20" : [
"2017-12-02T00:57:24.251-0600"
],
"FTBFConfigNim_v21" : [
"2017-12-02T10:57:58.803-0600"
],
"FTBFConfigNim_v22" : [
"2017-12-02T11:08:14.976-0600"
],
"FTBFConfigNim_v23" : [
"2017-12-02T11:12:36.539-0600"
],
"FTBFConfigNim_v24" : [
"2017-12-02T11:18:39.440-0600"
],
"FTBFConfigNim_v25" : [
"2017-12-02T11:27:02.594-0600"
],
"FTBFConfigNim_v26" : [
"2017-12-02T11:38:33.635-0600"
],
"FTBFConfigNim_v27" : [
"2017-12-02T11:49:04.782-0600"
],
"FTBFConfigNim_v28" : [
"2017-12-02T11:55:06.245-0600"
],
"FTBFConfigNim_v29" : [
"2017-12-02T12:06:23.075-0600"
],
"FTBFConfig_v71" : [
"2017-12-02T12:24:11.708-0600"
],
"FTBFConfig_v72" : [
"2017-12-02T12:43:32.544-0600"
],
"FTBFConfig_v73" : [
"2017-12-02T13:55:32.136-0600"
],
"FTBFConfig_v74" : [
"2017-12-02T14:09:04.440-0600"
],
"FTBFConfig_v75" : [
"2017-12-02T14:12:15.276-0600"
],
"FTBFConfig_v76" : [
"2017-12-02T19:05:50.362-0600"
],
"FTBFConfig_v77" : [
"2017-12-02T19:12:10.243-0600"
],
"FTBFConfig_v78" : [
"2017-12-03T14:03:45.366-0600"
],
"FTBFConfig_v79" : [
"2017-12-03T14:09:03.574-0600"
],
"FTBFConfig_v80" : [
"2017-12-03T14:11:07.326-0600"
],
"FTBFConfig_v81" : [
"2017-12-03T14:22:30.349-0600"
],
"FTBFConfig_v82" : [
"2017-12-03T14:40:35.131-0600"
],
"FTBFConfig_v83" : [
"2017-12-03T14:45:02.490-0600"
],
"FTBFConfig_v84" : [
"2017-12-04T14:51:27.854-0600"
],
"FTBFConfig_v85" : [
"2017-12-04T14:55:41.027-0600"
],
"FTBFConfig_v86" : [
"2017-12-04T16:51:04.002-0600"
],
"FTBFConfig_v87" : [
"2017-12-04T16:56:44.615-0600"
],
"FTBFConfig_v88" : [
"2017-12-04T17:01:09.337-0600"
],
"FTBFConfig_v89" : [
"2017-12-04T17:03:54.431-0600"
],
"FTBFConfig_v90" : [
"2017-12-04T17:07:14.059-0600"
],
"FTBFConfig_v91" : [
"2017-12-04T17:09:23.174-0600"
],
"FTBFConfig_v92" : [
"2017-12-04T17:11:35.658-0600"
],
"FTBFConfig_v93" : [
"2017-12-04T21:05:18.271-0600"
],
"FTBFConfig_v94" : [
"2017-12-04T21:17:09.122-0600"
],
"FTBFConfig_v95" : [
"2017-12-04T21:41:14.849-0600"
],
"FTBFConfig_v96" : [
"2017-12-04T22:38:59.455-0600"
],
"FTBFConfig_v97" : [
"2017-12-04T23:01:09.962-0600"
],
"FTBFConfig_v98" : [
"2017-12-07T11:07:43.988-0600"
],
"FTBFConfig_v99" : [
"2017-12-07T11:49:56.659-0600"
],
"FTBFConfig_v100" : [
"2017-12-07T11:58:23.374-0600"
],
"FTBFConfig_v101" : [
"2017-12-08T13:30:45.484-0600"
],
"FTBFConfig_v102" : [
"2017-12-08T13:32:32.366-0600"
],
"FTBFConfig_v103" : [
"2017-12-12T11:03:02.152-0600"
],
"FTBFConfig_v104" : [
"2017-12-12T13:50:56.481-0600"
],
"FTBFConfig_v105" : [
"2017-12-12T15:25:02.506-0600"
],
"FTBFConfig_v106" : [
"2017-12-13T10:24:20.918-0600"
],
"FTBFConfig_v107" : [
"2017-12-13T10:26:59.672-0600"
],
"FTBFConfig_v108" : [
"2018-02-01T21:14:23.060-0600"
],
"FTBFConfig_v109" : [
"2018-02-01T21:21:00.175-0600"
],
"FTBFConfig_v110" : [
"2018-02-02T11:25:31.114-0600"
],
"FTBFConfig_v111" : [
"2018-02-02T11:37:09.949-0600"
],
"FTBFConfig_v112" : [
"2018-02-02T11:47:12.417-0600"
],
"FTBFConfig_v113" : [
"2018-02-02T11:53:33.667-0600"
],
"FTBFConfig_v114" : [
"2018-02-02T12:00:49.753-0600"
],
"FTBFConfig_v115" : [
"2018-02-02T12:27:11.233-0600"
],
"FTBFConfig_v116" : [
"2018-02-02T14:28:50.759-0600"
],
"FTBFConfig_v117" : [
"2018-02-02T14:30:17.075-0600"
],
"FTBFConfig_v118" : [
"2018-02-02T14:33:58.276-0600"
],
"FTBFConfig_v119" : [
"2018-02-02T14:36:24.891-0600"
],
"FTBFConfig_v120" : [
"2018-02-02T14:38:38.251-0600"
],
"FTBFConfig_v121" : [
"2018-02-02T14:41:47.565-0600"
],
"FTBFConfig_v122" : [
"2018-02-02T14:50:21.630-0600"
],
"FTBFConfig_v123" : [
"2018-02-02T14:52:54.435-0600"
],
"FTBFConfig_v124" : [
"2018-02-02T14:59:47.764-0600"
],
"FTBFConfig_v125" : [
"2018-02-02T15:04:05.879-0600"
],
"FTBFConfig_v126" : [
"2018-02-02T15:50:09.061-0600"
],
"FTBFConfig_v127" : [
"2018-02-02T15:51:28.544-0600"
],
"FTBFConfig_v128" : [
"2018-02-02T15:52:33.705-0600"
],
"FTBFConfig_v129" : [
"2018-02-02T16:02:42.594-0600"
],
"FTBFConfig_v130" : [
"2018-02-02T16:08:42.119-0600"
],
"FTBFConfig_v131" : [
"2018-02-02T16:11:27.929-0600"
],
"FTBFConfig_v132" : [
"2018-02-02T16:12:55.767-0600"
],
"FTBFConfig_v133" : [
"2018-02-02T16:14:26.376-0600"
],
"FTBFConfig_v134" : [
"2018-02-02T16:26:19.256-0600"
],
"FTBFConfig_v135" : [
"2018-02-02T16:27:06.375-0600"
],
"FTBFConfig_v136" : [
"2018-02-02T16:29:27.729-0600"
],
"FTBFConfig_v137" : [
"2018-02-02T16:31:38.202-0600"
],
"FTBFConfig_v138" : [
"2018-02-02T16:34:10.959-0600"
],
"FTBFConfig_v139" : [
"2018-02-02T17:39:27.008-0600"
],
"FTBFConfig_v140" : [
"2018-02-02T17:42:49.178-0600"
],
"FTBFConfig_v141" : [
"2018-02-02T17:47:34.340-0600"
],
"FTBFConfig_v142" : [
"2018-02-02T17:53:58.323-0600"
]
}
}