{
"ouid" : [
"250e6c240fd64ec785036965"
],
"version" : {
"0" : [
"250e6c240fd64ec785036965"
]
},
"configurations.name" : {
"notprovided" : [
"250e6c240fd64ec785036965"
],
"FTBFConfig_v0" : [
"250e6c240fd64ec785036965"
],
"FTBFConfig_v1" : [
"250e6c240fd64ec785036965"
],
"FTBFConfig_v2" : [
"250e6c240fd64ec785036965"
],
"FTBFConfig_v3" : [
"250e6c240fd64ec785036965"
],
"FTBFConfig_v4" : [
"250e6c240fd64ec785036965"
],
"FTBFConfig_v5" : [
"250e6c240fd64ec785036965"
],
"FTBFConfig_v6" : [
"250e6c240fd64ec785036965"
],
"FTBFConfig_v7" : [
"250e6c240fd64ec785036965"
],
"FTBFConfig_v8" : [
"250e6c240fd64ec785036965"
],
"FTBFConfig_v9" : [
"250e6c240fd64ec785036965"
],
"FTBFConfig_v10" : [
"250e6c240fd64ec785036965"
],
"FTBFConfig_v11" : [
"250e6c240fd64ec785036965"
],
"FTBFConfig_v12" : [
"250e6c240fd64ec785036965"
],
"FTBFConfig_v13" : [
"250e6c240fd64ec785036965"
],
"FTBFConfig_v14" : [
"250e6c240fd64ec785036965"
],
"FTBFConfig_v15" : [
"250e6c240fd64ec785036965"
],
"FTBFConfig_v16" : [
"250e6c240fd64ec785036965"
],
"FTBFConfig_v17" : [
"250e6c240fd64ec785036965"
],
"FTBFConfig_v18" : [
"250e6c240fd64ec785036965"
],
"FTBFConfig_v19" : [
"250e6c240fd64ec785036965"
],
"FTBFConfig_v20" : [
"250e6c240fd64ec785036965"
],
"FTBFConfig_v21" : [
"250e6c240fd64ec785036965"
],
"FTBFConfig_v22" : [
"250e6c240fd64ec785036965"
],
"FTBFConfig_v23" : [
"250e6c240fd64ec785036965"
],
"FTBFConfig_v24" : [
"250e6c240fd64ec785036965"
],
"FTBFConfig_v25" : [
"250e6c240fd64ec785036965"
],
"FTBFConfig_v26" : [
"250e6c240fd64ec785036965"
],
"FTBFConfig_v27" : [
"250e6c240fd64ec785036965"
],
"FTBFConfig_v28" : [
"250e6c240fd64ec785036965"
],
"FTBFConfig_v29" : [
"250e6c240fd64ec785036965"
],
"FTBFConfig_v30" : [
"250e6c240fd64ec785036965"
],
"FTBFConfig_v31" : [
"250e6c240fd64ec785036965"
],
"FTBFConfig_v32" : [
"250e6c240fd64ec785036965"
],
"FTBFConfig_v33" : [
"250e6c240fd64ec785036965"
],
"FTBFConfig_v34" : [
"250e6c240fd64ec785036965"
],
"FTBFConfig_v35" : [
"250e6c240fd64ec785036965"
],
"FTBFConfig_v36" : [
"250e6c240fd64ec785036965"
],
"FTBFConfig_v37" : [
"250e6c240fd64ec785036965"
],
"FTBFConfig_v38" : [
"250e6c240fd64ec785036965"
],
"FTBFConfig_v39" : [
"250e6c240fd64ec785036965"
],
"FTBFConfig_v40" : [
"250e6c240fd64ec785036965"
],
"FTBFConfig_v41" : [
"250e6c240fd64ec785036965"
],
"FTBFConfig_v42" : [
"250e6c240fd64ec785036965"
],
"FTBFConfig_v43" : [
"250e6c240fd64ec785036965"
],
"FTBFConfig_v44" : [
"250e6c240fd64ec785036965"
],
"FTBFConfig_v45" : [
"250e6c240fd64ec785036965"
],
"FTBFConfig_v46" : [
"250e6c240fd64ec785036965"
],
"FTBFConfig_v47" : [
"250e6c240fd64ec785036965"
],
"FTBFConfig_v48" : [
"250e6c240fd64ec785036965"
],
"FTBFConfig_v49" : [
"250e6c240fd64ec785036965"
],
"FTBFConfig_v51" : [
"250e6c240fd64ec785036965"
],
"FTBFConfig_v52" : [
"250e6c240fd64ec785036965"
],
"FTBFConfig_v53" : [
"250e6c240fd64ec785036965"
],
"FTBFConfig_v54" : [
"250e6c240fd64ec785036965"
],
"FTBFConfig_v55" : [
"250e6c240fd64ec785036965"
],
"FTBFConfig_v56" : [
"250e6c240fd64ec785036965"
],
"FTBFConfig_v57" : [
"250e6c240fd64ec785036965"
],
"FTBFConfig_v58" : [
"250e6c240fd64ec785036965"
],
"FTBFConfig_v59" : [
"250e6c240fd64ec785036965"
],
"FTBFConfig_v60" : [
"250e6c240fd64ec785036965"
],
"FTBFConfig_v61" : [
"250e6c240fd64ec785036965"
],
"FTBFConfig_v62" : [
"250e6c240fd64ec785036965"
],
"FTBFConfig_v63" : [
"250e6c240fd64ec785036965"
],
"FTBFConfig_v64" : [
"250e6c240fd64ec785036965"
],
"FTBFConfig_v65" : [
"250e6c240fd64ec785036965"
],
"FTBFConfig_v66" : [
"250e6c240fd64ec785036965"
],
"FTBFConfig_v67" : [
"250e6c240fd64ec785036965"
],
"FTBFConfig_v68" : [
"250e6c240fd64ec785036965"
],
"FTBFConfig_v69" : [
"250e6c240fd64ec785036965"
],
"FTBFConfig_v70" : [
"250e6c240fd64ec785036965"
],
"FTBFConfigNim_v0" : [
"250e6c240fd64ec785036965"
],
"FTBFConfigNim_v1" : [
"250e6c240fd64ec785036965"
],
"FTBFConfigNim_v2" : [
"250e6c240fd64ec785036965"
],
"FTBFConfigNim_v3" : [
"250e6c240fd64ec785036965"
],
"FTBFConfigNim_v4" : [
"250e6c240fd64ec785036965"
],
"FTBFConfigNim_v5" : [
"250e6c240fd64ec785036965"
],
"FTBFConfigNim_v6" : [
"250e6c240fd64ec785036965"
],
"FTBFConfigNim_v7" : [
"250e6c240fd64ec785036965"
],
"FTBFConfigNim_v8" : [
"250e6c240fd64ec785036965"
],
"FTBFConfigNim_v9" : [
"250e6c240fd64ec785036965"
],
"FTBFConfigNim_v10" : [
"250e6c240fd64ec785036965"
],
"FTBFConfigNim_v11" : [
"250e6c240fd64ec785036965"
],
"FTBFConfigNim_v12" : [
"250e6c240fd64ec785036965"
],
"FTBFConfigNim_v13" : [
"250e6c240fd64ec785036965"
],
"FTBFConfigNim_v14" : [
"250e6c240fd64ec785036965"
],
"FTBFConfigNim_v15" : [
"250e6c240fd64ec785036965"
],
"FTBFConfigNim_v16" : [
"250e6c240fd64ec785036965"
],
"FTBFConfigNim_v17" : [
"250e6c240fd64ec785036965"
],
"FTBFConfigNim_v18" : [
"250e6c240fd64ec785036965"
],
"FTBFConfigNim_v19" : [
"250e6c240fd64ec785036965"
],
"FTBFConfigNim_v20" : [
"250e6c240fd64ec785036965"
],
"FTBFConfigNim_v21" : [
"250e6c240fd64ec785036965"
],
"FTBFConfigNim_v22" : [
"250e6c240fd64ec785036965"
],
"FTBFConfigNim_v23" : [
"250e6c240fd64ec785036965"
],
"FTBFConfigNim_v24" : [
"250e6c240fd64ec785036965"
],
"FTBFConfigNim_v25" : [
"250e6c240fd64ec785036965"
],
"FTBFConfigNim_v26" : [
"250e6c240fd64ec785036965"
],
"FTBFConfigNim_v27" : [
"250e6c240fd64ec785036965"
],
"FTBFConfigNim_v28" : [
"250e6c240fd64ec785036965"
],
"FTBFConfigNim_v29" : [
"250e6c240fd64ec785036965"
],
"FTBFConfig_v71" : [
"250e6c240fd64ec785036965"
],
"FTBFConfig_v72" : [
"250e6c240fd64ec785036965"
],
"FTBFConfig_v73" : [
"250e6c240fd64ec785036965"
],
"FTBFConfig_v74" : [
"250e6c240fd64ec785036965"
],
"FTBFConfig_v75" : [
"250e6c240fd64ec785036965"
],
"FTBFConfig_v76" : [
"250e6c240fd64ec785036965"
],
"FTBFConfig_v77" : [
"250e6c240fd64ec785036965"
],
"FTBFConfig_v78" : [
"250e6c240fd64ec785036965"
],
"FTBFConfig_v79" : [
"250e6c240fd64ec785036965"
],
"FTBFConfig_v80" : [
"250e6c240fd64ec785036965"
],
"FTBFConfig_v81" : [
"250e6c240fd64ec785036965"
],
"FTBFConfig_v82" : [
"250e6c240fd64ec785036965"
],
"FTBFConfig_v83" : [
"250e6c240fd64ec785036965"
],
"FTBFConfig_v84" : [
"250e6c240fd64ec785036965"
],
"FTBFConfig_v85" : [
"250e6c240fd64ec785036965"
],
"FTBFConfig_v86" : [
"250e6c240fd64ec785036965"
],
"FTBFConfig_v87" : [
"250e6c240fd64ec785036965"
],
"FTBFConfig_v88" : [
"250e6c240fd64ec785036965"
],
"FTBFConfig_v89" : [
"250e6c240fd64ec785036965"
],
"FTBFConfig_v90" : [
"250e6c240fd64ec785036965"
],
"FTBFConfig_v91" : [
"250e6c240fd64ec785036965"
],
"FTBFConfig_v92" : [
"250e6c240fd64ec785036965"
],
"FTBFConfig_v93" : [
"250e6c240fd64ec785036965"
],
"FTBFConfig_v94" : [
"250e6c240fd64ec785036965"
],
"FTBFConfig_v95" : [
"250e6c240fd64ec785036965"
],
"FTBFConfig_v96" : [
"250e6c240fd64ec785036965"
],
"FTBFConfig_v97" : [
"250e6c240fd64ec785036965"
],
"FTBFConfig_v98" : [
"250e6c240fd64ec785036965"
],
"FTBFConfig_v99" : [
"250e6c240fd64ec785036965"
],
"FTBFConfig_v100" : [
"250e6c240fd64ec785036965"
],
"FTBFConfig_v101" : [
"250e6c240fd64ec785036965"
],
"FTBFConfig_v102" : [
"250e6c240fd64ec785036965"
],
"FTBFConfig_v103" : [
"250e6c240fd64ec785036965"
],
"FTBFConfig_v104" : [
"250e6c240fd64ec785036965"
],
"FTBFConfig_v105" : [
"250e6c240fd64ec785036965"
],
"FTBFConfig_v106" : [
"250e6c240fd64ec785036965"
],
"FTBFConfig_v107" : [
"250e6c240fd64ec785036965"
],
"FTBFConfig_v108" : [
"250e6c240fd64ec785036965"
],
"FTBFConfig_v109" : [
"250e6c240fd64ec785036965"
],
"FTBFConfig_v110" : [
"250e6c240fd64ec785036965"
],
"FTBFConfig_v111" : [
"250e6c240fd64ec785036965"
],
"FTBFConfig_v112" : [
"250e6c240fd64ec785036965"
],
"FTBFConfig_v113" : [
"250e6c240fd64ec785036965"
],
"FTBFConfig_v114" : [
"250e6c240fd64ec785036965"
],
"FTBFConfig_v115" : [
"250e6c240fd64ec785036965"
],
"FTBFConfig_v116" : [
"250e6c240fd64ec785036965"
],
"FTBFConfig_v117" : [
"250e6c240fd64ec785036965"
],
"FTBFConfig_v118" : [
"250e6c240fd64ec785036965"
],
"FTBFConfig_v119" : [
"250e6c240fd64ec785036965"
],
"FTBFConfig_v120" : [
"250e6c240fd64ec785036965"
],
"FTBFConfig_v121" : [
"250e6c240fd64ec785036965"
],
"FTBFConfig_v122" : [
"250e6c240fd64ec785036965"
],
"FTBFConfig_v123" : [
"250e6c240fd64ec785036965"
],
"FTBFConfig_v124" : [
"250e6c240fd64ec785036965"
],
"FTBFConfig_v125" : [
"250e6c240fd64ec785036965"
],
"FTBFConfig_v126" : [
"250e6c240fd64ec785036965"
],
"FTBFConfig_v127" : [
"250e6c240fd64ec785036965"
],
"FTBFConfig_v128" : [
"250e6c240fd64ec785036965"
],
"FTBFConfig_v129" : [
"250e6c240fd64ec785036965"
],
"FTBFConfig_v130" : [
"250e6c240fd64ec785036965"
],
"FTBFConfig_v131" : [
"250e6c240fd64ec785036965"
],
"FTBFConfig_v132" : [
"250e6c240fd64ec785036965"
],
"FTBFConfig_v133" : [
"250e6c240fd64ec785036965"
],
"FTBFConfig_v134" : [
"250e6c240fd64ec785036965"
],
"FTBFConfig_v135" : [
"250e6c240fd64ec785036965"
],
"FTBFConfig_v136" : [
"250e6c240fd64ec785036965"
],
"FTBFConfig_v137" : [
"250e6c240fd64ec785036965"
],
"FTBFConfig_v138" : [
"250e6c240fd64ec785036965"
],
"FTBFConfig_v139" : [
"250e6c240fd64ec785036965"
],
"FTBFConfig_v140" : [
"250e6c240fd64ec785036965"
],
"FTBFConfig_v141" : [
"250e6c240fd64ec785036965"
],
"FTBFConfig_v142" : [
"250e6c240fd64ec785036965"
]
},
"entities.name" : {
"OTSROOT" : [
"250e6c240fd64ec785036965"
]
},
"aliases.active.name" : {

},
"runs.name" : {

},
"configurations.assigned" : {
"notprovided" : [
"2017-11-08T15:56:02.659-0600"
],
"FTBFConfig_v0" : [
"2017-11-08T15:56:05.277-0600"
],
"FTBFConfig_v1" : [
"2017-11-09T09:56:29.756-0600"
],
"FTBFConfig_v2" : [
"2017-11-09T10:05:58.701-0600"
],
"FTBFConfig_v3" : [
"2017-11-09T10:37:10.274-0600"
],
"FTBFConfig_v4" : [
"2017-11-15T11:30:09.020-0600"
],
"FTBFConfig_v5" : [
"2017-11-15T11:54:55.791-0600"
],
"FTBFConfig_v6" : [
"2017-11-15T11:57:48.417-0600"
],
"FTBFConfig_v7" : [
"2017-11-15T12:42:30.820-0600"
],
"FTBFConfig_v8" : [
"2017-11-15T13:01:01.791-0600"
],
"FTBFConfig_v9" : [
"2017-11-15T13:02:55.161-0600"
],
"FTBFConfig_v10" : [
"2017-11-15T13:04:22.758-0600"
],
"FTBFConfig_v11" : [
"2017-11-15T13:07:50.233-0600"
],
"FTBFConfig_v12" : [
"2017-11-15T13:11:57.649-0600"
],
"FTBFConfig_v13" : [
"2017-11-15T13:13:51.614-0600"
],
"FTBFConfig_v14" : [
"2017-11-15T13:27:25.132-0600"
],
"FTBFConfig_v15" : [
"2017-11-15T13:35:45.566-0600"
],
"FTBFConfig_v16" : [
"2017-11-15T13:36:50.200-0600"
],
"FTBFConfig_v17" : [
"2017-11-15T15:33:28.730-0600"
],
"FTBFConfig_v18" : [
"2017-11-15T15:35:32.331-0600"
],
"FTBFConfig_v19" : [
"2017-11-15T15:38:01.174-0600"
],
"FTBFConfig_v20" : [
"2017-11-15T16:26:28.813-0600"
],
"FTBFConfig_v21" : [
"2017-11-16T09:22:29.962-0600"
],
"FTBFConfig_v22" : [
"2017-11-17T10:23:26.148-0600"
],
"FTBFConfig_v23" : [
"2017-11-17T17:26:43.666-0600"
],
"FTBFConfig_v24" : [
"2017-11-17T17:58:24.112-0600"
],
"FTBFConfig_v25" : [
"2017-11-17T18:24:43.791-0600"
],
"FTBFConfig_v26" : [
"2017-11-17T18:32:20.668-0600"
],
"FTBFConfig_v27" : [
"2017-11-17T18:43:27.794-0600"
],
"FTBFConfig_v28" : [
"2017-11-17T18:48:29.796-0600"
],
"FTBFConfig_v29" : [
"2017-11-20T14:48:29.021-0600"
],
"FTBFConfig_v30" : [
"2017-11-20T15:39:54.259-0600"
],
"FTBFConfig_v31" : [
"2017-11-20T16:41:00.250-0600"
],
"FTBFConfig_v32" : [
"2017-11-20T18:55:33.053-0600"
],
"FTBFConfig_v33" : [
"2017-11-20T18:57:28.351-0600"
],
"FTBFConfig_v34" : [
"2017-11-29T17:50:37.830-0600"
],
"FTBFConfig_v35" : [
"2017-11-29T18:00:30.688-0600"
],
"FTBFConfig_v36" : [
"2017-11-29T18:35:09.548-0600"
],
"FTBFConfig_v37" : [
"2017-12-01T09:36:15.744-0600"
],
"FTBFConfig_v38" : [
"2017-12-01T09:51:59.105-0600"
],
"FTBFConfig_v39" : [
"2017-12-01T11:51:56.333-0600"
],
"FTBFConfig_v40" : [
"2017-12-01T12:18:18.308-0600"
],
"FTBFConfig_v41" : [
"2017-12-01T12:21:00.430-0600"
],
"FTBFConfig_v42" : [
"2017-12-01T12:43:19.571-0600"
],
"FTBFConfig_v43" : [
"2017-12-01T12:57:56.782-0600"
],
"FTBFConfig_v44" : [
"2017-12-01T13:00:49.398-0600"
],
"FTBFConfig_v45" : [
"2017-12-01T13:25:46.415-0600"
],
"FTBFConfig_v46" : [
"2017-12-01T13:35:41.305-0600"
],
"FTBFConfig_v47" : [
"2017-12-01T14:00:49.698-0600"
],
"FTBFConfig_v48" : [
"2017-12-01T14:03:56.948-0600"
],
"FTBFConfig_v49" : [
"2017-12-01T15:31:57.144-0600"
],
"FTBFConfig_v51" : [
"2017-12-01T15:37:03.556-0600"
],
"FTBFConfig_v52" : [
"2017-12-01T15:37:28.089-0600"
],
"FTBFConfig_v53" : [
"2017-12-01T15:40:56.668-0600"
],
"FTBFConfig_v54" : [
"2017-12-01T15:52:46.978-0600"
],
"FTBFConfig_v55" : [
"2017-12-01T15:54:32.107-0600"
],
"FTBFConfig_v56" : [
"2017-12-01T15:55:31.631-0600"
],
"FTBFConfig_v57" : [
"2017-12-01T15:56:37.426-0600"
],
"FTBFConfig_v58" : [
"2017-12-01T15:57:35.506-0600"
],
"FTBFConfig_v59" : [
"2017-12-01T15:58:27.395-0600"
],
"FTBFConfig_v60" : [
"2017-12-01T15:59:28.584-0600"
],
"FTBFConfig_v61" : [
"2017-12-01T16:19:38.309-0600"
],
"FTBFConfig_v62" : [
"2017-12-01T16:22:00.860-0600"
],
"FTBFConfig_v63" : [
"2017-12-01T16:31:21.460-0600"
],
"FTBFConfig_v64" : [
"2017-12-01T17:06:28.279-0600"
],
"FTBFConfig_v65" : [
"2017-12-01T17:32:40.681-0600"
],
"FTBFConfig_v66" : [
"2017-12-01T20:38:47.082-0600"
],
"FTBFConfig_v67" : [
"2017-12-01T21:24:58.548-0600"
],
"FTBFConfig_v68" : [
"2017-12-01T21:42:58.199-0600"
],
"FTBFConfig_v69" : [
"2017-12-01T21:44:56.828-0600"
],
"FTBFConfig_v70" : [
"2017-12-01T21:59:16.038-0600"
],
"FTBFConfigNim_v0" : [
"2017-12-01T22:00:02.748-0600"
],
"FTBFConfigNim_v1" : [
"2017-12-01T22:13:04.477-0600"
],
"FTBFConfigNim_v2" : [
"2017-12-01T22:15:51.691-0600"
],
"FTBFConfigNim_v3" : [
"2017-12-01T22:16:59.751-0600"
],
"FTBFConfigNim_v4" : [
"2017-12-01T22:19:02.754-0600"
],
"FTBFConfigNim_v5" : [
"2017-12-01T22:21:53.458-0600"
],
"FTBFConfigNim_v6" : [
"2017-12-01T22:23:09.612-0600"
],
"FTBFConfigNim_v7" : [
"2017-12-01T22:25:13.391-0600"
],
"FTBFConfigNim_v8" : [
"2017-12-01T22:27:00.964-0600"
],
"FTBFConfigNim_v9" : [
"2017-12-01T22:29:25.209-0600"
],
"FTBFConfigNim_v10" : [
"2017-12-01T22:52:30.302-0600"
],
"FTBFConfigNim_v11" : [
"2017-12-01T22:57:25.060-0600"
],
"FTBFConfigNim_v12" : [
"2017-12-01T23:00:03.358-0600"
],
"FTBFConfigNim_v13" : [
"2017-12-01T23:52:31.467-0600"
],
"FTBFConfigNim_v14" : [
"2017-12-01T23:58:05.862-0600"
],
"FTBFConfigNim_v15" : [
"2017-12-02T00:00:30.143-0600"
],
"FTBFConfigNim_v16" : [
"2017-12-02T00:13:05.256-0600"
],
"FTBFConfigNim_v17" : [
"2017-12-02T00:28:24.233-0600"
],
"FTBFConfigNim_v18" : [
"2017-12-02T00:29:30.267-0600"
],
"FTBFConfigNim_v19" : [
"2017-12-02T00:31:07.006-0600"
],
"FTBFConfigNim_v20" : [
"2017-12-02T00:57:23.245-0600"
],
"FTBFConfigNim_v21" : [
"2017-12-02T10:57:57.792-0600"
],
"FTBFConfigNim_v22" : [
"2017-12-02T11:08:13.954-0600"
],
"FTBFConfigNim_v23" : [
"2017-12-02T11:12:35.513-0600"
],
"FTBFConfigNim_v24" : [
"2017-12-02T11:18:38.329-0600"
],
"FTBFConfigNim_v25" : [
"2017-12-02T11:27:01.563-0600"
],
"FTBFConfigNim_v26" : [
"2017-12-02T11:38:32.601-0600"
],
"FTBFConfigNim_v27" : [
"2017-12-02T11:49:03.727-0600"
],
"FTBFConfigNim_v28" : [
"2017-12-02T11:55:05.189-0600"
],
"FTBFConfigNim_v29" : [
"2017-12-02T12:06:22.009-0600"
],
"FTBFConfig_v71" : [
"2017-12-02T12:24:10.648-0600"
],
"FTBFConfig_v72" : [
"2017-12-02T12:43:31.435-0600"
],
"FTBFConfig_v73" : [
"2017-12-02T13:55:31.017-0600"
],
"FTBFConfig_v74" : [
"2017-12-02T14:09:03.302-0600"
],
"FTBFConfig_v75" : [
"2017-12-02T14:12:14.144-0600"
],
"FTBFConfig_v76" : [
"2017-12-02T19:05:49.258-0600"
],
"FTBFConfig_v77" : [
"2017-12-02T19:12:09.071-0600"
],
"FTBFConfig_v78" : [
"2017-12-03T14:03:44.252-0600"
],
"FTBFConfig_v79" : [
"2017-12-03T14:09:02.426-0600"
],
"FTBFConfig_v80" : [
"2017-12-03T14:11:06.188-0600"
],
"FTBFConfig_v81" : [
"2017-12-03T14:22:29.213-0600"
],
"FTBFConfig_v82" : [
"2017-12-03T14:40:33.973-0600"
],
"FTBFConfig_v83" : [
"2017-12-03T14:45:01.277-0600"
],
"FTBFConfig_v84" : [
"2017-12-04T14:51:26.720-0600"
],
"FTBFConfig_v85" : [
"2017-12-04T14:55:39.863-0600"
],
"FTBFConfig_v86" : [
"2017-12-04T16:51:02.843-0600"
],
"FTBFConfig_v87" : [
"2017-12-04T16:56:43.460-0600"
],
"FTBFConfig_v88" : [
"2017-12-04T17:01:08.155-0600"
],
"FTBFConfig_v89" : [
"2017-12-04T17:03:53.244-0600"
],
"FTBFConfig_v90" : [
"2017-12-04T17:07:12.864-0600"
],
"FTBFConfig_v91" : [
"2017-12-04T17:09:21.978-0600"
],
"FTBFConfig_v92" : [
"2017-12-04T17:11:34.436-0600"
],
"FTBFConfig_v93" : [
"2017-12-04T21:05:17.051-0600"
],
"FTBFConfig_v94" : [
"2017-12-04T21:17:07.898-0600"
],
"FTBFConfig_v95" : [
"2017-12-04T21:41:13.631-0600"
],
"FTBFConfig_v96" : [
"2017-12-04T22:38:58.238-0600"
],
"FTBFConfig_v97" : [
"2017-12-04T23:01:08.751-0600"
],
"FTBFConfig_v98" : [
"2017-12-07T11:07:42.769-0600"
],
"FTBFConfig_v99" : [
"2017-12-07T11:49:55.446-0600"
],
"FTBFConfig_v100" : [
"2017-12-07T11:58:22.161-0600"
],
"FTBFConfig_v101" : [
"2017-12-08T13:30:44.237-0600"
],
"FTBFConfig_v102" : [
"2017-12-08T13:32:31.132-0600"
],
"FTBFConfig_v103" : [
"2017-12-12T11:03:00.903-0600"
],
"FTBFConfig_v104" : [
"2017-12-12T13:50:55.190-0600"
],
"FTBFConfig_v105" : [
"2017-12-12T15:25:01.169-0600"
],
"FTBFConfig_v106" : [
"2017-12-13T10:24:19.648-0600"
],
"FTBFConfig_v107" : [
"2017-12-13T10:26:58.408-0600"
],
"FTBFConfig_v108" : [
"2018-02-01T21:14:21.722-0600"
],
"FTBFConfig_v109" : [
"2018-02-01T21:20:58.815-0600"
],
"FTBFConfig_v110" : [
"2018-02-02T11:25:29.762-0600"
],
"FTBFConfig_v111" : [
"2018-02-02T11:37:08.593-0600"
],
"FTBFConfig_v112" : [
"2018-02-02T11:47:11.038-0600"
],
"FTBFConfig_v113" : [
"2018-02-02T11:53:32.285-0600"
],
"FTBFConfig_v114" : [
"2018-02-02T12:00:48.344-0600"
],
"FTBFConfig_v115" : [
"2018-02-02T12:27:09.842-0600"
],
"FTBFConfig_v116" : [
"2018-02-02T14:28:49.363-0600"
],
"FTBFConfig_v117" : [
"2018-02-02T14:30:15.678-0600"
],
"FTBFConfig_v118" : [
"2018-02-02T14:33:56.879-0600"
],
"FTBFConfig_v119" : [
"2018-02-02T14:36:23.493-0600"
],
"FTBFConfig_v120" : [
"2018-02-02T14:38:36.848-0600"
],
"FTBFConfig_v121" : [
"2018-02-02T14:41:46.162-0600"
],
"FTBFConfig_v122" : [
"2018-02-02T14:50:20.170-0600"
],
"FTBFConfig_v123" : [
"2018-02-02T14:52:53.018-0600"
],
"FTBFConfig_v124" : [
"2018-02-02T14:59:46.339-0600"
],
"FTBFConfig_v125" : [
"2018-02-02T15:04:04.435-0600"
],
"FTBFConfig_v126" : [
"2018-02-02T15:50:07.635-0600"
],
"FTBFConfig_v127" : [
"2018-02-02T15:51:27.100-0600"
],
"FTBFConfig_v128" : [
"2018-02-02T15:52:32.262-0600"
],
"FTBFConfig_v129" : [
"2018-02-02T16:02:41.136-0600"
],
"FTBFConfig_v130" : [
"2018-02-02T16:08:40.652-0600"
],
"FTBFConfig_v131" : [
"2018-02-02T16:11:26.439-0600"
],
"FTBFConfig_v132" : [
"2018-02-02T16:12:54.291-0600"
],
"FTBFConfig_v133" : [
"2018-02-02T16:14:24.854-0600"
],
"FTBFConfig_v134" : [
"2018-02-02T16:26:17.772-0600"
],
"FTBFConfig_v135" : [
"2018-02-02T16:27:04.883-0600"
],
"FTBFConfig_v136" : [
"2018-02-02T16:29:26.192-0600"
],
"FTBFConfig_v137" : [
"2018-02-02T16:31:36.698-0600"
],
"FTBFConfig_v138" : [
"2018-02-02T16:34:09.428-0600"
],
"FTBFConfig_v139" : [
"2018-02-02T17:39:25.456-0600"
],
"FTBFConfig_v140" : [
"2018-02-02T17:42:47.623-0600"
],
"FTBFConfig_v141" : [
"2018-02-02T17:47:32.788-0600"
],
"FTBFConfig_v142" : [
"2018-02-02T17:53:56.775-0600"
]
}
}