{
"ouid" : [
"346f0a77d8014912af95200b",
"bdc2761bbebe478381bb0bb5"
],
"version" : {
"2" : [
"346f0a77d8014912af95200b"
],
"3" : [
"bdc2761bbebe478381bb0bb5"
]
},
"configurations.name" : {
"notprovided" : [
"346f0a77d8014912af95200b",
"bdc2761bbebe478381bb0bb5"
],
"DefaultContext_v2" : [
"346f0a77d8014912af95200b"
],
"DefaultContext_v3" : [
"346f0a77d8014912af95200b"
],
"DefaultContext_v4" : [
"346f0a77d8014912af95200b"
],
"DefaultContext_v5" : [
"346f0a77d8014912af95200b"
],
"DefaultContext_v6" : [
"346f0a77d8014912af95200b"
],
"DefaultContext_v7" : [
"346f0a77d8014912af95200b"
],
"DefaultContext_v8" : [
"346f0a77d8014912af95200b"
],
"DefaultContext_v9" : [
"346f0a77d8014912af95200b"
],
"DefaultContext_v10" : [
"346f0a77d8014912af95200b"
],
"DefaultContext_v11" : [
"346f0a77d8014912af95200b"
],
"DefaultConfig_v17" : [
"bdc2761bbebe478381bb0bb5"
],
"DefaultContext_v12" : [
"bdc2761bbebe478381bb0bb5"
],
"DefaultContext_v13" : [
"bdc2761bbebe478381bb0bb5"
]
},
"entities.name" : {
"OTSROOT" : [
"346f0a77d8014912af95200b",
"bdc2761bbebe478381bb0bb5"
]
},
"aliases.active.name" : {

},
"runs.name" : {

},
"configurations.assigned" : {
"notprovided" : [
"2019-02-22T16:11:43.256-0600",
"2020-06-17T17:20:11.898-0500"
],
"DefaultContext_v2" : [
"2019-02-22T16:11:43.478-0600"
],
"DefaultContext_v3" : [
"2019-07-23T09:05:25.481-0500"
],
"DefaultContext_v4" : [
"2019-11-19T16:07:21.626-0600"
],
"DefaultContext_v5" : [
"2019-11-20T14:24:12.574-0600"
],
"DefaultContext_v6" : [
"2019-11-20T14:39:27.431-0600"
],
"DefaultContext_v7" : [
"2019-11-20T15:26:58.460-0600"
],
"DefaultContext_v8" : [
"2019-11-20T15:27:24.493-0600"
],
"DefaultContext_v9" : [
"2019-11-20T15:28:33.672-0600"
],
"DefaultContext_v10" : [
"2019-11-20T15:56:57.717-0600"
],
"DefaultContext_v11" : [
"2019-11-20T16:00:09.127-0600"
],
"DefaultConfig_v17" : [
"2020-06-17T17:20:12.922-0500"
],
"DefaultContext_v12" : [
"2020-06-17T17:20:13.700-0500"
],
"DefaultContext_v13" : [
"2020-07-01T16:09:04.037-0500"
]
}
}