{
"ouid" : [
"1c11310ade2d404e9e0ecf48",
"83d6f1af5148468f840821e4"
],
"version" : {
"2" : [
"83d6f1af5148468f840821e4"
],
"3" : [
"1c11310ade2d404e9e0ecf48"
]
},
"configurations.name" : {
"notprovided" : [
"1c11310ade2d404e9e0ecf48",
"83d6f1af5148468f840821e4"
],
"TableEditWizBackbone_v2" : [
"83d6f1af5148468f840821e4"
],
"TableEditWizBackbone_v3" : [
"1c11310ade2d404e9e0ecf48"
],
"TableEditWizBackbone_v4" : [
"1c11310ade2d404e9e0ecf48"
],
"TableEditWizBackbone_v5" : [
"1c11310ade2d404e9e0ecf48"
],
"GroupAliasTreeEditWizBackbone_v0" : [
"1c11310ade2d404e9e0ecf48"
],
"GroupAliasSaveWizBackbone_v0" : [
"1c11310ade2d404e9e0ecf48"
],
"GroupAliasSaveWizBackbone_v1" : [
"1c11310ade2d404e9e0ecf48"
],
"GroupAliasSaveWizBackbone_v2" : [
"1c11310ade2d404e9e0ecf48"
],
"GroupAliasSaveWizBackbone_v3" : [
"1c11310ade2d404e9e0ecf48"
],
"GroupAliasSaveWizBackbone_v4" : [
"1c11310ade2d404e9e0ecf48"
],
"GroupAliasSaveWizBackbone_v5" : [
"1c11310ade2d404e9e0ecf48"
],
"GroupAliasSaveWizBackbone_v6" : [
"1c11310ade2d404e9e0ecf48"
],
"TableEditWizBackbone_v6" : [
"1c11310ade2d404e9e0ecf48"
],
"TableEditWizBackbone_v7" : [
"1c11310ade2d404e9e0ecf48"
],
"TableEditWizBackbone_v8" : [
"1c11310ade2d404e9e0ecf48"
],
"TableEditWizBackbone_v9" : [
"1c11310ade2d404e9e0ecf48"
],
"TableEditWizBackbone_v10" : [
"1c11310ade2d404e9e0ecf48"
],
"TableEditWizBackbone_v11" : [
"1c11310ade2d404e9e0ecf48"
],
"GroupAliasSaveWizBackbone_v7" : [
"1c11310ade2d404e9e0ecf48"
],
"GroupAliasSaveWizBackbone_v8" : [
"1c11310ade2d404e9e0ecf48"
],
"TableEditWizBackbone_v12" : [
"1c11310ade2d404e9e0ecf48"
],
"GroupAliasWizBackbone_v0" : [
"1c11310ade2d404e9e0ecf48"
],
"GroupAliasSaveWizBackbone_v9" : [
"1c11310ade2d404e9e0ecf48"
],
"GroupAliasTreeEditWizBackbone_v1" : [
"1c11310ade2d404e9e0ecf48"
],
"TableEditWizBackbone_v13" : [
"1c11310ade2d404e9e0ecf48"
],
"TableEditWizBackbone_v14" : [
"1c11310ade2d404e9e0ecf48"
],
"TableEditWizBackbone_v15" : [
"1c11310ade2d404e9e0ecf48"
],
"TableEditWizBackbone_v16" : [
"1c11310ade2d404e9e0ecf48"
],
"TableEditWizBackbone_v17" : [
"1c11310ade2d404e9e0ecf48"
],
"TableEditWizBackbone_v18" : [
"1c11310ade2d404e9e0ecf48"
],
"TableEditWizBackbone_v19" : [
"1c11310ade2d404e9e0ecf48"
],
"TableEditWizBackbone_v20" : [
"1c11310ade2d404e9e0ecf48"
],
"GroupAliasTreeEditWizBackbone_v2" : [
"1c11310ade2d404e9e0ecf48"
],
"TableEditWizBackbone_v21" : [
"1c11310ade2d404e9e0ecf48"
],
"TableEditWizBackbone_v22" : [
"1c11310ade2d404e9e0ecf48"
],
"TableEditWizBackbone_v23" : [
"1c11310ade2d404e9e0ecf48"
],
"TableEditWizBackbone_v24" : [
"1c11310ade2d404e9e0ecf48"
],
"GroupAliasTreeEditWizBackbone_v3" : [
"1c11310ade2d404e9e0ecf48"
],
"TableEditWizBackbone_v25" : [
"1c11310ade2d404e9e0ecf48"
],
"TableEditWizBackbone_v26" : [
"1c11310ade2d404e9e0ecf48"
],
"TableEditWizBackbone_v27" : [
"1c11310ade2d404e9e0ecf48"
],
"TableEditWizBackbone_v28" : [
"1c11310ade2d404e9e0ecf48"
],
"GroupAliasTreeEditWizBackbone_v4" : [
"1c11310ade2d404e9e0ecf48"
],
"TableEditWizBackbone_v29" : [
"1c11310ade2d404e9e0ecf48"
],
"GroupAliasTreeEditWizBackbone_v5" : [
"1c11310ade2d404e9e0ecf48"
],
"GroupAliasTreeEditWizBackbone_v6" : [
"1c11310ade2d404e9e0ecf48"
],
"GroupAliasTreeEditWizBackbone_v7" : [
"1c11310ade2d404e9e0ecf48"
],
"GroupAliasTreeEditWizBackbone_v8" : [
"1c11310ade2d404e9e0ecf48"
],
"GroupAliasTreeEditWizBackbone_v9" : [
"1c11310ade2d404e9e0ecf48"
],
"GroupAliasTreeEditWizBackbone_v10" : [
"1c11310ade2d404e9e0ecf48"
],
"TableEditWizBackbone_v30" : [
"1c11310ade2d404e9e0ecf48"
],
"GroupAliasTreeEditWizBackbone_v11" : [
"1c11310ade2d404e9e0ecf48"
],
"GroupAliasTreeEditWizBackbone_v12" : [
"1c11310ade2d404e9e0ecf48"
],
"GroupAliasTreeEditWizBackbone_v13" : [
"1c11310ade2d404e9e0ecf48"
],
"GroupAliasTreeEditWizBackbone_v14" : [
"1c11310ade2d404e9e0ecf48"
],
"GroupAliasTreeEditWizBackbone_v15" : [
"1c11310ade2d404e9e0ecf48"
],
"GroupAliasTreeEditWizBackbone_v16" : [
"1c11310ade2d404e9e0ecf48"
],
"GroupAliasTreeEditWizBackbone_v17" : [
"1c11310ade2d404e9e0ecf48"
],
"TableEditWizBackbone_v31" : [
"1c11310ade2d404e9e0ecf48"
],
"TableEditWizBackbone_v32" : [
"1c11310ade2d404e9e0ecf48"
],
"TableEditWizBackbone_v33" : [
"1c11310ade2d404e9e0ecf48"
],
"TableEditWizBackbone_v34" : [
"1c11310ade2d404e9e0ecf48"
],
"TableEditWizBackbone_v35" : [
"1c11310ade2d404e9e0ecf48"
],
"TableEditWizBackbone_v36" : [
"1c11310ade2d404e9e0ecf48"
],
"TableEditWizBackbone_v37" : [
"1c11310ade2d404e9e0ecf48"
],
"TableEditWizBackbone_v38" : [
"1c11310ade2d404e9e0ecf48"
],
"TableEditWizBackbone_v39" : [
"1c11310ade2d404e9e0ecf48"
],
"TableEditWizBackbone_v40" : [
"1c11310ade2d404e9e0ecf48"
],
"TableEditWizBackbone_v41" : [
"1c11310ade2d404e9e0ecf48"
],
"TableEditWizBackbone_v42" : [
"1c11310ade2d404e9e0ecf48"
],
"TableEditWizBackbone_v43" : [
"1c11310ade2d404e9e0ecf48"
],
"GroupAliasTreeEditWizBackbone_v18" : [
"1c11310ade2d404e9e0ecf48"
],
"GroupAliasTreeEditWizBackbone_v19" : [
"1c11310ade2d404e9e0ecf48"
],
"GroupAliasTreeEditWizBackbone_v20" : [
"1c11310ade2d404e9e0ecf48"
],
"TableEditWizBackbone_v44" : [
"1c11310ade2d404e9e0ecf48"
],
"TableEditWizBackbone_v45" : [
"1c11310ade2d404e9e0ecf48"
],
"GroupAliasSaveWizBackbone_v10" : [
"1c11310ade2d404e9e0ecf48"
],
"GroupAliasSaveWizBackbone_v11" : [
"1c11310ade2d404e9e0ecf48"
],
"GroupAliasSaveWizBackbone_v12" : [
"1c11310ade2d404e9e0ecf48"
],
"GroupAliasSaveWizBackbone_v13" : [
"1c11310ade2d404e9e0ecf48"
],
"GroupAliasSaveWizBackbone_v14" : [
"1c11310ade2d404e9e0ecf48"
],
"GroupAliasSaveWizBackbone_v15" : [
"1c11310ade2d404e9e0ecf48"
],
"GroupAliasSaveWizBackbone_v16" : [
"1c11310ade2d404e9e0ecf48"
],
"GroupAliasSaveWizBackbone_v17" : [
"1c11310ade2d404e9e0ecf48"
],
"GroupAliasSaveWizBackbone_v18" : [
"1c11310ade2d404e9e0ecf48"
],
"GroupAliasSaveWizBackbone_v19" : [
"1c11310ade2d404e9e0ecf48"
],
"GroupAliasSaveWizBackbone_v20" : [
"1c11310ade2d404e9e0ecf48"
],
"GroupAliasSaveWizBackbone_v21" : [
"1c11310ade2d404e9e0ecf48"
],
"GroupAliasSaveWizBackbone_v22" : [
"1c11310ade2d404e9e0ecf48"
],
"GroupAliasSaveWizBackbone_v23" : [
"1c11310ade2d404e9e0ecf48"
],
"GroupAliasTreeEditWizBackbone_v21" : [
"1c11310ade2d404e9e0ecf48"
],
"TableEditWizBackbone_v46" : [
"1c11310ade2d404e9e0ecf48"
],
"GroupAliasSaveWizBackbone_v24" : [
"1c11310ade2d404e9e0ecf48"
],
"TableEditWizBackbone_v47" : [
"1c11310ade2d404e9e0ecf48"
],
"GroupAliasTreeEditWizBackbone_v22" : [
"1c11310ade2d404e9e0ecf48"
],
"GroupAliasSaveWizBackbone_v25" : [
"1c11310ade2d404e9e0ecf48"
],
"GroupAliasSaveWizBackbone_v26" : [
"1c11310ade2d404e9e0ecf48"
],
"GroupAliasSaveWizBackbone_v27" : [
"1c11310ade2d404e9e0ecf48"
],
"GroupAliasSaveWizBackbone_v28" : [
"1c11310ade2d404e9e0ecf48"
],
"GroupAliasSaveWizBackbone_v29" : [
"1c11310ade2d404e9e0ecf48"
],
"GroupAliasSaveWizBackbone_v30" : [
"1c11310ade2d404e9e0ecf48"
],
"GroupAliasSaveWizBackbone_v31" : [
"1c11310ade2d404e9e0ecf48"
],
"GroupAliasSaveWizBackbone_v32" : [
"1c11310ade2d404e9e0ecf48"
],
"GroupAliasSaveWizBackbone_v33" : [
"1c11310ade2d404e9e0ecf48"
],
"GroupAliasSaveWizBackbone_v34" : [
"1c11310ade2d404e9e0ecf48"
],
"TableEditWizBackbone_v48" : [
"1c11310ade2d404e9e0ecf48"
],
"TableEditWizBackbone_v49" : [
"1c11310ade2d404e9e0ecf48"
],
"TableEditWizBackbone_v50" : [
"1c11310ade2d404e9e0ecf48"
],
"GroupAliasTreeEditWizBackbone_v23" : [
"1c11310ade2d404e9e0ecf48"
],
"TableEditWizBackbone_v51" : [
"1c11310ade2d404e9e0ecf48"
],
"TableEditWizBackbone_v52" : [
"1c11310ade2d404e9e0ecf48"
],
"GroupAliasSaveWizBackbone_v35" : [
"1c11310ade2d404e9e0ecf48"
],
"GroupAliasSaveWizBackbone_v36" : [
"1c11310ade2d404e9e0ecf48"
],
"GroupAliasSaveWizBackbone_v37" : [
"1c11310ade2d404e9e0ecf48"
],
"GroupAliasTreeEditWizBackbone_v24" : [
"1c11310ade2d404e9e0ecf48"
],
"GroupAliasTreeEditWizBackbone_v25" : [
"1c11310ade2d404e9e0ecf48"
],
"GroupAliasTreeEditWizBackbone_v26" : [
"1c11310ade2d404e9e0ecf48"
],
"GroupAliasTreeEditWizBackbone_v27" : [
"1c11310ade2d404e9e0ecf48"
],
"GroupAliasTreeEditWizBackbone_v28" : [
"1c11310ade2d404e9e0ecf48"
],
"GroupAliasSaveWizBackbone_v38" : [
"1c11310ade2d404e9e0ecf48"
],
"GroupAliasSaveWizBackbone_v39" : [
"1c11310ade2d404e9e0ecf48"
],
"GroupAliasSaveWizBackbone_v40" : [
"1c11310ade2d404e9e0ecf48"
],
"GroupAliasSaveWizBackbone_v41" : [
"1c11310ade2d404e9e0ecf48"
],
"GroupAliasSaveWizBackbone_v42" : [
"1c11310ade2d404e9e0ecf48"
],
"GroupAliasTreeEditWizBackbone_v29" : [
"1c11310ade2d404e9e0ecf48"
],
"GroupAliasTreeEditWizBackbone_v30" : [
"1c11310ade2d404e9e0ecf48"
],
"GroupAliasTreeEditWizBackbone_v31" : [
"1c11310ade2d404e9e0ecf48"
],
"TableEditWizBackbone_v53" : [
"1c11310ade2d404e9e0ecf48"
],
"GroupAliasSaveWizBackbone_v43" : [
"1c11310ade2d404e9e0ecf48"
],
"GroupAliasSaveWizBackbone_v44" : [
"1c11310ade2d404e9e0ecf48"
],
"GroupAliasSaveWizBackbone_v45" : [
"1c11310ade2d404e9e0ecf48"
],
"GroupAliasSaveWizBackbone_v46" : [
"1c11310ade2d404e9e0ecf48"
],
"GroupAliasSaveWizBackbone_v47" : [
"1c11310ade2d404e9e0ecf48"
],
"GroupAliasSaveWizBackbone_v48" : [
"1c11310ade2d404e9e0ecf48"
],
"GroupAliasSaveWizBackbone_v49" : [
"1c11310ade2d404e9e0ecf48"
],
"GroupAliasSaveWizBackbone_v50" : [
"1c11310ade2d404e9e0ecf48"
],
"GroupAliasSaveWizBackbone_v51" : [
"1c11310ade2d404e9e0ecf48"
],
"GroupAliasSaveWizBackbone_v52" : [
"1c11310ade2d404e9e0ecf48"
],
"GroupAliasSaveWizBackbone_v53" : [
"1c11310ade2d404e9e0ecf48"
],
"GroupAliasSaveWizBackbone_v54" : [
"1c11310ade2d404e9e0ecf48"
],
"GroupAliasSaveWizBackbone_v55" : [
"1c11310ade2d404e9e0ecf48"
],
"GroupAliasSaveWizBackbone_v56" : [
"1c11310ade2d404e9e0ecf48"
],
"GroupAliasSaveWizBackbone_v57" : [
"1c11310ade2d404e9e0ecf48"
],
"GroupAliasSaveWizBackbone_v58" : [
"1c11310ade2d404e9e0ecf48"
],
"GroupAliasSaveWizBackbone_v59" : [
"1c11310ade2d404e9e0ecf48"
],
"GroupAliasSaveWizBackbone_v60" : [
"1c11310ade2d404e9e0ecf48"
],
"GroupAliasSaveWizBackbone_v61" : [
"1c11310ade2d404e9e0ecf48"
],
"GroupAliasTreeEditWizBackbone_v32" : [
"1c11310ade2d404e9e0ecf48"
],
"GroupAliasTreeEditWizBackbone_v33" : [
"1c11310ade2d404e9e0ecf48"
],
"GroupAliasTreeEditWizBackbone_v34" : [
"1c11310ade2d404e9e0ecf48"
],
"GroupAliasTreeEditWizBackbone_v35" : [
"1c11310ade2d404e9e0ecf48"
],
"GroupAliasTreeEditWizBackbone_v36" : [
"1c11310ade2d404e9e0ecf48"
],
"GroupAliasTreeEditWizBackbone_v37" : [
"1c11310ade2d404e9e0ecf48"
],
"GroupAliasTreeEditWizBackbone_v38" : [
"1c11310ade2d404e9e0ecf48"
],
"GroupAliasTreeEditWizBackbone_v39" : [
"1c11310ade2d404e9e0ecf48"
],
"GroupAliasTreeEditWizBackbone_v40" : [
"1c11310ade2d404e9e0ecf48"
],
"GroupAliasTreeEditWizBackbone_v41" : [
"1c11310ade2d404e9e0ecf48"
],
"GroupAliasTreeEditWizBackbone_v42" : [
"1c11310ade2d404e9e0ecf48"
],
"GroupAliasTreeEditWizBackbone_v43" : [
"1c11310ade2d404e9e0ecf48"
],
"TableEditWizBackbone_v54" : [
"1c11310ade2d404e9e0ecf48"
],
"GroupAliasTreeEditWizBackbone_v44" : [
"1c11310ade2d404e9e0ecf48"
],
"GroupAliasTreeEditWizBackbone_v45" : [
"1c11310ade2d404e9e0ecf48"
],
"GroupAliasTreeEditWizBackbone_v46" : [
"1c11310ade2d404e9e0ecf48"
],
"GroupAliasTreeEditWizBackbone_v47" : [
"1c11310ade2d404e9e0ecf48"
],
"TableEditWizBackbone_v55" : [
"1c11310ade2d404e9e0ecf48"
],
"TableEditWizBackbone_v56" : [
"1c11310ade2d404e9e0ecf48"
],
"TableEditWizBackbone_v57" : [
"1c11310ade2d404e9e0ecf48"
],
"TableEditWizBackbone_v58" : [
"1c11310ade2d404e9e0ecf48"
],
"GroupAliasTreeEditWizBackbone_v48" : [
"1c11310ade2d404e9e0ecf48"
],
"GroupAliasTreeEditWizBackbone_v49" : [
"1c11310ade2d404e9e0ecf48"
],
"GroupAliasTreeEditWizBackbone_v50" : [
"1c11310ade2d404e9e0ecf48"
],
"TableEditWizBackbone_v59" : [
"1c11310ade2d404e9e0ecf48"
],
"TableEditWizBackbone_v60" : [
"1c11310ade2d404e9e0ecf48"
],
"TableEditWizBackbone_v61" : [
"1c11310ade2d404e9e0ecf48"
],
"TableEditWizBackbone_v62" : [
"1c11310ade2d404e9e0ecf48"
],
"TableEditWizBackbone_v63" : [
"1c11310ade2d404e9e0ecf48"
],
"TableEditWizBackbone_v64" : [
"1c11310ade2d404e9e0ecf48"
],
"TableEditWizBackbone_v65" : [
"1c11310ade2d404e9e0ecf48"
],
"GroupAliasSaveWizBackbone_v62" : [
"1c11310ade2d404e9e0ecf48"
],
"GroupAliasTreeEditWizBackbone_v51" : [
"1c11310ade2d404e9e0ecf48"
],
"GroupAliasTreeEditWizBackbone_v52" : [
"1c11310ade2d404e9e0ecf48"
],
"GroupAliasTreeEditWizBackbone_v53" : [
"1c11310ade2d404e9e0ecf48"
],
"GroupAliasTreeEditWizBackbone_v54" : [
"1c11310ade2d404e9e0ecf48"
],
"GroupAliasTreeEditWizBackbone_v55" : [
"1c11310ade2d404e9e0ecf48"
],
"GroupAliasTreeEditWizBackbone_v56" : [
"1c11310ade2d404e9e0ecf48"
],
"GroupAliasTreeEditWizBackbone_v57" : [
"1c11310ade2d404e9e0ecf48"
],
"GroupAliasTreeEditWizBackbone_v58" : [
"1c11310ade2d404e9e0ecf48"
],
"GroupAliasTreeEditWizBackbone_v59" : [
"1c11310ade2d404e9e0ecf48"
],
"GroupAliasTreeEditWizBackbone_v60" : [
"1c11310ade2d404e9e0ecf48"
],
"GroupAliasTreeEditWizBackbone_v61" : [
"1c11310ade2d404e9e0ecf48"
],
"GroupAliasTreeEditWizBackbone_v62" : [
"1c11310ade2d404e9e0ecf48"
],
"GroupAliasTreeEditWizBackbone_v63" : [
"1c11310ade2d404e9e0ecf48"
],
"GroupAliasTreeEditWizBackbone_v64" : [
"1c11310ade2d404e9e0ecf48"
],
"GroupAliasTreeEditWizBackbone_v65" : [
"1c11310ade2d404e9e0ecf48"
],
"GroupAliasTreeEditWizBackbone_v66" : [
"1c11310ade2d404e9e0ecf48"
],
"GroupAliasTreeEditWizBackbone_v67" : [
"1c11310ade2d404e9e0ecf48"
],
"GroupAliasTreeEditWizBackbone_v68" : [
"1c11310ade2d404e9e0ecf48"
],
"GroupAliasTreeEditWizBackbone_v69" : [
"1c11310ade2d404e9e0ecf48"
],
"GroupAliasSaveWizBackbone_v63" : [
"1c11310ade2d404e9e0ecf48"
],
"GroupAliasWizBackbone_v1" : [
"1c11310ade2d404e9e0ecf48"
],
"GroupAliasSaveWizBackbone_v64" : [
"1c11310ade2d404e9e0ecf48"
],
"GroupAliasSaveWizBackbone_v65" : [
"1c11310ade2d404e9e0ecf48"
],
"GroupAliasSaveWizBackbone_v66" : [
"1c11310ade2d404e9e0ecf48"
],
"GroupAliasSaveWizBackbone_v67" : [
"1c11310ade2d404e9e0ecf48"
],
"GroupAliasSaveWizBackbone_v68" : [
"1c11310ade2d404e9e0ecf48"
],
"GroupAliasSaveWizBackbone_v69" : [
"1c11310ade2d404e9e0ecf48"
],
"GroupAliasSaveWizBackbone_v70" : [
"1c11310ade2d404e9e0ecf48"
],
"GroupAliasSaveWizBackbone_v71" : [
"1c11310ade2d404e9e0ecf48"
],
"GroupAliasTreeEditWizBackbone_v70" : [
"1c11310ade2d404e9e0ecf48"
],
"GroupAliasSaveWizBackbone_v72" : [
"1c11310ade2d404e9e0ecf48"
],
"GroupAliasSaveWizBackbone_v73" : [
"1c11310ade2d404e9e0ecf48"
],
"TableEditWizBackbone_v66" : [
"1c11310ade2d404e9e0ecf48"
],
"GroupAliasSaveWizBackbone_v74" : [
"1c11310ade2d404e9e0ecf48"
],
"GroupAliasTreeEditWizBackbone_v71" : [
"1c11310ade2d404e9e0ecf48"
],
"GroupAliasSaveWizBackbone_v75" : [
"1c11310ade2d404e9e0ecf48"
],
"GroupAliasSaveWizBackbone_v76" : [
"1c11310ade2d404e9e0ecf48"
],
"GroupAliasSaveWizBackbone_v77" : [
"1c11310ade2d404e9e0ecf48"
],
"GroupAliasSaveWizBackbone_v78" : [
"1c11310ade2d404e9e0ecf48"
],
"GroupAliasSaveWizBackbone_v79" : [
"1c11310ade2d404e9e0ecf48"
],
"GroupAliasSaveWizBackbone_v80" : [
"1c11310ade2d404e9e0ecf48"
],
"GroupAliasSaveWizBackbone_v81" : [
"1c11310ade2d404e9e0ecf48"
],
"GroupAliasSaveWizBackbone_v82" : [
"1c11310ade2d404e9e0ecf48"
],
"GroupAliasSaveWizBackbone_v83" : [
"1c11310ade2d404e9e0ecf48"
],
"GroupAliasSaveWizBackbone_v84" : [
"1c11310ade2d404e9e0ecf48"
],
"GroupAliasSaveWizBackbone_v85" : [
"1c11310ade2d404e9e0ecf48"
],
"GroupAliasSaveWizBackbone_v86" : [
"1c11310ade2d404e9e0ecf48"
],
"GroupAliasSaveWizBackbone_v87" : [
"1c11310ade2d404e9e0ecf48"
],
"GroupAliasSaveWizBackbone_v88" : [
"1c11310ade2d404e9e0ecf48"
],
"GroupAliasSaveWizBackbone_v89" : [
"1c11310ade2d404e9e0ecf48"
],
"GroupAliasSaveWizBackbone_v90" : [
"1c11310ade2d404e9e0ecf48"
],
"GroupAliasSaveWizBackbone_v91" : [
"1c11310ade2d404e9e0ecf48"
],
"GroupAliasSaveWizBackbone_v92" : [
"1c11310ade2d404e9e0ecf48"
],
"GroupAliasSaveWizBackbone_v93" : [
"1c11310ade2d404e9e0ecf48"
],
"GroupAliasSaveWizBackbone_v94" : [
"1c11310ade2d404e9e0ecf48"
],
"GroupAliasSaveWizBackbone_v95" : [
"1c11310ade2d404e9e0ecf48"
],
"GroupAliasSaveWizBackbone_v96" : [
"1c11310ade2d404e9e0ecf48"
],
"GroupAliasSaveWizBackbone_v97" : [
"1c11310ade2d404e9e0ecf48"
],
"GroupAliasSaveWizBackbone_v98" : [
"1c11310ade2d404e9e0ecf48"
],
"GroupAliasSaveWizBackbone_v99" : [
"1c11310ade2d404e9e0ecf48"
],
"GroupAliasSaveWizBackbone_v100" : [
"1c11310ade2d404e9e0ecf48"
],
"GroupAliasSaveWizBackbone_v101" : [
"1c11310ade2d404e9e0ecf48"
],
"GroupAliasSaveWizBackbone_v102" : [
"1c11310ade2d404e9e0ecf48"
],
"GroupAliasSaveWizBackbone_v103" : [
"1c11310ade2d404e9e0ecf48"
],
"GroupAliasSaveWizBackbone_v104" : [
"1c11310ade2d404e9e0ecf48"
],
"GroupAliasSaveWizBackbone_v105" : [
"1c11310ade2d404e9e0ecf48"
],
"GroupAliasSaveWizBackbone_v106" : [
"1c11310ade2d404e9e0ecf48"
],
"GroupAliasSaveWizBackbone_v107" : [
"1c11310ade2d404e9e0ecf48"
],
"GroupAliasSaveWizBackbone_v108" : [
"1c11310ade2d404e9e0ecf48"
],
"GroupAliasTreeEditWizBackbone_v72" : [
"1c11310ade2d404e9e0ecf48"
],
"GroupAliasTreeEditWizBackbone_v73" : [
"1c11310ade2d404e9e0ecf48"
],
"GroupAliasTreeEditWizBackbone_v74" : [
"1c11310ade2d404e9e0ecf48"
]
},
"entities.name" : {
"OTSROOT" : [
"1c11310ade2d404e9e0ecf48",
"83d6f1af5148468f840821e4"
]
},
"aliases.active.name" : {

},
"runs.name" : {

},
"configurations.assigned" : {
"notprovided" : [
"2017-11-08T15:56:08.666-0600",
"2017-11-08T15:56:08.871-0600"
],
"TableEditWizBackbone_v2" : [
"2017-11-08T15:56:08.754-0600"
],
"TableEditWizBackbone_v3" : [
"2017-11-08T15:56:08.946-0600"
],
"TableEditWizBackbone_v4" : [
"2017-11-09T09:56:34.230-0600"
],
"TableEditWizBackbone_v5" : [
"2017-11-09T10:06:03.347-0600"
],
"GroupAliasTreeEditWizBackbone_v0" : [
"2017-11-09T10:37:14.984-0600"
],
"GroupAliasSaveWizBackbone_v0" : [
"2017-11-09T10:39:05.302-0600"
],
"GroupAliasSaveWizBackbone_v1" : [
"2017-11-10T10:18:40.018-0600"
],
"GroupAliasSaveWizBackbone_v2" : [
"2017-11-10T10:28:48.533-0600"
],
"GroupAliasSaveWizBackbone_v3" : [
"2017-11-10T10:40:35.018-0600"
],
"GroupAliasSaveWizBackbone_v4" : [
"2017-11-10T10:52:07.567-0600"
],
"GroupAliasSaveWizBackbone_v5" : [
"2017-11-10T11:21:03.544-0600"
],
"GroupAliasSaveWizBackbone_v6" : [
"2017-11-10T11:44:51.848-0600"
],
"TableEditWizBackbone_v6" : [
"2017-11-10T12:15:27.793-0600"
],
"TableEditWizBackbone_v7" : [
"2017-11-10T12:16:57.368-0600"
],
"TableEditWizBackbone_v8" : [
"2017-11-10T12:22:21.855-0600"
],
"TableEditWizBackbone_v9" : [
"2017-11-10T12:35:34.127-0600"
],
"TableEditWizBackbone_v10" : [
"2017-11-10T12:37:12.239-0600"
],
"TableEditWizBackbone_v11" : [
"2017-11-10T12:38:16.832-0600"
],
"GroupAliasSaveWizBackbone_v7" : [
"2017-11-10T17:04:43.280-0600"
],
"GroupAliasSaveWizBackbone_v8" : [
"2017-11-13T10:55:08.295-0600"
],
"TableEditWizBackbone_v12" : [
"2017-11-14T11:21:20.136-0600"
],
"GroupAliasWizBackbone_v0" : [
"2017-11-14T14:16:27.027-0600"
],
"GroupAliasSaveWizBackbone_v9" : [
"2017-11-14T14:19:30.708-0600"
],
"GroupAliasTreeEditWizBackbone_v1" : [
"2017-11-14T16:15:31.036-0600"
],
"TableEditWizBackbone_v13" : [
"2017-11-15T11:55:01.016-0600"
],
"TableEditWizBackbone_v14" : [
"2017-11-15T11:57:53.646-0600"
],
"TableEditWizBackbone_v15" : [
"2017-11-15T12:29:38.841-0600"
],
"TableEditWizBackbone_v16" : [
"2017-11-15T12:31:24.692-0600"
],
"TableEditWizBackbone_v17" : [
"2017-11-15T12:39:08.141-0600"
],
"TableEditWizBackbone_v18" : [
"2017-11-15T12:42:36.505-0600"
],
"TableEditWizBackbone_v19" : [
"2017-11-15T12:55:34.819-0600"
],
"TableEditWizBackbone_v20" : [
"2017-11-15T12:57:48.694-0600"
],
"GroupAliasTreeEditWizBackbone_v2" : [
"2017-11-15T12:59:21.115-0600"
],
"TableEditWizBackbone_v21" : [
"2017-11-15T13:01:07.505-0600"
],
"TableEditWizBackbone_v22" : [
"2017-11-15T13:03:01.027-0600"
],
"TableEditWizBackbone_v23" : [
"2017-11-15T13:04:28.567-0600"
],
"TableEditWizBackbone_v24" : [
"2017-11-15T13:07:56.425-0600"
],
"GroupAliasTreeEditWizBackbone_v3" : [
"2017-11-15T13:12:02.835-0600"
],
"TableEditWizBackbone_v25" : [
"2017-11-15T13:13:57.812-0600"
],
"TableEditWizBackbone_v26" : [
"2017-11-15T13:27:45.495-0600"
],
"TableEditWizBackbone_v27" : [
"2017-11-15T13:35:51.880-0600"
],
"TableEditWizBackbone_v28" : [
"2017-11-15T13:36:56.491-0600"
],
"GroupAliasTreeEditWizBackbone_v4" : [
"2017-11-15T15:33:34.672-0600"
],
"TableEditWizBackbone_v29" : [
"2017-11-15T15:35:38.967-0600"
],
"GroupAliasTreeEditWizBackbone_v5" : [
"2017-11-15T15:38:07.274-0600"
],
"GroupAliasTreeEditWizBackbone_v6" : [
"2017-11-15T16:19:32.372-0600"
],
"GroupAliasTreeEditWizBackbone_v7" : [
"2017-11-15T16:26:35.709-0600"
],
"GroupAliasTreeEditWizBackbone_v8" : [
"2017-11-16T09:22:36.213-0600"
],
"GroupAliasTreeEditWizBackbone_v9" : [
"2017-11-16T09:27:13.224-0600"
],
"GroupAliasTreeEditWizBackbone_v10" : [
"2017-11-17T10:23:32.416-0600"
],
"TableEditWizBackbone_v30" : [
"2017-11-17T17:24:39.256-0600"
],
"GroupAliasTreeEditWizBackbone_v11" : [
"2017-11-17T17:26:50.512-0600"
],
"GroupAliasTreeEditWizBackbone_v12" : [
"2017-11-17T17:58:30.967-0600"
],
"GroupAliasTreeEditWizBackbone_v13" : [
"2017-11-17T18:24:50.413-0600"
],
"GroupAliasTreeEditWizBackbone_v14" : [
"2017-11-17T18:32:30.556-0600"
],
"GroupAliasTreeEditWizBackbone_v15" : [
"2017-11-17T18:43:37.940-0600"
],
"GroupAliasTreeEditWizBackbone_v16" : [
"2017-11-17T18:48:40.146-0600"
],
"GroupAliasTreeEditWizBackbone_v17" : [
"2017-11-20T14:44:43.671-0600"
],
"TableEditWizBackbone_v31" : [
"2017-11-20T14:48:36.562-0600"
],
"TableEditWizBackbone_v32" : [
"2017-11-20T15:40:01.876-0600"
],
"TableEditWizBackbone_v33" : [
"2017-11-20T16:41:08.478-0600"
],
"TableEditWizBackbone_v34" : [
"2017-11-20T18:55:41.081-0600"
],
"TableEditWizBackbone_v35" : [
"2017-11-20T18:57:36.452-0600"
],
"TableEditWizBackbone_v36" : [
"2017-11-28T10:58:47.137-0600"
],
"TableEditWizBackbone_v37" : [
"2017-11-28T11:47:21.058-0600"
],
"TableEditWizBackbone_v38" : [
"2017-11-28T12:09:43.625-0600"
],
"TableEditWizBackbone_v39" : [
"2017-11-28T12:18:11.293-0600"
],
"TableEditWizBackbone_v40" : [
"2017-11-28T16:52:31.676-0600"
],
"TableEditWizBackbone_v41" : [
"2017-11-28T17:27:53.517-0600"
],
"TableEditWizBackbone_v42" : [
"2017-11-29T11:25:56.865-0600"
],
"TableEditWizBackbone_v43" : [
"2017-11-29T16:45:22.398-0600"
],
"GroupAliasTreeEditWizBackbone_v18" : [
"2017-11-29T17:50:45.856-0600"
],
"GroupAliasTreeEditWizBackbone_v19" : [
"2017-11-29T18:00:39.322-0600"
],
"GroupAliasTreeEditWizBackbone_v20" : [
"2017-11-29T18:35:17.801-0600"
],
"TableEditWizBackbone_v44" : [
"2017-11-30T09:28:26.330-0600"
],
"TableEditWizBackbone_v45" : [
"2017-11-30T10:12:23.458-0600"
],
"GroupAliasSaveWizBackbone_v10" : [
"2017-12-01T09:36:25.886-0600"
],
"GroupAliasSaveWizBackbone_v11" : [
"2017-12-01T09:37:12.950-0600"
],
"GroupAliasSaveWizBackbone_v12" : [
"2017-12-01T09:52:08.098-0600"
],
"GroupAliasSaveWizBackbone_v13" : [
"2017-12-01T11:52:04.803-0600"
],
"GroupAliasSaveWizBackbone_v14" : [
"2017-12-01T12:18:28.142-0600"
],
"GroupAliasSaveWizBackbone_v15" : [
"2017-12-01T12:21:09.799-0600"
],
"GroupAliasSaveWizBackbone_v16" : [
"2017-12-01T12:43:29.777-0600"
],
"GroupAliasSaveWizBackbone_v17" : [
"2017-12-01T12:58:08.394-0600"
],
"GroupAliasSaveWizBackbone_v18" : [
"2017-12-01T13:01:01.799-0600"
],
"GroupAliasSaveWizBackbone_v19" : [
"2017-12-01T13:25:58.007-0600"
],
"GroupAliasSaveWizBackbone_v20" : [
"2017-12-01T13:35:52.437-0600"
],
"GroupAliasSaveWizBackbone_v21" : [
"2017-12-01T14:01:00.473-0600"
],
"GroupAliasSaveWizBackbone_v22" : [
"2017-12-01T14:04:07.918-0600"
],
"GroupAliasSaveWizBackbone_v23" : [
"2017-12-01T15:32:07.660-0600"
],
"GroupAliasTreeEditWizBackbone_v21" : [
"2017-12-01T15:35:15.547-0600"
],
"TableEditWizBackbone_v46" : [
"2017-12-01T15:37:42.395-0600"
],
"GroupAliasSaveWizBackbone_v24" : [
"2017-12-01T15:41:07.147-0600"
],
"TableEditWizBackbone_v47" : [
"2017-12-01T15:41:44.436-0600"
],
"GroupAliasTreeEditWizBackbone_v22" : [
"2017-12-01T15:49:51.234-0600"
],
"GroupAliasSaveWizBackbone_v25" : [
"2017-12-01T15:52:57.528-0600"
],
"GroupAliasSaveWizBackbone_v26" : [
"2017-12-01T15:54:42.851-0600"
],
"GroupAliasSaveWizBackbone_v27" : [
"2017-12-01T15:55:42.433-0600"
],
"GroupAliasSaveWizBackbone_v28" : [
"2017-12-01T15:56:48.433-0600"
],
"GroupAliasSaveWizBackbone_v29" : [
"2017-12-01T15:57:46.578-0600"
],
"GroupAliasSaveWizBackbone_v30" : [
"2017-12-01T15:58:37.526-0600"
],
"GroupAliasSaveWizBackbone_v31" : [
"2017-12-01T15:59:39.701-0600"
],
"GroupAliasSaveWizBackbone_v32" : [
"2017-12-01T16:19:50.240-0600"
],
"GroupAliasSaveWizBackbone_v33" : [
"2017-12-01T16:22:12.684-0600"
],
"GroupAliasSaveWizBackbone_v34" : [
"2017-12-01T16:31:33.385-0600"
],
"TableEditWizBackbone_v48" : [
"2017-12-01T17:06:40.500-0600"
],
"TableEditWizBackbone_v49" : [
"2017-12-01T17:08:02.035-0600"
],
"TableEditWizBackbone_v50" : [
"2017-12-01T17:10:18.454-0600"
],
"GroupAliasTreeEditWizBackbone_v23" : [
"2017-12-01T17:32:51.033-0600"
],
"TableEditWizBackbone_v51" : [
"2017-12-01T18:00:48.247-0600"
],
"TableEditWizBackbone_v52" : [
"2017-12-01T19:52:13.689-0600"
],
"GroupAliasSaveWizBackbone_v35" : [
"2017-12-01T20:39:00.174-0600"
],
"GroupAliasSaveWizBackbone_v36" : [
"2017-12-01T20:46:01.699-0600"
],
"GroupAliasSaveWizBackbone_v37" : [
"2017-12-01T20:49:21.830-0600"
],
"GroupAliasTreeEditWizBackbone_v24" : [
"2017-12-01T20:53:51.689-0600"
],
"GroupAliasTreeEditWizBackbone_v25" : [
"2017-12-01T21:12:23.070-0600"
],
"GroupAliasTreeEditWizBackbone_v26" : [
"2017-12-01T21:15:01.032-0600"
],
"GroupAliasTreeEditWizBackbone_v27" : [
"2017-12-01T21:21:18.786-0600"
],
"GroupAliasTreeEditWizBackbone_v28" : [
"2017-12-01T21:25:10.572-0600"
],
"GroupAliasSaveWizBackbone_v38" : [
"2017-12-01T21:33:56.204-0600"
],
"GroupAliasSaveWizBackbone_v39" : [
"2017-12-01T21:36:13.364-0600"
],
"GroupAliasSaveWizBackbone_v40" : [
"2017-12-01T21:43:10.164-0600"
],
"GroupAliasSaveWizBackbone_v41" : [
"2017-12-01T21:45:07.889-0600"
],
"GroupAliasSaveWizBackbone_v42" : [
"2017-12-01T21:46:59.744-0600"
],
"GroupAliasTreeEditWizBackbone_v29" : [
"2017-12-01T21:48:17.464-0600"
],
"GroupAliasTreeEditWizBackbone_v30" : [
"2017-12-01T21:52:06.520-0600"
],
"GroupAliasTreeEditWizBackbone_v31" : [
"2017-12-01T21:59:28.310-0600"
],
"TableEditWizBackbone_v53" : [
"2017-12-01T22:00:13.893-0600"
],
"GroupAliasSaveWizBackbone_v43" : [
"2017-12-01T22:13:16.720-0600"
],
"GroupAliasSaveWizBackbone_v44" : [
"2017-12-01T22:16:03.885-0600"
],
"GroupAliasSaveWizBackbone_v45" : [
"2017-12-01T22:17:13.371-0600"
],
"GroupAliasSaveWizBackbone_v46" : [
"2017-12-01T22:19:15.036-0600"
],
"GroupAliasSaveWizBackbone_v47" : [
"2017-12-01T22:22:05.089-0600"
],
"GroupAliasSaveWizBackbone_v48" : [
"2017-12-01T22:23:25.490-0600"
],
"GroupAliasSaveWizBackbone_v49" : [
"2017-12-01T22:25:26.053-0600"
],
"GroupAliasSaveWizBackbone_v50" : [
"2017-12-01T22:27:13.828-0600"
],
"GroupAliasSaveWizBackbone_v51" : [
"2017-12-01T22:29:38.217-0600"
],
"GroupAliasSaveWizBackbone_v52" : [
"2017-12-01T22:52:43.610-0600"
],
"GroupAliasSaveWizBackbone_v53" : [
"2017-12-01T22:57:38.737-0600"
],
"GroupAliasSaveWizBackbone_v54" : [
"2017-12-01T23:00:19.084-0600"
],
"GroupAliasSaveWizBackbone_v55" : [
"2017-12-01T23:52:43.480-0600"
],
"GroupAliasSaveWizBackbone_v56" : [
"2017-12-01T23:58:20.376-0600"
],
"GroupAliasSaveWizBackbone_v57" : [
"2017-12-02T00:00:43.156-0600"
],
"GroupAliasSaveWizBackbone_v58" : [
"2017-12-02T00:13:18.433-0600"
],
"GroupAliasSaveWizBackbone_v59" : [
"2017-12-02T00:28:37.317-0600"
],
"GroupAliasSaveWizBackbone_v60" : [
"2017-12-02T00:29:42.574-0600"
],
"GroupAliasSaveWizBackbone_v61" : [
"2017-12-02T00:31:24.719-0600"
],
"GroupAliasTreeEditWizBackbone_v32" : [
"2017-12-02T00:57:36.548-0600"
],
"GroupAliasTreeEditWizBackbone_v33" : [
"2017-12-02T10:53:09.360-0600"
],
"GroupAliasTreeEditWizBackbone_v34" : [
"2017-12-02T10:58:11.127-0600"
],
"GroupAliasTreeEditWizBackbone_v35" : [
"2017-12-02T11:08:27.391-0600"
],
"GroupAliasTreeEditWizBackbone_v36" : [
"2017-12-02T11:12:49.199-0600"
],
"GroupAliasTreeEditWizBackbone_v37" : [
"2017-12-02T11:18:52.055-0600"
],
"GroupAliasTreeEditWizBackbone_v38" : [
"2017-12-02T11:27:15.308-0600"
],
"GroupAliasTreeEditWizBackbone_v39" : [
"2017-12-02T11:38:46.468-0600"
],
"GroupAliasTreeEditWizBackbone_v40" : [
"2017-12-02T11:49:17.791-0600"
],
"GroupAliasTreeEditWizBackbone_v41" : [
"2017-12-02T11:55:19.492-0600"
],
"GroupAliasTreeEditWizBackbone_v42" : [
"2017-12-02T11:59:49.290-0600"
],
"GroupAliasTreeEditWizBackbone_v43" : [
"2017-12-02T12:06:36.181-0600"
],
"TableEditWizBackbone_v54" : [
"2017-12-02T12:24:24.761-0600"
],
"GroupAliasTreeEditWizBackbone_v44" : [
"2017-12-02T12:43:44.010-0600"
],
"GroupAliasTreeEditWizBackbone_v45" : [
"2017-12-02T13:55:43.623-0600"
],
"GroupAliasTreeEditWizBackbone_v46" : [
"2017-12-02T14:12:27.956-0600"
],
"GroupAliasTreeEditWizBackbone_v47" : [
"2017-12-02T14:47:45.311-0600"
],
"TableEditWizBackbone_v55" : [
"2017-12-02T14:48:28.415-0600"
],
"TableEditWizBackbone_v56" : [
"2017-12-02T18:55:00.121-0600"
],
"TableEditWizBackbone_v57" : [
"2017-12-02T19:06:01.870-0600"
],
"TableEditWizBackbone_v58" : [
"2017-12-02T19:09:35.524-0600"
],
"GroupAliasTreeEditWizBackbone_v48" : [
"2017-12-02T19:12:21.784-0600"
],
"GroupAliasTreeEditWizBackbone_v49" : [
"2017-12-03T12:01:14.210-0600"
],
"GroupAliasTreeEditWizBackbone_v50" : [
"2017-12-03T12:32:30.715-0600"
],
"TableEditWizBackbone_v59" : [
"2017-12-03T14:03:57.928-0600"
],
"TableEditWizBackbone_v60" : [
"2017-12-03T14:06:15.977-0600"
],
"TableEditWizBackbone_v61" : [
"2017-12-03T14:09:16.310-0600"
],
"TableEditWizBackbone_v62" : [
"2017-12-03T14:11:20.045-0600"
],
"TableEditWizBackbone_v63" : [
"2017-12-03T14:22:43.093-0600"
],
"TableEditWizBackbone_v64" : [
"2017-12-03T14:40:47.964-0600"
],
"TableEditWizBackbone_v65" : [
"2017-12-03T14:45:15.387-0600"
],
"GroupAliasSaveWizBackbone_v62" : [
"2017-12-04T14:51:42.629-0600"
],
"GroupAliasTreeEditWizBackbone_v51" : [
"2017-12-04T14:55:54.797-0600"
],
"GroupAliasTreeEditWizBackbone_v52" : [
"2017-12-04T16:41:01.772-0600"
],
"GroupAliasTreeEditWizBackbone_v53" : [
"2017-12-04T16:51:17.092-0600"
],
"GroupAliasTreeEditWizBackbone_v54" : [
"2017-12-04T16:56:57.679-0600"
],
"GroupAliasTreeEditWizBackbone_v55" : [
"2017-12-04T17:01:22.657-0600"
],
"GroupAliasTreeEditWizBackbone_v56" : [
"2017-12-04T17:04:07.774-0600"
],
"GroupAliasTreeEditWizBackbone_v57" : [
"2017-12-04T17:07:27.525-0600"
],
"GroupAliasTreeEditWizBackbone_v58" : [
"2017-12-04T17:09:35.524-0600"
],
"GroupAliasTreeEditWizBackbone_v59" : [
"2017-12-04T17:11:48.167-0600"
],
"GroupAliasTreeEditWizBackbone_v60" : [
"2017-12-04T17:19:13.189-0600"
],
"GroupAliasTreeEditWizBackbone_v61" : [
"2017-12-04T17:49:08.400-0600"
],
"GroupAliasTreeEditWizBackbone_v62" : [
"2017-12-04T20:14:11.924-0600"
],
"GroupAliasTreeEditWizBackbone_v63" : [
"2017-12-04T20:34:27.304-0600"
],
"GroupAliasTreeEditWizBackbone_v64" : [
"2017-12-04T21:05:31.613-0600"
],
"GroupAliasTreeEditWizBackbone_v65" : [
"2017-12-04T21:17:22.901-0600"
],
"GroupAliasTreeEditWizBackbone_v66" : [
"2017-12-04T21:41:28.390-0600"
],
"GroupAliasTreeEditWizBackbone_v67" : [
"2017-12-04T22:18:11.905-0600"
],
"GroupAliasTreeEditWizBackbone_v68" : [
"2017-12-04T22:39:13.182-0600"
],
"GroupAliasTreeEditWizBackbone_v69" : [
"2017-12-04T23:01:23.939-0600"
],
"GroupAliasSaveWizBackbone_v63" : [
"2017-12-07T11:07:58.556-0600"
],
"GroupAliasWizBackbone_v1" : [
"2017-12-07T11:15:40.202-0600"
],
"GroupAliasSaveWizBackbone_v64" : [
"2017-12-07T11:50:10.195-0600"
],
"GroupAliasSaveWizBackbone_v65" : [
"2017-12-07T11:58:37.002-0600"
],
"GroupAliasSaveWizBackbone_v66" : [
"2017-12-08T13:31:00.311-0600"
],
"GroupAliasSaveWizBackbone_v67" : [
"2017-12-08T13:32:47.280-0600"
],
"GroupAliasSaveWizBackbone_v68" : [
"2017-12-12T11:03:17.211-0600"
],
"GroupAliasSaveWizBackbone_v69" : [
"2017-12-12T11:31:19.653-0600"
],
"GroupAliasSaveWizBackbone_v70" : [
"2017-12-12T13:51:12.139-0600"
],
"GroupAliasSaveWizBackbone_v71" : [
"2017-12-12T15:25:16.795-0600"
],
"GroupAliasTreeEditWizBackbone_v70" : [
"2017-12-13T10:22:08.183-0600"
],
"GroupAliasSaveWizBackbone_v72" : [
"2017-12-13T10:24:35.218-0600"
],
"GroupAliasSaveWizBackbone_v73" : [
"2017-12-13T10:27:15.089-0600"
],
"TableEditWizBackbone_v66" : [
"2018-02-01T21:14:37.803-0600"
],
"GroupAliasSaveWizBackbone_v74" : [
"2018-02-01T21:21:17.379-0600"
],
"GroupAliasTreeEditWizBackbone_v71" : [
"2018-02-02T10:33:09.303-0600"
],
"GroupAliasSaveWizBackbone_v75" : [
"2018-02-02T11:25:48.311-0600"
],
"GroupAliasSaveWizBackbone_v76" : [
"2018-02-02T11:37:27.144-0600"
],
"GroupAliasSaveWizBackbone_v77" : [
"2018-02-02T11:47:29.753-0600"
],
"GroupAliasSaveWizBackbone_v78" : [
"2018-02-02T11:53:50.983-0600"
],
"GroupAliasSaveWizBackbone_v79" : [
"2018-02-02T12:01:07.219-0600"
],
"GroupAliasSaveWizBackbone_v80" : [
"2018-02-02T12:10:13.354-0600"
],
"GroupAliasSaveWizBackbone_v81" : [
"2018-02-02T12:27:28.588-0600"
],
"GroupAliasSaveWizBackbone_v82" : [
"2018-02-02T14:29:07.111-0600"
],
"GroupAliasSaveWizBackbone_v83" : [
"2018-02-02T14:30:34.606-0600"
],
"GroupAliasSaveWizBackbone_v84" : [
"2018-02-02T14:34:17.134-0600"
],
"GroupAliasSaveWizBackbone_v85" : [
"2018-02-02T14:36:43.780-0600"
],
"GroupAliasSaveWizBackbone_v86" : [
"2018-02-02T14:38:55.963-0600"
],
"GroupAliasSaveWizBackbone_v87" : [
"2018-02-02T14:42:06.506-0600"
],
"GroupAliasSaveWizBackbone_v88" : [
"2018-02-02T14:50:39.401-0600"
],
"GroupAliasSaveWizBackbone_v89" : [
"2018-02-02T14:53:13.579-0600"
],
"GroupAliasSaveWizBackbone_v90" : [
"2018-02-02T15:00:04.551-0600"
],
"GroupAliasSaveWizBackbone_v91" : [
"2018-02-02T15:04:23.886-0600"
],
"GroupAliasSaveWizBackbone_v92" : [
"2018-02-02T15:50:27.288-0600"
],
"GroupAliasSaveWizBackbone_v93" : [
"2018-02-02T15:51:45.606-0600"
],
"GroupAliasSaveWizBackbone_v94" : [
"2018-02-02T15:52:51.882-0600"
],
"GroupAliasSaveWizBackbone_v95" : [
"2018-02-02T16:03:00.998-0600"
],
"GroupAliasSaveWizBackbone_v96" : [
"2018-02-02T16:09:00.522-0600"
],
"GroupAliasSaveWizBackbone_v97" : [
"2018-02-02T16:11:46.411-0600"
],
"GroupAliasSaveWizBackbone_v98" : [
"2018-02-02T16:13:14.375-0600"
],
"GroupAliasSaveWizBackbone_v99" : [
"2018-02-02T16:14:43.803-0600"
],
"GroupAliasSaveWizBackbone_v100" : [
"2018-02-02T16:26:37.998-0600"
],
"GroupAliasSaveWizBackbone_v101" : [
"2018-02-02T16:27:23.907-0600"
],
"GroupAliasSaveWizBackbone_v102" : [
"2018-02-02T16:29:45.311-0600"
],
"GroupAliasSaveWizBackbone_v103" : [
"2018-02-02T16:31:57.212-0600"
],
"GroupAliasSaveWizBackbone_v104" : [
"2018-02-02T16:34:29.929-0600"
],
"GroupAliasSaveWizBackbone_v105" : [
"2018-02-02T17:39:46.049-0600"
],
"GroupAliasSaveWizBackbone_v106" : [
"2018-02-02T17:43:08.328-0600"
],
"GroupAliasSaveWizBackbone_v107" : [
"2018-02-02T17:47:53.565-0600"
],
"GroupAliasSaveWizBackbone_v108" : [
"2018-02-02T17:54:17.570-0600"
],
"GroupAliasTreeEditWizBackbone_v72" : [
"2018-02-02T19:28:13.142-0600"
],
"GroupAliasTreeEditWizBackbone_v73" : [
"2018-02-03T02:59:21.602-0600"
],
"GroupAliasTreeEditWizBackbone_v74" : [
"2018-02-03T03:00:46.766-0600"
]
}
}