{
"ouid" : [
"fcd4d6849b1e4725bf14edcc"
],
"version" : {
"2" : [
"fcd4d6849b1e4725bf14edcc"
]
},
"configurations.name" : {
"notprovided" : [
"fcd4d6849b1e4725bf14edcc"
],
"DefaultContext_v2" : [
"fcd4d6849b1e4725bf14edcc"
],
"DefaultContext_v3" : [
"fcd4d6849b1e4725bf14edcc"
],
"DefaultContext_v4" : [
"fcd4d6849b1e4725bf14edcc"
],
"DefaultContext_v5" : [
"fcd4d6849b1e4725bf14edcc"
],
"DefaultContext_v6" : [
"fcd4d6849b1e4725bf14edcc"
],
"DefaultContext_v7" : [
"fcd4d6849b1e4725bf14edcc"
],
"DefaultContext_v8" : [
"fcd4d6849b1e4725bf14edcc"
],
"DefaultContext_v9" : [
"fcd4d6849b1e4725bf14edcc"
],
"DefaultContext_v10" : [
"fcd4d6849b1e4725bf14edcc"
],
"DefaultContext_v11" : [
"fcd4d6849b1e4725bf14edcc"
],
"DefaultContext_v12" : [
"fcd4d6849b1e4725bf14edcc"
],
"DefaultContext_v13" : [
"fcd4d6849b1e4725bf14edcc"
],
"DefaultContext_v14" : [
"fcd4d6849b1e4725bf14edcc"
],
"DefaultContext_v15" : [
"fcd4d6849b1e4725bf14edcc"
],
"DefaultContext_v16" : [
"fcd4d6849b1e4725bf14edcc"
],
"DefaultContext_v17" : [
"fcd4d6849b1e4725bf14edcc"
],
"DefaultContext_v18" : [
"fcd4d6849b1e4725bf14edcc"
]
},
"entities.name" : {
"OTSROOT" : [
"fcd4d6849b1e4725bf14edcc"
]
},
"aliases.active.name" : {

},
"runs.name" : {

},
"configurations.assigned" : {
"notprovided" : [
"2020-07-21T14:27:47.394-0500"
],
"DefaultContext_v2" : [
"2020-07-21T14:27:47.775-0500"
],
"DefaultContext_v3" : [
"2020-07-21T14:42:50.536-0500"
],
"DefaultContext_v4" : [
"2020-07-21T14:46:44.421-0500"
],
"DefaultContext_v5" : [
"2020-07-21T14:51:16.687-0500"
],
"DefaultContext_v6" : [
"2020-07-21T14:55:17.014-0500"
],
"DefaultContext_v7" : [
"2020-07-21T14:55:57.025-0500"
],
"DefaultContext_v8" : [
"2020-07-21T15:50:01.389-0500"
],
"DefaultContext_v9" : [
"2020-08-23T13:00:05.963-0400"
],
"DefaultContext_v10" : [
"2020-08-26T07:36:03.014-0400"
],
"DefaultContext_v11" : [
"2020-08-26T07:36:45.287-0400"
],
"DefaultContext_v12" : [
"2020-08-26T07:41:34.931-0400"
],
"DefaultContext_v13" : [
"2020-08-26T07:49:46.485-0400"
],
"DefaultContext_v14" : [
"2020-08-26T07:52:48.597-0400"
],
"DefaultContext_v15" : [
"2020-09-07T08:30:59.484-0400"
],
"DefaultContext_v16" : [
"2020-09-07T08:42:41.089-0400"
],
"DefaultContext_v17" : [
"2020-09-07T08:52:41.520-0400"
],
"DefaultContext_v18" : [
"2020-09-07T09:05:05.456-0400"
]
}
}