{
"document" : {
"data" : {
"NAME" : "UDP_DATA_LISTENER_PRODUCER_TABLE",
"COMMENT" : "UDP Listener records.",
"AUTHOR" : "admin",
"CREATION_TIME" : 1563825940,
"COL_TYPES" : {
"PROCESSOR_UID" : "VARCHAR2",
"BUFFER_SIZE" : "NUMBER",
"HOST_IP_ADDRESS" : "VARCHAR2",
"HOST_PORT" : "NUMBER",
"COMMENT_DESCRIPTION" : "VARCHAR2",
"AUTHOR" : "VARCHAR2",
"RECORD_INSERTION_TIME" : "TIMESTAMP WITH TIMEZONE"
},
"DATA_SET" : [
{
"PROCESSOR_UID" : "VisualDataBufferListener",
"BUFFER_SIZE" : "1000",
"HOST_IP_ADDRESS" : "127.0.0.1",
"HOST_PORT" : "50000",
"COMMENT_DESCRIPTION" : "No Comment",
"AUTHOR" : "admin",
"RECORD_INSERTION_TIME" : "1550871447"
},
{
"PROCESSOR_UID" : "OuterTrackerDataBuffer0Listener0",
"BUFFER_SIZE" : "1000",
"HOST_IP_ADDRESS" : "127.0.0.1",
"HOST_PORT" : "6000",
"COMMENT_DESCRIPTION" : "",
"AUTHOR" : "admin",
"RECORD_INSERTION_TIME" : "1563825940"
}
]
},
"metadata" : {

},
"search" : [

]
},
"comments" : [

],
"origin" : {
"source" : "template",
"name" : "notprovided",
"format" : "json",
"created" : "2019-07-22T15:05:40.927-0500",
"rawdata" : [

]
},
"version" : "2",
"entities" : [
{
"name" : "OTSROOT",
"assigned" : "2019-07-22T15:05:40.928-0500"
}
],
"configurations" : [
{
"name" : "notprovided",
"assigned" : "2019-07-22T15:05:40.927-0500"
},
{
"name" : "DefaultConfig_v5",
"assigned" : "2019-07-22T15:05:41.638-0500"
},
{
"name" : "DefaultConfig_v6",
"assigned" : "2019-07-23T09:00:32.124-0500"
}
],
"changelog" : "notprovided",
"bookkeeping" : {
"isdeleted" : false,
"isreadonly" : false,
"updates" : [
{
"event" : "addConfiguration",
"timestamp" : "2019-07-22T15:05:40.927-0500",
"value" : {
"name" : "notprovided",
"assigned" : "2019-07-22T15:05:40.927-0500"
}
},
{
"event" : "setVersion",
"timestamp" : "2019-07-22T15:05:40.928-0500",
"value" : {
"name" : "2",
"assigned" : "2019-07-22T15:05:40.928-0500"
}
},
{
"event" : "setCollection",
"timestamp" : "2019-07-22T15:05:40.928-0500",
"value" : {
"name" : "UDPDataListenerProducerTable",
"assigned" : "2019-07-22T15:05:40.928-0500"
}
},
{
"event" : "addEntity",
"timestamp" : "2019-07-22T15:05:40.928-0500",
"value" : {
"name" : "OTSROOT",
"assigned" : "2019-07-22T15:05:40.928-0500"
}
},
{
"event" : "addConfiguration",
"timestamp" : "2019-07-22T15:05:41.638-0500",
"value" : {
"name" : "DefaultConfig_v5",
"assigned" : "2019-07-22T15:05:41.638-0500"
}
},
{
"event" : "addConfiguration",
"timestamp" : "2019-07-23T09:00:32.124-0500",
"value" : {
"name" : "DefaultConfig_v6",
"assigned" : "2019-07-23T09:00:32.124-0500"
}
}
],
"created" : "2019-07-22T15:05:40.927-0500"
},
"_id" : {
"$oid" : "6be3560fe5ae49018b790d75"
},
"collection" : "UDPDataListenerProducerTable",
"aliases" : {
"active" : [

],
"history" : [

]
},
"runs" : [

],
"attachments" : [

],
"configtype" : "notprovided"
}