{
"ouid" : [
"1d8e0e498b364ca0a031b92c",
"2d77ec1a8f804761bcf1642a",
"36ffdab352e9445fa2d27a4c",
"5f71456f125140f199a68586",
"67453548a98d4582baa5adcc",
"76b4493623aa4e46a3c26018",
"a55fc28d82a14e0db5255e7d",
"a95584d6fdc94b2bb28cf932",
"e1d05dd667fa496e9b86bea6",
"e4ab493312b442c0815fac4e",
"f55f865d57664734b7ea5f92"
],
"version" : {
"0" : [
"1d8e0e498b364ca0a031b92c"
],
"1" : [
"a55fc28d82a14e0db5255e7d"
],
"2" : [
"e1d05dd667fa496e9b86bea6"
],
"3" : [
"67453548a98d4582baa5adcc"
],
"4" : [
"f55f865d57664734b7ea5f92"
],
"5" : [
"2d77ec1a8f804761bcf1642a"
],
"6" : [
"a95584d6fdc94b2bb28cf932"
],
"7" : [
"76b4493623aa4e46a3c26018"
],
"8" : [
"36ffdab352e9445fa2d27a4c"
],
"9" : [
"e4ab493312b442c0815fac4e"
],
"10" : [
"5f71456f125140f199a68586"
]
},
"configurations.name" : {
"notprovided" : [
"1d8e0e498b364ca0a031b92c",
"2d77ec1a8f804761bcf1642a",
"36ffdab352e9445fa2d27a4c",
"5f71456f125140f199a68586",
"67453548a98d4582baa5adcc",
"76b4493623aa4e46a3c26018",
"a55fc28d82a14e0db5255e7d",
"a95584d6fdc94b2bb28cf932",
"e1d05dd667fa496e9b86bea6",
"e4ab493312b442c0815fac4e",
"f55f865d57664734b7ea5f92"
],
"iterateDefaultGroup_v0" : [
"1d8e0e498b364ca0a031b92c"
],
"iterateDefaultGroup_v1" : [
"a55fc28d82a14e0db5255e7d"
],
"iterateDefaultGroup_v2" : [
"a55fc28d82a14e0db5255e7d"
],
"iterateDefaultGroup_v3" : [
"a55fc28d82a14e0db5255e7d"
],
"iterateDefaultGroup_v4" : [
"a55fc28d82a14e0db5255e7d"
],
"iterateDefaultGroup_v5" : [
"a55fc28d82a14e0db5255e7d"
],
"iterateDefaultGroup_v6" : [
"a55fc28d82a14e0db5255e7d"
],
"iterateDefaultGroup_v7" : [
"a55fc28d82a14e0db5255e7d"
],
"iterateDefaultGroup_v8" : [
"a55fc28d82a14e0db5255e7d"
],
"iterateDefaultGroup_v9" : [
"a55fc28d82a14e0db5255e7d"
],
"iterateDefaultGroup_v10" : [
"a55fc28d82a14e0db5255e7d"
],
"iterateDefaultGroup_v11" : [
"a55fc28d82a14e0db5255e7d"
],
"iterateDefaultGroup_v12" : [
"a55fc28d82a14e0db5255e7d"
],
"iterateDefaultGroup_v13" : [
"a55fc28d82a14e0db5255e7d"
],
"iterateDefaultGroup_v14" : [
"a55fc28d82a14e0db5255e7d"
],
"iterateDefaultGroup_v15" : [
"a55fc28d82a14e0db5255e7d"
],
"iterateDefaultGroup_v16" : [
"a55fc28d82a14e0db5255e7d"
],
"iterateDefaultGroup_v17" : [
"e1d05dd667fa496e9b86bea6"
],
"iterateDefaultGroup_v18" : [
"67453548a98d4582baa5adcc"
],
"iterateDefaultGroup_v19" : [
"67453548a98d4582baa5adcc"
],
"iterateDefaultGroup_v20" : [
"f55f865d57664734b7ea5f92"
],
"iterateDefaultGroup_v21" : [
"2d77ec1a8f804761bcf1642a"
],
"iterateDefaultGroup_v22" : [
"a95584d6fdc94b2bb28cf932"
],
"iterateDefaultGroup_v23" : [
"76b4493623aa4e46a3c26018"
],
"iterateDefaultGroup_v24" : [
"36ffdab352e9445fa2d27a4c"
],
"iterateDefaultGroup_v25" : [
"36ffdab352e9445fa2d27a4c"
],
"iterateDefaultGroup_v26" : [
"e4ab493312b442c0815fac4e"
],
"iterateDefaultGroup_v27" : [
"e4ab493312b442c0815fac4e"
],
"iterateDefaultGroup_v28" : [
"e4ab493312b442c0815fac4e"
],
"iterateDefaultGroup_v29" : [
"36ffdab352e9445fa2d27a4c"
],
"iterateDefaultGroup_v30" : [
"5f71456f125140f199a68586"
],
"iterateDefaultGroup_v31" : [
"5f71456f125140f199a68586"
]
},
"entities.name" : {
"OTSROOT" : [
"1d8e0e498b364ca0a031b92c",
"2d77ec1a8f804761bcf1642a",
"36ffdab352e9445fa2d27a4c",
"5f71456f125140f199a68586",
"67453548a98d4582baa5adcc",
"76b4493623aa4e46a3c26018",
"a55fc28d82a14e0db5255e7d",
"a95584d6fdc94b2bb28cf932",
"e1d05dd667fa496e9b86bea6",
"e4ab493312b442c0815fac4e",
"f55f865d57664734b7ea5f92"
]
},
"aliases.active.name" : {

},
"runs.name" : {

},
"configurations.assigned" : {
"notprovided" : [
"2020-07-21T14:47:39.114-0500",
"2020-07-21T15:25:07.263-0500",
"2020-08-23T09:43:05.139-0400",
"2020-08-23T10:39:30.584-0400",
"2020-08-23T12:38:25.558-0400",
"2020-09-07T07:24:25.174-0400",
"2020-09-07T07:25:06.802-0400",
"2020-09-07T07:42:46.292-0400",
"2020-09-07T08:36:20.111-0400",
"2020-09-07T10:01:45.942-0400",
"2020-09-07T10:39:24.496-0400"
],
"iterateDefaultGroup_v0" : [
"2020-07-21T14:47:39.609-0500"
],
"iterateDefaultGroup_v1" : [
"2020-07-21T15:25:07.996-0500"
],
"iterateDefaultGroup_v2" : [
"2020-07-21T15:28:04.368-0500"
],
"iterateDefaultGroup_v3" : [
"2020-07-21T15:42:20.680-0500"
],
"iterateDefaultGroup_v4" : [
"2020-07-21T15:45:03.720-0500"
],
"iterateDefaultGroup_v5" : [
"2020-07-21T15:57:33.707-0500"
],
"iterateDefaultGroup_v6" : [
"2020-07-28T10:52:35.191-0500"
],
"iterateDefaultGroup_v7" : [
"2020-07-28T13:01:36.876-0500"
],
"iterateDefaultGroup_v8" : [
"2020-07-28T13:03:27.089-0500"
],
"iterateDefaultGroup_v9" : [
"2020-07-28T13:12:58.075-0500"
],
"iterateDefaultGroup_v10" : [
"2020-07-28T13:15:25.300-0500"
],
"iterateDefaultGroup_v11" : [
"2020-07-28T13:20:57.225-0500"
],
"iterateDefaultGroup_v12" : [
"2020-07-28T13:27:37.817-0500"
],
"iterateDefaultGroup_v13" : [
"2020-08-23T09:24:34.635-0400"
],
"iterateDefaultGroup_v14" : [
"2020-08-23T09:26:43.204-0400"
],
"iterateDefaultGroup_v15" : [
"2020-08-23T09:29:14.501-0400"
],
"iterateDefaultGroup_v16" : [
"2020-08-23T09:33:18.749-0400"
],
"iterateDefaultGroup_v17" : [
"2020-08-23T09:43:06.322-0400"
],
"iterateDefaultGroup_v18" : [
"2020-08-23T10:39:31.918-0400"
],
"iterateDefaultGroup_v19" : [
"2020-08-23T11:05:09.629-0400"
],
"iterateDefaultGroup_v20" : [
"2020-08-23T12:38:26.903-0400"
],
"iterateDefaultGroup_v21" : [
"2020-09-07T07:24:26.776-0400"
],
"iterateDefaultGroup_v22" : [
"2020-09-07T07:25:08.308-0400"
],
"iterateDefaultGroup_v23" : [
"2020-09-07T07:42:47.863-0400"
],
"iterateDefaultGroup_v24" : [
"2020-09-07T08:36:21.581-0400"
],
"iterateDefaultGroup_v25" : [
"2020-09-07T08:41:07.254-0400"
],
"iterateDefaultGroup_v26" : [
"2020-09-07T10:01:47.425-0400"
],
"iterateDefaultGroup_v27" : [
"2020-09-07T10:05:34.028-0400"
],
"iterateDefaultGroup_v28" : [
"2020-09-07T10:31:12.141-0400"
],
"iterateDefaultGroup_v29" : [
"2020-09-07T10:32:32.006-0400"
],
"iterateDefaultGroup_v30" : [
"2020-09-07T10:39:25.972-0400"
],
"iterateDefaultGroup_v31" : [
"2020-09-07T10:47:19.763-0400"
]
}
}