{
"document" : {
"data" : {
"NAME" : "VERSION_ALIASES_TABLE",
"COMMENT" : "Default Version Aliases.",
"AUTHOR" : "admin",
"CREATION_TIME" : 1480649901,
"COL_TYPES" : {
"VERSION_ALIAS_UID" : "VARCHAR2",
"TABLE_NAME" : "VARCHAR2",
"VERSION_ALIAS" : "VARCHAR2",
"VERSION" : "VARCHAR2",
"COMMENT_DESCRIPTION" : "VARCHAR2",
"AUTHOR" : "VARCHAR2",
"RECORD_INSERTION_TIME" : "TIMESTAMP WITH TIMEZONE"
},
"DATA_SET" : [

]
},
"metadata" : {

},
"search" : [

]
},
"comments" : [

],
"origin" : {
"source" : "template",
"name" : "notprovided",
"format" : "json",
"created" : "2019-02-22T16:11:43.777-0600",
"rawdata" : [

]
},
"version" : "4",
"entities" : [
{
"name" : "OTSROOT",
"assigned" : "2019-02-22T16:11:43.777-0600"
}
],
"tables" : [
{
"name" : "notprovided",
"assigned" : "2019-02-22T16:11:43.777-0600"
},
{
"name" : "GroupAliasTreeEditWizBackbone_v4",
"assigned" : "2019-02-22T16:11:43.814-0600"
}
],
"changelog" : "notprovided",
"bookkeeping" : {
"isdeleted" : false,
"isreadonly" : false,
"updates" : [
{
"event" : "addTable",
"timestamp" : "2019-02-22T16:11:43.777-0600",
"value" : {
"name" : "notprovided",
"assigned" : "2019-02-22T16:11:43.777-0600"
}
},
{
"event" : "setVersion",
"timestamp" : "2019-02-22T16:11:43.777-0600",
"value" : {
"name" : "4",
"assigned" : "2019-02-22T16:11:43.777-0600"
}
},
{
"event" : "setCollection",
"timestamp" : "2019-02-22T16:11:43.777-0600",
"value" : {
"name" : "VersionAliasesTable",
"assigned" : "2019-02-22T16:11:43.777-0600"
}
},
{
"event" : "addEntity",
"timestamp" : "2019-02-22T16:11:43.777-0600",
"value" : {
"name" : "OTSROOT",
"assigned" : "2019-02-22T16:11:43.777-0600"
}
},
{
"event" : "addTable",
"timestamp" : "2019-02-22T16:11:43.814-0600",
"value" : {
"name" : "GroupAliasTreeEditWizBackbone_v4",
"assigned" : "2019-02-22T16:11:43.814-0600"
}
},
{
"event" : "addConfiguration",
"timestamp" : "2019-07-22T11:27:31.145-0500",
"value" : {
"name" : "TableEditWizBackbone_v0",
"assigned" : "2019-07-22T11:27:31.145-0500"
}
},
{
"event" : "addConfiguration",
"timestamp" : "2019-07-22T14:43:10.960-0500",
"value" : {
"name" : "TableEditWizBackbone_v1",
"assigned" : "2019-07-22T14:43:10.960-0500"
}
},
{
"event" : "addConfiguration",
"timestamp" : "2019-07-22T14:47:02.107-0500",
"value" : {
"name" : "TableEditWizBackbone_v2",
"assigned" : "2019-07-22T14:47:02.107-0500"
}
},
{
"event" : "addConfiguration",
"timestamp" : "2019-07-22T15:05:42.185-0500",
"value" : {
"name" : "TableEditWizBackbone_v3",
"assigned" : "2019-07-22T15:05:42.185-0500"
}
},
{
"event" : "addConfiguration",
"timestamp" : "2019-07-23T09:00:32.680-0500",
"value" : {
"name" : "TableEditWizBackbone_v4",
"assigned" : "2019-07-23T09:00:32.680-0500"
}
},
{
"event" : "addConfiguration",
"timestamp" : "2019-07-23T09:04:44.360-0500",
"value" : {
"name" : "TableEditWizBackbone_v5",
"assigned" : "2019-07-23T09:04:44.360-0500"
}
},
{
"event" : "addConfiguration",
"timestamp" : "2019-07-23T09:05:26.254-0500",
"value" : {
"name" : "GroupAliasTreeEditWizBackbone_v5",
"assigned" : "2019-07-23T09:05:26.254-0500"
}
},
{
"event" : "addConfiguration",
"timestamp" : "2019-07-23T09:48:12.487-0500",
"value" : {
"name" : "TableEditWizBackbone_v6",
"assigned" : "2019-07-23T09:48:12.487-0500"
}
},
{
"event" : "addConfiguration",
"timestamp" : "2019-08-07T11:00:30.195-0500",
"value" : {
"name" : "TableEditWizBackbone_v7",
"assigned" : "2019-08-07T11:00:30.195-0500"
}
},
{
"event" : "addConfiguration",
"timestamp" : "2019-11-19T16:07:22.398-0600",
"value" : {
"name" : "TableEditWizBackbone_v8",
"assigned" : "2019-11-19T16:07:22.398-0600"
}
},
{
"event" : "addConfiguration",
"timestamp" : "2019-11-20T14:24:13.413-0600",
"value" : {
"name" : "TableEditWizBackbone_v9",
"assigned" : "2019-11-20T14:24:13.413-0600"
}
},
{
"event" : "addConfiguration",
"timestamp" : "2019-11-20T14:39:28.282-0600",
"value" : {
"name" : "TableEditWizBackbone_v10",
"assigned" : "2019-11-20T14:39:28.282-0600"
}
},
{
"event" : "addConfiguration",
"timestamp" : "2019-11-20T15:25:39.425-0600",
"value" : {
"name" : "TableEditWizBackbone_v11",
"assigned" : "2019-11-20T15:25:39.425-0600"
}
},
{
"event" : "addConfiguration",
"timestamp" : "2019-11-20T15:26:59.385-0600",
"value" : {
"name" : "TableEditWizBackbone_v12",
"assigned" : "2019-11-20T15:26:59.385-0600"
}
},
{
"event" : "addConfiguration",
"timestamp" : "2019-11-20T15:27:25.367-0600",
"value" : {
"name" : "GroupAliasTreeEditWizBackbone_v6",
"assigned" : "2019-11-20T15:27:25.367-0600"
}
},
{
"event" : "addConfiguration",
"timestamp" : "2019-11-20T15:28:13.386-0600",
"value" : {
"name" : "GroupAliasTreeEditWizBackbone_v7",
"assigned" : "2019-11-20T15:28:13.386-0600"
}
},
{
"event" : "addConfiguration",
"timestamp" : "2019-11-20T15:28:34.567-0600",
"value" : {
"name" : "GroupAliasTreeEditWizBackbone_v8",
"assigned" : "2019-11-20T15:28:34.567-0600"
}
},
{
"event" : "addConfiguration",
"timestamp" : "2019-11-20T15:56:59.233-0600",
"value" : {
"name" : "GroupAliasTreeEditWizBackbone_v9",
"assigned" : "2019-11-20T15:56:59.233-0600"
}
},
{
"event" : "addConfiguration",
"timestamp" : "2019-11-20T15:58:30.990-0600",
"value" : {
"name" : "TableEditWizBackbone_v13",
"assigned" : "2019-11-20T15:58:30.990-0600"
}
},
{
"event" : "addConfiguration",
"timestamp" : "2019-11-20T15:59:10.650-0600",
"value" : {
"name" : "GroupAliasTreeEditWizBackbone_v10",
"assigned" : "2019-11-20T15:59:10.650-0600"
}
},
{
"event" : "addConfiguration",
"timestamp" : "2019-11-20T16:00:10.074-0600",
"value" : {
"name" : "GroupAliasTreeEditWizBackbone_v11",
"assigned" : "2019-11-20T16:00:10.074-0600"
}
},
{
"event" : "addConfiguration",
"timestamp" : "2019-11-20T16:01:26.939-0600",
"value" : {
"name" : "GroupAliasTreeEditWizBackbone_v12",
"assigned" : "2019-11-20T16:01:26.939-0600"
}
},
{
"event" : "addConfiguration",
"timestamp" : "2019-11-20T16:23:04.629-0600",
"value" : {
"name" : "TableEditWizBackbone_v14",
"assigned" : "2019-11-20T16:23:04.629-0600"
}
},
{
"event" : "addConfiguration",
"timestamp" : "2019-11-20T16:24:46.804-0600",
"value" : {
"name" : "TableEditWizBackbone_v15",
"assigned" : "2019-11-20T16:24:46.804-0600"
}
},
{
"event" : "addConfiguration",
"timestamp" : "2019-11-20T16:27:47.621-0600",
"value" : {
"name" : "TableEditWizBackbone_v16",
"assigned" : "2019-11-20T16:27:47.621-0600"
}
},
{
"event" : "addConfiguration",
"timestamp" : "2019-11-20T16:42:12.098-0600",
"value" : {
"name" : "GroupAliasTreeEditWizBackbone_v13",
"assigned" : "2019-11-20T16:42:12.098-0600"
}
},
{
"event" : "addConfiguration",
"timestamp" : "2019-12-05T17:52:37.297-0600",
"value" : {
"name" : "GroupAliasTreeEditWizBackbone_v14",
"assigned" : "2019-12-05T17:52:37.297-0600"
}
},
{
"event" : "addConfiguration",
"timestamp" : "2019-12-06T09:54:13.767-0600",
"value" : {
"name" : "TableEditWizBackbone_v17",
"assigned" : "2019-12-06T09:54:13.766-0600"
}
},
{
"event" : "addConfiguration",
"timestamp" : "2019-12-06T17:09:41.423-0600",
"value" : {
"name" : "TableEditWizBackbone_v18",
"assigned" : "2019-12-06T17:09:41.423-0600"
}
},
{
"event" : "addConfiguration",
"timestamp" : "2019-12-09T11:57:00.474-0600",
"value" : {
"name" : "GroupAliasTreeEditWizBackbone_v15",
"assigned" : "2019-12-09T11:57:00.474-0600"
}
},
{
"event" : "addConfiguration",
"timestamp" : "2019-12-09T15:50:02.313-0600",
"value" : {
"name" : "GroupAliasTreeEditWizBackbone_v16",
"assigned" : "2019-12-09T15:50:02.313-0600"
}
},
{
"event" : "addConfiguration",
"timestamp" : "2019-12-09T19:33:38.938-0600",
"value" : {
"name" : "GroupAliasTreeEditWizBackbone_v17",
"assigned" : "2019-12-09T19:33:38.938-0600"
}
},
{
"event" : "addConfiguration",
"timestamp" : "2019-12-10T14:21:56.570-0600",
"value" : {
"name" : "GroupAliasTreeEditWizBackbone_v18",
"assigned" : "2019-12-10T14:21:56.570-0600"
}
},
{
"event" : "addConfiguration",
"timestamp" : "2019-12-13T13:15:35.312-0600",
"value" : {
"name" : "GroupAliasTreeEditWizBackbone_v19",
"assigned" : "2019-12-13T13:15:35.312-0600"
}
},
{
"event" : "addConfiguration",
"timestamp" : "2019-12-13T13:20:59.481-0600",
"value" : {
"name" : "TableEditWizBackbone_v19",
"assigned" : "2019-12-13T13:20:59.481-0600"
}
}
],
"created" : "2019-02-22T16:11:43.777-0600"
},
"_id" : {
"$oid" : "5480206792824f95b2ca0e52"
},
"collection" : "VersionAliasesTable",
"aliases" : {
"active" : [

],
"history" : [

]
},
"runs" : [

],
"attachments" : [

],
"configtype" : "notprovided",
"configurations" : [
{
"name" : "TableEditWizBackbone_v0",
"assigned" : "2019-07-22T11:27:31.145-0500"
},
{
"name" : "TableEditWizBackbone_v1",
"assigned" : "2019-07-22T14:43:10.960-0500"
},
{
"name" : "TableEditWizBackbone_v2",
"assigned" : "2019-07-22T14:47:02.107-0500"
},
{
"name" : "TableEditWizBackbone_v3",
"assigned" : "2019-07-22T15:05:42.185-0500"
},
{
"name" : "TableEditWizBackbone_v4",
"assigned" : "2019-07-23T09:00:32.680-0500"
},
{
"name" : "TableEditWizBackbone_v5",
"assigned" : "2019-07-23T09:04:44.360-0500"
},
{
"name" : "GroupAliasTreeEditWizBackbone_v5",
"assigned" : "2019-07-23T09:05:26.254-0500"
},
{
"name" : "TableEditWizBackbone_v6",
"assigned" : "2019-07-23T09:48:12.487-0500"
},
{
"name" : "TableEditWizBackbone_v7",
"assigned" : "2019-08-07T11:00:30.195-0500"
},
{
"name" : "TableEditWizBackbone_v8",
"assigned" : "2019-11-19T16:07:22.398-0600"
},
{
"name" : "TableEditWizBackbone_v9",
"assigned" : "2019-11-20T14:24:13.413-0600"
},
{
"name" : "TableEditWizBackbone_v10",
"assigned" : "2019-11-20T14:39:28.282-0600"
},
{
"name" : "TableEditWizBackbone_v11",
"assigned" : "2019-11-20T15:25:39.425-0600"
},
{
"name" : "TableEditWizBackbone_v12",
"assigned" : "2019-11-20T15:26:59.385-0600"
},
{
"name" : "GroupAliasTreeEditWizBackbone_v6",
"assigned" : "2019-11-20T15:27:25.367-0600"
},
{
"name" : "GroupAliasTreeEditWizBackbone_v7",
"assigned" : "2019-11-20T15:28:13.386-0600"
},
{
"name" : "GroupAliasTreeEditWizBackbone_v8",
"assigned" : "2019-11-20T15:28:34.567-0600"
},
{
"name" : "GroupAliasTreeEditWizBackbone_v9",
"assigned" : "2019-11-20T15:56:59.233-0600"
},
{
"name" : "TableEditWizBackbone_v13",
"assigned" : "2019-11-20T15:58:30.990-0600"
},
{
"name" : "GroupAliasTreeEditWizBackbone_v10",
"assigned" : "2019-11-20T15:59:10.650-0600"
},
{
"name" : "GroupAliasTreeEditWizBackbone_v11",
"assigned" : "2019-11-20T16:00:10.074-0600"
},
{
"name" : "GroupAliasTreeEditWizBackbone_v12",
"assigned" : "2019-11-20T16:01:26.939-0600"
},
{
"name" : "TableEditWizBackbone_v14",
"assigned" : "2019-11-20T16:23:04.629-0600"
},
{
"name" : "TableEditWizBackbone_v15",
"assigned" : "2019-11-20T16:24:46.804-0600"
},
{
"name" : "TableEditWizBackbone_v16",
"assigned" : "2019-11-20T16:27:47.621-0600"
},
{
"name" : "GroupAliasTreeEditWizBackbone_v13",
"assigned" : "2019-11-20T16:42:12.098-0600"
},
{
"name" : "GroupAliasTreeEditWizBackbone_v14",
"assigned" : "2019-12-05T17:52:37.297-0600"
},
{
"name" : "TableEditWizBackbone_v17",
"assigned" : "2019-12-06T09:54:13.766-0600"
},
{
"name" : "TableEditWizBackbone_v18",
"assigned" : "2019-12-06T17:09:41.423-0600"
},
{
"name" : "GroupAliasTreeEditWizBackbone_v15",
"assigned" : "2019-12-09T11:57:00.474-0600"
},
{
"name" : "GroupAliasTreeEditWizBackbone_v16",
"assigned" : "2019-12-09T15:50:02.313-0600"
},
{
"name" : "GroupAliasTreeEditWizBackbone_v17",
"assigned" : "2019-12-09T19:33:38.938-0600"
},
{
"name" : "GroupAliasTreeEditWizBackbone_v18",
"assigned" : "2019-12-10T14:21:56.570-0600"
},
{
"name" : "GroupAliasTreeEditWizBackbone_v19",
"assigned" : "2019-12-13T13:15:35.312-0600"
},
{
"name" : "TableEditWizBackbone_v19",
"assigned" : "2019-12-13T13:20:59.481-0600"
}
]
}