{
"document" : {
"data" : {
"NAME" : "FE_SLOW_CONTROLS_CONFIGURATION",
"COMMENT" : "1 second period. w/latched alarms field true, w/alarms and text format. first try with hw emulator slow controls. w/ valid data type. w/status.",
"AUTHOR" : "admin",
"CREATION_TIME" : 1480280002,
"COL_TYPES" : {
"FE_GROUP_ID" : "VARCHAR2",
"CHANNEL_NAME" : "VARCHAR2",
"STATUS" : "VARCHAR2",
"CHANNEL_DATA_TYPE" : "VARCHAR2",
"UNIVERSAL_INTERFACE_ADDRESS" : "VARCHAR2",
"UNIVERSAL_DATA_BIT_OFFSET" : "NUMBER",
"READ_ACCESS" : "VARCHAR2",
"WRITE_ACCESS" : "VARCHAR2",
"RECORD_CHANGES_ONLY" : "VARCHAR2",
"DELAY_BETWEEN_SAMPLES_IN_SECONDS" : "NUMBER",
"MONITORING_ENABLED" : "VARCHAR2",
"LOCAL_SAVING_ENABLED" : "VARCHAR2",
"LOCAL_FILE_PATH" : "VARCHAR2",
"RADIX_FILE_NAME" : "VARCHAR2",
"SAVE_BINARY_FILE" : "VARCHAR2",
"ALARMS_ENABLED" : "VARCHAR2",
"LATCH_ALARMS" : "VARCHAR2",
"LOW_LOW_THRESHOLD" : "VARCHAR2",
"LOW_THRESHOLD" : "VARCHAR2",
"HIGH_THRESHOLD" : "VARCHAR2",
"HIGH_HIGH_THRESHOLD" : "VARCHAR2",
"COMMENT_DESCRIPTION" : "VARCHAR2",
"AUTHOR" : "VARCHAR2",
"RECORD_INSERTION_TIME" : "TIMESTAMP WITH TIMEZONE"
},
"DATA_SET" : [
{
"FE_GROUP_ID" : "OtsHwEmulatorGroup0",
"CHANNEL_NAME" : "BurstDataCount",
"STATUS" : "On",
"CHANNEL_DATA_TYPE" : "unsigned long long",
"UNIVERSAL_INTERFACE_ADDRESS" : "0x1001",
"UNIVERSAL_DATA_BIT_OFFSET" : "0",
"READ_ACCESS" : "Yes",
"WRITE_ACCESS" : "Yes",
"RECORD_CHANGES_ONLY" : "True",
"DELAY_BETWEEN_SAMPLES_IN_SECONDS" : "1",
"MONITORING_ENABLED" : "Yes",
"LOCAL_SAVING_ENABLED" : "Yes",
"LOCAL_FILE_PATH" : "/home/rrivera/ots/tmp/",
"RADIX_FILE_NAME" : "SlowControls",
"SAVE_BINARY_FILE" : "False",
"ALARMS_ENABLED" : "Yes",
"LATCH_ALARMS" : "True",
"LOW_LOW_THRESHOLD" : "0",
"LOW_THRESHOLD" : "1",
"HIGH_THRESHOLD" : "9",
"HIGH_HIGH_THRESHOLD" : "10",
"COMMENT_DESCRIPTION" : "No Comment",
"AUTHOR" : "admin",
"RECORD_INSERTION_TIME" : "1480280002"
}
]
},
"metadata" : {

},
"search" : [

]
},
"comments" : [

],
"origin" : {
"source" : "template",
"name" : "notprovided",
"format" : "json",
"created" : "2017-11-08T15:56:03.926-0600",
"rawdata" : [

]
},
"version" : "0",
"entities" : [
{
"name" : "OTSROOT",
"assigned" : "2017-11-08T15:56:03.928-0600"
}
],
"configurations" : [
{
"name" : "notprovided",
"assigned" : "2017-11-08T15:56:03.927-0600"
},
{
"name" : "FTBFConfig_v0",
"assigned" : "2017-11-08T15:56:06.889-0600"
},
{
"name" : "FTBFConfig_v1",
"assigned" : "2017-11-09T09:56:31.668-0600"
},
{
"name" : "FTBFConfig_v2",
"assigned" : "2017-11-09T10:06:00.653-0600"
},
{
"name" : "FTBFConfig_v3",
"assigned" : "2017-11-09T10:37:12.228-0600"
},
{
"name" : "FTBFConfig_v4",
"assigned" : "2017-11-15T11:30:11.076-0600"
},
{
"name" : "FTBFConfig_v5",
"assigned" : "2017-11-15T11:54:57.902-0600"
},
{
"name" : "FTBFConfig_v6",
"assigned" : "2017-11-15T11:57:50.540-0600"
},
{
"name" : "FTBFConfig_v7",
"assigned" : "2017-11-15T12:42:32.996-0600"
},
{
"name" : "FTBFConfig_v8",
"assigned" : "2017-11-15T13:01:04.026-0600"
},
{
"name" : "FTBFConfig_v9",
"assigned" : "2017-11-15T13:02:57.387-0600"
},
{
"name" : "FTBFConfig_v10",
"assigned" : "2017-11-15T13:04:24.977-0600"
},
{
"name" : "FTBFConfig_v11",
"assigned" : "2017-11-15T13:07:52.473-0600"
},
{
"name" : "FTBFConfig_v12",
"assigned" : "2017-11-15T13:11:59.949-0600"
},
{
"name" : "FTBFConfig_v13",
"assigned" : "2017-11-15T13:13:53.912-0600"
},
{
"name" : "FTBFConfig_v14",
"assigned" : "2017-11-15T13:27:33.010-0600"
},
{
"name" : "FTBFConfig_v15",
"assigned" : "2017-11-15T13:35:47.917-0600"
},
{
"name" : "FTBFConfig_v16",
"assigned" : "2017-11-15T13:36:52.528-0600"
},
{
"name" : "FTBFConfig_v17",
"assigned" : "2017-11-15T15:33:31.080-0600"
},
{
"name" : "FTBFConfig_v18",
"assigned" : "2017-11-15T15:35:34.709-0600"
},
{
"name" : "FTBFConfig_v19",
"assigned" : "2017-11-15T15:38:03.575-0600"
},
{
"name" : "FTBFConfig_v20",
"assigned" : "2017-11-15T16:26:31.553-0600"
},
{
"name" : "FTBFConfig_v21",
"assigned" : "2017-11-16T09:22:32.398-0600"
},
{
"name" : "FTBFConfig_v22",
"assigned" : "2017-11-17T10:23:28.618-0600"
},
{
"name" : "FTBFConfig_v23",
"assigned" : "2017-11-17T17:26:46.215-0600"
},
{
"name" : "FTBFConfig_v24",
"assigned" : "2017-11-17T17:58:26.782-0600"
},
{
"name" : "FTBFConfig_v25",
"assigned" : "2017-11-17T18:24:46.462-0600"
},
{
"name" : "FTBFConfig_v26",
"assigned" : "2017-11-17T18:32:24.300-0600"
},
{
"name" : "FTBFConfig_v27",
"assigned" : "2017-11-17T18:43:31.427-0600"
},
{
"name" : "FTBFConfig_v28",
"assigned" : "2017-11-17T18:48:33.522-0600"
},
{
"name" : "FTBFConfig_v29",
"assigned" : "2017-11-20T14:48:31.892-0600"
},
{
"name" : "FTBFConfig_v30",
"assigned" : "2017-11-20T15:39:56.953-0600"
},
{
"name" : "FTBFConfig_v31",
"assigned" : "2017-11-20T16:41:02.998-0600"
},
{
"name" : "FTBFConfig_v32",
"assigned" : "2017-11-20T18:55:35.938-0600"
},
{
"name" : "FTBFConfig_v33",
"assigned" : "2017-11-20T18:57:31.252-0600"
},
{
"name" : "FTBFConfig_v34",
"assigned" : "2017-11-29T17:50:40.709-0600"
},
{
"name" : "FTBFConfig_v35",
"assigned" : "2017-11-29T18:00:33.671-0600"
},
{
"name" : "FTBFConfig_v36",
"assigned" : "2017-11-29T18:35:12.378-0600"
},
{
"name" : "FTBFConfig_v37",
"assigned" : "2017-12-01T09:36:19.151-0600"
},
{
"name" : "FTBFConfig_v38",
"assigned" : "2017-12-01T09:52:02.154-0600"
},
{
"name" : "FTBFConfig_v39",
"assigned" : "2017-12-01T11:51:59.423-0600"
},
{
"name" : "FTBFConfig_v40",
"assigned" : "2017-12-01T12:18:21.537-0600"
},
{
"name" : "FTBFConfig_v41",
"assigned" : "2017-12-01T12:21:03.537-0600"
},
{
"name" : "FTBFConfig_v42",
"assigned" : "2017-12-01T12:43:22.985-0600"
},
{
"name" : "FTBFConfig_v43",
"assigned" : "2017-12-01T12:58:00.888-0600"
},
{
"name" : "FTBFConfig_v44",
"assigned" : "2017-12-01T13:00:53.426-0600"
},
{
"name" : "FTBFConfig_v45",
"assigned" : "2017-12-01T13:25:49.955-0600"
},
{
"name" : "FTBFConfig_v46",
"assigned" : "2017-12-01T13:35:44.811-0600"
},
{
"name" : "FTBFConfig_v47",
"assigned" : "2017-12-01T14:00:52.974-0600"
},
{
"name" : "FTBFConfig_v48",
"assigned" : "2017-12-01T14:04:00.336-0600"
},
{
"name" : "FTBFConfig_v49",
"assigned" : "2017-12-01T15:32:00.508-0600"
},
{
"name" : "FTBFConfig_v52",
"assigned" : "2017-12-01T15:37:33.292-0600"
},
{
"name" : "FTBFConfig_v53",
"assigned" : "2017-12-01T15:41:00.037-0600"
},
{
"name" : "FTBFConfig_v54",
"assigned" : "2017-12-01T15:52:50.336-0600"
},
{
"name" : "FTBFConfig_v55",
"assigned" : "2017-12-01T15:54:35.506-0600"
},
{
"name" : "FTBFConfig_v56",
"assigned" : "2017-12-01T15:55:35.095-0600"
},
{
"name" : "FTBFConfig_v57",
"assigned" : "2017-12-01T15:56:40.947-0600"
},
{
"name" : "FTBFConfig_v58",
"assigned" : "2017-12-01T15:57:39.040-0600"
},
{
"name" : "FTBFConfig_v59",
"assigned" : "2017-12-01T15:58:30.904-0600"
},
{
"name" : "FTBFConfig_v60",
"assigned" : "2017-12-01T15:59:32.130-0600"
},
{
"name" : "FTBFConfig_v61",
"assigned" : "2017-12-01T16:19:41.976-0600"
},
{
"name" : "FTBFConfig_v62",
"assigned" : "2017-12-01T16:22:04.434-0600"
},
{
"name" : "FTBFConfig_v63",
"assigned" : "2017-12-01T16:31:25.084-0600"
},
{
"name" : "FTBFConfig_v64",
"assigned" : "2017-12-01T17:06:32.414-0600"
},
{
"name" : "FTBFConfig_v65",
"assigned" : "2017-12-01T17:32:44.605-0600"
},
{
"name" : "FTBFConfig_v66",
"assigned" : "2017-12-01T20:38:50.964-0600"
},
{
"name" : "FTBFConfig_v67",
"assigned" : "2017-12-01T21:25:02.316-0600"
},
{
"name" : "FTBFConfig_v68",
"assigned" : "2017-12-01T21:43:02.017-0600"
},
{
"name" : "FTBFConfig_v69",
"assigned" : "2017-12-01T21:45:00.594-0600"
},
{
"name" : "FTBFConfig_v70",
"assigned" : "2017-12-01T21:59:19.888-0600"
},
{
"name" : "FTBFConfigNim_v0",
"assigned" : "2017-12-01T22:00:06.634-0600"
},
{
"name" : "FTBFConfigNim_v1",
"assigned" : "2017-12-01T22:13:08.410-0600"
},
{
"name" : "FTBFConfigNim_v2",
"assigned" : "2017-12-01T22:15:55.640-0600"
},
{
"name" : "FTBFConfigNim_v3",
"assigned" : "2017-12-01T22:17:04.206-0600"
},
{
"name" : "FTBFConfigNim_v4",
"assigned" : "2017-12-01T22:19:06.735-0600"
},
{
"name" : "FTBFConfigNim_v5",
"assigned" : "2017-12-01T22:21:57.513-0600"
},
{
"name" : "FTBFConfigNim_v6",
"assigned" : "2017-12-01T22:23:15.833-0600"
},
{
"name" : "FTBFConfigNim_v7",
"assigned" : "2017-12-01T22:25:17.502-0600"
},
{
"name" : "FTBFConfigNim_v8",
"assigned" : "2017-12-01T22:27:05.180-0600"
},
{
"name" : "FTBFConfigNim_v9",
"assigned" : "2017-12-01T22:29:29.320-0600"
},
{
"name" : "FTBFConfigNim_v10",
"assigned" : "2017-12-01T22:52:34.636-0600"
},
{
"name" : "FTBFConfigNim_v11",
"assigned" : "2017-12-01T22:57:29.318-0600"
},
{
"name" : "FTBFConfigNim_v12",
"assigned" : "2017-12-01T23:00:07.511-0600"
},
{
"name" : "FTBFConfigNim_v13",
"assigned" : "2017-12-01T23:52:35.657-0600"
},
{
"name" : "FTBFConfigNim_v14",
"assigned" : "2017-12-01T23:58:10.139-0600"
},
{
"name" : "FTBFConfigNim_v15",
"assigned" : "2017-12-02T00:00:34.338-0600"
},
{
"name" : "FTBFConfigNim_v16",
"assigned" : "2017-12-02T00:13:09.570-0600"
},
{
"name" : "FTBFConfigNim_v17",
"assigned" : "2017-12-02T00:28:28.469-0600"
},
{
"name" : "FTBFConfigNim_v18",
"assigned" : "2017-12-02T00:29:34.541-0600"
},
{
"name" : "FTBFConfigNim_v19",
"assigned" : "2017-12-02T00:31:13.389-0600"
},
{
"name" : "FTBFConfigNim_v20",
"assigned" : "2017-12-02T00:57:27.584-0600"
},
{
"name" : "FTBFConfigNim_v21",
"assigned" : "2017-12-02T10:58:02.140-0600"
},
{
"name" : "FTBFConfigNim_v22",
"assigned" : "2017-12-02T11:08:18.326-0600"
},
{
"name" : "FTBFConfigNim_v23",
"assigned" : "2017-12-02T11:12:39.954-0600"
},
{
"name" : "FTBFConfigNim_v24",
"assigned" : "2017-12-02T11:18:42.824-0600"
},
{
"name" : "FTBFConfigNim_v25",
"assigned" : "2017-12-02T11:27:06.025-0600"
},
{
"name" : "FTBFConfigNim_v26",
"assigned" : "2017-12-02T11:38:37.071-0600"
},
{
"name" : "FTBFConfigNim_v27",
"assigned" : "2017-12-02T11:49:08.280-0600"
},
{
"name" : "FTBFConfigNim_v28",
"assigned" : "2017-12-02T11:55:09.794-0600"
},
{
"name" : "FTBFConfigNim_v29",
"assigned" : "2017-12-02T12:06:26.579-0600"
},
{
"name" : "FTBFConfig_v71",
"assigned" : "2017-12-02T12:24:15.243-0600"
},
{
"name" : "FTBFConfig_v72",
"assigned" : "2017-12-02T12:43:36.131-0600"
},
{
"name" : "FTBFConfig_v73",
"assigned" : "2017-12-02T13:55:35.805-0600"
},
{
"name" : "FTBFConfig_v75",
"assigned" : "2017-12-02T14:12:18.994-0600"
},
{
"name" : "FTBFConfig_v76",
"assigned" : "2017-12-02T19:05:54.041-0600"
},
{
"name" : "FTBFConfig_v77",
"assigned" : "2017-12-02T19:12:13.875-0600"
},
{
"name" : "FTBFConfig_v78",
"assigned" : "2017-12-03T14:03:49.024-0600"
},
{
"name" : "FTBFConfig_v79",
"assigned" : "2017-12-03T14:09:07.289-0600"
},
{
"name" : "FTBFConfig_v80",
"assigned" : "2017-12-03T14:11:11.084-0600"
},
{
"name" : "FTBFConfig_v81",
"assigned" : "2017-12-03T14:22:34.084-0600"
},
{
"name" : "FTBFConfig_v82",
"assigned" : "2017-12-03T14:40:38.903-0600"
},
{
"name" : "FTBFConfig_v83",
"assigned" : "2017-12-03T14:45:06.255-0600"
},
{
"name" : "FTBFConfig_v84",
"assigned" : "2017-12-04T14:51:31.543-0600"
},
{
"name" : "FTBFConfig_v85",
"assigned" : "2017-12-04T14:55:44.734-0600"
},
{
"name" : "FTBFConfig_v86",
"assigned" : "2017-12-04T16:51:07.806-0600"
},
{
"name" : "FTBFConfig_v87",
"assigned" : "2017-12-04T16:56:48.442-0600"
},
{
"name" : "FTBFConfig_v88",
"assigned" : "2017-12-04T17:01:13.191-0600"
},
{
"name" : "FTBFConfig_v89",
"assigned" : "2017-12-04T17:03:58.308-0600"
},
{
"name" : "FTBFConfig_v90",
"assigned" : "2017-12-04T17:07:17.958-0600"
},
{
"name" : "FTBFConfig_v91",
"assigned" : "2017-12-04T17:09:27.097-0600"
},
{
"name" : "FTBFConfig_v92",
"assigned" : "2017-12-04T17:11:39.609-0600"
},
{
"name" : "FTBFConfig_v93",
"assigned" : "2017-12-04T21:05:22.143-0600"
},
{
"name" : "FTBFConfig_v94",
"assigned" : "2017-12-04T21:17:13.133-0600"
},
{
"name" : "FTBFConfig_v95",
"assigned" : "2017-12-04T21:41:18.768-0600"
},
{
"name" : "FTBFConfig_v96",
"assigned" : "2017-12-04T22:39:03.435-0600"
},
{
"name" : "FTBFConfig_v97",
"assigned" : "2017-12-04T23:01:13.934-0600"
},
{
"name" : "FTBFConfig_v98",
"assigned" : "2017-12-07T11:07:47.934-0600"
},
{
"name" : "FTBFConfig_v99",
"assigned" : "2017-12-07T11:50:00.597-0600"
},
{
"name" : "FTBFConfig_v100",
"assigned" : "2017-12-07T11:58:27.349-0600"
},
{
"name" : "FTBFConfig_v101",
"assigned" : "2017-12-08T13:30:49.524-0600"
},
{
"name" : "FTBFConfig_v102",
"assigned" : "2017-12-08T13:32:36.387-0600"
},
{
"name" : "FTBFConfig_v103",
"assigned" : "2017-12-12T11:03:06.211-0600"
},
{
"name" : "FTBFConfig_v104",
"assigned" : "2017-12-12T13:51:00.753-0600"
},
{
"name" : "FTBFConfig_v105",
"assigned" : "2017-12-12T15:25:06.722-0600"
},
{
"name" : "FTBFConfig_v106",
"assigned" : "2017-12-13T10:24:25.027-0600"
},
{
"name" : "FTBFConfig_v107",
"assigned" : "2017-12-13T10:27:03.751-0600"
},
{
"name" : "FTBFConfig_v108",
"assigned" : "2018-02-01T21:14:27.435-0600"
},
{
"name" : "FTBFConfig_v109",
"assigned" : "2018-02-01T21:21:04.556-0600"
},
{
"name" : "FTBFConfig_v110",
"assigned" : "2018-02-02T11:25:35.551-0600"
},
{
"name" : "FTBFConfig_v111",
"assigned" : "2018-02-02T11:37:14.379-0600"
},
{
"name" : "FTBFConfig_v112",
"assigned" : "2018-02-02T11:47:16.873-0600"
},
{
"name" : "FTBFConfig_v113",
"assigned" : "2018-02-02T11:53:38.126-0600"
},
{
"name" : "FTBFConfig_v114",
"assigned" : "2018-02-02T12:00:54.243-0600"
},
{
"name" : "FTBFConfig_v115",
"assigned" : "2018-02-02T12:27:15.717-0600"
},
{
"name" : "FTBFConfig_v116",
"assigned" : "2018-02-02T14:28:55.237-0600"
},
{
"name" : "FTBFConfig_v117",
"assigned" : "2018-02-02T14:30:21.605-0600"
},
{
"name" : "FTBFConfig_v118",
"assigned" : "2018-02-02T14:34:02.854-0600"
},
{
"name" : "FTBFConfig_v119",
"assigned" : "2018-02-02T14:36:29.456-0600"
},
{
"name" : "FTBFConfig_v120",
"assigned" : "2018-02-02T14:38:42.871-0600"
},
{
"name" : "FTBFConfig_v121",
"assigned" : "2018-02-02T14:41:52.119-0600"
},
{
"name" : "FTBFConfig_v122",
"assigned" : "2018-02-02T14:50:26.207-0600"
},
{
"name" : "FTBFConfig_v123",
"assigned" : "2018-02-02T14:52:59.091-0600"
},
{
"name" : "FTBFConfig_v124",
"assigned" : "2018-02-02T14:59:52.402-0600"
},
{
"name" : "FTBFConfig_v125",
"assigned" : "2018-02-02T15:04:10.524-0600"
},
{
"name" : "FTBFConfig_v126",
"assigned" : "2018-02-02T15:50:13.776-0600"
},
{
"name" : "FTBFConfig_v127",
"assigned" : "2018-02-02T15:51:33.237-0600"
},
{
"name" : "FTBFConfig_v128",
"assigned" : "2018-02-02T15:52:38.397-0600"
},
{
"name" : "FTBFConfig_v129",
"assigned" : "2018-02-02T16:02:47.321-0600"
},
{
"name" : "FTBFConfig_v130",
"assigned" : "2018-02-02T16:08:46.874-0600"
},
{
"name" : "FTBFConfig_v131",
"assigned" : "2018-02-02T16:11:32.723-0600"
},
{
"name" : "FTBFConfig_v132",
"assigned" : "2018-02-02T16:13:00.593-0600"
},
{
"name" : "FTBFConfig_v133",
"assigned" : "2018-02-02T16:14:31.217-0600"
},
{
"name" : "FTBFConfig_v134",
"assigned" : "2018-02-02T16:26:24.111-0600"
},
{
"name" : "FTBFConfig_v135",
"assigned" : "2018-02-02T16:27:11.220-0600"
},
{
"name" : "FTBFConfig_v136",
"assigned" : "2018-02-02T16:29:32.581-0600"
},
{
"name" : "FTBFConfig_v137",
"assigned" : "2018-02-02T16:31:43.204-0600"
},
{
"name" : "FTBFConfig_v138",
"assigned" : "2018-02-02T16:34:15.884-0600"
},
{
"name" : "FTBFConfig_v139",
"assigned" : "2018-02-02T17:39:31.934-0600"
},
{
"name" : "FTBFConfig_v140",
"assigned" : "2018-02-02T17:42:54.118-0600"
},
{
"name" : "FTBFConfig_v141",
"assigned" : "2018-02-02T17:47:39.346-0600"
},
{
"name" : "FTBFConfig_v142",
"assigned" : "2018-02-02T17:54:03.340-0600"
}
],
"changelog" : "notprovided",
"bookkeeping" : {
"isdeleted" : false,
"isreadonly" : false,
"updates" : [
{
"event" : "addConfiguration",
"timestamp" : "2017-11-08T15:56:03.927-0600",
"value" : {
"name" : "notprovided",
"assigned" : "2017-11-08T15:56:03.927-0600"
}
},
{
"event" : "setVersion",
"timestamp" : "2017-11-08T15:56:03.927-0600",
"value" : {
"name" : "0",
"assigned" : "2017-11-08T15:56:03.927-0600"
}
},
{
"event" : "setCollection",
"timestamp" : "2017-11-08T15:56:03.927-0600",
"value" : {
"name" : "FESlowControlsConfiguration",
"assigned" : "2017-11-08T15:56:03.927-0600"
}
},
{
"event" : "addEntity",
"timestamp" : "2017-11-08T15:56:03.928-0600",
"value" : {
"name" : "OTSROOT",
"assigned" : "2017-11-08T15:56:03.928-0600"
}
},
{
"event" : "addConfiguration",
"timestamp" : "2017-11-08T15:56:06.889-0600",
"value" : {
"name" : "FTBFConfig_v0",
"assigned" : "2017-11-08T15:56:06.889-0600"
}
},
{
"event" : "addConfiguration",
"timestamp" : "2017-11-09T09:56:31.668-0600",
"value" : {
"name" : "FTBFConfig_v1",
"assigned" : "2017-11-09T09:56:31.668-0600"
}
},
{
"event" : "addConfiguration",
"timestamp" : "2017-11-09T10:06:00.653-0600",
"value" : {
"name" : "FTBFConfig_v2",
"assigned" : "2017-11-09T10:06:00.653-0600"
}
},
{
"event" : "addConfiguration",
"timestamp" : "2017-11-09T10:37:12.228-0600",
"value" : {
"name" : "FTBFConfig_v3",
"assigned" : "2017-11-09T10:37:12.228-0600"
}
},
{
"event" : "addConfiguration",
"timestamp" : "2017-11-15T11:30:11.076-0600",
"value" : {
"name" : "FTBFConfig_v4",
"assigned" : "2017-11-15T11:30:11.076-0600"
}
},
{
"event" : "addConfiguration",
"timestamp" : "2017-11-15T11:54:57.902-0600",
"value" : {
"name" : "FTBFConfig_v5",
"assigned" : "2017-11-15T11:54:57.902-0600"
}
},
{
"event" : "addConfiguration",
"timestamp" : "2017-11-15T11:57:50.540-0600",
"value" : {
"name" : "FTBFConfig_v6",
"assigned" : "2017-11-15T11:57:50.540-0600"
}
},
{
"event" : "addConfiguration",
"timestamp" : "2017-11-15T12:42:32.996-0600",
"value" : {
"name" : "FTBFConfig_v7",
"assigned" : "2017-11-15T12:42:32.996-0600"
}
},
{
"event" : "addConfiguration",
"timestamp" : "2017-11-15T13:01:04.026-0600",
"value" : {
"name" : "FTBFConfig_v8",
"assigned" : "2017-11-15T13:01:04.026-0600"
}
},
{
"event" : "addConfiguration",
"timestamp" : "2017-11-15T13:02:57.387-0600",
"value" : {
"name" : "FTBFConfig_v9",
"assigned" : "2017-11-15T13:02:57.387-0600"
}
},
{
"event" : "addConfiguration",
"timestamp" : "2017-11-15T13:04:24.977-0600",
"value" : {
"name" : "FTBFConfig_v10",
"assigned" : "2017-11-15T13:04:24.977-0600"
}
},
{
"event" : "addConfiguration",
"timestamp" : "2017-11-15T13:07:52.473-0600",
"value" : {
"name" : "FTBFConfig_v11",
"assigned" : "2017-11-15T13:07:52.473-0600"
}
},
{
"event" : "addConfiguration",
"timestamp" : "2017-11-15T13:11:59.949-0600",
"value" : {
"name" : "FTBFConfig_v12",
"assigned" : "2017-11-15T13:11:59.949-0600"
}
},
{
"event" : "addConfiguration",
"timestamp" : "2017-11-15T13:13:53.912-0600",
"value" : {
"name" : "FTBFConfig_v13",
"assigned" : "2017-11-15T13:13:53.912-0600"
}
},
{
"event" : "addConfiguration",
"timestamp" : "2017-11-15T13:27:33.010-0600",
"value" : {
"name" : "FTBFConfig_v14",
"assigned" : "2017-11-15T13:27:33.010-0600"
}
},
{
"event" : "addConfiguration",
"timestamp" : "2017-11-15T13:35:47.917-0600",
"value" : {
"name" : "FTBFConfig_v15",
"assigned" : "2017-11-15T13:35:47.917-0600"
}
},
{
"event" : "addConfiguration",
"timestamp" : "2017-11-15T13:36:52.528-0600",
"value" : {
"name" : "FTBFConfig_v16",
"assigned" : "2017-11-15T13:36:52.528-0600"
}
},
{
"event" : "addConfiguration",
"timestamp" : "2017-11-15T15:33:31.080-0600",
"value" : {
"name" : "FTBFConfig_v17",
"assigned" : "2017-11-15T15:33:31.080-0600"
}
},
{
"event" : "addConfiguration",
"timestamp" : "2017-11-15T15:35:34.709-0600",
"value" : {
"name" : "FTBFConfig_v18",
"assigned" : "2017-11-15T15:35:34.709-0600"
}
},
{
"event" : "addConfiguration",
"timestamp" : "2017-11-15T15:38:03.575-0600",
"value" : {
"name" : "FTBFConfig_v19",
"assigned" : "2017-11-15T15:38:03.575-0600"
}
},
{
"event" : "addConfiguration",
"timestamp" : "2017-11-15T16:26:31.553-0600",
"value" : {
"name" : "FTBFConfig_v20",
"assigned" : "2017-11-15T16:26:31.553-0600"
}
},
{
"event" : "addConfiguration",
"timestamp" : "2017-11-16T09:22:32.398-0600",
"value" : {
"name" : "FTBFConfig_v21",
"assigned" : "2017-11-16T09:22:32.398-0600"
}
},
{
"event" : "addConfiguration",
"timestamp" : "2017-11-17T10:23:28.618-0600",
"value" : {
"name" : "FTBFConfig_v22",
"assigned" : "2017-11-17T10:23:28.618-0600"
}
},
{
"event" : "addConfiguration",
"timestamp" : "2017-11-17T17:26:46.215-0600",
"value" : {
"name" : "FTBFConfig_v23",
"assigned" : "2017-11-17T17:26:46.215-0600"
}
},
{
"event" : "addConfiguration",
"timestamp" : "2017-11-17T17:58:26.782-0600",
"value" : {
"name" : "FTBFConfig_v24",
"assigned" : "2017-11-17T17:58:26.782-0600"
}
},
{
"event" : "addConfiguration",
"timestamp" : "2017-11-17T18:24:46.462-0600",
"value" : {
"name" : "FTBFConfig_v25",
"assigned" : "2017-11-17T18:24:46.462-0600"
}
},
{
"event" : "addConfiguration",
"timestamp" : "2017-11-17T18:32:24.300-0600",
"value" : {
"name" : "FTBFConfig_v26",
"assigned" : "2017-11-17T18:32:24.300-0600"
}
},
{
"event" : "addConfiguration",
"timestamp" : "2017-11-17T18:43:31.427-0600",
"value" : {
"name" : "FTBFConfig_v27",
"assigned" : "2017-11-17T18:43:31.427-0600"
}
},
{
"event" : "addConfiguration",
"timestamp" : "2017-11-17T18:48:33.522-0600",
"value" : {
"name" : "FTBFConfig_v28",
"assigned" : "2017-11-17T18:48:33.522-0600"
}
},
{
"event" : "addConfiguration",
"timestamp" : "2017-11-20T14:48:31.893-0600",
"value" : {
"name" : "FTBFConfig_v29",
"assigned" : "2017-11-20T14:48:31.892-0600"
}
},
{
"event" : "addConfiguration",
"timestamp" : "2017-11-20T15:39:56.953-0600",
"value" : {
"name" : "FTBFConfig_v30",
"assigned" : "2017-11-20T15:39:56.953-0600"
}
},
{
"event" : "addConfiguration",
"timestamp" : "2017-11-20T16:41:02.998-0600",
"value" : {
"name" : "FTBFConfig_v31",
"assigned" : "2017-11-20T16:41:02.998-0600"
}
},
{
"event" : "addConfiguration",
"timestamp" : "2017-11-20T18:55:35.939-0600",
"value" : {
"name" : "FTBFConfig_v32",
"assigned" : "2017-11-20T18:55:35.938-0600"
}
},
{
"event" : "addConfiguration",
"timestamp" : "2017-11-20T18:57:31.253-0600",
"value" : {
"name" : "FTBFConfig_v33",
"assigned" : "2017-11-20T18:57:31.252-0600"
}
},
{
"event" : "addConfiguration",
"timestamp" : "2017-11-29T17:50:40.709-0600",
"value" : {
"name" : "FTBFConfig_v34",
"assigned" : "2017-11-29T17:50:40.709-0600"
}
},
{
"event" : "addConfiguration",
"timestamp" : "2017-11-29T18:00:33.671-0600",
"value" : {
"name" : "FTBFConfig_v35",
"assigned" : "2017-11-29T18:00:33.671-0600"
}
},
{
"event" : "addConfiguration",
"timestamp" : "2017-11-29T18:35:12.378-0600",
"value" : {
"name" : "FTBFConfig_v36",
"assigned" : "2017-11-29T18:35:12.378-0600"
}
},
{
"event" : "addConfiguration",
"timestamp" : "2017-12-01T09:36:19.151-0600",
"value" : {
"name" : "FTBFConfig_v37",
"assigned" : "2017-12-01T09:36:19.151-0600"
}
},
{
"event" : "addConfiguration",
"timestamp" : "2017-12-01T09:52:02.154-0600",
"value" : {
"name" : "FTBFConfig_v38",
"assigned" : "2017-12-01T09:52:02.154-0600"
}
},
{
"event" : "addConfiguration",
"timestamp" : "2017-12-01T11:51:59.423-0600",
"value" : {
"name" : "FTBFConfig_v39",
"assigned" : "2017-12-01T11:51:59.423-0600"
}
},
{
"event" : "addConfiguration",
"timestamp" : "2017-12-01T12:18:21.537-0600",
"value" : {
"name" : "FTBFConfig_v40",
"assigned" : "2017-12-01T12:18:21.537-0600"
}
},
{
"event" : "addConfiguration",
"timestamp" : "2017-12-01T12:21:03.537-0600",
"value" : {
"name" : "FTBFConfig_v41",
"assigned" : "2017-12-01T12:21:03.537-0600"
}
},
{
"event" : "addConfiguration",
"timestamp" : "2017-12-01T12:43:22.985-0600",
"value" : {
"name" : "FTBFConfig_v42",
"assigned" : "2017-12-01T12:43:22.985-0600"
}
},
{
"event" : "addConfiguration",
"timestamp" : "2017-12-01T12:58:00.888-0600",
"value" : {
"name" : "FTBFConfig_v43",
"assigned" : "2017-12-01T12:58:00.888-0600"
}
},
{
"event" : "addConfiguration",
"timestamp" : "2017-12-01T13:00:53.426-0600",
"value" : {
"name" : "FTBFConfig_v44",
"assigned" : "2017-12-01T13:00:53.426-0600"
}
},
{
"event" : "addConfiguration",
"timestamp" : "2017-12-01T13:25:49.955-0600",
"value" : {
"name" : "FTBFConfig_v45",
"assigned" : "2017-12-01T13:25:49.955-0600"
}
},
{
"event" : "addConfiguration",
"timestamp" : "2017-12-01T13:35:44.812-0600",
"value" : {
"name" : "FTBFConfig_v46",
"assigned" : "2017-12-01T13:35:44.811-0600"
}
},
{
"event" : "addConfiguration",
"timestamp" : "2017-12-01T14:00:52.974-0600",
"value" : {
"name" : "FTBFConfig_v47",
"assigned" : "2017-12-01T14:00:52.974-0600"
}
},
{
"event" : "addConfiguration",
"timestamp" : "2017-12-01T14:04:00.336-0600",
"value" : {
"name" : "FTBFConfig_v48",
"assigned" : "2017-12-01T14:04:00.336-0600"
}
},
{
"event" : "addConfiguration",
"timestamp" : "2017-12-01T15:32:00.508-0600",
"value" : {
"name" : "FTBFConfig_v49",
"assigned" : "2017-12-01T15:32:00.508-0600"
}
},
{
"event" : "addConfiguration",
"timestamp" : "2017-12-01T15:37:33.292-0600",
"value" : {
"name" : "FTBFConfig_v52",
"assigned" : "2017-12-01T15:37:33.292-0600"
}
},
{
"event" : "addConfiguration",
"timestamp" : "2017-12-01T15:41:00.037-0600",
"value" : {
"name" : "FTBFConfig_v53",
"assigned" : "2017-12-01T15:41:00.037-0600"
}
},
{
"event" : "addConfiguration",
"timestamp" : "2017-12-01T15:52:50.336-0600",
"value" : {
"name" : "FTBFConfig_v54",
"assigned" : "2017-12-01T15:52:50.336-0600"
}
},
{
"event" : "addConfiguration",
"timestamp" : "2017-12-01T15:54:35.506-0600",
"value" : {
"name" : "FTBFConfig_v55",
"assigned" : "2017-12-01T15:54:35.506-0600"
}
},
{
"event" : "addConfiguration",
"timestamp" : "2017-12-01T15:55:35.095-0600",
"value" : {
"name" : "FTBFConfig_v56",
"assigned" : "2017-12-01T15:55:35.095-0600"
}
},
{
"event" : "addConfiguration",
"timestamp" : "2017-12-01T15:56:40.947-0600",
"value" : {
"name" : "FTBFConfig_v57",
"assigned" : "2017-12-01T15:56:40.947-0600"
}
},
{
"event" : "addConfiguration",
"timestamp" : "2017-12-01T15:57:39.040-0600",
"value" : {
"name" : "FTBFConfig_v58",
"assigned" : "2017-12-01T15:57:39.040-0600"
}
},
{
"event" : "addConfiguration",
"timestamp" : "2017-12-01T15:58:30.904-0600",
"value" : {
"name" : "FTBFConfig_v59",
"assigned" : "2017-12-01T15:58:30.904-0600"
}
},
{
"event" : "addConfiguration",
"timestamp" : "2017-12-01T15:59:32.130-0600",
"value" : {
"name" : "FTBFConfig_v60",
"assigned" : "2017-12-01T15:59:32.130-0600"
}
},
{
"event" : "addConfiguration",
"timestamp" : "2017-12-01T16:19:41.976-0600",
"value" : {
"name" : "FTBFConfig_v61",
"assigned" : "2017-12-01T16:19:41.976-0600"
}
},
{
"event" : "addConfiguration",
"timestamp" : "2017-12-01T16:22:04.434-0600",
"value" : {
"name" : "FTBFConfig_v62",
"assigned" : "2017-12-01T16:22:04.434-0600"
}
},
{
"event" : "addConfiguration",
"timestamp" : "2017-12-01T16:31:25.084-0600",
"value" : {
"name" : "FTBFConfig_v63",
"assigned" : "2017-12-01T16:31:25.084-0600"
}
},
{
"event" : "addConfiguration",
"timestamp" : "2017-12-01T17:06:32.414-0600",
"value" : {
"name" : "FTBFConfig_v64",
"assigned" : "2017-12-01T17:06:32.414-0600"
}
},
{
"event" : "addConfiguration",
"timestamp" : "2017-12-01T17:32:44.605-0600",
"value" : {
"name" : "FTBFConfig_v65",
"assigned" : "2017-12-01T17:32:44.605-0600"
}
},
{
"event" : "addConfiguration",
"timestamp" : "2017-12-01T20:38:50.964-0600",
"value" : {
"name" : "FTBFConfig_v66",
"assigned" : "2017-12-01T20:38:50.964-0600"
}
},
{
"event" : "addConfiguration",
"timestamp" : "2017-12-01T21:25:02.316-0600",
"value" : {
"name" : "FTBFConfig_v67",
"assigned" : "2017-12-01T21:25:02.316-0600"
}
},
{
"event" : "addConfiguration",
"timestamp" : "2017-12-01T21:43:02.018-0600",
"value" : {
"name" : "FTBFConfig_v68",
"assigned" : "2017-12-01T21:43:02.017-0600"
}
},
{
"event" : "addConfiguration",
"timestamp" : "2017-12-01T21:45:00.594-0600",
"value" : {
"name" : "FTBFConfig_v69",
"assigned" : "2017-12-01T21:45:00.594-0600"
}
},
{
"event" : "addConfiguration",
"timestamp" : "2017-12-01T21:59:19.888-0600",
"value" : {
"name" : "FTBFConfig_v70",
"assigned" : "2017-12-01T21:59:19.888-0600"
}
},
{
"event" : "addConfiguration",
"timestamp" : "2017-12-01T22:00:06.634-0600",
"value" : {
"name" : "FTBFConfigNim_v0",
"assigned" : "2017-12-01T22:00:06.634-0600"
}
},
{
"event" : "addConfiguration",
"timestamp" : "2017-12-01T22:13:08.411-0600",
"value" : {
"name" : "FTBFConfigNim_v1",
"assigned" : "2017-12-01T22:13:08.410-0600"
}
},
{
"event" : "addConfiguration",
"timestamp" : "2017-12-01T22:15:55.640-0600",
"value" : {
"name" : "FTBFConfigNim_v2",
"assigned" : "2017-12-01T22:15:55.640-0600"
}
},
{
"event" : "addConfiguration",
"timestamp" : "2017-12-01T22:17:04.206-0600",
"value" : {
"name" : "FTBFConfigNim_v3",
"assigned" : "2017-12-01T22:17:04.206-0600"
}
},
{
"event" : "addConfiguration",
"timestamp" : "2017-12-01T22:19:06.735-0600",
"value" : {
"name" : "FTBFConfigNim_v4",
"assigned" : "2017-12-01T22:19:06.735-0600"
}
},
{
"event" : "addConfiguration",
"timestamp" : "2017-12-01T22:21:57.513-0600",
"value" : {
"name" : "FTBFConfigNim_v5",
"assigned" : "2017-12-01T22:21:57.513-0600"
}
},
{
"event" : "addConfiguration",
"timestamp" : "2017-12-01T22:23:15.833-0600",
"value" : {
"name" : "FTBFConfigNim_v6",
"assigned" : "2017-12-01T22:23:15.833-0600"
}
},
{
"event" : "addConfiguration",
"timestamp" : "2017-12-01T22:25:17.502-0600",
"value" : {
"name" : "FTBFConfigNim_v7",
"assigned" : "2017-12-01T22:25:17.502-0600"
}
},
{
"event" : "addConfiguration",
"timestamp" : "2017-12-01T22:27:05.180-0600",
"value" : {
"name" : "FTBFConfigNim_v8",
"assigned" : "2017-12-01T22:27:05.180-0600"
}
},
{
"event" : "addConfiguration",
"timestamp" : "2017-12-01T22:29:29.320-0600",
"value" : {
"name" : "FTBFConfigNim_v9",
"assigned" : "2017-12-01T22:29:29.320-0600"
}
},
{
"event" : "addConfiguration",
"timestamp" : "2017-12-01T22:52:34.636-0600",
"value" : {
"name" : "FTBFConfigNim_v10",
"assigned" : "2017-12-01T22:52:34.636-0600"
}
},
{
"event" : "addConfiguration",
"timestamp" : "2017-12-01T22:57:29.318-0600",
"value" : {
"name" : "FTBFConfigNim_v11",
"assigned" : "2017-12-01T22:57:29.318-0600"
}
},
{
"event" : "addConfiguration",
"timestamp" : "2017-12-01T23:00:07.511-0600",
"value" : {
"name" : "FTBFConfigNim_v12",
"assigned" : "2017-12-01T23:00:07.511-0600"
}
},
{
"event" : "addConfiguration",
"timestamp" : "2017-12-01T23:52:35.657-0600",
"value" : {
"name" : "FTBFConfigNim_v13",
"assigned" : "2017-12-01T23:52:35.657-0600"
}
},
{
"event" : "addConfiguration",
"timestamp" : "2017-12-01T23:58:10.139-0600",
"value" : {
"name" : "FTBFConfigNim_v14",
"assigned" : "2017-12-01T23:58:10.139-0600"
}
},
{
"event" : "addConfiguration",
"timestamp" : "2017-12-02T00:00:34.338-0600",
"value" : {
"name" : "FTBFConfigNim_v15",
"assigned" : "2017-12-02T00:00:34.338-0600"
}
},
{
"event" : "addConfiguration",
"timestamp" : "2017-12-02T00:13:09.570-0600",
"value" : {
"name" : "FTBFConfigNim_v16",
"assigned" : "2017-12-02T00:13:09.570-0600"
}
},
{
"event" : "addConfiguration",
"timestamp" : "2017-12-02T00:28:28.469-0600",
"value" : {
"name" : "FTBFConfigNim_v17",
"assigned" : "2017-12-02T00:28:28.469-0600"
}
},
{
"event" : "addConfiguration",
"timestamp" : "2017-12-02T00:29:34.542-0600",
"value" : {
"name" : "FTBFConfigNim_v18",
"assigned" : "2017-12-02T00:29:34.541-0600"
}
},
{
"event" : "addConfiguration",
"timestamp" : "2017-12-02T00:31:13.389-0600",
"value" : {
"name" : "FTBFConfigNim_v19",
"assigned" : "2017-12-02T00:31:13.389-0600"
}
},
{
"event" : "addConfiguration",
"timestamp" : "2017-12-02T00:57:27.584-0600",
"value" : {
"name" : "FTBFConfigNim_v20",
"assigned" : "2017-12-02T00:57:27.584-0600"
}
},
{
"event" : "addConfiguration",
"timestamp" : "2017-12-02T10:58:02.140-0600",
"value" : {
"name" : "FTBFConfigNim_v21",
"assigned" : "2017-12-02T10:58:02.140-0600"
}
},
{
"event" : "addConfiguration",
"timestamp" : "2017-12-02T11:08:18.326-0600",
"value" : {
"name" : "FTBFConfigNim_v22",
"assigned" : "2017-12-02T11:08:18.326-0600"
}
},
{
"event" : "addConfiguration",
"timestamp" : "2017-12-02T11:12:39.954-0600",
"value" : {
"name" : "FTBFConfigNim_v23",
"assigned" : "2017-12-02T11:12:39.954-0600"
}
},
{
"event" : "addConfiguration",
"timestamp" : "2017-12-02T11:18:42.824-0600",
"value" : {
"name" : "FTBFConfigNim_v24",
"assigned" : "2017-12-02T11:18:42.824-0600"
}
},
{
"event" : "addConfiguration",
"timestamp" : "2017-12-02T11:27:06.025-0600",
"value" : {
"name" : "FTBFConfigNim_v25",
"assigned" : "2017-12-02T11:27:06.025-0600"
}
},
{
"event" : "addConfiguration",
"timestamp" : "2017-12-02T11:38:37.071-0600",
"value" : {
"name" : "FTBFConfigNim_v26",
"assigned" : "2017-12-02T11:38:37.071-0600"
}
},
{
"event" : "addConfiguration",
"timestamp" : "2017-12-02T11:49:08.280-0600",
"value" : {
"name" : "FTBFConfigNim_v27",
"assigned" : "2017-12-02T11:49:08.280-0600"
}
},
{
"event" : "addConfiguration",
"timestamp" : "2017-12-02T11:55:09.794-0600",
"value" : {
"name" : "FTBFConfigNim_v28",
"assigned" : "2017-12-02T11:55:09.794-0600"
}
},
{
"event" : "addConfiguration",
"timestamp" : "2017-12-02T12:06:26.580-0600",
"value" : {
"name" : "FTBFConfigNim_v29",
"assigned" : "2017-12-02T12:06:26.579-0600"
}
},
{
"event" : "addConfiguration",
"timestamp" : "2017-12-02T12:24:15.243-0600",
"value" : {
"name" : "FTBFConfig_v71",
"assigned" : "2017-12-02T12:24:15.243-0600"
}
},
{
"event" : "addConfiguration",
"timestamp" : "2017-12-02T12:43:36.132-0600",
"value" : {
"name" : "FTBFConfig_v72",
"assigned" : "2017-12-02T12:43:36.131-0600"
}
},
{
"event" : "addConfiguration",
"timestamp" : "2017-12-02T13:55:35.805-0600",
"value" : {
"name" : "FTBFConfig_v73",
"assigned" : "2017-12-02T13:55:35.805-0600"
}
},
{
"event" : "addConfiguration",
"timestamp" : "2017-12-02T14:12:18.994-0600",
"value" : {
"name" : "FTBFConfig_v75",
"assigned" : "2017-12-02T14:12:18.994-0600"
}
},
{
"event" : "addConfiguration",
"timestamp" : "2017-12-02T19:05:54.041-0600",
"value" : {
"name" : "FTBFConfig_v76",
"assigned" : "2017-12-02T19:05:54.041-0600"
}
},
{
"event" : "addConfiguration",
"timestamp" : "2017-12-02T19:12:13.876-0600",
"value" : {
"name" : "FTBFConfig_v77",
"assigned" : "2017-12-02T19:12:13.875-0600"
}
},
{
"event" : "addConfiguration",
"timestamp" : "2017-12-03T14:03:49.024-0600",
"value" : {
"name" : "FTBFConfig_v78",
"assigned" : "2017-12-03T14:03:49.024-0600"
}
},
{
"event" : "addConfiguration",
"timestamp" : "2017-12-03T14:09:07.289-0600",
"value" : {
"name" : "FTBFConfig_v79",
"assigned" : "2017-12-03T14:09:07.289-0600"
}
},
{
"event" : "addConfiguration",
"timestamp" : "2017-12-03T14:11:11.085-0600",
"value" : {
"name" : "FTBFConfig_v80",
"assigned" : "2017-12-03T14:11:11.084-0600"
}
},
{
"event" : "addConfiguration",
"timestamp" : "2017-12-03T14:22:34.084-0600",
"value" : {
"name" : "FTBFConfig_v81",
"assigned" : "2017-12-03T14:22:34.084-0600"
}
},
{
"event" : "addConfiguration",
"timestamp" : "2017-12-03T14:40:38.904-0600",
"value" : {
"name" : "FTBFConfig_v82",
"assigned" : "2017-12-03T14:40:38.903-0600"
}
},
{
"event" : "addConfiguration",
"timestamp" : "2017-12-03T14:45:06.255-0600",
"value" : {
"name" : "FTBFConfig_v83",
"assigned" : "2017-12-03T14:45:06.255-0600"
}
},
{
"event" : "addConfiguration",
"timestamp" : "2017-12-04T14:51:31.543-0600",
"value" : {
"name" : "FTBFConfig_v84",
"assigned" : "2017-12-04T14:51:31.543-0600"
}
},
{
"event" : "addConfiguration",
"timestamp" : "2017-12-04T14:55:44.735-0600",
"value" : {
"name" : "FTBFConfig_v85",
"assigned" : "2017-12-04T14:55:44.734-0600"
}
},
{
"event" : "addConfiguration",
"timestamp" : "2017-12-04T16:51:07.806-0600",
"value" : {
"name" : "FTBFConfig_v86",
"assigned" : "2017-12-04T16:51:07.806-0600"
}
},
{
"event" : "addConfiguration",
"timestamp" : "2017-12-04T16:56:48.442-0600",
"value" : {
"name" : "FTBFConfig_v87",
"assigned" : "2017-12-04T16:56:48.442-0600"
}
},
{
"event" : "addConfiguration",
"timestamp" : "2017-12-04T17:01:13.191-0600",
"value" : {
"name" : "FTBFConfig_v88",
"assigned" : "2017-12-04T17:01:13.191-0600"
}
},
{
"event" : "addConfiguration",
"timestamp" : "2017-12-04T17:03:58.308-0600",
"value" : {
"name" : "FTBFConfig_v89",
"assigned" : "2017-12-04T17:03:58.308-0600"
}
},
{
"event" : "addConfiguration",
"timestamp" : "2017-12-04T17:07:17.958-0600",
"value" : {
"name" : "FTBFConfig_v90",
"assigned" : "2017-12-04T17:07:17.958-0600"
}
},
{
"event" : "addConfiguration",
"timestamp" : "2017-12-04T17:09:27.098-0600",
"value" : {
"name" : "FTBFConfig_v91",
"assigned" : "2017-12-04T17:09:27.097-0600"
}
},
{
"event" : "addConfiguration",
"timestamp" : "2017-12-04T17:11:39.609-0600",
"value" : {
"name" : "FTBFConfig_v92",
"assigned" : "2017-12-04T17:11:39.609-0600"
}
},
{
"event" : "addConfiguration",
"timestamp" : "2017-12-04T21:05:22.143-0600",
"value" : {
"name" : "FTBFConfig_v93",
"assigned" : "2017-12-04T21:05:22.143-0600"
}
},
{
"event" : "addConfiguration",
"timestamp" : "2017-12-04T21:17:13.134-0600",
"value" : {
"name" : "FTBFConfig_v94",
"assigned" : "2017-12-04T21:17:13.133-0600"
}
},
{
"event" : "addConfiguration",
"timestamp" : "2017-12-04T21:41:18.768-0600",
"value" : {
"name" : "FTBFConfig_v95",
"assigned" : "2017-12-04T21:41:18.768-0600"
}
},
{
"event" : "addConfiguration",
"timestamp" : "2017-12-04T22:39:03.435-0600",
"value" : {
"name" : "FTBFConfig_v96",
"assigned" : "2017-12-04T22:39:03.435-0600"
}
},
{
"event" : "addConfiguration",
"timestamp" : "2017-12-04T23:01:13.934-0600",
"value" : {
"name" : "FTBFConfig_v97",
"assigned" : "2017-12-04T23:01:13.934-0600"
}
},
{
"event" : "addConfiguration",
"timestamp" : "2017-12-07T11:07:47.934-0600",
"value" : {
"name" : "FTBFConfig_v98",
"assigned" : "2017-12-07T11:07:47.934-0600"
}
},
{
"event" : "addConfiguration",
"timestamp" : "2017-12-07T11:50:00.597-0600",
"value" : {
"name" : "FTBFConfig_v99",
"assigned" : "2017-12-07T11:50:00.597-0600"
}
},
{
"event" : "addConfiguration",
"timestamp" : "2017-12-07T11:58:27.349-0600",
"value" : {
"name" : "FTBFConfig_v100",
"assigned" : "2017-12-07T11:58:27.349-0600"
}
},
{
"event" : "addConfiguration",
"timestamp" : "2017-12-08T13:30:49.524-0600",
"value" : {
"name" : "FTBFConfig_v101",
"assigned" : "2017-12-08T13:30:49.524-0600"
}
},
{
"event" : "addConfiguration",
"timestamp" : "2017-12-08T13:32:36.387-0600",
"value" : {
"name" : "FTBFConfig_v102",
"assigned" : "2017-12-08T13:32:36.387-0600"
}
},
{
"event" : "addConfiguration",
"timestamp" : "2017-12-12T11:03:06.211-0600",
"value" : {
"name" : "FTBFConfig_v103",
"assigned" : "2017-12-12T11:03:06.211-0600"
}
},
{
"event" : "addConfiguration",
"timestamp" : "2017-12-12T13:51:00.753-0600",
"value" : {
"name" : "FTBFConfig_v104",
"assigned" : "2017-12-12T13:51:00.753-0600"
}
},
{
"event" : "addConfiguration",
"timestamp" : "2017-12-12T15:25:06.722-0600",
"value" : {
"name" : "FTBFConfig_v105",
"assigned" : "2017-12-12T15:25:06.722-0600"
}
},
{
"event" : "addConfiguration",
"timestamp" : "2017-12-13T10:24:25.027-0600",
"value" : {
"name" : "FTBFConfig_v106",
"assigned" : "2017-12-13T10:24:25.027-0600"
}
},
{
"event" : "addConfiguration",
"timestamp" : "2017-12-13T10:27:03.751-0600",
"value" : {
"name" : "FTBFConfig_v107",
"assigned" : "2017-12-13T10:27:03.751-0600"
}
},
{
"event" : "addConfiguration",
"timestamp" : "2018-02-01T21:14:27.435-0600",
"value" : {
"name" : "FTBFConfig_v108",
"assigned" : "2018-02-01T21:14:27.435-0600"
}
},
{
"event" : "addConfiguration",
"timestamp" : "2018-02-01T21:21:04.557-0600",
"value" : {
"name" : "FTBFConfig_v109",
"assigned" : "2018-02-01T21:21:04.556-0600"
}
},
{
"event" : "addConfiguration",
"timestamp" : "2018-02-02T11:25:35.551-0600",
"value" : {
"name" : "FTBFConfig_v110",
"assigned" : "2018-02-02T11:25:35.551-0600"
}
},
{
"event" : "addConfiguration",
"timestamp" : "2018-02-02T11:37:14.379-0600",
"value" : {
"name" : "FTBFConfig_v111",
"assigned" : "2018-02-02T11:37:14.379-0600"
}
},
{
"event" : "addConfiguration",
"timestamp" : "2018-02-02T11:47:16.873-0600",
"value" : {
"name" : "FTBFConfig_v112",
"assigned" : "2018-02-02T11:47:16.873-0600"
}
},
{
"event" : "addConfiguration",
"timestamp" : "2018-02-02T11:53:38.126-0600",
"value" : {
"name" : "FTBFConfig_v113",
"assigned" : "2018-02-02T11:53:38.126-0600"
}
},
{
"event" : "addConfiguration",
"timestamp" : "2018-02-02T12:00:54.243-0600",
"value" : {
"name" : "FTBFConfig_v114",
"assigned" : "2018-02-02T12:00:54.243-0600"
}
},
{
"event" : "addConfiguration",
"timestamp" : "2018-02-02T12:27:15.717-0600",
"value" : {
"name" : "FTBFConfig_v115",
"assigned" : "2018-02-02T12:27:15.717-0600"
}
},
{
"event" : "addConfiguration",
"timestamp" : "2018-02-02T14:28:55.238-0600",
"value" : {
"name" : "FTBFConfig_v116",
"assigned" : "2018-02-02T14:28:55.237-0600"
}
},
{
"event" : "addConfiguration",
"timestamp" : "2018-02-02T14:30:21.605-0600",
"value" : {
"name" : "FTBFConfig_v117",
"assigned" : "2018-02-02T14:30:21.605-0600"
}
},
{
"event" : "addConfiguration",
"timestamp" : "2018-02-02T14:34:02.854-0600",
"value" : {
"name" : "FTBFConfig_v118",
"assigned" : "2018-02-02T14:34:02.854-0600"
}
},
{
"event" : "addConfiguration",
"timestamp" : "2018-02-02T14:36:29.456-0600",
"value" : {
"name" : "FTBFConfig_v119",
"assigned" : "2018-02-02T14:36:29.456-0600"
}
},
{
"event" : "addConfiguration",
"timestamp" : "2018-02-02T14:38:42.871-0600",
"value" : {
"name" : "FTBFConfig_v120",
"assigned" : "2018-02-02T14:38:42.871-0600"
}
},
{
"event" : "addConfiguration",
"timestamp" : "2018-02-02T14:41:52.119-0600",
"value" : {
"name" : "FTBFConfig_v121",
"assigned" : "2018-02-02T14:41:52.119-0600"
}
},
{
"event" : "addConfiguration",
"timestamp" : "2018-02-02T14:50:26.207-0600",
"value" : {
"name" : "FTBFConfig_v122",
"assigned" : "2018-02-02T14:50:26.207-0600"
}
},
{
"event" : "addConfiguration",
"timestamp" : "2018-02-02T14:52:59.091-0600",
"value" : {
"name" : "FTBFConfig_v123",
"assigned" : "2018-02-02T14:52:59.091-0600"
}
},
{
"event" : "addConfiguration",
"timestamp" : "2018-02-02T14:59:52.402-0600",
"value" : {
"name" : "FTBFConfig_v124",
"assigned" : "2018-02-02T14:59:52.402-0600"
}
},
{
"event" : "addConfiguration",
"timestamp" : "2018-02-02T15:04:10.524-0600",
"value" : {
"name" : "FTBFConfig_v125",
"assigned" : "2018-02-02T15:04:10.524-0600"
}
},
{
"event" : "addConfiguration",
"timestamp" : "2018-02-02T15:50:13.776-0600",
"value" : {
"name" : "FTBFConfig_v126",
"assigned" : "2018-02-02T15:50:13.776-0600"
}
},
{
"event" : "addConfiguration",
"timestamp" : "2018-02-02T15:51:33.237-0600",
"value" : {
"name" : "FTBFConfig_v127",
"assigned" : "2018-02-02T15:51:33.237-0600"
}
},
{
"event" : "addConfiguration",
"timestamp" : "2018-02-02T15:52:38.397-0600",
"value" : {
"name" : "FTBFConfig_v128",
"assigned" : "2018-02-02T15:52:38.397-0600"
}
},
{
"event" : "addConfiguration",
"timestamp" : "2018-02-02T16:02:47.321-0600",
"value" : {
"name" : "FTBFConfig_v129",
"assigned" : "2018-02-02T16:02:47.321-0600"
}
},
{
"event" : "addConfiguration",
"timestamp" : "2018-02-02T16:08:46.874-0600",
"value" : {
"name" : "FTBFConfig_v130",
"assigned" : "2018-02-02T16:08:46.874-0600"
}
},
{
"event" : "addConfiguration",
"timestamp" : "2018-02-02T16:11:32.723-0600",
"value" : {
"name" : "FTBFConfig_v131",
"assigned" : "2018-02-02T16:11:32.723-0600"
}
},
{
"event" : "addConfiguration",
"timestamp" : "2018-02-02T16:13:00.594-0600",
"value" : {
"name" : "FTBFConfig_v132",
"assigned" : "2018-02-02T16:13:00.593-0600"
}
},
{
"event" : "addConfiguration",
"timestamp" : "2018-02-02T16:14:31.217-0600",
"value" : {
"name" : "FTBFConfig_v133",
"assigned" : "2018-02-02T16:14:31.217-0600"
}
},
{
"event" : "addConfiguration",
"timestamp" : "2018-02-02T16:26:24.111-0600",
"value" : {
"name" : "FTBFConfig_v134",
"assigned" : "2018-02-02T16:26:24.111-0600"
}
},
{
"event" : "addConfiguration",
"timestamp" : "2018-02-02T16:27:11.220-0600",
"value" : {
"name" : "FTBFConfig_v135",
"assigned" : "2018-02-02T16:27:11.220-0600"
}
},
{
"event" : "addConfiguration",
"timestamp" : "2018-02-02T16:29:32.581-0600",
"value" : {
"name" : "FTBFConfig_v136",
"assigned" : "2018-02-02T16:29:32.581-0600"
}
},
{
"event" : "addConfiguration",
"timestamp" : "2018-02-02T16:31:43.204-0600",
"value" : {
"name" : "FTBFConfig_v137",
"assigned" : "2018-02-02T16:31:43.204-0600"
}
},
{
"event" : "addConfiguration",
"timestamp" : "2018-02-02T16:34:15.884-0600",
"value" : {
"name" : "FTBFConfig_v138",
"assigned" : "2018-02-02T16:34:15.884-0600"
}
},
{
"event" : "addConfiguration",
"timestamp" : "2018-02-02T17:39:31.935-0600",
"value" : {
"name" : "FTBFConfig_v139",
"assigned" : "2018-02-02T17:39:31.934-0600"
}
},
{
"event" : "addConfiguration",
"timestamp" : "2018-02-02T17:42:54.118-0600",
"value" : {
"name" : "FTBFConfig_v140",
"assigned" : "2018-02-02T17:42:54.118-0600"
}
},
{
"event" : "addConfiguration",
"timestamp" : "2018-02-02T17:47:39.346-0600",
"value" : {
"name" : "FTBFConfig_v141",
"assigned" : "2018-02-02T17:47:39.346-0600"
}
},
{
"event" : "addConfiguration",
"timestamp" : "2018-02-02T17:54:03.340-0600",
"value" : {
"name" : "FTBFConfig_v142",
"assigned" : "2018-02-02T17:54:03.340-0600"
}
}
],
"created" : "2017-11-08T15:56:03.926-0600"
},
"_id" : {
"$oid" : "7c8662b32ee24485a1456810"
},
"collection" : "FESlowControlsConfiguration",
"aliases" : {
"active" : [

],
"history" : [

]
},
"runs" : [

],
"attachments" : [

],
"configtype" : "notprovided"
}