{
"document" : {
"data" : {
"NAME" : "DATA_MANAGER_SUPERVISOR_TABLE",
"COMMENT" : "Data manager top-level records.",
"AUTHOR" : "admin",
"CREATION_TIME" : 1550871277,
"COL_TYPES" : {
"SUPERVISOR_UID" : "VARCHAR2",
"LINK_TO_DATA_BUFFER_TABLE" : "VARCHAR2",
"LINK_TO_DATA_BUFFER_GROUP_ID" : "VARCHAR2",
"COMMENT_DESCRIPTION" : "VARCHAR2",
"AUTHOR" : "VARCHAR2",
"RECORD_INSERTION_TIME" : "TIMESTAMP WITH TIMEZONE"
},
"DATA_SET" : [
{
"SUPERVISOR_UID" : "OuterTrackerDataManagerSupervisor0",
"LINK_TO_DATA_BUFFER_TABLE" : "DataBufferTable",
"LINK_TO_DATA_BUFFER_GROUP_ID" : "OuterTrackerDataBuffer0",
"COMMENT_DESCRIPTION" : "No Comment",
"AUTHOR" : "admin",
"RECORD_INSERTION_TIME" : "1550773483"
},
{
"SUPERVISOR_UID" : "VisualSupervisor0",
"LINK_TO_DATA_BUFFER_TABLE" : "DataBufferTable",
"LINK_TO_DATA_BUFFER_GROUP_ID" : "VisualDataBuffer",
"COMMENT_DESCRIPTION" : "",
"AUTHOR" : "admin",
"RECORD_INSERTION_TIME" : "1550871277"
}
]
},
"metadata" : {

},
"search" : [

]
},
"comments" : [

],
"origin" : {
"source" : "template",
"name" : "notprovided",
"format" : "json",
"created" : "2019-02-22T16:11:42.674-0600",
"rawdata" : [

]
},
"version" : "1",
"entities" : [
{
"name" : "OTSROOT",
"assigned" : "2019-02-22T16:11:42.674-0600"
}
],
"tables" : [
{
"name" : "notprovided",
"assigned" : "2019-02-22T16:11:42.674-0600"
},
{
"name" : "DefaultConfig_v1",
"assigned" : "2019-02-22T16:11:42.977-0600"
}
],
"changelog" : "notprovided",
"bookkeeping" : {
"isdeleted" : false,
"isreadonly" : false,
"updates" : [
{
"event" : "addTable",
"timestamp" : "2019-02-22T16:11:42.674-0600",
"value" : {
"name" : "notprovided",
"assigned" : "2019-02-22T16:11:42.674-0600"
}
},
{
"event" : "setVersion",
"timestamp" : "2019-02-22T16:11:42.674-0600",
"value" : {
"name" : "1",
"assigned" : "2019-02-22T16:11:42.674-0600"
}
},
{
"event" : "setCollection",
"timestamp" : "2019-02-22T16:11:42.674-0600",
"value" : {
"name" : "DataManagerSupervisorTable",
"assigned" : "2019-02-22T16:11:42.674-0600"
}
},
{
"event" : "addEntity",
"timestamp" : "2019-02-22T16:11:42.674-0600",
"value" : {
"name" : "OTSROOT",
"assigned" : "2019-02-22T16:11:42.674-0600"
}
},
{
"event" : "addTable",
"timestamp" : "2019-02-22T16:11:42.977-0600",
"value" : {
"name" : "DefaultConfig_v1",
"assigned" : "2019-02-22T16:11:42.977-0600"
}
},
{
"event" : "addConfiguration",
"timestamp" : "2019-07-22T11:27:30.230-0500",
"value" : {
"name" : "DefaultConfig_v2",
"assigned" : "2019-07-22T11:27:30.230-0500"
}
},
{
"event" : "addConfiguration",
"timestamp" : "2019-07-22T14:43:10.076-0500",
"value" : {
"name" : "DefaultConfig_v3",
"assigned" : "2019-07-22T14:43:10.076-0500"
}
},
{
"event" : "addConfiguration",
"timestamp" : "2019-07-22T14:47:01.248-0500",
"value" : {
"name" : "DefaultConfig_v4",
"assigned" : "2019-07-22T14:47:01.248-0500"
}
},
{
"event" : "addConfiguration",
"timestamp" : "2019-07-22T15:05:41.317-0500",
"value" : {
"name" : "DefaultConfig_v5",
"assigned" : "2019-07-22T15:05:41.317-0500"
}
},
{
"event" : "addConfiguration",
"timestamp" : "2019-07-23T09:00:31.790-0500",
"value" : {
"name" : "DefaultConfig_v6",
"assigned" : "2019-07-23T09:00:31.790-0500"
}
},
{
"event" : "addConfiguration",
"timestamp" : "2019-07-23T09:04:43.500-0500",
"value" : {
"name" : "DefaultConfig_v7",
"assigned" : "2019-07-23T09:04:43.500-0500"
}
},
{
"event" : "addConfiguration",
"timestamp" : "2019-07-23T09:48:11.594-0500",
"value" : {
"name" : "DefaultConfig_v8",
"assigned" : "2019-07-23T09:48:11.594-0500"
}
},
{
"event" : "addConfiguration",
"timestamp" : "2019-08-07T11:00:29.184-0500",
"value" : {
"name" : "DefaultConfig_v9",
"assigned" : "2019-08-07T11:00:29.183-0500"
}
},
{
"event" : "addConfiguration",
"timestamp" : "2019-11-20T15:25:38.360-0600",
"value" : {
"name" : "DefaultConfig_v10",
"assigned" : "2019-11-20T15:25:38.360-0600"
}
},
{
"event" : "addConfiguration",
"timestamp" : "2019-11-20T15:28:12.376-0600",
"value" : {
"name" : "DefaultConfig_v11",
"assigned" : "2019-11-20T15:28:12.376-0600"
}
},
{
"event" : "addConfiguration",
"timestamp" : "2019-11-20T15:58:29.643-0600",
"value" : {
"name" : "DefaultConfig_v12",
"assigned" : "2019-11-20T15:58:29.643-0600"
}
},
{
"event" : "addConfiguration",
"timestamp" : "2019-11-20T16:23:03.382-0600",
"value" : {
"name" : "DefaultConfig_v13",
"assigned" : "2019-11-20T16:23:03.382-0600"
}
},
{
"event" : "addConfiguration",
"timestamp" : "2019-11-20T16:24:45.513-0600",
"value" : {
"name" : "DefaultConfig_v14",
"assigned" : "2019-11-20T16:24:45.513-0600"
}
},
{
"event" : "addConfiguration",
"timestamp" : "2019-11-20T16:27:46.334-0600",
"value" : {
"name" : "DefaultConfig_v15",
"assigned" : "2019-11-20T16:27:46.334-0600"
}
},
{
"event" : "addConfiguration",
"timestamp" : "2019-11-20T16:42:10.871-0600",
"value" : {
"name" : "DefaultConfig_v16",
"assigned" : "2019-11-20T16:42:10.871-0600"
}
},
{
"event" : "addConfiguration",
"timestamp" : "2020-06-17T17:20:12.618-0500",
"value" : {
"name" : "DefaultConfig_v17",
"assigned" : "2020-06-17T17:20:12.618-0500"
}
},
{
"event" : "addConfiguration",
"timestamp" : "2020-06-19T16:56:28.428+0200",
"value" : {
"name" : "DefaultConfig_v18",
"assigned" : "2020-06-19T16:56:28.428+0200"
}
},
{
"event" : "addConfiguration",
"timestamp" : "2020-07-01T16:27:41.740-0500",
"value" : {
"name" : "DefaultConfig_v19",
"assigned" : "2020-07-01T16:27:41.740-0500"
}
},
{
"event" : "addConfiguration",
"timestamp" : "2020-07-01T16:43:49.929-0500",
"value" : {
"name" : "DefaultConfig_v20",
"assigned" : "2020-07-01T16:43:49.929-0500"
}
},
{
"event" : "addConfiguration",
"timestamp" : "2020-07-01T16:52:29.920-0500",
"value" : {
"name" : "DefaultConfig_v21",
"assigned" : "2020-07-01T16:52:29.920-0500"
}
},
{
"event" : "addConfiguration",
"timestamp" : "2020-07-01T16:57:29.580-0500",
"value" : {
"name" : "DefaultConfig_v22",
"assigned" : "2020-07-01T16:57:29.580-0500"
}
},
{
"event" : "addConfiguration",
"timestamp" : "2020-07-01T17:36:18.132-0500",
"value" : {
"name" : "DefaultConfig_v23",
"assigned" : "2020-07-01T17:36:18.132-0500"
}
},
{
"event" : "addConfiguration",
"timestamp" : "2020-07-10T17:08:15.021-0500",
"value" : {
"name" : "DefaultConfig_v24",
"assigned" : "2020-07-10T17:08:15.021-0500"
}
}
],
"created" : "2019-02-22T16:11:42.674-0600"
},
"_id" : {
"$oid" : "2f3708e61b1446979931a1eb"
},
"collection" : "DataManagerSupervisorTable",
"aliases" : {
"active" : [

],
"history" : [

]
},
"runs" : [

],
"attachments" : [

],
"configtype" : "notprovided",
"configurations" : [
{
"name" : "DefaultConfig_v2",
"assigned" : "2019-07-22T11:27:30.230-0500"
},
{
"name" : "DefaultConfig_v3",
"assigned" : "2019-07-22T14:43:10.076-0500"
},
{
"name" : "DefaultConfig_v4",
"assigned" : "2019-07-22T14:47:01.248-0500"
},
{
"name" : "DefaultConfig_v5",
"assigned" : "2019-07-22T15:05:41.317-0500"
},
{
"name" : "DefaultConfig_v6",
"assigned" : "2019-07-23T09:00:31.790-0500"
},
{
"name" : "DefaultConfig_v7",
"assigned" : "2019-07-23T09:04:43.500-0500"
},
{
"name" : "DefaultConfig_v8",
"assigned" : "2019-07-23T09:48:11.594-0500"
},
{
"name" : "DefaultConfig_v9",
"assigned" : "2019-08-07T11:00:29.183-0500"
},
{
"name" : "DefaultConfig_v10",
"assigned" : "2019-11-20T15:25:38.360-0600"
},
{
"name" : "DefaultConfig_v11",
"assigned" : "2019-11-20T15:28:12.376-0600"
},
{
"name" : "DefaultConfig_v12",
"assigned" : "2019-11-20T15:58:29.643-0600"
},
{
"name" : "DefaultConfig_v13",
"assigned" : "2019-11-20T16:23:03.382-0600"
},
{
"name" : "DefaultConfig_v14",
"assigned" : "2019-11-20T16:24:45.513-0600"
},
{
"name" : "DefaultConfig_v15",
"assigned" : "2019-11-20T16:27:46.334-0600"
},
{
"name" : "DefaultConfig_v16",
"assigned" : "2019-11-20T16:42:10.871-0600"
},
{
"name" : "DefaultConfig_v17",
"assigned" : "2020-06-17T17:20:12.618-0500"
},
{
"name" : "DefaultConfig_v18",
"assigned" : "2020-06-19T16:56:28.428+0200"
},
{
"name" : "DefaultConfig_v19",
"assigned" : "2020-07-01T16:27:41.740-0500"
},
{
"name" : "DefaultConfig_v20",
"assigned" : "2020-07-01T16:43:49.929-0500"
},
{
"name" : "DefaultConfig_v21",
"assigned" : "2020-07-01T16:52:29.920-0500"
},
{
"name" : "DefaultConfig_v22",
"assigned" : "2020-07-01T16:57:29.580-0500"
},
{
"name" : "DefaultConfig_v23",
"assigned" : "2020-07-01T17:36:18.132-0500"
},
{
"name" : "DefaultConfig_v24",
"assigned" : "2020-07-10T17:08:15.021-0500"
}
]
}