{
"ouid" : [
"001c0dc925a74d12a001bfec",
"3bcbc98213ee44a3823e28c6",
"445d7670def94c7dace8e4c1",
"605ee9ccef1c41d1bd580b1a",
"ad9e1f56c970480e8b13ee2a",
"efd865ac56e84482abc7432e"
],
"version" : {
"1" : [
"efd865ac56e84482abc7432e"
],
"2" : [
"ad9e1f56c970480e8b13ee2a"
],
"3" : [
"3bcbc98213ee44a3823e28c6"
],
"4" : [
"445d7670def94c7dace8e4c1"
],
"5" : [
"605ee9ccef1c41d1bd580b1a"
],
"6" : [
"001c0dc925a74d12a001bfec"
]
},
"configurations.name" : {
"notprovided" : [
"001c0dc925a74d12a001bfec",
"3bcbc98213ee44a3823e28c6",
"445d7670def94c7dace8e4c1",
"605ee9ccef1c41d1bd580b1a",
"ad9e1f56c970480e8b13ee2a",
"efd865ac56e84482abc7432e"
],
"DefaultConfig_v1" : [
"efd865ac56e84482abc7432e"
],
"DefaultConfig_v2" : [
"ad9e1f56c970480e8b13ee2a"
],
"DefaultConfig_v3" : [
"ad9e1f56c970480e8b13ee2a"
],
"DefaultConfig_v4" : [
"ad9e1f56c970480e8b13ee2a"
],
"DefaultConfig_v5" : [
"ad9e1f56c970480e8b13ee2a"
],
"DefaultConfig_v6" : [
"ad9e1f56c970480e8b13ee2a"
],
"DefaultConfig_v7" : [
"ad9e1f56c970480e8b13ee2a"
],
"DefaultConfig_v8" : [
"ad9e1f56c970480e8b13ee2a"
],
"DefaultConfig_v9" : [
"ad9e1f56c970480e8b13ee2a"
],
"DefaultConfig_v10" : [
"ad9e1f56c970480e8b13ee2a"
],
"DefaultConfig_v11" : [
"ad9e1f56c970480e8b13ee2a"
],
"DefaultConfig_v12" : [
"ad9e1f56c970480e8b13ee2a"
],
"DefaultConfig_v13" : [
"ad9e1f56c970480e8b13ee2a"
],
"DefaultConfig_v14" : [
"ad9e1f56c970480e8b13ee2a"
],
"DefaultConfig_v15" : [
"ad9e1f56c970480e8b13ee2a"
],
"DefaultConfig_v16" : [
"ad9e1f56c970480e8b13ee2a"
],
"DefaultConfig_v17" : [
"ad9e1f56c970480e8b13ee2a"
],
"DefaultConfig_v18" : [
"ad9e1f56c970480e8b13ee2a"
],
"DefaultConfig_v19" : [
"3bcbc98213ee44a3823e28c6"
],
"DefaultConfig_v20" : [
"445d7670def94c7dace8e4c1"
],
"DefaultConfig_v21" : [
"605ee9ccef1c41d1bd580b1a"
],
"DefaultConfig_v22" : [
"605ee9ccef1c41d1bd580b1a"
],
"DefaultConfig_v23" : [
"605ee9ccef1c41d1bd580b1a"
],
"DefaultConfig_v24" : [
"001c0dc925a74d12a001bfec"
]
},
"entities.name" : {
"OTSROOT" : [
"001c0dc925a74d12a001bfec",
"3bcbc98213ee44a3823e28c6",
"445d7670def94c7dace8e4c1",
"605ee9ccef1c41d1bd580b1a",
"ad9e1f56c970480e8b13ee2a",
"efd865ac56e84482abc7432e"
]
},
"aliases.active.name" : {

},
"runs.name" : {

},
"configurations.assigned" : {
"notprovided" : [
"2019-02-22T16:11:42.752-0600",
"2019-07-22T11:26:59.860-0500",
"2020-07-01T16:27:41.033-0500",
"2020-07-01T16:43:49.015-0500",
"2020-07-01T16:52:29.016-0500",
"2020-07-10T17:08:13.969-0500"
],
"DefaultConfig_v1" : [
"2019-02-22T16:11:43.034-0600"
],
"DefaultConfig_v2" : [
"2019-07-22T11:27:30.321-0500"
],
"DefaultConfig_v3" : [
"2019-07-22T14:43:10.190-0500"
],
"DefaultConfig_v4" : [
"2019-07-22T14:47:01.363-0500"
],
"DefaultConfig_v5" : [
"2019-07-22T15:05:41.426-0500"
],
"DefaultConfig_v6" : [
"2019-07-23T09:00:31.900-0500"
],
"DefaultConfig_v7" : [
"2019-07-23T09:04:43.621-0500"
],
"DefaultConfig_v8" : [
"2019-07-23T09:48:11.724-0500"
],
"DefaultConfig_v9" : [
"2019-08-07T11:00:29.325-0500"
],
"DefaultConfig_v10" : [
"2019-11-20T15:25:38.511-0600"
],
"DefaultConfig_v11" : [
"2019-11-20T15:28:12.537-0600"
],
"DefaultConfig_v12" : [
"2019-11-20T15:58:29.833-0600"
],
"DefaultConfig_v13" : [
"2019-11-20T16:23:03.536-0600"
],
"DefaultConfig_v14" : [
"2019-11-20T16:24:45.660-0600"
],
"DefaultConfig_v15" : [
"2019-11-20T16:27:46.495-0600"
],
"DefaultConfig_v16" : [
"2019-11-20T16:42:11.042-0600"
],
"DefaultConfig_v17" : [
"2020-06-17T17:20:12.789-0500"
],
"DefaultConfig_v18" : [
"2020-06-19T16:56:28.591+0200"
],
"DefaultConfig_v19" : [
"2020-07-01T16:27:41.904-0500"
],
"DefaultConfig_v20" : [
"2020-07-01T16:43:50.123-0500"
],
"DefaultConfig_v21" : [
"2020-07-01T16:52:30.094-0500"
],
"DefaultConfig_v22" : [
"2020-07-01T16:57:29.760-0500"
],
"DefaultConfig_v23" : [
"2020-07-01T17:36:18.291-0500"
],
"DefaultConfig_v24" : [
"2020-07-10T17:08:15.192-0500"
]
}
}