{
"document" : {
"data" : {
"NAME" : "",
"COMMENT" : "",
"AUTHOR" : "",
"CREATION_TIME" : 1550763300,
"COL_TYPES" : {
"UNUSED_UID" : "NUMBER",
"GROUP_ALIASES" : "VARCHAR2",
"COMMENT_DESCRIPTION" : "VARCHAR2",
"AUTHOR" : "VARCHAR2",
"GROUP_CREATION_TIME" : "TIMESTAMP WITH TIMEZONE"
},
"DATA_SET" : [
{
"UNUSED_UID" : "0",
"GROUP_ALIASES" : "",
"COMMENT_DESCRIPTION" : "NO COMMENT FOUND",
"AUTHOR" : "NO AUTHOR FOUND",
"GROUP_CREATION_TIME" : "0"
}
]
},
"metadata" : {

},
"search" : [

]
},
"comments" : [

],
"origin" : {
"source" : "template",
"name" : "notprovided",
"format" : "json",
"created" : "2019-02-22T16:11:42.601-0600",
"rawdata" : [

]
},
"version" : "0",
"entities" : [
{
"name" : "OTSROOT",
"assigned" : "2019-02-22T16:11:42.601-0600"
}
],
"tables" : [
{
"name" : "notprovided",
"assigned" : "2019-02-22T16:11:42.601-0600"
}
],
"changelog" : "notprovided",
"bookkeeping" : {
"isdeleted" : false,
"isreadonly" : false,
"updates" : [
{
"event" : "addTable",
"timestamp" : "2019-02-22T16:11:42.601-0600",
"value" : {
"name" : "notprovided",
"assigned" : "2019-02-22T16:11:42.601-0600"
}
},
{
"event" : "setVersion",
"timestamp" : "2019-02-22T16:11:42.601-0600",
"value" : {
"name" : "0",
"assigned" : "2019-02-22T16:11:42.601-0600"
}
},
{
"event" : "setCollection",
"timestamp" : "2019-02-22T16:11:42.601-0600",
"value" : {
"name" : "TableGroupMetadata",
"assigned" : "2019-02-22T16:11:42.601-0600"
}
},
{
"event" : "addEntity",
"timestamp" : "2019-02-22T16:11:42.601-0600",
"value" : {
"name" : "OTSROOT",
"assigned" : "2019-02-22T16:11:42.601-0600"
}
}
],
"created" : "2019-02-22T16:11:42.601-0600"
},
"_id" : {
"$oid" : "6bbea5a6b5d64725af84877d"
},
"collection" : "TableGroupMetadata",
"aliases" : {
"active" : [

],
"history" : [

]
},
"runs" : [

],
"attachments" : [

],
"configtype" : "notprovided"
}