{
"ouid" : [
"d05bc2015c904dbaa4a33610"
],
"version" : {
"1" : [
"d05bc2015c904dbaa4a33610"
]
},
"configurations.name" : {
"notprovided" : [
"d05bc2015c904dbaa4a33610"
],
"DefaultConfig_v1" : [
"d05bc2015c904dbaa4a33610"
],
"DefaultConfig_v2" : [
"d05bc2015c904dbaa4a33610"
],
"DefaultConfig_v3" : [
"d05bc2015c904dbaa4a33610"
],
"DefaultConfig_v4" : [
"d05bc2015c904dbaa4a33610"
],
"DefaultConfig_v5" : [
"d05bc2015c904dbaa4a33610"
],
"DefaultConfig_v6" : [
"d05bc2015c904dbaa4a33610"
],
"DefaultConfig_v7" : [
"d05bc2015c904dbaa4a33610"
],
"DefaultConfig_v8" : [
"d05bc2015c904dbaa4a33610"
],
"DefaultConfig_v9" : [
"d05bc2015c904dbaa4a33610"
],
"DefaultConfig_v10" : [
"d05bc2015c904dbaa4a33610"
],
"DefaultConfig_v11" : [
"d05bc2015c904dbaa4a33610"
],
"DefaultConfig_v12" : [
"d05bc2015c904dbaa4a33610"
],
"DefaultConfig_v13" : [
"d05bc2015c904dbaa4a33610"
],
"DefaultConfig_v14" : [
"d05bc2015c904dbaa4a33610"
],
"DefaultConfig_v15" : [
"d05bc2015c904dbaa4a33610"
],
"DefaultConfig_v16" : [
"d05bc2015c904dbaa4a33610"
],
"DefaultConfig_v17" : [
"d05bc2015c904dbaa4a33610"
],
"DefaultConfig_v18" : [
"d05bc2015c904dbaa4a33610"
],
"DefaultConfig_v19" : [
"d05bc2015c904dbaa4a33610"
],
"DefaultConfig_v20" : [
"d05bc2015c904dbaa4a33610"
],
"DefaultConfig_v21" : [
"d05bc2015c904dbaa4a33610"
],
"DefaultConfig_v22" : [
"d05bc2015c904dbaa4a33610"
],
"DefaultConfig_v23" : [
"d05bc2015c904dbaa4a33610"
],
"DefaultConfig_v24" : [
"d05bc2015c904dbaa4a33610"
],
"DefaultConfig_v25" : [
"d05bc2015c904dbaa4a33610"
],
"DefaultConfig_v26" : [
"d05bc2015c904dbaa4a33610"
],
"DefaultConfig_v27" : [
"d05bc2015c904dbaa4a33610"
],
"DefaultConfig_v28" : [
"d05bc2015c904dbaa4a33610"
],
"DefaultConfig_v29" : [
"d05bc2015c904dbaa4a33610"
],
"DefaultConfig_v30" : [
"d05bc2015c904dbaa4a33610"
],
"DefaultConfig_v31" : [
"d05bc2015c904dbaa4a33610"
],
"DefaultConfig_v32" : [
"d05bc2015c904dbaa4a33610"
],
"DefaultConfig_v33" : [
"d05bc2015c904dbaa4a33610"
],
"DefaultConfig_v34" : [
"d05bc2015c904dbaa4a33610"
],
"DefaultConfig_v35" : [
"d05bc2015c904dbaa4a33610"
],
"DefaultConfig_v36" : [
"d05bc2015c904dbaa4a33610"
],
"DefaultConfig_v37" : [
"d05bc2015c904dbaa4a33610"
],
"DefaultConfig_v38" : [
"d05bc2015c904dbaa4a33610"
],
"DefaultConfig_v39" : [
"d05bc2015c904dbaa4a33610"
],
"DefaultConfig_v40" : [
"d05bc2015c904dbaa4a33610"
],
"DefaultConfig_v41" : [
"d05bc2015c904dbaa4a33610"
]
},
"entities.name" : {
"OTSROOT" : [
"d05bc2015c904dbaa4a33610"
]
},
"aliases.active.name" : {

},
"runs.name" : {

},
"configurations.assigned" : {
"notprovided" : [
"2020-07-21T14:27:46.620-0500"
],
"DefaultConfig_v1" : [
"2020-07-21T14:27:47.106-0500"
],
"DefaultConfig_v2" : [
"2020-07-21T14:44:16.833-0500"
],
"DefaultConfig_v3" : [
"2020-07-21T14:57:50.729-0500"
],
"DefaultConfig_v4" : [
"2020-07-28T10:52:34.675-0500"
],
"DefaultConfig_v5" : [
"2020-08-04T15:30:35.548-0500"
],
"DefaultConfig_v6" : [
"2020-08-23T08:42:38.411-0400"
],
"DefaultConfig_v7" : [
"2020-08-23T09:13:31.755-0400"
],
"DefaultConfig_v8" : [
"2020-08-23T09:16:48.361-0400"
],
"DefaultConfig_v9" : [
"2020-08-25T04:49:16.108-0400"
],
"DefaultConfig_v10" : [
"2020-08-26T07:39:08.719-0400"
],
"DefaultConfig_v11" : [
"2020-08-26T07:52:47.465-0400"
],
"DefaultConfig_v12" : [
"2020-08-26T07:59:18.878-0400"
],
"DefaultConfig_v13" : [
"2020-08-26T08:29:39.453-0400"
],
"DefaultConfig_v14" : [
"2020-09-07T07:00:55.513-0400"
],
"DefaultConfig_v15" : [
"2020-09-07T07:05:08.162-0400"
],
"DefaultConfig_v16" : [
"2020-09-07T07:09:30.809-0400"
],
"DefaultConfig_v17" : [
"2020-09-07T07:16:08.121-0400"
],
"DefaultConfig_v18" : [
"2020-09-07T07:56:04.213-0400"
],
"DefaultConfig_v19" : [
"2020-09-07T08:00:30.697-0400"
],
"DefaultConfig_v20" : [
"2020-09-07T08:01:53.321-0400"
],
"DefaultConfig_v21" : [
"2020-09-07T08:06:18.217-0400"
],
"DefaultConfig_v22" : [
"2020-09-07T08:11:04.226-0400"
],
"DefaultConfig_v23" : [
"2020-09-07T08:26:52.791-0400"
],
"DefaultConfig_v24" : [
"2020-09-07T08:29:30.568-0400"
],
"DefaultConfig_v25" : [
"2020-09-07T09:02:56.711-0400"
],
"DefaultConfig_v26" : [
"2020-09-07T10:31:55.481-0400"
],
"DefaultConfig_v27" : [
"2020-09-07T10:37:40.289-0400"
],
"DefaultConfig_v28" : [
"2020-09-07T11:26:43.948-0400"
],
"DefaultConfig_v29" : [
"2020-09-07T11:45:30.740-0400"
],
"DefaultConfig_v30" : [
"2020-09-07T11:54:06.531-0400"
],
"DefaultConfig_v31" : [
"2020-09-07T15:14:41.571-0400"
],
"DefaultConfig_v32" : [
"2020-09-07T15:15:32.636-0400"
],
"DefaultConfig_v33" : [
"2020-09-07T15:16:20.794-0400"
],
"DefaultConfig_v34" : [
"2020-09-07T15:17:15.210-0400"
],
"DefaultConfig_v35" : [
"2020-09-07T15:18:03.015-0400"
],
"DefaultConfig_v36" : [
"2020-09-07T15:18:43.720-0400"
],
"DefaultConfig_v37" : [
"2020-09-07T15:19:34.707-0400"
],
"DefaultConfig_v38" : [
"2020-09-07T15:20:25.267-0400"
],
"DefaultConfig_v39" : [
"2020-09-07T15:21:05.861-0400"
],
"DefaultConfig_v40" : [
"2020-09-07T15:21:50.944-0400"
],
"DefaultConfig_v41" : [
"2020-09-07T15:22:29.039-0400"
]
}
}