{
"document" : {
"data" : {
"NAME" : "OTDQM_HISTOS_CONSUMER_TABLE",
"COMMENT" : "No comment.",
"AUTHOR" : "admin",
"CREATION_TIME" : 1550871400,
"COL_TYPES" : {
"PROCESSOR_UID" : "VARCHAR2",
"FILE_PATH" : "VARCHAR2",
"RADIX_FILE_NAME" : "VARCHAR2",
"SAVE_FILE" : "VARCHAR2",
"COMMENT_DESCRIPTION" : "VARCHAR2",
"AUTHOR" : "VARCHAR2",
"RECORD_INSERTION_TIME" : "TIMESTAMP WITH TIMEZONE"
},
"DATA_SET" : [
{
"PROCESSOR_UID" : "VisualDataBufferOTDQMHistos",
"FILE_PATH" : "${OTSDAQ_DATA}/OtsHistos",
"RADIX_FILE_NAME" : "OTDQMHistos",
"SAVE_FILE" : "Yes",
"COMMENT_DESCRIPTION" : "",
"AUTHOR" : "admin",
"RECORD_INSERTION_TIME" : "1550871400"
}
]
},
"metadata" : {

},
"search" : [

]
},
"comments" : [

],
"origin" : {
"source" : "template",
"name" : "notprovided",
"format" : "json",
"created" : "2019-02-22T16:11:42.829-0600",
"rawdata" : [

]
},
"version" : "1",
"entities" : [
{
"name" : "OTSROOT",
"assigned" : "2019-02-22T16:11:42.830-0600"
}
],
"tables" : [
{
"name" : "notprovided",
"assigned" : "2019-02-22T16:11:42.830-0600"
},
{
"name" : "DefaultConfig_v1",
"assigned" : "2019-02-22T16:11:43.091-0600"
}
],
"changelog" : "notprovided",
"bookkeeping" : {
"isdeleted" : false,
"isreadonly" : false,
"updates" : [
{
"event" : "addTable",
"timestamp" : "2019-02-22T16:11:42.830-0600",
"value" : {
"name" : "notprovided",
"assigned" : "2019-02-22T16:11:42.830-0600"
}
},
{
"event" : "setVersion",
"timestamp" : "2019-02-22T16:11:42.830-0600",
"value" : {
"name" : "1",
"assigned" : "2019-02-22T16:11:42.830-0600"
}
},
{
"event" : "setCollection",
"timestamp" : "2019-02-22T16:11:42.830-0600",
"value" : {
"name" : "OTDQMHistosConsumerTable",
"assigned" : "2019-02-22T16:11:42.830-0600"
}
},
{
"event" : "addEntity",
"timestamp" : "2019-02-22T16:11:42.830-0600",
"value" : {
"name" : "OTSROOT",
"assigned" : "2019-02-22T16:11:42.830-0600"
}
},
{
"event" : "addTable",
"timestamp" : "2019-02-22T16:11:43.091-0600",
"value" : {
"name" : "DefaultConfig_v1",
"assigned" : "2019-02-22T16:11:43.091-0600"
}
},
{
"event" : "addConfiguration",
"timestamp" : "2019-07-22T11:27:30.426-0500",
"value" : {
"name" : "DefaultConfig_v2",
"assigned" : "2019-07-22T11:27:30.426-0500"
}
},
{
"event" : "addConfiguration",
"timestamp" : "2019-07-22T14:43:10.310-0500",
"value" : {
"name" : "DefaultConfig_v3",
"assigned" : "2019-07-22T14:43:10.310-0500"
}
},
{
"event" : "addConfiguration",
"timestamp" : "2019-07-22T14:47:01.482-0500",
"value" : {
"name" : "DefaultConfig_v4",
"assigned" : "2019-07-22T14:47:01.481-0500"
}
},
{
"event" : "addConfiguration",
"timestamp" : "2019-07-22T15:05:41.525-0500",
"value" : {
"name" : "DefaultConfig_v5",
"assigned" : "2019-07-22T15:05:41.525-0500"
}
},
{
"event" : "addConfiguration",
"timestamp" : "2019-07-23T09:00:32.012-0500",
"value" : {
"name" : "DefaultConfig_v6",
"assigned" : "2019-07-23T09:00:32.012-0500"
}
},
{
"event" : "addConfiguration",
"timestamp" : "2019-07-23T09:04:43.738-0500",
"value" : {
"name" : "DefaultConfig_v7",
"assigned" : "2019-07-23T09:04:43.738-0500"
}
},
{
"event" : "addConfiguration",
"timestamp" : "2019-07-23T09:48:11.841-0500",
"value" : {
"name" : "DefaultConfig_v8",
"assigned" : "2019-07-23T09:48:11.841-0500"
}
},
{
"event" : "addConfiguration",
"timestamp" : "2019-11-20T15:25:38.622-0600",
"value" : {
"name" : "DefaultConfig_v10",
"assigned" : "2019-11-20T15:25:38.622-0600"
}
},
{
"event" : "addConfiguration",
"timestamp" : "2019-11-20T15:28:12.659-0600",
"value" : {
"name" : "DefaultConfig_v11",
"assigned" : "2019-11-20T15:28:12.658-0600"
}
},
{
"event" : "addConfiguration",
"timestamp" : "2019-11-20T15:58:29.968-0600",
"value" : {
"name" : "DefaultConfig_v12",
"assigned" : "2019-11-20T15:58:29.968-0600"
}
},
{
"event" : "addConfiguration",
"timestamp" : "2019-11-20T16:23:03.653-0600",
"value" : {
"name" : "DefaultConfig_v13",
"assigned" : "2019-11-20T16:23:03.653-0600"
}
},
{
"event" : "addConfiguration",
"timestamp" : "2019-11-20T16:24:45.787-0600",
"value" : {
"name" : "DefaultConfig_v14",
"assigned" : "2019-11-20T16:24:45.787-0600"
}
},
{
"event" : "addConfiguration",
"timestamp" : "2019-11-20T16:27:46.625-0600",
"value" : {
"name" : "DefaultConfig_v15",
"assigned" : "2019-11-20T16:27:46.625-0600"
}
},
{
"event" : "addConfiguration",
"timestamp" : "2019-11-20T16:42:11.182-0600",
"value" : {
"name" : "DefaultConfig_v16",
"assigned" : "2019-11-20T16:42:11.182-0600"
}
},
{
"event" : "addConfiguration",
"timestamp" : "2020-06-17T17:20:12.960-0500",
"value" : {
"name" : "DefaultConfig_v17",
"assigned" : "2020-06-17T17:20:12.960-0500"
}
},
{
"event" : "addConfiguration",
"timestamp" : "2020-06-19T16:56:28.697+0200",
"value" : {
"name" : "DefaultConfig_v18",
"assigned" : "2020-06-19T16:56:28.697+0200"
}
},
{
"event" : "addConfiguration",
"timestamp" : "2020-07-01T16:27:42.017-0500",
"value" : {
"name" : "DefaultConfig_v19",
"assigned" : "2020-07-01T16:27:42.017-0500"
}
},
{
"event" : "addConfiguration",
"timestamp" : "2020-07-01T16:43:50.261-0500",
"value" : {
"name" : "DefaultConfig_v20",
"assigned" : "2020-07-01T16:43:50.261-0500"
}
},
{
"event" : "addConfiguration",
"timestamp" : "2020-07-01T16:52:30.232-0500",
"value" : {
"name" : "DefaultConfig_v21",
"assigned" : "2020-07-01T16:52:30.232-0500"
}
},
{
"event" : "addConfiguration",
"timestamp" : "2020-07-01T16:57:29.899-0500",
"value" : {
"name" : "DefaultConfig_v22",
"assigned" : "2020-07-01T16:57:29.899-0500"
}
}
],
"created" : "2019-02-22T16:11:42.829-0600"
},
"_id" : {
"$oid" : "2095e6f0260a4f38812a2e20"
},
"collection" : "OTDQMHistosConsumerTable",
"aliases" : {
"active" : [

],
"history" : [

]
},
"runs" : [

],
"attachments" : [

],
"configtype" : "notprovided",
"configurations" : [
{
"name" : "DefaultConfig_v2",
"assigned" : "2019-07-22T11:27:30.426-0500"
},
{
"name" : "DefaultConfig_v3",
"assigned" : "2019-07-22T14:43:10.310-0500"
},
{
"name" : "DefaultConfig_v4",
"assigned" : "2019-07-22T14:47:01.481-0500"
},
{
"name" : "DefaultConfig_v5",
"assigned" : "2019-07-22T15:05:41.525-0500"
},
{
"name" : "DefaultConfig_v6",
"assigned" : "2019-07-23T09:00:32.012-0500"
},
{
"name" : "DefaultConfig_v7",
"assigned" : "2019-07-23T09:04:43.738-0500"
},
{
"name" : "DefaultConfig_v8",
"assigned" : "2019-07-23T09:48:11.841-0500"
},
{
"name" : "DefaultConfig_v10",
"assigned" : "2019-11-20T15:25:38.622-0600"
},
{
"name" : "DefaultConfig_v11",
"assigned" : "2019-11-20T15:28:12.658-0600"
},
{
"name" : "DefaultConfig_v12",
"assigned" : "2019-11-20T15:58:29.968-0600"
},
{
"name" : "DefaultConfig_v13",
"assigned" : "2019-11-20T16:23:03.653-0600"
},
{
"name" : "DefaultConfig_v14",
"assigned" : "2019-11-20T16:24:45.787-0600"
},
{
"name" : "DefaultConfig_v15",
"assigned" : "2019-11-20T16:27:46.625-0600"
},
{
"name" : "DefaultConfig_v16",
"assigned" : "2019-11-20T16:42:11.182-0600"
},
{
"name" : "DefaultConfig_v17",
"assigned" : "2020-06-17T17:20:12.960-0500"
},
{
"name" : "DefaultConfig_v18",
"assigned" : "2020-06-19T16:56:28.697+0200"
},
{
"name" : "DefaultConfig_v19",
"assigned" : "2020-07-01T16:27:42.017-0500"
},
{
"name" : "DefaultConfig_v20",
"assigned" : "2020-07-01T16:43:50.261-0500"
},
{
"name" : "DefaultConfig_v21",
"assigned" : "2020-07-01T16:52:30.232-0500"
},
{
"name" : "DefaultConfig_v22",
"assigned" : "2020-07-01T16:57:29.899-0500"
}
]
}