{
"document" : {
"data" : {
"NAME" : "OTDQM_HISTOS_CONSUMER_TABLE",
"COMMENT" : "No comment.",
"AUTHOR" : "admin",
"CREATION_TIME" : 1565193628,
"COL_TYPES" : {
"PROCESSOR_UID" : "VARCHAR2",
"FILE_PATH" : "VARCHAR2",
"RADIX_FILE_NAME" : "VARCHAR2",
"SAVE_FILE" : "VARCHAR2",
"COMMENT_DESCRIPTION" : "VARCHAR2",
"AUTHOR" : "VARCHAR2",
"RECORD_INSERTION_TIME" : "TIMESTAMP WITH TIMEZONE"
},
"DATA_SET" : [
{
"PROCESSOR_UID" : "VisualDataBufferOTDQMHistos",
"FILE_PATH" : "/home/otsdaq/Programming/otsdaq/srcs/otsdaq_cmsoutertracker/otsdaq-cmsoutertracker/Ph2_ACF",
"RADIX_FILE_NAME" : "OTDQMHistos",
"SAVE_FILE" : "Yes",
"COMMENT_DESCRIPTION" : "",
"AUTHOR" : "admin",
"RECORD_INSERTION_TIME" : "1565193628"
}
]
},
"metadata" : {

},
"search" : [

]
},
"comments" : [

],
"origin" : {
"source" : "template",
"name" : "notprovided",
"format" : "json",
"created" : "2019-08-07T11:00:28.736-0500",
"rawdata" : [

]
},
"version" : "2",
"entities" : [
{
"name" : "OTSROOT",
"assigned" : "2019-08-07T11:00:28.737-0500"
}
],
"configurations" : [
{
"name" : "notprovided",
"assigned" : "2019-08-07T11:00:28.737-0500"
},
{
"name" : "DefaultConfig_v9",
"assigned" : "2019-08-07T11:00:29.463-0500"
}
],
"changelog" : "notprovided",
"bookkeeping" : {
"isdeleted" : false,
"isreadonly" : false,
"updates" : [
{
"event" : "addConfiguration",
"timestamp" : "2019-08-07T11:00:28.737-0500",
"value" : {
"name" : "notprovided",
"assigned" : "2019-08-07T11:00:28.737-0500"
}
},
{
"event" : "setVersion",
"timestamp" : "2019-08-07T11:00:28.737-0500",
"value" : {
"name" : "2",
"assigned" : "2019-08-07T11:00:28.737-0500"
}
},
{
"event" : "setCollection",
"timestamp" : "2019-08-07T11:00:28.737-0500",
"value" : {
"name" : "OTDQMHistosConsumerTable",
"assigned" : "2019-08-07T11:00:28.737-0500"
}
},
{
"event" : "addEntity",
"timestamp" : "2019-08-07T11:00:28.737-0500",
"value" : {
"name" : "OTSROOT",
"assigned" : "2019-08-07T11:00:28.737-0500"
}
},
{
"event" : "addConfiguration",
"timestamp" : "2019-08-07T11:00:29.463-0500",
"value" : {
"name" : "DefaultConfig_v9",
"assigned" : "2019-08-07T11:00:29.463-0500"
}
}
],
"created" : "2019-08-07T11:00:28.736-0500"
},
"_id" : {
"$oid" : "316f471acabf4c669526b746"
},
"collection" : "OTDQMHistosConsumerTable",
"aliases" : {
"active" : [

],
"history" : [

]
},
"runs" : [

],
"attachments" : [

],
"configtype" : "notprovided"
}