{
"ouid" : [
"4a9e19debdbc4fadaa75538c",
"64fd79d0a4ff433e99610d09",
"70d3fe18cec64390ab77b594",
"79cd7a3c740a49e9945f76d5",
"d677b3e55e0546f2ac528433"
],
"version" : {
"0" : [
"64fd79d0a4ff433e99610d09"
],
"1" : [
"4a9e19debdbc4fadaa75538c"
],
"2" : [
"79cd7a3c740a49e9945f76d5"
],
"3" : [
"70d3fe18cec64390ab77b594"
],
"4" : [
"d677b3e55e0546f2ac528433"
]
},
"configurations.name" : {
"notprovided" : [
"4a9e19debdbc4fadaa75538c",
"64fd79d0a4ff433e99610d09",
"70d3fe18cec64390ab77b594",
"79cd7a3c740a49e9945f76d5",
"d677b3e55e0546f2ac528433"
],
"iterateDefaultGroup_v0" : [
"64fd79d0a4ff433e99610d09"
],
"iterateDefaultGroup_v1" : [
"4a9e19debdbc4fadaa75538c"
],
"iterateDefaultGroup_v2" : [
"4a9e19debdbc4fadaa75538c"
],
"iterateDefaultGroup_v3" : [
"4a9e19debdbc4fadaa75538c"
],
"iterateDefaultGroup_v4" : [
"4a9e19debdbc4fadaa75538c"
],
"iterateDefaultGroup_v5" : [
"4a9e19debdbc4fadaa75538c"
],
"iterateDefaultGroup_v6" : [
"4a9e19debdbc4fadaa75538c"
],
"iterateDefaultGroup_v7" : [
"4a9e19debdbc4fadaa75538c"
],
"iterateDefaultGroup_v8" : [
"4a9e19debdbc4fadaa75538c"
],
"iterateDefaultGroup_v9" : [
"4a9e19debdbc4fadaa75538c"
],
"iterateDefaultGroup_v10" : [
"4a9e19debdbc4fadaa75538c"
],
"iterateDefaultGroup_v11" : [
"4a9e19debdbc4fadaa75538c"
],
"iterateDefaultGroup_v12" : [
"4a9e19debdbc4fadaa75538c"
],
"iterateDefaultGroup_v13" : [
"4a9e19debdbc4fadaa75538c"
],
"iterateDefaultGroup_v14" : [
"4a9e19debdbc4fadaa75538c"
],
"iterateDefaultGroup_v15" : [
"4a9e19debdbc4fadaa75538c"
],
"iterateDefaultGroup_v16" : [
"4a9e19debdbc4fadaa75538c"
],
"iterateDefaultGroup_v17" : [
"79cd7a3c740a49e9945f76d5"
],
"iterateDefaultGroup_v18" : [
"70d3fe18cec64390ab77b594"
],
"iterateDefaultGroup_v19" : [
"70d3fe18cec64390ab77b594"
],
"iterateDefaultGroup_v20" : [
"d677b3e55e0546f2ac528433"
],
"iterateDefaultGroup_v21" : [
"d677b3e55e0546f2ac528433"
],
"iterateDefaultGroup_v22" : [
"d677b3e55e0546f2ac528433"
],
"iterateDefaultGroup_v23" : [
"d677b3e55e0546f2ac528433"
],
"iterateDefaultGroup_v24" : [
"d677b3e55e0546f2ac528433"
],
"iterateDefaultGroup_v25" : [
"d677b3e55e0546f2ac528433"
],
"iterateDefaultGroup_v26" : [
"d677b3e55e0546f2ac528433"
],
"iterateDefaultGroup_v27" : [
"d677b3e55e0546f2ac528433"
],
"iterateDefaultGroup_v28" : [
"d677b3e55e0546f2ac528433"
],
"iterateDefaultGroup_v29" : [
"d677b3e55e0546f2ac528433"
],
"iterateDefaultGroup_v30" : [
"d677b3e55e0546f2ac528433"
],
"iterateDefaultGroup_v31" : [
"d677b3e55e0546f2ac528433"
]
},
"entities.name" : {
"OTSROOT" : [
"4a9e19debdbc4fadaa75538c",
"64fd79d0a4ff433e99610d09",
"70d3fe18cec64390ab77b594",
"79cd7a3c740a49e9945f76d5",
"d677b3e55e0546f2ac528433"
]
},
"aliases.active.name" : {

},
"runs.name" : {

},
"configurations.assigned" : {
"notprovided" : [
"2020-07-21T14:47:39.012-0500",
"2020-07-21T15:25:07.140-0500",
"2020-08-23T09:43:04.967-0400",
"2020-08-23T10:39:30.511-0400",
"2020-08-23T12:38:25.434-0400"
],
"iterateDefaultGroup_v0" : [
"2020-07-21T14:47:39.484-0500"
],
"iterateDefaultGroup_v1" : [
"2020-07-21T15:25:07.892-0500"
],
"iterateDefaultGroup_v2" : [
"2020-07-21T15:28:04.262-0500"
],
"iterateDefaultGroup_v3" : [
"2020-07-21T15:42:20.516-0500"
],
"iterateDefaultGroup_v4" : [
"2020-07-21T15:45:03.583-0500"
],
"iterateDefaultGroup_v5" : [
"2020-07-21T15:57:33.586-0500"
],
"iterateDefaultGroup_v6" : [
"2020-07-28T10:52:35.075-0500"
],
"iterateDefaultGroup_v7" : [
"2020-07-28T13:01:36.767-0500"
],
"iterateDefaultGroup_v8" : [
"2020-07-28T13:03:26.976-0500"
],
"iterateDefaultGroup_v9" : [
"2020-07-28T13:12:57.942-0500"
],
"iterateDefaultGroup_v10" : [
"2020-07-28T13:15:25.187-0500"
],
"iterateDefaultGroup_v11" : [
"2020-07-28T13:20:57.108-0500"
],
"iterateDefaultGroup_v12" : [
"2020-07-28T13:27:37.693-0500"
],
"iterateDefaultGroup_v13" : [
"2020-08-23T09:24:34.565-0400"
],
"iterateDefaultGroup_v14" : [
"2020-08-23T09:26:43.133-0400"
],
"iterateDefaultGroup_v15" : [
"2020-08-23T09:29:14.429-0400"
],
"iterateDefaultGroup_v16" : [
"2020-08-23T09:33:18.677-0400"
],
"iterateDefaultGroup_v17" : [
"2020-08-23T09:43:06.253-0400"
],
"iterateDefaultGroup_v18" : [
"2020-08-23T10:39:31.849-0400"
],
"iterateDefaultGroup_v19" : [
"2020-08-23T11:05:09.560-0400"
],
"iterateDefaultGroup_v20" : [
"2020-08-23T12:38:26.834-0400"
],
"iterateDefaultGroup_v21" : [
"2020-09-07T07:24:26.699-0400"
],
"iterateDefaultGroup_v22" : [
"2020-09-07T07:25:08.230-0400"
],
"iterateDefaultGroup_v23" : [
"2020-09-07T07:42:47.782-0400"
],
"iterateDefaultGroup_v24" : [
"2020-09-07T08:36:21.499-0400"
],
"iterateDefaultGroup_v25" : [
"2020-09-07T08:41:07.172-0400"
],
"iterateDefaultGroup_v26" : [
"2020-09-07T10:01:47.342-0400"
],
"iterateDefaultGroup_v27" : [
"2020-09-07T10:05:33.945-0400"
],
"iterateDefaultGroup_v28" : [
"2020-09-07T10:31:12.057-0400"
],
"iterateDefaultGroup_v29" : [
"2020-09-07T10:32:31.922-0400"
],
"iterateDefaultGroup_v30" : [
"2020-09-07T10:39:25.887-0400"
],
"iterateDefaultGroup_v31" : [
"2020-09-07T10:47:19.677-0400"
]
}
}