{
"document" : {
"data" : {
"NAME" : "XDAQ_APPLICATION_PROPERTY_TABLE",
"COMMENT" : "No comment.",
"AUTHOR" : "admin",
"CREATION_TIME" : 1537290938,
"COL_TYPES" : {
"PROPERTY_GROUP_ID" : "VARCHAR2",
"UID" : "VARCHAR2",
"STATUS" : "VARCHAR2",
"PROPERTY_NAME" : "VARCHAR2",
"PROPERTY_TYPE" : "VARCHAR2",
"PROPERTY_VALUE" : "VARCHAR2",
"COMMENT_DESCRIPTION" : "VARCHAR2",
"AUTHOR" : "VARCHAR2",
"RECORD_INSERTION_TIME" : "TIMESTAMP WITH TIMEZONE"
},
"DATA_SET" : [
{
"PROPERTY_GROUP_ID" : "ACFSupervisor0",
"UID" : "FedID",
"STATUS" : "On",
"PROPERTY_NAME" : "FedID",
"PROPERTY_TYPE" : "xsd:unsignedShort",
"PROPERTY_VALUE" : "51",
"COMMENT_DESCRIPTION" : "No Comment",
"AUTHOR" : "admin",
"RECORD_INSERTION_TIME" : "1534954759"
},
{
"PROPERTY_GROUP_ID" : "ACFSupervisor0",
"UID" : "HWDescriptionFile",
"STATUS" : "On",
"PROPERTY_NAME" : "HWDescriptionFile",
"PROPERTY_TYPE" : "xsd:string",
"PROPERTY_VALUE" : "${PH2ACF_ROOT}/settings/D19CDescription.xml",
"COMMENT_DESCRIPTION" : "No Comment",
"AUTHOR" : "admin",
"RECORD_INSERTION_TIME" : "1537290927"
},
{
"PROPERTY_GROUP_ID" : "ACFSupervisor0",
"UID" : "DataDirectory",
"STATUS" : "On",
"PROPERTY_NAME" : "DataDirectory",
"PROPERTY_TYPE" : "xsd:string",
"PROPERTY_VALUE" : "${OTSDAQ_DATA}",
"COMMENT_DESCRIPTION" : "No Comment",
"AUTHOR" : "admin",
"RECORD_INSERTION_TIME" : "1534954997"
},
{
"PROPERTY_GROUP_ID" : "ACFSupervisor0",
"UID" : "ResultDirectory",
"STATUS" : "On",
"PROPERTY_NAME" : "ResultDirectory",
"PROPERTY_TYPE" : "xsd:string",
"PROPERTY_VALUE" : "${OTSDAQ_DATA}/Result",
"COMMENT_DESCRIPTION" : "No Comment",
"AUTHOR" : "admin",
"RECORD_INSERTION_TIME" : "1534954997"
},
{
"PROPERTY_GROUP_ID" : "ACFSupervisor0",
"UID" : "runNumber",
"STATUS" : "On",
"PROPERTY_NAME" : "runNumber",
"PROPERTY_TYPE" : "xsd:integer",
"PROPERTY_VALUE" : "-1",
"COMMENT_DESCRIPTION" : "No Comment",
"AUTHOR" : "admin",
"RECORD_INSERTION_TIME" : "1534954997"
},
{
"PROPERTY_GROUP_ID" : "ACFSupervisor0",
"UID" : "NEvents",
"STATUS" : "On",
"PROPERTY_NAME" : "NEvents",
"PROPERTY_TYPE" : "xsd:unsignedInt",
"PROPERTY_VALUE" : "0",
"COMMENT_DESCRIPTION" : "No Comment",
"AUTHOR" : "admin",
"RECORD_INSERTION_TIME" : "1534954997"
},
{
"PROPERTY_GROUP_ID" : "ACFSupervisor0",
"UID" : "WriteRAW",
"STATUS" : "On",
"PROPERTY_NAME" : "WriteRAW",
"PROPERTY_TYPE" : "xsd:boolean",
"PROPERTY_VALUE" : "true",
"COMMENT_DESCRIPTION" : "No Comment",
"AUTHOR" : "admin",
"RECORD_INSERTION_TIME" : "1534954997"
},
{
"PROPERTY_GROUP_ID" : "ACFSupervisor0",
"UID" : "WriteDAQ",
"STATUS" : "On",
"PROPERTY_NAME" : "WriteDAQ",
"PROPERTY_TYPE" : "xsd:boolean",
"PROPERTY_VALUE" : "true",
"COMMENT_DESCRIPTION" : "No Comment",
"AUTHOR" : "admin",
"RECORD_INSERTION_TIME" : "1534954997"
},
{
"PROPERTY_GROUP_ID" : "ACFSupervisor0",
"UID" : "ShortPause",
"STATUS" : "On",
"PROPERTY_NAME" : "ShortPause",
"PROPERTY_TYPE" : "xsd:integer",
"PROPERTY_VALUE" : "10",
"COMMENT_DESCRIPTION" : "No Comment",
"AUTHOR" : "admin",
"RECORD_INSERTION_TIME" : "1534954997"
},
{
"PROPERTY_GROUP_ID" : "ACFSupervisor0",
"UID" : "THttpServerPort",
"STATUS" : "On",
"PROPERTY_NAME" : "THttpServerPort",
"PROPERTY_TYPE" : "xsd:integer",
"PROPERTY_VALUE" : "9090",
"COMMENT_DESCRIPTION" : "No Comment",
"AUTHOR" : "admin",
"RECORD_INSERTION_TIME" : "1534954997"
},
{
"PROPERTY_GROUP_ID" : "ACFSupervisor0",
"UID" : "SendData",
"STATUS" : "On",
"PROPERTY_NAME" : "SendData",
"PROPERTY_TYPE" : "xsd:boolean",
"PROPERTY_VALUE" : "false",
"COMMENT_DESCRIPTION" : "No Comment",
"AUTHOR" : "admin",
"RECORD_INSERTION_TIME" : "1534954997"
},
{
"PROPERTY_GROUP_ID" : "ACFSupervisor0",
"UID" : "DataDestination",
"STATUS" : "On",
"PROPERTY_NAME" : "DataDestination",
"PROPERTY_TYPE" : "xsd:string",
"PROPERTY_VALUE" : "DQM",
"COMMENT_DESCRIPTION" : "No Comment",
"AUTHOR" : "admin",
"RECORD_INSERTION_TIME" : "1534954997"
},
{
"PROPERTY_GROUP_ID" : "ACFSupervisor0",
"UID" : "DQMPostScale",
"STATUS" : "On",
"PROPERTY_NAME" : "DQMPostScale",
"PROPERTY_TYPE" : "xsd:integer",
"PROPERTY_VALUE" : "1",
"COMMENT_DESCRIPTION" : "No Comment",
"AUTHOR" : "admin",
"RECORD_INSERTION_TIME" : "1534954997"
},
{
"PROPERTY_GROUP_ID" : "ACFSupervisor0",
"UID" : "DataSourceHost",
"STATUS" : "On",
"PROPERTY_NAME" : "DataSourceHost",
"PROPERTY_TYPE" : "xsd:string",
"PROPERTY_VALUE" : "localhost",
"COMMENT_DESCRIPTION" : "No Comment",
"AUTHOR" : "admin",
"RECORD_INSERTION_TIME" : "1534954997"
},
{
"PROPERTY_GROUP_ID" : "ACFSupervisor0",
"UID" : "DataSourcePort",
"STATUS" : "On",
"PROPERTY_NAME" : "DataSourcePort",
"PROPERTY_TYPE" : "xsd:integer",
"PROPERTY_VALUE" : "60000",
"COMMENT_DESCRIPTION" : "No Comment",
"AUTHOR" : "admin",
"RECORD_INSERTION_TIME" : "1534954997"
},
{
"PROPERTY_GROUP_ID" : "ACFSupervisor0",
"UID" : "DataSinkHost",
"STATUS" : "On",
"PROPERTY_NAME" : "DataSinkHost",
"PROPERTY_TYPE" : "xsd:string",
"PROPERTY_VALUE" : "localhost",
"COMMENT_DESCRIPTION" : "No Comment",
"AUTHOR" : "admin",
"RECORD_INSERTION_TIME" : "1534954997"
},
{
"PROPERTY_GROUP_ID" : "ACFSupervisor0",
"UID" : "DataSinkPort",
"STATUS" : "On",
"PROPERTY_NAME" : "DataSinkPort",
"PROPERTY_TYPE" : "xsd:integer",
"PROPERTY_VALUE" : "50000",
"COMMENT_DESCRIPTION" : "No Comment",
"AUTHOR" : "admin",
"RECORD_INSERTION_TIME" : "1534954997"
},
{
"PROPERTY_GROUP_ID" : "ACFSupervisor0",
"UID" : "PlaybackMode",
"STATUS" : "On",
"PROPERTY_NAME" : "PlaybackMode",
"PROPERTY_TYPE" : "xsd:boolean",
"PROPERTY_VALUE" : "false",
"COMMENT_DESCRIPTION" : "No Comment",
"AUTHOR" : "admin",
"RECORD_INSERTION_TIME" : "1534954997"
},
{
"PROPERTY_GROUP_ID" : "ACFSupervisor0",
"UID" : "PlaybackFile",
"STATUS" : "On",
"PROPERTY_NAME" : "PlaybackFile",
"PROPERTY_TYPE" : "xsd:string",
"PROPERTY_VALUE" : "",
"COMMENT_DESCRIPTION" : "No Comment",
"AUTHOR" : "admin",
"RECORD_INSERTION_TIME" : "1534954997"
}
]
},
"metadata" : {

},
"search" : [

]
},
"comments" : [

],
"origin" : {
"source" : "template",
"name" : "notprovided",
"format" : "json",
"created" : "2019-02-22T16:11:43.335-0600",
"rawdata" : [

]
},
"version" : "2",
"entities" : [
{
"name" : "OTSROOT",
"assigned" : "2019-02-22T16:11:43.335-0600"
}
],
"tables" : [
{
"name" : "notprovided",
"assigned" : "2019-02-22T16:11:43.335-0600"
},
{
"name" : "DefaultContext_v2",
"assigned" : "2019-02-22T16:11:43.557-0600"
}
],
"changelog" : "notprovided",
"bookkeeping" : {
"isdeleted" : false,
"isreadonly" : false,
"updates" : [
{
"event" : "addTable",
"timestamp" : "2019-02-22T16:11:43.335-0600",
"value" : {
"name" : "notprovided",
"assigned" : "2019-02-22T16:11:43.335-0600"
}
},
{
"event" : "setVersion",
"timestamp" : "2019-02-22T16:11:43.335-0600",
"value" : {
"name" : "2",
"assigned" : "2019-02-22T16:11:43.335-0600"
}
},
{
"event" : "setCollection",
"timestamp" : "2019-02-22T16:11:43.335-0600",
"value" : {
"name" : "XDAQApplicationPropertyTable",
"assigned" : "2019-02-22T16:11:43.335-0600"
}
},
{
"event" : "addEntity",
"timestamp" : "2019-02-22T16:11:43.335-0600",
"value" : {
"name" : "OTSROOT",
"assigned" : "2019-02-22T16:11:43.335-0600"
}
},
{
"event" : "addTable",
"timestamp" : "2019-02-22T16:11:43.557-0600",
"value" : {
"name" : "DefaultContext_v2",
"assigned" : "2019-02-22T16:11:43.557-0600"
}
},
{
"event" : "addConfiguration",
"timestamp" : "2019-07-23T09:05:25.637-0500",
"value" : {
"name" : "DefaultContext_v3",
"assigned" : "2019-07-23T09:05:25.637-0500"
}
},
{
"event" : "addConfiguration",
"timestamp" : "2019-11-19T16:07:21.780-0600",
"value" : {
"name" : "DefaultContext_v4",
"assigned" : "2019-11-19T16:07:21.780-0600"
}
},
{
"event" : "addConfiguration",
"timestamp" : "2019-11-20T14:24:12.732-0600",
"value" : {
"name" : "DefaultContext_v5",
"assigned" : "2019-11-20T14:24:12.732-0600"
}
},
{
"event" : "addConfiguration",
"timestamp" : "2019-11-20T14:39:27.587-0600",
"value" : {
"name" : "DefaultContext_v6",
"assigned" : "2019-11-20T14:39:27.587-0600"
}
},
{
"event" : "addConfiguration",
"timestamp" : "2019-11-20T15:26:58.616-0600",
"value" : {
"name" : "DefaultContext_v7",
"assigned" : "2019-11-20T15:26:58.616-0600"
}
},
{
"event" : "addConfiguration",
"timestamp" : "2019-11-20T15:27:24.653-0600",
"value" : {
"name" : "DefaultContext_v8",
"assigned" : "2019-11-20T15:27:24.653-0600"
}
},
{
"event" : "addConfiguration",
"timestamp" : "2019-11-20T15:28:33.833-0600",
"value" : {
"name" : "DefaultContext_v9",
"assigned" : "2019-11-20T15:28:33.833-0600"
}
},
{
"event" : "addConfiguration",
"timestamp" : "2019-11-20T15:56:57.894-0600",
"value" : {
"name" : "DefaultContext_v10",
"assigned" : "2019-11-20T15:56:57.894-0600"
}
},
{
"event" : "addConfiguration",
"timestamp" : "2019-11-20T16:00:09.294-0600",
"value" : {
"name" : "DefaultContext_v11",
"assigned" : "2019-11-20T16:00:09.294-0600"
}
},
{
"event" : "addConfiguration",
"timestamp" : "2019-12-05T17:52:36.390-0600",
"value" : {
"name" : "DefaultContext_v12",
"assigned" : "2019-12-05T17:52:36.390-0600"
}
},
{
"event" : "addConfiguration",
"timestamp" : "2019-12-06T09:54:12.757-0600",
"value" : {
"name" : "DefaultContext_v13",
"assigned" : "2019-12-06T09:54:12.757-0600"
}
},
{
"event" : "addConfiguration",
"timestamp" : "2019-12-09T11:56:59.539-0600",
"value" : {
"name" : "DefaultContext_v14",
"assigned" : "2019-12-09T11:56:59.539-0600"
}
},
{
"event" : "addConfiguration",
"timestamp" : "2019-12-13T13:20:56.301-0600",
"value" : {
"name" : "DefaultContext_v15",
"assigned" : "2019-12-13T13:20:56.301-0600"
}
}
],
"created" : "2019-02-22T16:11:43.335-0600"
},
"_id" : {
"$oid" : "caf1aa4d1a6d40b6840fb0a0"
},
"collection" : "XDAQApplicationPropertyTable",
"aliases" : {
"active" : [

],
"history" : [

]
},
"runs" : [

],
"attachments" : [

],
"configtype" : "notprovided",
"configurations" : [
{
"name" : "DefaultContext_v3",
"assigned" : "2019-07-23T09:05:25.637-0500"
},
{
"name" : "DefaultContext_v4",
"assigned" : "2019-11-19T16:07:21.780-0600"
},
{
"name" : "DefaultContext_v5",
"assigned" : "2019-11-20T14:24:12.732-0600"
},
{
"name" : "DefaultContext_v6",
"assigned" : "2019-11-20T14:39:27.587-0600"
},
{
"name" : "DefaultContext_v7",
"assigned" : "2019-11-20T15:26:58.616-0600"
},
{
"name" : "DefaultContext_v8",
"assigned" : "2019-11-20T15:27:24.653-0600"
},
{
"name" : "DefaultContext_v9",
"assigned" : "2019-11-20T15:28:33.833-0600"
},
{
"name" : "DefaultContext_v10",
"assigned" : "2019-11-20T15:56:57.894-0600"
},
{
"name" : "DefaultContext_v11",
"assigned" : "2019-11-20T16:00:09.294-0600"
},
{
"name" : "DefaultContext_v12",
"assigned" : "2019-12-05T17:52:36.390-0600"
},
{
"name" : "DefaultContext_v13",
"assigned" : "2019-12-06T09:54:12.757-0600"
},
{
"name" : "DefaultContext_v14",
"assigned" : "2019-12-09T11:56:59.539-0600"
},
{
"name" : "DefaultContext_v15",
"assigned" : "2019-12-13T13:20:56.301-0600"
}
]
}