{
"document" : {
"data" : {
"NAME" : "UDP_DATA_LISTENER_PRODUCER_TABLE",
"COMMENT" : "UDP Listener records.",
"AUTHOR" : "admin",
"CREATION_TIME" : 1563890683,
"COL_TYPES" : {
"PROCESSOR_UID" : "VARCHAR2",
"BUFFER_SIZE" : "NUMBER",
"HOST_IP_ADDRESS" : "VARCHAR2",
"HOST_PORT" : "NUMBER",
"COMMENT_DESCRIPTION" : "VARCHAR2",
"AUTHOR" : "VARCHAR2",
"RECORD_INSERTION_TIME" : "TIMESTAMP WITH TIMEZONE"
},
"DATA_SET" : [
{
"PROCESSOR_UID" : "VisualDataBufferListener",
"BUFFER_SIZE" : "1000",
"HOST_IP_ADDRESS" : "127.0.0.1",
"HOST_PORT" : "6000",
"COMMENT_DESCRIPTION" : "No Comment",
"AUTHOR" : "admin",
"RECORD_INSERTION_TIME" : "1563890683"
},
{
"PROCESSOR_UID" : "OuterTrackerDataBuffer0Listener0",
"BUFFER_SIZE" : "1000",
"HOST_IP_ADDRESS" : "127.0.0.1",
"HOST_PORT" : "32000",
"COMMENT_DESCRIPTION" : "",
"AUTHOR" : "admin",
"RECORD_INSERTION_TIME" : "1563890683"
}
]
},
"metadata" : {

},
"search" : [

]
},
"comments" : [

],
"origin" : {
"source" : "template",
"name" : "notprovided",
"format" : "json",
"created" : "2019-07-23T09:04:43.110-0500",
"rawdata" : [

]
},
"version" : "3",
"entities" : [
{
"name" : "OTSROOT",
"assigned" : "2019-07-23T09:04:43.111-0500"
}
],
"configurations" : [
{
"name" : "notprovided",
"assigned" : "2019-07-23T09:04:43.110-0500"
},
{
"name" : "DefaultConfig_v7",
"assigned" : "2019-07-23T09:04:43.856-0500"
},
{
"name" : "DefaultConfig_v8",
"assigned" : "2019-07-23T09:48:11.961-0500"
},
{
"name" : "DefaultConfig_v9",
"assigned" : "2019-08-07T11:00:29.596-0500"
},
{
"name" : "DefaultConfig_v10",
"assigned" : "2019-11-20T15:25:38.750-0600"
},
{
"name" : "DefaultConfig_v11",
"assigned" : "2019-11-20T15:28:12.778-0600"
},
{
"name" : "DefaultConfig_v12",
"assigned" : "2019-11-20T15:58:30.108-0600"
},
{
"name" : "DefaultConfig_v13",
"assigned" : "2019-11-20T16:23:03.805-0600"
}
],
"changelog" : "notprovided",
"bookkeeping" : {
"isdeleted" : false,
"isreadonly" : false,
"updates" : [
{
"event" : "addConfiguration",
"timestamp" : "2019-07-23T09:04:43.110-0500",
"value" : {
"name" : "notprovided",
"assigned" : "2019-07-23T09:04:43.110-0500"
}
},
{
"event" : "setVersion",
"timestamp" : "2019-07-23T09:04:43.111-0500",
"value" : {
"name" : "3",
"assigned" : "2019-07-23T09:04:43.111-0500"
}
},
{
"event" : "setCollection",
"timestamp" : "2019-07-23T09:04:43.111-0500",
"value" : {
"name" : "UDPDataListenerProducerTable",
"assigned" : "2019-07-23T09:04:43.111-0500"
}
},
{
"event" : "addEntity",
"timestamp" : "2019-07-23T09:04:43.111-0500",
"value" : {
"name" : "OTSROOT",
"assigned" : "2019-07-23T09:04:43.111-0500"
}
},
{
"event" : "addConfiguration",
"timestamp" : "2019-07-23T09:04:43.856-0500",
"value" : {
"name" : "DefaultConfig_v7",
"assigned" : "2019-07-23T09:04:43.856-0500"
}
},
{
"event" : "addConfiguration",
"timestamp" : "2019-07-23T09:48:11.961-0500",
"value" : {
"name" : "DefaultConfig_v8",
"assigned" : "2019-07-23T09:48:11.961-0500"
}
},
{
"event" : "addConfiguration",
"timestamp" : "2019-08-07T11:00:29.596-0500",
"value" : {
"name" : "DefaultConfig_v9",
"assigned" : "2019-08-07T11:00:29.596-0500"
}
},
{
"event" : "addConfiguration",
"timestamp" : "2019-11-20T15:25:38.750-0600",
"value" : {
"name" : "DefaultConfig_v10",
"assigned" : "2019-11-20T15:25:38.750-0600"
}
},
{
"event" : "addConfiguration",
"timestamp" : "2019-11-20T15:28:12.778-0600",
"value" : {
"name" : "DefaultConfig_v11",
"assigned" : "2019-11-20T15:28:12.778-0600"
}
},
{
"event" : "addConfiguration",
"timestamp" : "2019-11-20T15:58:30.108-0600",
"value" : {
"name" : "DefaultConfig_v12",
"assigned" : "2019-11-20T15:58:30.108-0600"
}
},
{
"event" : "addConfiguration",
"timestamp" : "2019-11-20T16:23:03.805-0600",
"value" : {
"name" : "DefaultConfig_v13",
"assigned" : "2019-11-20T16:23:03.805-0600"
}
}
],
"created" : "2019-07-23T09:04:43.110-0500"
},
"_id" : {
"$oid" : "7cfdf1b5ca774e1d92aa6e23"
},
"collection" : "UDPDataListenerProducerTable",
"aliases" : {
"active" : [

],
"history" : [

]
},
"runs" : [

],
"attachments" : [

],
"configtype" : "notprovided"
}