{
"document" : {
"data" : {
"NAME" : "UDP_DATA_LISTENER_PRODUCER_TABLE",
"COMMENT" : "UDP Listener records.",
"AUTHOR" : "admin",
"CREATION_TIME" : 1574288599,
"COL_TYPES" : {
"PROCESSOR_UID" : "STRING",
"BUFFER_SIZE" : "NUMBER",
"HOST_IP_ADDRESS" : "STRING",
"HOST_PORT" : "NUMBER",
"COMMENT_DESCRIPTION" : "STRING",
"AUTHOR" : "STRING",
"RECORD_INSERTION_TIME" : "TIMESTAMP WITH TIMEZONE"
},
"DATA_SET" : [
{
"PROCESSOR_UID" : "OuterTrackerDataBuffer0Listener0",
"BUFFER_SIZE" : "1000",
"HOST_IP_ADDRESS" : "127.0.0.1",
"HOST_PORT" : "32000",
"COMMENT_DESCRIPTION" : "",
"AUTHOR" : "admin",
"RECORD_INSERTION_TIME" : "1574288599"
}
]
},
"metadata" : {

},
"search" : [

]
},
"comments" : [

],
"origin" : {
"source" : "template",
"name" : "notprovided",
"format" : "json",
"created" : "2019-11-20T16:23:19.584-0600",
"rawdata" : [

]
},
"version" : "4",
"entities" : [
{
"name" : "OTSROOT",
"assigned" : "2019-11-20T16:23:19.585-0600"
}
],
"configurations" : [
{
"name" : "notprovided",
"assigned" : "2019-11-20T16:23:19.584-0600"
},
{
"name" : "DefaultConfig_v14",
"assigned" : "2019-11-20T16:24:45.958-0600"
},
{
"name" : "DefaultConfig_v15",
"assigned" : "2019-11-20T16:27:46.805-0600"
},
{
"name" : "DefaultConfig_v16",
"assigned" : "2019-11-20T16:42:11.370-0600"
},
{
"name" : "DefaultConfig_v17",
"assigned" : "2020-06-17T17:20:13.139-0500"
},
{
"name" : "DefaultConfig_v18",
"assigned" : "2020-06-19T16:56:28.858+0200"
},
{
"name" : "DefaultConfig_v19",
"assigned" : "2020-07-01T16:27:42.178-0500"
},
{
"name" : "DefaultConfig_v20",
"assigned" : "2020-07-01T16:43:50.437-0500"
},
{
"name" : "DefaultConfig_v21",
"assigned" : "2020-07-01T16:52:30.426-0500"
},
{
"name" : "DefaultConfig_v22",
"assigned" : "2020-07-01T16:57:30.079-0500"
},
{
"name" : "DefaultConfig_v23",
"assigned" : "2020-07-01T17:36:18.604-0500"
},
{
"name" : "DefaultConfig_v24",
"assigned" : "2020-07-10T17:08:15.523-0500"
}
],
"changelog" : "notprovided",
"bookkeeping" : {
"isdeleted" : false,
"isreadonly" : false,
"updates" : [
{
"event" : "addConfiguration",
"timestamp" : "2019-11-20T16:23:19.584-0600",
"value" : {
"name" : "notprovided",
"assigned" : "2019-11-20T16:23:19.584-0600"
}
},
{
"event" : "setVersion",
"timestamp" : "2019-11-20T16:23:19.585-0600",
"value" : {
"name" : "4",
"assigned" : "2019-11-20T16:23:19.585-0600"
}
},
{
"event" : "setCollection",
"timestamp" : "2019-11-20T16:23:19.585-0600",
"value" : {
"name" : "UDPDataListenerProducerTable",
"assigned" : "2019-11-20T16:23:19.585-0600"
}
},
{
"event" : "addEntity",
"timestamp" : "2019-11-20T16:23:19.585-0600",
"value" : {
"name" : "OTSROOT",
"assigned" : "2019-11-20T16:23:19.585-0600"
}
},
{
"event" : "addConfiguration",
"timestamp" : "2019-11-20T16:24:45.958-0600",
"value" : {
"name" : "DefaultConfig_v14",
"assigned" : "2019-11-20T16:24:45.958-0600"
}
},
{
"event" : "addConfiguration",
"timestamp" : "2019-11-20T16:27:46.805-0600",
"value" : {
"name" : "DefaultConfig_v15",
"assigned" : "2019-11-20T16:27:46.805-0600"
}
},
{
"event" : "addConfiguration",
"timestamp" : "2019-11-20T16:42:11.370-0600",
"value" : {
"name" : "DefaultConfig_v16",
"assigned" : "2019-11-20T16:42:11.370-0600"
}
},
{
"event" : "addConfiguration",
"timestamp" : "2020-06-17T17:20:13.139-0500",
"value" : {
"name" : "DefaultConfig_v17",
"assigned" : "2020-06-17T17:20:13.139-0500"
}
},
{
"event" : "addConfiguration",
"timestamp" : "2020-06-19T16:56:28.858+0200",
"value" : {
"name" : "DefaultConfig_v18",
"assigned" : "2020-06-19T16:56:28.858+0200"
}
},
{
"event" : "addConfiguration",
"timestamp" : "2020-07-01T16:27:42.178-0500",
"value" : {
"name" : "DefaultConfig_v19",
"assigned" : "2020-07-01T16:27:42.178-0500"
}
},
{
"event" : "addConfiguration",
"timestamp" : "2020-07-01T16:43:50.437-0500",
"value" : {
"name" : "DefaultConfig_v20",
"assigned" : "2020-07-01T16:43:50.437-0500"
}
},
{
"event" : "addConfiguration",
"timestamp" : "2020-07-01T16:52:30.426-0500",
"value" : {
"name" : "DefaultConfig_v21",
"assigned" : "2020-07-01T16:52:30.426-0500"
}
},
{
"event" : "addConfiguration",
"timestamp" : "2020-07-01T16:57:30.079-0500",
"value" : {
"name" : "DefaultConfig_v22",
"assigned" : "2020-07-01T16:57:30.079-0500"
}
},
{
"event" : "addConfiguration",
"timestamp" : "2020-07-01T17:36:18.604-0500",
"value" : {
"name" : "DefaultConfig_v23",
"assigned" : "2020-07-01T17:36:18.604-0500"
}
},
{
"event" : "addConfiguration",
"timestamp" : "2020-07-10T17:08:15.523-0500",
"value" : {
"name" : "DefaultConfig_v24",
"assigned" : "2020-07-10T17:08:15.523-0500"
}
}
],
"created" : "2019-11-20T16:23:19.584-0600"
},
"_id" : {
"$oid" : "f59183fbc9cc48b7b7df1a22"
},
"collection" : "UDPDataListenerProducerTable",
"aliases" : {
"active" : [

],
"history" : [

]
},
"runs" : [

],
"attachments" : [

],
"configtype" : "notprovided"
}