{
"document" : {
"data" : {
"NAME" : "ARTDAQ_DAQ_METRIC_CONFIGURATION",
"COMMENT" : "",
"AUTHOR" : "admin",
"CREATION_TIME" : 1505746321,
"COL_TYPES" : {
"METRIC_GROUP_ID" : "VARCHAR2",
"METRIC_UID" : "VARCHAR2",
"STATUS" : "VARCHAR2",
"METRIC_KEY" : "VARCHAR2",
"METRIC_PLUGIN_TYPE" : "VARCHAR2",
"METRIC_LEVEL" : "VARCHAR2",
"METRIC_PARAMETERS_LINK" : "VARCHAR2",
"METRIC_PARAMETERS_LINK_GROUP_ID" : "VARCHAR2",
"COMMENT_DESCRIPTION" : "VARCHAR2",
"AUTHOR" : "VARCHAR2",
"RECORD_INSERTION_TIME" : "TIMESTAMP WITH TIMEZONE"
},
"DATA_SET" : [
{
"METRIC_GROUP_ID" : "reader0Metrics",
"METRIC_UID" : "readerMetric0",
"STATUS" : "On",
"METRIC_KEY" : "brFile",
"METRIC_PLUGIN_TYPE" : "\"file\"",
"METRIC_LEVEL" : "3",
"METRIC_PARAMETERS_LINK" : "ARTDAQDaqMetricParameterConfiguration",
"METRIC_PARAMETERS_LINK_GROUP_ID" : "reader0MetricPGroup",
"COMMENT_DESCRIPTION" : "No Comment",
"AUTHOR" : "DEFAULT",
"RECORD_INSERTION_TIME" : "0"
},
{
"METRIC_GROUP_ID" : "builder0Metrics",
"METRIC_UID" : "builderMetric0",
"STATUS" : "On",
"METRIC_KEY" : "evbFile",
"METRIC_PLUGIN_TYPE" : "\"file\"",
"METRIC_LEVEL" : "3",
"METRIC_PARAMETERS_LINK" : "ARTDAQDaqMetricParameterConfiguration",
"METRIC_PARAMETERS_LINK_GROUP_ID" : "builder0MetricPGroup",
"COMMENT_DESCRIPTION" : "No Comment",
"AUTHOR" : "DEFAULT",
"RECORD_INSERTION_TIME" : "0"
},
{
"METRIC_GROUP_ID" : "aggreator0Metrics | builder0Metrics",
"METRIC_UID" : "builderMetric1",
"STATUS" : "Off",
"METRIC_KEY" : "ganglia",
"METRIC_PLUGIN_TYPE" : "\"ganglia\"",
"METRIC_LEVEL" : "%{ganglia_level}",
"METRIC_PARAMETERS_LINK" : "ARTDAQDaqMetricParameterConfiguration",
"METRIC_PARAMETERS_LINK_GROUP_ID" : "builder0GangliaPGroup",
"COMMENT_DESCRIPTION" : "No Comment",
"AUTHOR" : "admin",
"RECORD_INSERTION_TIME" : "1505746223"
},
{
"METRIC_GROUP_ID" : "aggreator0Metrics | builder0Metrics",
"METRIC_UID" : "builderMetric2",
"STATUS" : "Off",
"METRIC_KEY" : "msgfac",
"METRIC_PLUGIN_TYPE" : "\"msgFacility\"",
"METRIC_LEVEL" : "%{mf_level}",
"METRIC_PARAMETERS_LINK" : "ARTDAQDaqMetricParameterConfiguration",
"METRIC_PARAMETERS_LINK_GROUP_ID" : "builder0MessageFacilityPGroup",
"COMMENT_DESCRIPTION" : "No Comment",
"AUTHOR" : "admin",
"RECORD_INSERTION_TIME" : "1505746313"
},
{
"METRIC_GROUP_ID" : "aggreator0Metrics | builder0Metrics",
"METRIC_UID" : "builderMetric3",
"STATUS" : "Off",
"METRIC_KEY" : "graphite",
"METRIC_PLUGIN_TYPE" : "\"graphite\"",
"METRIC_LEVEL" : "%{graphite_level}",
"METRIC_PARAMETERS_LINK" : "ARTDAQDaqMetricParameterConfiguration",
"METRIC_PARAMETERS_LINK_GROUP_ID" : "builder0GraphiteMetricPGroup",
"COMMENT_DESCRIPTION" : "No Comment",
"AUTHOR" : "admin",
"RECORD_INSERTION_TIME" : "1505746316"
},
{
"METRIC_GROUP_ID" : "aggreator0Metrics",
"METRIC_UID" : "aggregatorMetric0",
"STATUS" : "On",
"METRIC_KEY" : "aggFile",
"METRIC_PLUGIN_TYPE" : "\"file\"",
"METRIC_LEVEL" : "3",
"METRIC_PARAMETERS_LINK" : "ARTDAQDaqMetricParameterConfiguration",
"METRIC_PARAMETERS_LINK_GROUP_ID" : "aggregator0Metric0PGroup",
"COMMENT_DESCRIPTION" : "No Comment",
"AUTHOR" : "DEFAULT",
"RECORD_INSERTION_TIME" : "0"
}
]
},
"metadata" : {

},
"search" : [

]
},
"comments" : [

],
"origin" : {
"source" : "template",
"name" : "notprovided",
"format" : "json",
"created" : "2017-11-08T15:56:02.772-0600",
"rawdata" : [

]
},
"version" : "0",
"entities" : [
{
"name" : "OTSROOT",
"assigned" : "2017-11-08T15:56:02.775-0600"
}
],
"configurations" : [
{
"name" : "notprovided",
"assigned" : "2017-11-08T15:56:02.774-0600"
},
{
"name" : "FTBFConfig_v0",
"assigned" : "2017-11-08T15:56:05.416-0600"
},
{
"name" : "FTBFConfig_v1",
"assigned" : "2017-11-09T09:56:29.930-0600"
},
{
"name" : "FTBFConfig_v2",
"assigned" : "2017-11-09T10:05:58.891-0600"
},
{
"name" : "FTBFConfig_v3",
"assigned" : "2017-11-09T10:37:10.451-0600"
},
{
"name" : "FTBFConfig_v4",
"assigned" : "2017-11-15T11:30:09.215-0600"
},
{
"name" : "FTBFConfig_v5",
"assigned" : "2017-11-15T11:54:55.984-0600"
},
{
"name" : "FTBFConfig_v6",
"assigned" : "2017-11-15T11:57:48.619-0600"
},
{
"name" : "FTBFConfig_v7",
"assigned" : "2017-11-15T12:42:31.021-0600"
},
{
"name" : "FTBFConfig_v8",
"assigned" : "2017-11-15T13:01:01.999-0600"
},
{
"name" : "FTBFConfig_v9",
"assigned" : "2017-11-15T13:02:55.383-0600"
},
{
"name" : "FTBFConfig_v10",
"assigned" : "2017-11-15T13:04:22.971-0600"
},
{
"name" : "FTBFConfig_v11",
"assigned" : "2017-11-15T13:07:50.456-0600"
},
{
"name" : "FTBFConfig_v12",
"assigned" : "2017-11-15T13:11:57.879-0600"
},
{
"name" : "FTBFConfig_v13",
"assigned" : "2017-11-15T13:13:51.832-0600"
},
{
"name" : "FTBFConfig_v14",
"assigned" : "2017-11-15T13:27:25.825-0600"
},
{
"name" : "FTBFConfig_v15",
"assigned" : "2017-11-15T13:35:45.786-0600"
},
{
"name" : "FTBFConfig_v16",
"assigned" : "2017-11-15T13:36:50.418-0600"
},
{
"name" : "FTBFConfig_v17",
"assigned" : "2017-11-15T15:33:28.953-0600"
},
{
"name" : "FTBFConfig_v18",
"assigned" : "2017-11-15T15:35:32.558-0600"
},
{
"name" : "FTBFConfig_v19",
"assigned" : "2017-11-15T15:38:01.401-0600"
},
{
"name" : "FTBFConfig_v20",
"assigned" : "2017-11-15T16:26:29.083-0600"
},
{
"name" : "FTBFConfig_v21",
"assigned" : "2017-11-16T09:22:30.198-0600"
},
{
"name" : "FTBFConfig_v22",
"assigned" : "2017-11-17T10:23:26.393-0600"
},
{
"name" : "FTBFConfig_v23",
"assigned" : "2017-11-17T17:26:43.907-0600"
},
{
"name" : "FTBFConfig_v24",
"assigned" : "2017-11-17T17:58:24.370-0600"
},
{
"name" : "FTBFConfig_v25",
"assigned" : "2017-11-17T18:24:44.051-0600"
},
{
"name" : "FTBFConfig_v26",
"assigned" : "2017-11-17T18:32:21.049-0600"
},
{
"name" : "FTBFConfig_v27",
"assigned" : "2017-11-17T18:43:28.179-0600"
},
{
"name" : "FTBFConfig_v28",
"assigned" : "2017-11-17T18:48:30.144-0600"
},
{
"name" : "FTBFConfig_v29",
"assigned" : "2017-11-20T14:48:29.342-0600"
},
{
"name" : "FTBFConfig_v30",
"assigned" : "2017-11-20T15:39:54.521-0600"
},
{
"name" : "FTBFConfig_v31",
"assigned" : "2017-11-20T16:41:00.510-0600"
},
{
"name" : "FTBFConfig_v32",
"assigned" : "2017-11-20T18:55:33.339-0600"
},
{
"name" : "FTBFConfig_v33",
"assigned" : "2017-11-20T18:57:28.623-0600"
},
{
"name" : "FTBFConfig_v34",
"assigned" : "2017-11-29T17:50:38.116-0600"
},
{
"name" : "FTBFConfig_v35",
"assigned" : "2017-11-29T18:00:30.971-0600"
},
{
"name" : "FTBFConfig_v36",
"assigned" : "2017-11-29T18:35:09.820-0600"
},
{
"name" : "FTBFConfig_v37",
"assigned" : "2017-12-01T09:36:16.032-0600"
},
{
"name" : "FTBFConfig_v38",
"assigned" : "2017-12-01T09:51:59.408-0600"
},
{
"name" : "FTBFConfig_v39",
"assigned" : "2017-12-01T11:51:56.623-0600"
},
{
"name" : "FTBFConfig_v40",
"assigned" : "2017-12-01T12:18:18.608-0600"
},
{
"name" : "FTBFConfig_v41",
"assigned" : "2017-12-01T12:21:00.749-0600"
},
{
"name" : "FTBFConfig_v42",
"assigned" : "2017-12-01T12:43:19.882-0600"
},
{
"name" : "FTBFConfig_v43",
"assigned" : "2017-12-01T12:57:57.113-0600"
},
{
"name" : "FTBFConfig_v44",
"assigned" : "2017-12-01T13:00:49.973-0600"
},
{
"name" : "FTBFConfig_v45",
"assigned" : "2017-12-01T13:25:46.820-0600"
},
{
"name" : "FTBFConfig_v46",
"assigned" : "2017-12-01T13:35:41.668-0600"
},
{
"name" : "FTBFConfig_v47",
"assigned" : "2017-12-01T14:00:50.015-0600"
},
{
"name" : "FTBFConfig_v48",
"assigned" : "2017-12-01T14:03:57.272-0600"
},
{
"name" : "FTBFConfig_v49",
"assigned" : "2017-12-01T15:31:57.470-0600"
},
{
"name" : "FTBFConfig_v51",
"assigned" : "2017-12-01T15:37:18.920-0600"
},
{
"name" : "FTBFConfig_v52",
"assigned" : "2017-12-01T15:37:28.602-0600"
},
{
"name" : "FTBFConfig_v53",
"assigned" : "2017-12-01T15:40:56.996-0600"
},
{
"name" : "FTBFConfig_v54",
"assigned" : "2017-12-01T15:52:47.304-0600"
},
{
"name" : "FTBFConfig_v55",
"assigned" : "2017-12-01T15:54:32.440-0600"
},
{
"name" : "FTBFConfig_v56",
"assigned" : "2017-12-01T15:55:31.965-0600"
},
{
"name" : "FTBFConfig_v57",
"assigned" : "2017-12-01T15:56:37.761-0600"
},
{
"name" : "FTBFConfig_v58",
"assigned" : "2017-12-01T15:57:35.841-0600"
},
{
"name" : "FTBFConfig_v59",
"assigned" : "2017-12-01T15:58:27.741-0600"
},
{
"name" : "FTBFConfig_v60",
"assigned" : "2017-12-01T15:59:28.928-0600"
},
{
"name" : "FTBFConfig_v61",
"assigned" : "2017-12-01T16:19:38.661-0600"
},
{
"name" : "FTBFConfig_v62",
"assigned" : "2017-12-01T16:22:01.210-0600"
},
{
"name" : "FTBFConfig_v63",
"assigned" : "2017-12-01T16:31:21.823-0600"
},
{
"name" : "FTBFConfig_v64",
"assigned" : "2017-12-01T17:06:28.750-0600"
},
{
"name" : "FTBFConfig_v65",
"assigned" : "2017-12-01T17:32:41.063-0600"
},
{
"name" : "FTBFConfig_v66",
"assigned" : "2017-12-01T20:38:47.444-0600"
},
{
"name" : "FTBFConfig_v67",
"assigned" : "2017-12-01T21:24:58.916-0600"
},
{
"name" : "FTBFConfig_v68",
"assigned" : "2017-12-01T21:42:58.569-0600"
},
{
"name" : "FTBFConfig_v69",
"assigned" : "2017-12-01T21:44:57.213-0600"
},
{
"name" : "FTBFConfig_v70",
"assigned" : "2017-12-01T21:59:16.420-0600"
},
{
"name" : "FTBFConfigNim_v0",
"assigned" : "2017-12-01T22:00:03.139-0600"
},
{
"name" : "FTBFConfigNim_v1",
"assigned" : "2017-12-01T22:13:04.861-0600"
},
{
"name" : "FTBFConfigNim_v2",
"assigned" : "2017-12-01T22:15:52.077-0600"
},
{
"name" : "FTBFConfigNim_v3",
"assigned" : "2017-12-01T22:17:00.182-0600"
},
{
"name" : "FTBFConfigNim_v4",
"assigned" : "2017-12-01T22:19:03.168-0600"
},
{
"name" : "FTBFConfigNim_v5",
"assigned" : "2017-12-01T22:21:53.871-0600"
},
{
"name" : "FTBFConfigNim_v6",
"assigned" : "2017-12-01T22:23:10.023-0600"
},
{
"name" : "FTBFConfigNim_v7",
"assigned" : "2017-12-01T22:25:13.806-0600"
},
{
"name" : "FTBFConfigNim_v8",
"assigned" : "2017-12-01T22:27:01.367-0600"
},
{
"name" : "FTBFConfigNim_v9",
"assigned" : "2017-12-01T22:29:25.618-0600"
},
{
"name" : "FTBFConfigNim_v10",
"assigned" : "2017-12-01T22:52:30.718-0600"
},
{
"name" : "FTBFConfigNim_v11",
"assigned" : "2017-12-01T22:57:25.508-0600"
},
{
"name" : "FTBFConfigNim_v12",
"assigned" : "2017-12-01T23:00:03.782-0600"
},
{
"name" : "FTBFConfigNim_v13",
"assigned" : "2017-12-01T23:52:31.893-0600"
},
{
"name" : "FTBFConfigNim_v14",
"assigned" : "2017-12-01T23:58:06.278-0600"
},
{
"name" : "FTBFConfigNim_v15",
"assigned" : "2017-12-02T00:00:30.556-0600"
},
{
"name" : "FTBFConfigNim_v16",
"assigned" : "2017-12-02T00:13:05.690-0600"
},
{
"name" : "FTBFConfigNim_v17",
"assigned" : "2017-12-02T00:28:24.650-0600"
},
{
"name" : "FTBFConfigNim_v18",
"assigned" : "2017-12-02T00:29:30.690-0600"
},
{
"name" : "FTBFConfigNim_v19",
"assigned" : "2017-12-02T00:31:07.512-0600"
},
{
"name" : "FTBFConfigNim_v20",
"assigned" : "2017-12-02T00:57:23.668-0600"
},
{
"name" : "FTBFConfigNim_v21",
"assigned" : "2017-12-02T10:57:58.220-0600"
},
{
"name" : "FTBFConfigNim_v22",
"assigned" : "2017-12-02T11:08:14.383-0600"
},
{
"name" : "FTBFConfigNim_v23",
"assigned" : "2017-12-02T11:12:35.947-0600"
},
{
"name" : "FTBFConfigNim_v24",
"assigned" : "2017-12-02T11:18:38.765-0600"
},
{
"name" : "FTBFConfigNim_v25",
"assigned" : "2017-12-02T11:27:02.003-0600"
},
{
"name" : "FTBFConfigNim_v26",
"assigned" : "2017-12-02T11:38:33.044-0600"
},
{
"name" : "FTBFConfigNim_v27",
"assigned" : "2017-12-02T11:49:04.176-0600"
},
{
"name" : "FTBFConfigNim_v28",
"assigned" : "2017-12-02T11:55:05.636-0600"
},
{
"name" : "FTBFConfigNim_v29",
"assigned" : "2017-12-02T12:06:22.456-0600"
},
{
"name" : "FTBFConfig_v71",
"assigned" : "2017-12-02T12:24:11.096-0600"
},
{
"name" : "FTBFConfig_v72",
"assigned" : "2017-12-02T12:43:31.903-0600"
},
{
"name" : "FTBFConfig_v73",
"assigned" : "2017-12-02T13:55:31.497-0600"
},
{
"name" : "FTBFConfig_v74",
"assigned" : "2017-12-02T14:09:03.784-0600"
},
{
"name" : "FTBFConfig_v75",
"assigned" : "2017-12-02T14:12:14.632-0600"
},
{
"name" : "FTBFConfig_v76",
"assigned" : "2017-12-02T19:05:49.727-0600"
},
{
"name" : "FTBFConfig_v77",
"assigned" : "2017-12-02T19:12:09.543-0600"
},
{
"name" : "FTBFConfig_v78",
"assigned" : "2017-12-03T14:03:44.724-0600"
},
{
"name" : "FTBFConfig_v79",
"assigned" : "2017-12-03T14:09:02.911-0600"
},
{
"name" : "FTBFConfig_v80",
"assigned" : "2017-12-03T14:11:06.669-0600"
},
{
"name" : "FTBFConfig_v81",
"assigned" : "2017-12-03T14:22:29.697-0600"
},
{
"name" : "FTBFConfig_v82",
"assigned" : "2017-12-03T14:40:34.474-0600"
},
{
"name" : "FTBFConfig_v83",
"assigned" : "2017-12-03T14:45:01.815-0600"
},
{
"name" : "FTBFConfig_v84",
"assigned" : "2017-12-04T14:51:27.204-0600"
},
{
"name" : "FTBFConfig_v85",
"assigned" : "2017-12-04T14:55:40.372-0600"
},
{
"name" : "FTBFConfig_v86",
"assigned" : "2017-12-04T16:51:03.336-0600"
},
{
"name" : "FTBFConfig_v87",
"assigned" : "2017-12-04T16:56:43.951-0600"
},
{
"name" : "FTBFConfig_v88",
"assigned" : "2017-12-04T17:01:08.656-0600"
},
{
"name" : "FTBFConfig_v89",
"assigned" : "2017-12-04T17:03:53.749-0600"
},
{
"name" : "FTBFConfig_v90",
"assigned" : "2017-12-04T17:07:13.374-0600"
},
{
"name" : "FTBFConfig_v91",
"assigned" : "2017-12-04T17:09:22.487-0600"
},
{
"name" : "FTBFConfig_v92",
"assigned" : "2017-12-04T17:11:34.967-0600"
},
{
"name" : "FTBFConfig_v93",
"assigned" : "2017-12-04T21:05:17.592-0600"
},
{
"name" : "FTBFConfig_v94",
"assigned" : "2017-12-04T21:17:08.419-0600"
},
{
"name" : "FTBFConfig_v95",
"assigned" : "2017-12-04T21:41:14.142-0600"
},
{
"name" : "FTBFConfig_v96",
"assigned" : "2017-12-04T22:38:58.755-0600"
},
{
"name" : "FTBFConfig_v97",
"assigned" : "2017-12-04T23:01:09.267-0600"
},
{
"name" : "FTBFConfig_v98",
"assigned" : "2017-12-07T11:07:43.281-0600"
},
{
"name" : "FTBFConfig_v99",
"assigned" : "2017-12-07T11:49:55.962-0600"
},
{
"name" : "FTBFConfig_v100",
"assigned" : "2017-12-07T11:58:22.681-0600"
},
{
"name" : "FTBFConfig_v101",
"assigned" : "2017-12-08T13:30:44.767-0600"
},
{
"name" : "FTBFConfig_v102",
"assigned" : "2017-12-08T13:32:31.661-0600"
},
{
"name" : "FTBFConfig_v103",
"assigned" : "2017-12-12T11:03:01.437-0600"
},
{
"name" : "FTBFConfig_v104",
"assigned" : "2017-12-12T13:50:55.738-0600"
},
{
"name" : "FTBFConfig_v105",
"assigned" : "2017-12-12T15:25:01.755-0600"
},
{
"name" : "FTBFConfig_v106",
"assigned" : "2017-12-13T10:24:20.187-0600"
},
{
"name" : "FTBFConfig_v107",
"assigned" : "2017-12-13T10:26:58.940-0600"
},
{
"name" : "FTBFConfig_v108",
"assigned" : "2018-02-01T21:14:22.292-0600"
},
{
"name" : "FTBFConfig_v109",
"assigned" : "2018-02-01T21:20:59.400-0600"
},
{
"name" : "FTBFConfig_v110",
"assigned" : "2018-02-02T11:25:30.336-0600"
},
{
"name" : "FTBFConfig_v111",
"assigned" : "2018-02-02T11:37:09.171-0600"
},
{
"name" : "FTBFConfig_v112",
"assigned" : "2018-02-02T11:47:11.633-0600"
},
{
"name" : "FTBFConfig_v113",
"assigned" : "2018-02-02T11:53:32.875-0600"
},
{
"name" : "FTBFConfig_v114",
"assigned" : "2018-02-02T12:00:48.935-0600"
},
{
"name" : "FTBFConfig_v115",
"assigned" : "2018-02-02T12:27:10.428-0600"
},
{
"name" : "FTBFConfig_v116",
"assigned" : "2018-02-02T14:28:49.952-0600"
},
{
"name" : "FTBFConfig_v117",
"assigned" : "2018-02-02T14:30:16.270-0600"
},
{
"name" : "FTBFConfig_v118",
"assigned" : "2018-02-02T14:33:57.475-0600"
},
{
"name" : "FTBFConfig_v119",
"assigned" : "2018-02-02T14:36:24.088-0600"
},
{
"name" : "FTBFConfig_v120",
"assigned" : "2018-02-02T14:38:37.446-0600"
},
{
"name" : "FTBFConfig_v121",
"assigned" : "2018-02-02T14:41:46.761-0600"
},
{
"name" : "FTBFConfig_v122",
"assigned" : "2018-02-02T14:50:20.783-0600"
},
{
"name" : "FTBFConfig_v123",
"assigned" : "2018-02-02T14:52:53.621-0600"
},
{
"name" : "FTBFConfig_v124",
"assigned" : "2018-02-02T14:59:46.945-0600"
},
{
"name" : "FTBFConfig_v125",
"assigned" : "2018-02-02T15:04:05.045-0600"
},
{
"name" : "FTBFConfig_v126",
"assigned" : "2018-02-02T15:50:08.238-0600"
},
{
"name" : "FTBFConfig_v127",
"assigned" : "2018-02-02T15:51:27.714-0600"
},
{
"name" : "FTBFConfig_v128",
"assigned" : "2018-02-02T15:52:32.886-0600"
},
{
"name" : "FTBFConfig_v129",
"assigned" : "2018-02-02T16:02:41.758-0600"
},
{
"name" : "FTBFConfig_v130",
"assigned" : "2018-02-02T16:08:41.280-0600"
},
{
"name" : "FTBFConfig_v131",
"assigned" : "2018-02-02T16:11:27.085-0600"
},
{
"name" : "FTBFConfig_v132",
"assigned" : "2018-02-02T16:12:54.921-0600"
},
{
"name" : "FTBFConfig_v133",
"assigned" : "2018-02-02T16:14:25.485-0600"
},
{
"name" : "FTBFConfig_v134",
"assigned" : "2018-02-02T16:26:18.405-0600"
},
{
"name" : "FTBFConfig_v135",
"assigned" : "2018-02-02T16:27:05.519-0600"
},
{
"name" : "FTBFConfig_v136",
"assigned" : "2018-02-02T16:29:26.869-0600"
},
{
"name" : "FTBFConfig_v137",
"assigned" : "2018-02-02T16:31:37.339-0600"
},
{
"name" : "FTBFConfig_v138",
"assigned" : "2018-02-02T16:34:10.072-0600"
},
{
"name" : "FTBFConfig_v139",
"assigned" : "2018-02-02T17:39:26.103-0600"
},
{
"name" : "FTBFConfig_v140",
"assigned" : "2018-02-02T17:42:48.274-0600"
},
{
"name" : "FTBFConfig_v141",
"assigned" : "2018-02-02T17:47:33.436-0600"
},
{
"name" : "FTBFConfig_v142",
"assigned" : "2018-02-02T17:53:57.442-0600"
}
],
"changelog" : "notprovided",
"bookkeeping" : {
"isdeleted" : false,
"isreadonly" : false,
"updates" : [
{
"event" : "addConfiguration",
"timestamp" : "2017-11-08T15:56:02.774-0600",
"value" : {
"name" : "notprovided",
"assigned" : "2017-11-08T15:56:02.774-0600"
}
},
{
"event" : "setVersion",
"timestamp" : "2017-11-08T15:56:02.774-0600",
"value" : {
"name" : "0",
"assigned" : "2017-11-08T15:56:02.774-0600"
}
},
{
"event" : "setCollection",
"timestamp" : "2017-11-08T15:56:02.774-0600",
"value" : {
"name" : "ARTDAQDaqMetricConfiguration",
"assigned" : "2017-11-08T15:56:02.774-0600"
}
},
{
"event" : "addEntity",
"timestamp" : "2017-11-08T15:56:02.775-0600",
"value" : {
"name" : "OTSROOT",
"assigned" : "2017-11-08T15:56:02.775-0600"
}
},
{
"event" : "addConfiguration",
"timestamp" : "2017-11-08T15:56:05.416-0600",
"value" : {
"name" : "FTBFConfig_v0",
"assigned" : "2017-11-08T15:56:05.416-0600"
}
},
{
"event" : "addConfiguration",
"timestamp" : "2017-11-09T09:56:29.930-0600",
"value" : {
"name" : "FTBFConfig_v1",
"assigned" : "2017-11-09T09:56:29.930-0600"
}
},
{
"event" : "addConfiguration",
"timestamp" : "2017-11-09T10:05:58.891-0600",
"value" : {
"name" : "FTBFConfig_v2",
"assigned" : "2017-11-09T10:05:58.891-0600"
}
},
{
"event" : "addConfiguration",
"timestamp" : "2017-11-09T10:37:10.451-0600",
"value" : {
"name" : "FTBFConfig_v3",
"assigned" : "2017-11-09T10:37:10.451-0600"
}
},
{
"event" : "addConfiguration",
"timestamp" : "2017-11-15T11:30:09.215-0600",
"value" : {
"name" : "FTBFConfig_v4",
"assigned" : "2017-11-15T11:30:09.215-0600"
}
},
{
"event" : "addConfiguration",
"timestamp" : "2017-11-15T11:54:55.984-0600",
"value" : {
"name" : "FTBFConfig_v5",
"assigned" : "2017-11-15T11:54:55.984-0600"
}
},
{
"event" : "addConfiguration",
"timestamp" : "2017-11-15T11:57:48.619-0600",
"value" : {
"name" : "FTBFConfig_v6",
"assigned" : "2017-11-15T11:57:48.619-0600"
}
},
{
"event" : "addConfiguration",
"timestamp" : "2017-11-15T12:42:31.021-0600",
"value" : {
"name" : "FTBFConfig_v7",
"assigned" : "2017-11-15T12:42:31.021-0600"
}
},
{
"event" : "addConfiguration",
"timestamp" : "2017-11-15T13:01:01.999-0600",
"value" : {
"name" : "FTBFConfig_v8",
"assigned" : "2017-11-15T13:01:01.999-0600"
}
},
{
"event" : "addConfiguration",
"timestamp" : "2017-11-15T13:02:55.383-0600",
"value" : {
"name" : "FTBFConfig_v9",
"assigned" : "2017-11-15T13:02:55.383-0600"
}
},
{
"event" : "addConfiguration",
"timestamp" : "2017-11-15T13:04:22.971-0600",
"value" : {
"name" : "FTBFConfig_v10",
"assigned" : "2017-11-15T13:04:22.971-0600"
}
},
{
"event" : "addConfiguration",
"timestamp" : "2017-11-15T13:07:50.456-0600",
"value" : {
"name" : "FTBFConfig_v11",
"assigned" : "2017-11-15T13:07:50.456-0600"
}
},
{
"event" : "addConfiguration",
"timestamp" : "2017-11-15T13:11:57.879-0600",
"value" : {
"name" : "FTBFConfig_v12",
"assigned" : "2017-11-15T13:11:57.879-0600"
}
},
{
"event" : "addConfiguration",
"timestamp" : "2017-11-15T13:13:51.832-0600",
"value" : {
"name" : "FTBFConfig_v13",
"assigned" : "2017-11-15T13:13:51.832-0600"
}
},
{
"event" : "addConfiguration",
"timestamp" : "2017-11-15T13:27:25.825-0600",
"value" : {
"name" : "FTBFConfig_v14",
"assigned" : "2017-11-15T13:27:25.825-0600"
}
},
{
"event" : "addConfiguration",
"timestamp" : "2017-11-15T13:35:45.786-0600",
"value" : {
"name" : "FTBFConfig_v15",
"assigned" : "2017-11-15T13:35:45.786-0600"
}
},
{
"event" : "addConfiguration",
"timestamp" : "2017-11-15T13:36:50.418-0600",
"value" : {
"name" : "FTBFConfig_v16",
"assigned" : "2017-11-15T13:36:50.418-0600"
}
},
{
"event" : "addConfiguration",
"timestamp" : "2017-11-15T15:33:28.953-0600",
"value" : {
"name" : "FTBFConfig_v17",
"assigned" : "2017-11-15T15:33:28.953-0600"
}
},
{
"event" : "addConfiguration",
"timestamp" : "2017-11-15T15:35:32.558-0600",
"value" : {
"name" : "FTBFConfig_v18",
"assigned" : "2017-11-15T15:35:32.558-0600"
}
},
{
"event" : "addConfiguration",
"timestamp" : "2017-11-15T15:38:01.401-0600",
"value" : {
"name" : "FTBFConfig_v19",
"assigned" : "2017-11-15T15:38:01.401-0600"
}
},
{
"event" : "addConfiguration",
"timestamp" : "2017-11-15T16:26:29.083-0600",
"value" : {
"name" : "FTBFConfig_v20",
"assigned" : "2017-11-15T16:26:29.083-0600"
}
},
{
"event" : "addConfiguration",
"timestamp" : "2017-11-16T09:22:30.198-0600",
"value" : {
"name" : "FTBFConfig_v21",
"assigned" : "2017-11-16T09:22:30.198-0600"
}
},
{
"event" : "addConfiguration",
"timestamp" : "2017-11-17T10:23:26.393-0600",
"value" : {
"name" : "FTBFConfig_v22",
"assigned" : "2017-11-17T10:23:26.393-0600"
}
},
{
"event" : "addConfiguration",
"timestamp" : "2017-11-17T17:26:43.907-0600",
"value" : {
"name" : "FTBFConfig_v23",
"assigned" : "2017-11-17T17:26:43.907-0600"
}
},
{
"event" : "addConfiguration",
"timestamp" : "2017-11-17T17:58:24.370-0600",
"value" : {
"name" : "FTBFConfig_v24",
"assigned" : "2017-11-17T17:58:24.370-0600"
}
},
{
"event" : "addConfiguration",
"timestamp" : "2017-11-17T18:24:44.051-0600",
"value" : {
"name" : "FTBFConfig_v25",
"assigned" : "2017-11-17T18:24:44.051-0600"
}
},
{
"event" : "addConfiguration",
"timestamp" : "2017-11-17T18:32:21.049-0600",
"value" : {
"name" : "FTBFConfig_v26",
"assigned" : "2017-11-17T18:32:21.049-0600"
}
},
{
"event" : "addConfiguration",
"timestamp" : "2017-11-17T18:43:28.179-0600",
"value" : {
"name" : "FTBFConfig_v27",
"assigned" : "2017-11-17T18:43:28.179-0600"
}
},
{
"event" : "addConfiguration",
"timestamp" : "2017-11-17T18:48:30.144-0600",
"value" : {
"name" : "FTBFConfig_v28",
"assigned" : "2017-11-17T18:48:30.144-0600"
}
},
{
"event" : "addConfiguration",
"timestamp" : "2017-11-20T14:48:29.342-0600",
"value" : {
"name" : "FTBFConfig_v29",
"assigned" : "2017-11-20T14:48:29.342-0600"
}
},
{
"event" : "addConfiguration",
"timestamp" : "2017-11-20T15:39:54.521-0600",
"value" : {
"name" : "FTBFConfig_v30",
"assigned" : "2017-11-20T15:39:54.521-0600"
}
},
{
"event" : "addConfiguration",
"timestamp" : "2017-11-20T16:41:00.510-0600",
"value" : {
"name" : "FTBFConfig_v31",
"assigned" : "2017-11-20T16:41:00.510-0600"
}
},
{
"event" : "addConfiguration",
"timestamp" : "2017-11-20T18:55:33.339-0600",
"value" : {
"name" : "FTBFConfig_v32",
"assigned" : "2017-11-20T18:55:33.339-0600"
}
},
{
"event" : "addConfiguration",
"timestamp" : "2017-11-20T18:57:28.623-0600",
"value" : {
"name" : "FTBFConfig_v33",
"assigned" : "2017-11-20T18:57:28.623-0600"
}
},
{
"event" : "addConfiguration",
"timestamp" : "2017-11-29T17:50:38.116-0600",
"value" : {
"name" : "FTBFConfig_v34",
"assigned" : "2017-11-29T17:50:38.116-0600"
}
},
{
"event" : "addConfiguration",
"timestamp" : "2017-11-29T18:00:30.971-0600",
"value" : {
"name" : "FTBFConfig_v35",
"assigned" : "2017-11-29T18:00:30.971-0600"
}
},
{
"event" : "addConfiguration",
"timestamp" : "2017-11-29T18:35:09.820-0600",
"value" : {
"name" : "FTBFConfig_v36",
"assigned" : "2017-11-29T18:35:09.820-0600"
}
},
{
"event" : "addConfiguration",
"timestamp" : "2017-12-01T09:36:16.032-0600",
"value" : {
"name" : "FTBFConfig_v37",
"assigned" : "2017-12-01T09:36:16.032-0600"
}
},
{
"event" : "addConfiguration",
"timestamp" : "2017-12-01T09:51:59.408-0600",
"value" : {
"name" : "FTBFConfig_v38",
"assigned" : "2017-12-01T09:51:59.408-0600"
}
},
{
"event" : "addConfiguration",
"timestamp" : "2017-12-01T11:51:56.623-0600",
"value" : {
"name" : "FTBFConfig_v39",
"assigned" : "2017-12-01T11:51:56.623-0600"
}
},
{
"event" : "addConfiguration",
"timestamp" : "2017-12-01T12:18:18.608-0600",
"value" : {
"name" : "FTBFConfig_v40",
"assigned" : "2017-12-01T12:18:18.608-0600"
}
},
{
"event" : "addConfiguration",
"timestamp" : "2017-12-01T12:21:00.749-0600",
"value" : {
"name" : "FTBFConfig_v41",
"assigned" : "2017-12-01T12:21:00.749-0600"
}
},
{
"event" : "addConfiguration",
"timestamp" : "2017-12-01T12:43:19.882-0600",
"value" : {
"name" : "FTBFConfig_v42",
"assigned" : "2017-12-01T12:43:19.882-0600"
}
},
{
"event" : "addConfiguration",
"timestamp" : "2017-12-01T12:57:57.113-0600",
"value" : {
"name" : "FTBFConfig_v43",
"assigned" : "2017-12-01T12:57:57.113-0600"
}
},
{
"event" : "addConfiguration",
"timestamp" : "2017-12-01T13:00:49.973-0600",
"value" : {
"name" : "FTBFConfig_v44",
"assigned" : "2017-12-01T13:00:49.973-0600"
}
},
{
"event" : "addConfiguration",
"timestamp" : "2017-12-01T13:25:46.820-0600",
"value" : {
"name" : "FTBFConfig_v45",
"assigned" : "2017-12-01T13:25:46.820-0600"
}
},
{
"event" : "addConfiguration",
"timestamp" : "2017-12-01T13:35:41.668-0600",
"value" : {
"name" : "FTBFConfig_v46",
"assigned" : "2017-12-01T13:35:41.668-0600"
}
},
{
"event" : "addConfiguration",
"timestamp" : "2017-12-01T14:00:50.015-0600",
"value" : {
"name" : "FTBFConfig_v47",
"assigned" : "2017-12-01T14:00:50.015-0600"
}
},
{
"event" : "addConfiguration",
"timestamp" : "2017-12-01T14:03:57.272-0600",
"value" : {
"name" : "FTBFConfig_v48",
"assigned" : "2017-12-01T14:03:57.272-0600"
}
},
{
"event" : "addConfiguration",
"timestamp" : "2017-12-01T15:31:57.471-0600",
"value" : {
"name" : "FTBFConfig_v49",
"assigned" : "2017-12-01T15:31:57.470-0600"
}
},
{
"event" : "addConfiguration",
"timestamp" : "2017-12-01T15:37:18.920-0600",
"value" : {
"name" : "FTBFConfig_v51",
"assigned" : "2017-12-01T15:37:18.920-0600"
}
},
{
"event" : "addConfiguration",
"timestamp" : "2017-12-01T15:37:28.602-0600",
"value" : {
"name" : "FTBFConfig_v52",
"assigned" : "2017-12-01T15:37:28.602-0600"
}
},
{
"event" : "addConfiguration",
"timestamp" : "2017-12-01T15:40:56.996-0600",
"value" : {
"name" : "FTBFConfig_v53",
"assigned" : "2017-12-01T15:40:56.996-0600"
}
},
{
"event" : "addConfiguration",
"timestamp" : "2017-12-01T15:52:47.304-0600",
"value" : {
"name" : "FTBFConfig_v54",
"assigned" : "2017-12-01T15:52:47.304-0600"
}
},
{
"event" : "addConfiguration",
"timestamp" : "2017-12-01T15:54:32.441-0600",
"value" : {
"name" : "FTBFConfig_v55",
"assigned" : "2017-12-01T15:54:32.440-0600"
}
},
{
"event" : "addConfiguration",
"timestamp" : "2017-12-01T15:55:31.966-0600",
"value" : {
"name" : "FTBFConfig_v56",
"assigned" : "2017-12-01T15:55:31.965-0600"
}
},
{
"event" : "addConfiguration",
"timestamp" : "2017-12-01T15:56:37.761-0600",
"value" : {
"name" : "FTBFConfig_v57",
"assigned" : "2017-12-01T15:56:37.761-0600"
}
},
{
"event" : "addConfiguration",
"timestamp" : "2017-12-01T15:57:35.841-0600",
"value" : {
"name" : "FTBFConfig_v58",
"assigned" : "2017-12-01T15:57:35.841-0600"
}
},
{
"event" : "addConfiguration",
"timestamp" : "2017-12-01T15:58:27.741-0600",
"value" : {
"name" : "FTBFConfig_v59",
"assigned" : "2017-12-01T15:58:27.741-0600"
}
},
{
"event" : "addConfiguration",
"timestamp" : "2017-12-01T15:59:28.928-0600",
"value" : {
"name" : "FTBFConfig_v60",
"assigned" : "2017-12-01T15:59:28.928-0600"
}
},
{
"event" : "addConfiguration",
"timestamp" : "2017-12-01T16:19:38.661-0600",
"value" : {
"name" : "FTBFConfig_v61",
"assigned" : "2017-12-01T16:19:38.661-0600"
}
},
{
"event" : "addConfiguration",
"timestamp" : "2017-12-01T16:22:01.211-0600",
"value" : {
"name" : "FTBFConfig_v62",
"assigned" : "2017-12-01T16:22:01.210-0600"
}
},
{
"event" : "addConfiguration",
"timestamp" : "2017-12-01T16:31:21.823-0600",
"value" : {
"name" : "FTBFConfig_v63",
"assigned" : "2017-12-01T16:31:21.823-0600"
}
},
{
"event" : "addConfiguration",
"timestamp" : "2017-12-01T17:06:28.751-0600",
"value" : {
"name" : "FTBFConfig_v64",
"assigned" : "2017-12-01T17:06:28.750-0600"
}
},
{
"event" : "addConfiguration",
"timestamp" : "2017-12-01T17:32:41.063-0600",
"value" : {
"name" : "FTBFConfig_v65",
"assigned" : "2017-12-01T17:32:41.063-0600"
}
},
{
"event" : "addConfiguration",
"timestamp" : "2017-12-01T20:38:47.445-0600",
"value" : {
"name" : "FTBFConfig_v66",
"assigned" : "2017-12-01T20:38:47.444-0600"
}
},
{
"event" : "addConfiguration",
"timestamp" : "2017-12-01T21:24:58.916-0600",
"value" : {
"name" : "FTBFConfig_v67",
"assigned" : "2017-12-01T21:24:58.916-0600"
}
},
{
"event" : "addConfiguration",
"timestamp" : "2017-12-01T21:42:58.569-0600",
"value" : {
"name" : "FTBFConfig_v68",
"assigned" : "2017-12-01T21:42:58.569-0600"
}
},
{
"event" : "addConfiguration",
"timestamp" : "2017-12-01T21:44:57.213-0600",
"value" : {
"name" : "FTBFConfig_v69",
"assigned" : "2017-12-01T21:44:57.213-0600"
}
},
{
"event" : "addConfiguration",
"timestamp" : "2017-12-01T21:59:16.420-0600",
"value" : {
"name" : "FTBFConfig_v70",
"assigned" : "2017-12-01T21:59:16.420-0600"
}
},
{
"event" : "addConfiguration",
"timestamp" : "2017-12-01T22:00:03.139-0600",
"value" : {
"name" : "FTBFConfigNim_v0",
"assigned" : "2017-12-01T22:00:03.139-0600"
}
},
{
"event" : "addConfiguration",
"timestamp" : "2017-12-01T22:13:04.861-0600",
"value" : {
"name" : "FTBFConfigNim_v1",
"assigned" : "2017-12-01T22:13:04.861-0600"
}
},
{
"event" : "addConfiguration",
"timestamp" : "2017-12-01T22:15:52.077-0600",
"value" : {
"name" : "FTBFConfigNim_v2",
"assigned" : "2017-12-01T22:15:52.077-0600"
}
},
{
"event" : "addConfiguration",
"timestamp" : "2017-12-01T22:17:00.182-0600",
"value" : {
"name" : "FTBFConfigNim_v3",
"assigned" : "2017-12-01T22:17:00.182-0600"
}
},
{
"event" : "addConfiguration",
"timestamp" : "2017-12-01T22:19:03.169-0600",
"value" : {
"name" : "FTBFConfigNim_v4",
"assigned" : "2017-12-01T22:19:03.168-0600"
}
},
{
"event" : "addConfiguration",
"timestamp" : "2017-12-01T22:21:53.871-0600",
"value" : {
"name" : "FTBFConfigNim_v5",
"assigned" : "2017-12-01T22:21:53.871-0600"
}
},
{
"event" : "addConfiguration",
"timestamp" : "2017-12-01T22:23:10.023-0600",
"value" : {
"name" : "FTBFConfigNim_v6",
"assigned" : "2017-12-01T22:23:10.023-0600"
}
},
{
"event" : "addConfiguration",
"timestamp" : "2017-12-01T22:25:13.806-0600",
"value" : {
"name" : "FTBFConfigNim_v7",
"assigned" : "2017-12-01T22:25:13.806-0600"
}
},
{
"event" : "addConfiguration",
"timestamp" : "2017-12-01T22:27:01.367-0600",
"value" : {
"name" : "FTBFConfigNim_v8",
"assigned" : "2017-12-01T22:27:01.367-0600"
}
},
{
"event" : "addConfiguration",
"timestamp" : "2017-12-01T22:29:25.618-0600",
"value" : {
"name" : "FTBFConfigNim_v9",
"assigned" : "2017-12-01T22:29:25.618-0600"
}
},
{
"event" : "addConfiguration",
"timestamp" : "2017-12-01T22:52:30.718-0600",
"value" : {
"name" : "FTBFConfigNim_v10",
"assigned" : "2017-12-01T22:52:30.718-0600"
}
},
{
"event" : "addConfiguration",
"timestamp" : "2017-12-01T22:57:25.509-0600",
"value" : {
"name" : "FTBFConfigNim_v11",
"assigned" : "2017-12-01T22:57:25.508-0600"
}
},
{
"event" : "addConfiguration",
"timestamp" : "2017-12-01T23:00:03.782-0600",
"value" : {
"name" : "FTBFConfigNim_v12",
"assigned" : "2017-12-01T23:00:03.782-0600"
}
},
{
"event" : "addConfiguration",
"timestamp" : "2017-12-01T23:52:31.893-0600",
"value" : {
"name" : "FTBFConfigNim_v13",
"assigned" : "2017-12-01T23:52:31.893-0600"
}
},
{
"event" : "addConfiguration",
"timestamp" : "2017-12-01T23:58:06.278-0600",
"value" : {
"name" : "FTBFConfigNim_v14",
"assigned" : "2017-12-01T23:58:06.278-0600"
}
},
{
"event" : "addConfiguration",
"timestamp" : "2017-12-02T00:00:30.557-0600",
"value" : {
"name" : "FTBFConfigNim_v15",
"assigned" : "2017-12-02T00:00:30.556-0600"
}
},
{
"event" : "addConfiguration",
"timestamp" : "2017-12-02T00:13:05.690-0600",
"value" : {
"name" : "FTBFConfigNim_v16",
"assigned" : "2017-12-02T00:13:05.690-0600"
}
},
{
"event" : "addConfiguration",
"timestamp" : "2017-12-02T00:28:24.651-0600",
"value" : {
"name" : "FTBFConfigNim_v17",
"assigned" : "2017-12-02T00:28:24.650-0600"
}
},
{
"event" : "addConfiguration",
"timestamp" : "2017-12-02T00:29:30.691-0600",
"value" : {
"name" : "FTBFConfigNim_v18",
"assigned" : "2017-12-02T00:29:30.690-0600"
}
},
{
"event" : "addConfiguration",
"timestamp" : "2017-12-02T00:31:07.512-0600",
"value" : {
"name" : "FTBFConfigNim_v19",
"assigned" : "2017-12-02T00:31:07.512-0600"
}
},
{
"event" : "addConfiguration",
"timestamp" : "2017-12-02T00:57:23.668-0600",
"value" : {
"name" : "FTBFConfigNim_v20",
"assigned" : "2017-12-02T00:57:23.668-0600"
}
},
{
"event" : "addConfiguration",
"timestamp" : "2017-12-02T10:57:58.220-0600",
"value" : {
"name" : "FTBFConfigNim_v21",
"assigned" : "2017-12-02T10:57:58.220-0600"
}
},
{
"event" : "addConfiguration",
"timestamp" : "2017-12-02T11:08:14.383-0600",
"value" : {
"name" : "FTBFConfigNim_v22",
"assigned" : "2017-12-02T11:08:14.383-0600"
}
},
{
"event" : "addConfiguration",
"timestamp" : "2017-12-02T11:12:35.947-0600",
"value" : {
"name" : "FTBFConfigNim_v23",
"assigned" : "2017-12-02T11:12:35.947-0600"
}
},
{
"event" : "addConfiguration",
"timestamp" : "2017-12-02T11:18:38.765-0600",
"value" : {
"name" : "FTBFConfigNim_v24",
"assigned" : "2017-12-02T11:18:38.765-0600"
}
},
{
"event" : "addConfiguration",
"timestamp" : "2017-12-02T11:27:02.004-0600",
"value" : {
"name" : "FTBFConfigNim_v25",
"assigned" : "2017-12-02T11:27:02.003-0600"
}
},
{
"event" : "addConfiguration",
"timestamp" : "2017-12-02T11:38:33.044-0600",
"value" : {
"name" : "FTBFConfigNim_v26",
"assigned" : "2017-12-02T11:38:33.044-0600"
}
},
{
"event" : "addConfiguration",
"timestamp" : "2017-12-02T11:49:04.176-0600",
"value" : {
"name" : "FTBFConfigNim_v27",
"assigned" : "2017-12-02T11:49:04.176-0600"
}
},
{
"event" : "addConfiguration",
"timestamp" : "2017-12-02T11:55:05.636-0600",
"value" : {
"name" : "FTBFConfigNim_v28",
"assigned" : "2017-12-02T11:55:05.636-0600"
}
},
{
"event" : "addConfiguration",
"timestamp" : "2017-12-02T12:06:22.456-0600",
"value" : {
"name" : "FTBFConfigNim_v29",
"assigned" : "2017-12-02T12:06:22.456-0600"
}
},
{
"event" : "addConfiguration",
"timestamp" : "2017-12-02T12:24:11.096-0600",
"value" : {
"name" : "FTBFConfig_v71",
"assigned" : "2017-12-02T12:24:11.096-0600"
}
},
{
"event" : "addConfiguration",
"timestamp" : "2017-12-02T12:43:31.903-0600",
"value" : {
"name" : "FTBFConfig_v72",
"assigned" : "2017-12-02T12:43:31.903-0600"
}
},
{
"event" : "addConfiguration",
"timestamp" : "2017-12-02T13:55:31.498-0600",
"value" : {
"name" : "FTBFConfig_v73",
"assigned" : "2017-12-02T13:55:31.497-0600"
}
},
{
"event" : "addConfiguration",
"timestamp" : "2017-12-02T14:09:03.785-0600",
"value" : {
"name" : "FTBFConfig_v74",
"assigned" : "2017-12-02T14:09:03.784-0600"
}
},
{
"event" : "addConfiguration",
"timestamp" : "2017-12-02T14:12:14.632-0600",
"value" : {
"name" : "FTBFConfig_v75",
"assigned" : "2017-12-02T14:12:14.632-0600"
}
},
{
"event" : "addConfiguration",
"timestamp" : "2017-12-02T19:05:49.727-0600",
"value" : {
"name" : "FTBFConfig_v76",
"assigned" : "2017-12-02T19:05:49.727-0600"
}
},
{
"event" : "addConfiguration",
"timestamp" : "2017-12-02T19:12:09.543-0600",
"value" : {
"name" : "FTBFConfig_v77",
"assigned" : "2017-12-02T19:12:09.543-0600"
}
},
{
"event" : "addConfiguration",
"timestamp" : "2017-12-03T14:03:44.724-0600",
"value" : {
"name" : "FTBFConfig_v78",
"assigned" : "2017-12-03T14:03:44.724-0600"
}
},
{
"event" : "addConfiguration",
"timestamp" : "2017-12-03T14:09:02.911-0600",
"value" : {
"name" : "FTBFConfig_v79",
"assigned" : "2017-12-03T14:09:02.911-0600"
}
},
{
"event" : "addConfiguration",
"timestamp" : "2017-12-03T14:11:06.669-0600",
"value" : {
"name" : "FTBFConfig_v80",
"assigned" : "2017-12-03T14:11:06.669-0600"
}
},
{
"event" : "addConfiguration",
"timestamp" : "2017-12-03T14:22:29.697-0600",
"value" : {
"name" : "FTBFConfig_v81",
"assigned" : "2017-12-03T14:22:29.697-0600"
}
},
{
"event" : "addConfiguration",
"timestamp" : "2017-12-03T14:40:34.475-0600",
"value" : {
"name" : "FTBFConfig_v82",
"assigned" : "2017-12-03T14:40:34.474-0600"
}
},
{
"event" : "addConfiguration",
"timestamp" : "2017-12-03T14:45:01.815-0600",
"value" : {
"name" : "FTBFConfig_v83",
"assigned" : "2017-12-03T14:45:01.815-0600"
}
},
{
"event" : "addConfiguration",
"timestamp" : "2017-12-04T14:51:27.204-0600",
"value" : {
"name" : "FTBFConfig_v84",
"assigned" : "2017-12-04T14:51:27.204-0600"
}
},
{
"event" : "addConfiguration",
"timestamp" : "2017-12-04T14:55:40.372-0600",
"value" : {
"name" : "FTBFConfig_v85",
"assigned" : "2017-12-04T14:55:40.372-0600"
}
},
{
"event" : "addConfiguration",
"timestamp" : "2017-12-04T16:51:03.336-0600",
"value" : {
"name" : "FTBFConfig_v86",
"assigned" : "2017-12-04T16:51:03.336-0600"
}
},
{
"event" : "addConfiguration",
"timestamp" : "2017-12-04T16:56:43.951-0600",
"value" : {
"name" : "FTBFConfig_v87",
"assigned" : "2017-12-04T16:56:43.951-0600"
}
},
{
"event" : "addConfiguration",
"timestamp" : "2017-12-04T17:01:08.656-0600",
"value" : {
"name" : "FTBFConfig_v88",
"assigned" : "2017-12-04T17:01:08.656-0600"
}
},
{
"event" : "addConfiguration",
"timestamp" : "2017-12-04T17:03:53.749-0600",
"value" : {
"name" : "FTBFConfig_v89",
"assigned" : "2017-12-04T17:03:53.749-0600"
}
},
{
"event" : "addConfiguration",
"timestamp" : "2017-12-04T17:07:13.374-0600",
"value" : {
"name" : "FTBFConfig_v90",
"assigned" : "2017-12-04T17:07:13.374-0600"
}
},
{
"event" : "addConfiguration",
"timestamp" : "2017-12-04T17:09:22.487-0600",
"value" : {
"name" : "FTBFConfig_v91",
"assigned" : "2017-12-04T17:09:22.487-0600"
}
},
{
"event" : "addConfiguration",
"timestamp" : "2017-12-04T17:11:34.968-0600",
"value" : {
"name" : "FTBFConfig_v92",
"assigned" : "2017-12-04T17:11:34.967-0600"
}
},
{
"event" : "addConfiguration",
"timestamp" : "2017-12-04T21:05:17.592-0600",
"value" : {
"name" : "FTBFConfig_v93",
"assigned" : "2017-12-04T21:05:17.592-0600"
}
},
{
"event" : "addConfiguration",
"timestamp" : "2017-12-04T21:17:08.419-0600",
"value" : {
"name" : "FTBFConfig_v94",
"assigned" : "2017-12-04T21:17:08.419-0600"
}
},
{
"event" : "addConfiguration",
"timestamp" : "2017-12-04T21:41:14.143-0600",
"value" : {
"name" : "FTBFConfig_v95",
"assigned" : "2017-12-04T21:41:14.142-0600"
}
},
{
"event" : "addConfiguration",
"timestamp" : "2017-12-04T22:38:58.755-0600",
"value" : {
"name" : "FTBFConfig_v96",
"assigned" : "2017-12-04T22:38:58.755-0600"
}
},
{
"event" : "addConfiguration",
"timestamp" : "2017-12-04T23:01:09.267-0600",
"value" : {
"name" : "FTBFConfig_v97",
"assigned" : "2017-12-04T23:01:09.267-0600"
}
},
{
"event" : "addConfiguration",
"timestamp" : "2017-12-07T11:07:43.281-0600",
"value" : {
"name" : "FTBFConfig_v98",
"assigned" : "2017-12-07T11:07:43.281-0600"
}
},
{
"event" : "addConfiguration",
"timestamp" : "2017-12-07T11:49:55.962-0600",
"value" : {
"name" : "FTBFConfig_v99",
"assigned" : "2017-12-07T11:49:55.962-0600"
}
},
{
"event" : "addConfiguration",
"timestamp" : "2017-12-07T11:58:22.681-0600",
"value" : {
"name" : "FTBFConfig_v100",
"assigned" : "2017-12-07T11:58:22.681-0600"
}
},
{
"event" : "addConfiguration",
"timestamp" : "2017-12-08T13:30:44.767-0600",
"value" : {
"name" : "FTBFConfig_v101",
"assigned" : "2017-12-08T13:30:44.767-0600"
}
},
{
"event" : "addConfiguration",
"timestamp" : "2017-12-08T13:32:31.661-0600",
"value" : {
"name" : "FTBFConfig_v102",
"assigned" : "2017-12-08T13:32:31.661-0600"
}
},
{
"event" : "addConfiguration",
"timestamp" : "2017-12-12T11:03:01.437-0600",
"value" : {
"name" : "FTBFConfig_v103",
"assigned" : "2017-12-12T11:03:01.437-0600"
}
},
{
"event" : "addConfiguration",
"timestamp" : "2017-12-12T13:50:55.738-0600",
"value" : {
"name" : "FTBFConfig_v104",
"assigned" : "2017-12-12T13:50:55.738-0600"
}
},
{
"event" : "addConfiguration",
"timestamp" : "2017-12-12T15:25:01.755-0600",
"value" : {
"name" : "FTBFConfig_v105",
"assigned" : "2017-12-12T15:25:01.755-0600"
}
},
{
"event" : "addConfiguration",
"timestamp" : "2017-12-13T10:24:20.187-0600",
"value" : {
"name" : "FTBFConfig_v106",
"assigned" : "2017-12-13T10:24:20.187-0600"
}
},
{
"event" : "addConfiguration",
"timestamp" : "2017-12-13T10:26:58.940-0600",
"value" : {
"name" : "FTBFConfig_v107",
"assigned" : "2017-12-13T10:26:58.940-0600"
}
},
{
"event" : "addConfiguration",
"timestamp" : "2018-02-01T21:14:22.292-0600",
"value" : {
"name" : "FTBFConfig_v108",
"assigned" : "2018-02-01T21:14:22.292-0600"
}
},
{
"event" : "addConfiguration",
"timestamp" : "2018-02-01T21:20:59.400-0600",
"value" : {
"name" : "FTBFConfig_v109",
"assigned" : "2018-02-01T21:20:59.400-0600"
}
},
{
"event" : "addConfiguration",
"timestamp" : "2018-02-02T11:25:30.336-0600",
"value" : {
"name" : "FTBFConfig_v110",
"assigned" : "2018-02-02T11:25:30.336-0600"
}
},
{
"event" : "addConfiguration",
"timestamp" : "2018-02-02T11:37:09.171-0600",
"value" : {
"name" : "FTBFConfig_v111",
"assigned" : "2018-02-02T11:37:09.171-0600"
}
},
{
"event" : "addConfiguration",
"timestamp" : "2018-02-02T11:47:11.633-0600",
"value" : {
"name" : "FTBFConfig_v112",
"assigned" : "2018-02-02T11:47:11.633-0600"
}
},
{
"event" : "addConfiguration",
"timestamp" : "2018-02-02T11:53:32.875-0600",
"value" : {
"name" : "FTBFConfig_v113",
"assigned" : "2018-02-02T11:53:32.875-0600"
}
},
{
"event" : "addConfiguration",
"timestamp" : "2018-02-02T12:00:48.935-0600",
"value" : {
"name" : "FTBFConfig_v114",
"assigned" : "2018-02-02T12:00:48.935-0600"
}
},
{
"event" : "addConfiguration",
"timestamp" : "2018-02-02T12:27:10.428-0600",
"value" : {
"name" : "FTBFConfig_v115",
"assigned" : "2018-02-02T12:27:10.428-0600"
}
},
{
"event" : "addConfiguration",
"timestamp" : "2018-02-02T14:28:49.952-0600",
"value" : {
"name" : "FTBFConfig_v116",
"assigned" : "2018-02-02T14:28:49.952-0600"
}
},
{
"event" : "addConfiguration",
"timestamp" : "2018-02-02T14:30:16.271-0600",
"value" : {
"name" : "FTBFConfig_v117",
"assigned" : "2018-02-02T14:30:16.270-0600"
}
},
{
"event" : "addConfiguration",
"timestamp" : "2018-02-02T14:33:57.475-0600",
"value" : {
"name" : "FTBFConfig_v118",
"assigned" : "2018-02-02T14:33:57.475-0600"
}
},
{
"event" : "addConfiguration",
"timestamp" : "2018-02-02T14:36:24.088-0600",
"value" : {
"name" : "FTBFConfig_v119",
"assigned" : "2018-02-02T14:36:24.088-0600"
}
},
{
"event" : "addConfiguration",
"timestamp" : "2018-02-02T14:38:37.446-0600",
"value" : {
"name" : "FTBFConfig_v120",
"assigned" : "2018-02-02T14:38:37.446-0600"
}
},
{
"event" : "addConfiguration",
"timestamp" : "2018-02-02T14:41:46.761-0600",
"value" : {
"name" : "FTBFConfig_v121",
"assigned" : "2018-02-02T14:41:46.761-0600"
}
},
{
"event" : "addConfiguration",
"timestamp" : "2018-02-02T14:50:20.783-0600",
"value" : {
"name" : "FTBFConfig_v122",
"assigned" : "2018-02-02T14:50:20.783-0600"
}
},
{
"event" : "addConfiguration",
"timestamp" : "2018-02-02T14:52:53.621-0600",
"value" : {
"name" : "FTBFConfig_v123",
"assigned" : "2018-02-02T14:52:53.621-0600"
}
},
{
"event" : "addConfiguration",
"timestamp" : "2018-02-02T14:59:46.945-0600",
"value" : {
"name" : "FTBFConfig_v124",
"assigned" : "2018-02-02T14:59:46.945-0600"
}
},
{
"event" : "addConfiguration",
"timestamp" : "2018-02-02T15:04:05.045-0600",
"value" : {
"name" : "FTBFConfig_v125",
"assigned" : "2018-02-02T15:04:05.045-0600"
}
},
{
"event" : "addConfiguration",
"timestamp" : "2018-02-02T15:50:08.239-0600",
"value" : {
"name" : "FTBFConfig_v126",
"assigned" : "2018-02-02T15:50:08.238-0600"
}
},
{
"event" : "addConfiguration",
"timestamp" : "2018-02-02T15:51:27.714-0600",
"value" : {
"name" : "FTBFConfig_v127",
"assigned" : "2018-02-02T15:51:27.714-0600"
}
},
{
"event" : "addConfiguration",
"timestamp" : "2018-02-02T15:52:32.887-0600",
"value" : {
"name" : "FTBFConfig_v128",
"assigned" : "2018-02-02T15:52:32.886-0600"
}
},
{
"event" : "addConfiguration",
"timestamp" : "2018-02-02T16:02:41.759-0600",
"value" : {
"name" : "FTBFConfig_v129",
"assigned" : "2018-02-02T16:02:41.758-0600"
}
},
{
"event" : "addConfiguration",
"timestamp" : "2018-02-02T16:08:41.280-0600",
"value" : {
"name" : "FTBFConfig_v130",
"assigned" : "2018-02-02T16:08:41.280-0600"
}
},
{
"event" : "addConfiguration",
"timestamp" : "2018-02-02T16:11:27.086-0600",
"value" : {
"name" : "FTBFConfig_v131",
"assigned" : "2018-02-02T16:11:27.085-0600"
}
},
{
"event" : "addConfiguration",
"timestamp" : "2018-02-02T16:12:54.922-0600",
"value" : {
"name" : "FTBFConfig_v132",
"assigned" : "2018-02-02T16:12:54.921-0600"
}
},
{
"event" : "addConfiguration",
"timestamp" : "2018-02-02T16:14:25.485-0600",
"value" : {
"name" : "FTBFConfig_v133",
"assigned" : "2018-02-02T16:14:25.485-0600"
}
},
{
"event" : "addConfiguration",
"timestamp" : "2018-02-02T16:26:18.406-0600",
"value" : {
"name" : "FTBFConfig_v134",
"assigned" : "2018-02-02T16:26:18.405-0600"
}
},
{
"event" : "addConfiguration",
"timestamp" : "2018-02-02T16:27:05.520-0600",
"value" : {
"name" : "FTBFConfig_v135",
"assigned" : "2018-02-02T16:27:05.519-0600"
}
},
{
"event" : "addConfiguration",
"timestamp" : "2018-02-02T16:29:26.870-0600",
"value" : {
"name" : "FTBFConfig_v136",
"assigned" : "2018-02-02T16:29:26.869-0600"
}
},
{
"event" : "addConfiguration",
"timestamp" : "2018-02-02T16:31:37.339-0600",
"value" : {
"name" : "FTBFConfig_v137",
"assigned" : "2018-02-02T16:31:37.339-0600"
}
},
{
"event" : "addConfiguration",
"timestamp" : "2018-02-02T16:34:10.072-0600",
"value" : {
"name" : "FTBFConfig_v138",
"assigned" : "2018-02-02T16:34:10.072-0600"
}
},
{
"event" : "addConfiguration",
"timestamp" : "2018-02-02T17:39:26.103-0600",
"value" : {
"name" : "FTBFConfig_v139",
"assigned" : "2018-02-02T17:39:26.103-0600"
}
},
{
"event" : "addConfiguration",
"timestamp" : "2018-02-02T17:42:48.275-0600",
"value" : {
"name" : "FTBFConfig_v140",
"assigned" : "2018-02-02T17:42:48.274-0600"
}
},
{
"event" : "addConfiguration",
"timestamp" : "2018-02-02T17:47:33.436-0600",
"value" : {
"name" : "FTBFConfig_v141",
"assigned" : "2018-02-02T17:47:33.436-0600"
}
},
{
"event" : "addConfiguration",
"timestamp" : "2018-02-02T17:53:57.443-0600",
"value" : {
"name" : "FTBFConfig_v142",
"assigned" : "2018-02-02T17:53:57.442-0600"
}
}
],
"created" : "2017-11-08T15:56:02.772-0600"
},
"_id" : {
"$oid" : "bd0b28b51f0043f4a5d467df"
},
"collection" : "ARTDAQDaqMetricConfiguration",
"aliases" : {
"active" : [

],
"history" : [

]
},
"runs" : [

],
"attachments" : [

],
"configtype" : "notprovided"
}