{
"ouid" : [
"0ad017bf809d4f93a2fbafdc",
"9ce43f349c674ed59c10b826"
],
"version" : {
"0" : [
"0ad017bf809d4f93a2fbafdc"
],
"1" : [
"9ce43f349c674ed59c10b826"
]
},
"configurations.name" : {
"notprovided" : [
"0ad017bf809d4f93a2fbafdc",
"9ce43f349c674ed59c10b826"
],
"iterateDefaultGroup_v0" : [
"0ad017bf809d4f93a2fbafdc"
],
"iterateDefaultGroup_v1" : [
"0ad017bf809d4f93a2fbafdc"
],
"iterateDefaultGroup_v2" : [
"0ad017bf809d4f93a2fbafdc"
],
"iterateDefaultGroup_v3" : [
"0ad017bf809d4f93a2fbafdc"
],
"iterateDefaultGroup_v4" : [
"0ad017bf809d4f93a2fbafdc"
],
"iterateDefaultGroup_v5" : [
"0ad017bf809d4f93a2fbafdc"
],
"iterateDefaultGroup_v6" : [
"0ad017bf809d4f93a2fbafdc"
],
"iterateDefaultGroup_v7" : [
"0ad017bf809d4f93a2fbafdc"
],
"iterateDefaultGroup_v8" : [
"0ad017bf809d4f93a2fbafdc"
],
"iterateDefaultGroup_v9" : [
"0ad017bf809d4f93a2fbafdc"
],
"iterateDefaultGroup_v10" : [
"0ad017bf809d4f93a2fbafdc"
],
"iterateDefaultGroup_v11" : [
"0ad017bf809d4f93a2fbafdc"
],
"iterateDefaultGroup_v12" : [
"0ad017bf809d4f93a2fbafdc"
],
"iterateDefaultGroup_v13" : [
"0ad017bf809d4f93a2fbafdc"
],
"iterateDefaultGroup_v14" : [
"0ad017bf809d4f93a2fbafdc"
],
"iterateDefaultGroup_v15" : [
"0ad017bf809d4f93a2fbafdc"
],
"iterateDefaultGroup_v16" : [
"0ad017bf809d4f93a2fbafdc"
],
"iterateDefaultGroup_v17" : [
"0ad017bf809d4f93a2fbafdc"
],
"iterateDefaultGroup_v18" : [
"0ad017bf809d4f93a2fbafdc"
],
"iterateDefaultGroup_v19" : [
"0ad017bf809d4f93a2fbafdc"
],
"iterateDefaultGroup_v20" : [
"0ad017bf809d4f93a2fbafdc"
],
"iterateDefaultGroup_v21" : [
"0ad017bf809d4f93a2fbafdc"
],
"iterateDefaultGroup_v22" : [
"0ad017bf809d4f93a2fbafdc"
],
"iterateDefaultGroup_v23" : [
"0ad017bf809d4f93a2fbafdc"
],
"iterateDefaultGroup_v24" : [
"0ad017bf809d4f93a2fbafdc"
],
"iterateDefaultGroup_v25" : [
"0ad017bf809d4f93a2fbafdc"
],
"iterateDefaultGroup_v26" : [
"0ad017bf809d4f93a2fbafdc"
],
"iterateDefaultGroup_v27" : [
"9ce43f349c674ed59c10b826"
],
"iterateDefaultGroup_v28" : [
"9ce43f349c674ed59c10b826"
],
"iterateDefaultGroup_v29" : [
"0ad017bf809d4f93a2fbafdc"
],
"iterateDefaultGroup_v30" : [
"0ad017bf809d4f93a2fbafdc"
],
"iterateDefaultGroup_v31" : [
"0ad017bf809d4f93a2fbafdc"
]
},
"entities.name" : {
"OTSROOT" : [
"0ad017bf809d4f93a2fbafdc",
"9ce43f349c674ed59c10b826"
]
},
"aliases.active.name" : {

},
"runs.name" : {

},
"configurations.assigned" : {
"notprovided" : [
"2020-07-21T14:47:39.138-0500",
"2020-09-07T10:05:32.479-0400"
],
"iterateDefaultGroup_v0" : [
"2020-07-21T14:47:39.650-0500"
],
"iterateDefaultGroup_v1" : [
"2020-07-21T15:25:08.037-0500"
],
"iterateDefaultGroup_v2" : [
"2020-07-21T15:28:04.411-0500"
],
"iterateDefaultGroup_v3" : [
"2020-07-21T15:42:20.747-0500"
],
"iterateDefaultGroup_v4" : [
"2020-07-21T15:45:03.759-0500"
],
"iterateDefaultGroup_v5" : [
"2020-07-21T15:57:33.748-0500"
],
"iterateDefaultGroup_v6" : [
"2020-07-28T10:52:35.232-0500"
],
"iterateDefaultGroup_v7" : [
"2020-07-28T13:01:36.918-0500"
],
"iterateDefaultGroup_v8" : [
"2020-07-28T13:03:27.128-0500"
],
"iterateDefaultGroup_v9" : [
"2020-07-28T13:12:58.114-0500"
],
"iterateDefaultGroup_v10" : [
"2020-07-28T13:15:25.345-0500"
],
"iterateDefaultGroup_v11" : [
"2020-07-28T13:20:57.271-0500"
],
"iterateDefaultGroup_v12" : [
"2020-07-28T13:27:37.853-0500"
],
"iterateDefaultGroup_v13" : [
"2020-08-23T09:24:34.658-0400"
],
"iterateDefaultGroup_v14" : [
"2020-08-23T09:26:43.228-0400"
],
"iterateDefaultGroup_v15" : [
"2020-08-23T09:29:14.524-0400"
],
"iterateDefaultGroup_v16" : [
"2020-08-23T09:33:18.773-0400"
],
"iterateDefaultGroup_v17" : [
"2020-08-23T09:43:06.345-0400"
],
"iterateDefaultGroup_v18" : [
"2020-08-23T10:39:31.940-0400"
],
"iterateDefaultGroup_v19" : [
"2020-08-23T11:05:09.652-0400"
],
"iterateDefaultGroup_v20" : [
"2020-08-23T12:38:26.925-0400"
],
"iterateDefaultGroup_v21" : [
"2020-09-07T07:24:26.801-0400"
],
"iterateDefaultGroup_v22" : [
"2020-09-07T07:25:08.335-0400"
],
"iterateDefaultGroup_v23" : [
"2020-09-07T07:42:47.889-0400"
],
"iterateDefaultGroup_v24" : [
"2020-09-07T08:36:21.609-0400"
],
"iterateDefaultGroup_v25" : [
"2020-09-07T08:41:07.281-0400"
],
"iterateDefaultGroup_v26" : [
"2020-09-07T10:01:47.453-0400"
],
"iterateDefaultGroup_v27" : [
"2020-09-07T10:05:34.055-0400"
],
"iterateDefaultGroup_v28" : [
"2020-09-07T10:31:12.168-0400"
],
"iterateDefaultGroup_v29" : [
"2020-09-07T10:32:32.034-0400"
],
"iterateDefaultGroup_v30" : [
"2020-09-07T10:39:26.000-0400"
],
"iterateDefaultGroup_v31" : [
"2020-09-07T10:47:19.792-0400"
]
}
}