{
"document" : {
"data" : {
"NAME" : "DATA_BUFFER_TABLE",
"COMMENT" : "No comment.",
"AUTHOR" : "admin",
"CREATION_TIME" : 1550871033,
"COL_TYPES" : {
"DATA_BUFFER_GROUP_ID" : "STRING",
"DATA_BUFFER_UID" : "STRING",
"LINK_TO_DATA_PROCESSOR_TABLE" : "STRING",
"LINK_TO_DATA_PROCESSOR_GROUP_ID" : "STRING",
"STATUS" : "STRING",
"COMMENT_DESCRIPTION" : "STRING",
"AUTHOR" : "STRING",
"RECORD_INSERTION_TIME" : "TIMESTAMP WITH TIMEZONE"
},
"DATA_SET" : [
{
"DATA_BUFFER_GROUP_ID" : "OuterTrackerDataBuffer0",
"DATA_BUFFER_UID" : "OuterTrackerDataBuffer0",
"LINK_TO_DATA_PROCESSOR_TABLE" : "DataProcessorTable",
"LINK_TO_DATA_PROCESSOR_GROUP_ID" : "OuterTrackerDataBuffer0",
"STATUS" : "On",
"COMMENT_DESCRIPTION" : "DEFAULT",
"AUTHOR" : "admin",
"RECORD_INSERTION_TIME" : "1550772672"
},
{
"DATA_BUFFER_GROUP_ID" : "VisualDataBuffer",
"DATA_BUFFER_UID" : "VisualDataBuffer",
"LINK_TO_DATA_PROCESSOR_TABLE" : "DataProcessorTable",
"LINK_TO_DATA_PROCESSOR_GROUP_ID" : "VisualDataBuffer",
"STATUS" : "On",
"COMMENT_DESCRIPTION" : "DEFAULT",
"AUTHOR" : "admin",
"RECORD_INSERTION_TIME" : "1550871033"
}
]
},
"metadata" : {

},
"search" : [

]
},
"comments" : [

],
"origin" : {
"source" : "template",
"name" : "notprovided",
"format" : "json",
"created" : "2020-07-21T14:27:46.175-0500",
"rawdata" : [

]
},
"version" : "1",
"entities" : [
{
"name" : "OTSROOT",
"assigned" : "2020-07-21T14:27:46.176-0500"
}
],
"configurations" : [
{
"name" : "notprovided",
"assigned" : "2020-07-21T14:27:46.176-0500"
},
{
"name" : "DefaultConfig_v1",
"assigned" : "2020-07-21T14:27:46.740-0500"
},
{
"name" : "DefaultConfig_v2",
"assigned" : "2020-07-21T14:44:16.369-0500"
},
{
"name" : "DefaultConfig_v3",
"assigned" : "2020-07-21T14:57:50.244-0500"
},
{
"name" : "DefaultConfig_v4",
"assigned" : "2020-07-28T10:52:34.144-0500"
},
{
"name" : "DefaultConfig_v5",
"assigned" : "2020-08-04T15:30:35.052-0500"
},
{
"name" : "DefaultConfig_v6",
"assigned" : "2020-08-23T08:42:38.145-0400"
},
{
"name" : "DefaultConfig_v7",
"assigned" : "2020-08-23T09:13:31.487-0400"
},
{
"name" : "DefaultConfig_v8",
"assigned" : "2020-08-23T09:16:48.091-0400"
},
{
"name" : "DefaultConfig_v9",
"assigned" : "2020-08-25T04:49:15.820-0400"
},
{
"name" : "DefaultConfig_v10",
"assigned" : "2020-08-26T07:39:08.433-0400"
},
{
"name" : "DefaultConfig_v11",
"assigned" : "2020-08-26T07:52:47.174-0400"
},
{
"name" : "DefaultConfig_v12",
"assigned" : "2020-08-26T07:59:18.583-0400"
},
{
"name" : "DefaultConfig_v13",
"assigned" : "2020-08-26T08:29:39.142-0400"
},
{
"name" : "DefaultConfig_v14",
"assigned" : "2020-09-07T07:00:55.209-0400"
},
{
"name" : "DefaultConfig_v15",
"assigned" : "2020-09-07T07:05:07.843-0400"
},
{
"name" : "DefaultConfig_v16",
"assigned" : "2020-09-07T07:09:30.495-0400"
},
{
"name" : "DefaultConfig_v17",
"assigned" : "2020-09-07T07:16:07.806-0400"
},
{
"name" : "DefaultConfig_v18",
"assigned" : "2020-09-07T07:56:03.877-0400"
},
{
"name" : "DefaultConfig_v19",
"assigned" : "2020-09-07T08:00:30.376-0400"
},
{
"name" : "DefaultConfig_v20",
"assigned" : "2020-09-07T08:01:52.994-0400"
},
{
"name" : "DefaultConfig_v21",
"assigned" : "2020-09-07T08:06:17.889-0400"
},
{
"name" : "DefaultConfig_v22",
"assigned" : "2020-09-07T08:11:03.891-0400"
},
{
"name" : "DefaultConfig_v23",
"assigned" : "2020-09-07T08:26:52.463-0400"
},
{
"name" : "DefaultConfig_v24",
"assigned" : "2020-09-07T08:29:30.241-0400"
},
{
"name" : "DefaultConfig_v25",
"assigned" : "2020-09-07T09:02:56.370-0400"
},
{
"name" : "DefaultConfig_v26",
"assigned" : "2020-09-07T10:31:55.132-0400"
},
{
"name" : "DefaultConfig_v27",
"assigned" : "2020-09-07T10:37:39.935-0400"
},
{
"name" : "DefaultConfig_v28",
"assigned" : "2020-09-07T11:26:43.587-0400"
},
{
"name" : "DefaultConfig_v29",
"assigned" : "2020-09-07T11:45:30.372-0400"
},
{
"name" : "DefaultConfig_v30",
"assigned" : "2020-09-07T11:54:06.156-0400"
},
{
"name" : "DefaultConfig_v31",
"assigned" : "2020-09-07T15:14:41.207-0400"
},
{
"name" : "DefaultConfig_v32",
"assigned" : "2020-09-07T15:15:32.272-0400"
},
{
"name" : "DefaultConfig_v33",
"assigned" : "2020-09-07T15:16:20.425-0400"
},
{
"name" : "DefaultConfig_v34",
"assigned" : "2020-09-07T15:17:14.840-0400"
},
{
"name" : "DefaultConfig_v35",
"assigned" : "2020-09-07T15:18:02.640-0400"
},
{
"name" : "DefaultConfig_v36",
"assigned" : "2020-09-07T15:18:43.345-0400"
},
{
"name" : "DefaultConfig_v37",
"assigned" : "2020-09-07T15:19:34.328-0400"
},
{
"name" : "DefaultConfig_v38",
"assigned" : "2020-09-07T15:20:24.886-0400"
},
{
"name" : "DefaultConfig_v39",
"assigned" : "2020-09-07T15:21:05.479-0400"
},
{
"name" : "DefaultConfig_v40",
"assigned" : "2020-09-07T15:21:50.560-0400"
},
{
"name" : "DefaultConfig_v41",
"assigned" : "2020-09-07T15:22:28.652-0400"
}
],
"changelog" : "notprovided",
"bookkeeping" : {
"isdeleted" : false,
"isreadonly" : false,
"updates" : [
{
"event" : "addConfiguration",
"timestamp" : "2020-07-21T14:27:46.176-0500",
"value" : {
"name" : "notprovided",
"assigned" : "2020-07-21T14:27:46.176-0500"
}
},
{
"event" : "setVersion",
"timestamp" : "2020-07-21T14:27:46.176-0500",
"value" : {
"name" : "1",
"assigned" : "2020-07-21T14:27:46.176-0500"
}
},
{
"event" : "setCollection",
"timestamp" : "2020-07-21T14:27:46.176-0500",
"value" : {
"name" : "DataBufferTable",
"assigned" : "2020-07-21T14:27:46.176-0500"
}
},
{
"event" : "addEntity",
"timestamp" : "2020-07-21T14:27:46.176-0500",
"value" : {
"name" : "OTSROOT",
"assigned" : "2020-07-21T14:27:46.176-0500"
}
},
{
"event" : "addConfiguration",
"timestamp" : "2020-07-21T14:27:46.740-0500",
"value" : {
"name" : "DefaultConfig_v1",
"assigned" : "2020-07-21T14:27:46.740-0500"
}
},
{
"event" : "addConfiguration",
"timestamp" : "2020-07-21T14:44:16.369-0500",
"value" : {
"name" : "DefaultConfig_v2",
"assigned" : "2020-07-21T14:44:16.369-0500"
}
},
{
"event" : "addConfiguration",
"timestamp" : "2020-07-21T14:57:50.244-0500",
"value" : {
"name" : "DefaultConfig_v3",
"assigned" : "2020-07-21T14:57:50.244-0500"
}
},
{
"event" : "addConfiguration",
"timestamp" : "2020-07-28T10:52:34.144-0500",
"value" : {
"name" : "DefaultConfig_v4",
"assigned" : "2020-07-28T10:52:34.144-0500"
}
},
{
"event" : "addConfiguration",
"timestamp" : "2020-08-04T15:30:35.052-0500",
"value" : {
"name" : "DefaultConfig_v5",
"assigned" : "2020-08-04T15:30:35.052-0500"
}
},
{
"event" : "addConfiguration",
"timestamp" : "2020-08-23T08:42:38.145-0400",
"value" : {
"name" : "DefaultConfig_v6",
"assigned" : "2020-08-23T08:42:38.145-0400"
}
},
{
"event" : "addConfiguration",
"timestamp" : "2020-08-23T09:13:31.487-0400",
"value" : {
"name" : "DefaultConfig_v7",
"assigned" : "2020-08-23T09:13:31.487-0400"
}
},
{
"event" : "addConfiguration",
"timestamp" : "2020-08-23T09:16:48.091-0400",
"value" : {
"name" : "DefaultConfig_v8",
"assigned" : "2020-08-23T09:16:48.091-0400"
}
},
{
"event" : "addConfiguration",
"timestamp" : "2020-08-25T04:49:15.820-0400",
"value" : {
"name" : "DefaultConfig_v9",
"assigned" : "2020-08-25T04:49:15.820-0400"
}
},
{
"event" : "addConfiguration",
"timestamp" : "2020-08-26T07:39:08.433-0400",
"value" : {
"name" : "DefaultConfig_v10",
"assigned" : "2020-08-26T07:39:08.433-0400"
}
},
{
"event" : "addConfiguration",
"timestamp" : "2020-08-26T07:52:47.174-0400",
"value" : {
"name" : "DefaultConfig_v11",
"assigned" : "2020-08-26T07:52:47.174-0400"
}
},
{
"event" : "addConfiguration",
"timestamp" : "2020-08-26T07:59:18.583-0400",
"value" : {
"name" : "DefaultConfig_v12",
"assigned" : "2020-08-26T07:59:18.583-0400"
}
},
{
"event" : "addConfiguration",
"timestamp" : "2020-08-26T08:29:39.142-0400",
"value" : {
"name" : "DefaultConfig_v13",
"assigned" : "2020-08-26T08:29:39.142-0400"
}
},
{
"event" : "addConfiguration",
"timestamp" : "2020-09-07T07:00:55.209-0400",
"value" : {
"name" : "DefaultConfig_v14",
"assigned" : "2020-09-07T07:00:55.209-0400"
}
},
{
"event" : "addConfiguration",
"timestamp" : "2020-09-07T07:05:07.843-0400",
"value" : {
"name" : "DefaultConfig_v15",
"assigned" : "2020-09-07T07:05:07.843-0400"
}
},
{
"event" : "addConfiguration",
"timestamp" : "2020-09-07T07:09:30.495-0400",
"value" : {
"name" : "DefaultConfig_v16",
"assigned" : "2020-09-07T07:09:30.495-0400"
}
},
{
"event" : "addConfiguration",
"timestamp" : "2020-09-07T07:16:07.806-0400",
"value" : {
"name" : "DefaultConfig_v17",
"assigned" : "2020-09-07T07:16:07.806-0400"
}
},
{
"event" : "addConfiguration",
"timestamp" : "2020-09-07T07:56:03.877-0400",
"value" : {
"name" : "DefaultConfig_v18",
"assigned" : "2020-09-07T07:56:03.877-0400"
}
},
{
"event" : "addConfiguration",
"timestamp" : "2020-09-07T08:00:30.376-0400",
"value" : {
"name" : "DefaultConfig_v19",
"assigned" : "2020-09-07T08:00:30.376-0400"
}
},
{
"event" : "addConfiguration",
"timestamp" : "2020-09-07T08:01:52.994-0400",
"value" : {
"name" : "DefaultConfig_v20",
"assigned" : "2020-09-07T08:01:52.994-0400"
}
},
{
"event" : "addConfiguration",
"timestamp" : "2020-09-07T08:06:17.889-0400",
"value" : {
"name" : "DefaultConfig_v21",
"assigned" : "2020-09-07T08:06:17.889-0400"
}
},
{
"event" : "addConfiguration",
"timestamp" : "2020-09-07T08:11:03.891-0400",
"value" : {
"name" : "DefaultConfig_v22",
"assigned" : "2020-09-07T08:11:03.891-0400"
}
},
{
"event" : "addConfiguration",
"timestamp" : "2020-09-07T08:26:52.463-0400",
"value" : {
"name" : "DefaultConfig_v23",
"assigned" : "2020-09-07T08:26:52.463-0400"
}
},
{
"event" : "addConfiguration",
"timestamp" : "2020-09-07T08:29:30.241-0400",
"value" : {
"name" : "DefaultConfig_v24",
"assigned" : "2020-09-07T08:29:30.241-0400"
}
},
{
"event" : "addConfiguration",
"timestamp" : "2020-09-07T09:02:56.370-0400",
"value" : {
"name" : "DefaultConfig_v25",
"assigned" : "2020-09-07T09:02:56.370-0400"
}
},
{
"event" : "addConfiguration",
"timestamp" : "2020-09-07T10:31:55.132-0400",
"value" : {
"name" : "DefaultConfig_v26",
"assigned" : "2020-09-07T10:31:55.132-0400"
}
},
{
"event" : "addConfiguration",
"timestamp" : "2020-09-07T10:37:39.935-0400",
"value" : {
"name" : "DefaultConfig_v27",
"assigned" : "2020-09-07T10:37:39.935-0400"
}
},
{
"event" : "addConfiguration",
"timestamp" : "2020-09-07T11:26:43.587-0400",
"value" : {
"name" : "DefaultConfig_v28",
"assigned" : "2020-09-07T11:26:43.587-0400"
}
},
{
"event" : "addConfiguration",
"timestamp" : "2020-09-07T11:45:30.372-0400",
"value" : {
"name" : "DefaultConfig_v29",
"assigned" : "2020-09-07T11:45:30.372-0400"
}
},
{
"event" : "addConfiguration",
"timestamp" : "2020-09-07T11:54:06.156-0400",
"value" : {
"name" : "DefaultConfig_v30",
"assigned" : "2020-09-07T11:54:06.156-0400"
}
},
{
"event" : "addConfiguration",
"timestamp" : "2020-09-07T15:14:41.207-0400",
"value" : {
"name" : "DefaultConfig_v31",
"assigned" : "2020-09-07T15:14:41.207-0400"
}
},
{
"event" : "addConfiguration",
"timestamp" : "2020-09-07T15:15:32.272-0400",
"value" : {
"name" : "DefaultConfig_v32",
"assigned" : "2020-09-07T15:15:32.272-0400"
}
},
{
"event" : "addConfiguration",
"timestamp" : "2020-09-07T15:16:20.425-0400",
"value" : {
"name" : "DefaultConfig_v33",
"assigned" : "2020-09-07T15:16:20.425-0400"
}
},
{
"event" : "addConfiguration",
"timestamp" : "2020-09-07T15:17:14.840-0400",
"value" : {
"name" : "DefaultConfig_v34",
"assigned" : "2020-09-07T15:17:14.840-0400"
}
},
{
"event" : "addConfiguration",
"timestamp" : "2020-09-07T15:18:02.640-0400",
"value" : {
"name" : "DefaultConfig_v35",
"assigned" : "2020-09-07T15:18:02.640-0400"
}
},
{
"event" : "addConfiguration",
"timestamp" : "2020-09-07T15:18:43.345-0400",
"value" : {
"name" : "DefaultConfig_v36",
"assigned" : "2020-09-07T15:18:43.345-0400"
}
},
{
"event" : "addConfiguration",
"timestamp" : "2020-09-07T15:19:34.328-0400",
"value" : {
"name" : "DefaultConfig_v37",
"assigned" : "2020-09-07T15:19:34.328-0400"
}
},
{
"event" : "addConfiguration",
"timestamp" : "2020-09-07T15:20:24.886-0400",
"value" : {
"name" : "DefaultConfig_v38",
"assigned" : "2020-09-07T15:20:24.886-0400"
}
},
{
"event" : "addConfiguration",
"timestamp" : "2020-09-07T15:21:05.479-0400",
"value" : {
"name" : "DefaultConfig_v39",
"assigned" : "2020-09-07T15:21:05.479-0400"
}
},
{
"event" : "addConfiguration",
"timestamp" : "2020-09-07T15:21:50.560-0400",
"value" : {
"name" : "DefaultConfig_v40",
"assigned" : "2020-09-07T15:21:50.560-0400"
}
},
{
"event" : "addConfiguration",
"timestamp" : "2020-09-07T15:22:28.652-0400",
"value" : {
"name" : "DefaultConfig_v41",
"assigned" : "2020-09-07T15:22:28.652-0400"
}
}
],
"created" : "2020-07-21T14:27:46.175-0500"
},
"_id" : {
"$oid" : "7a445c554e9f4cdfb7c6cb9e"
},
"collection" : "DataBufferTable",
"aliases" : {
"active" : [

],
"history" : [

]
},
"runs" : [

],
"attachments" : [

],
"configtype" : "notprovided"
}