{
"ouid" : [
"430b476c399d4cbc93eb3454"
],
"version" : {
"0" : [
"430b476c399d4cbc93eb3454"
]
},
"configurations.name" : {
"notprovided" : [
"430b476c399d4cbc93eb3454"
],
"FTBFConfig_v0" : [
"430b476c399d4cbc93eb3454"
],
"FTBFConfig_v1" : [
"430b476c399d4cbc93eb3454"
],
"FTBFConfig_v2" : [
"430b476c399d4cbc93eb3454"
],
"FTBFConfig_v3" : [
"430b476c399d4cbc93eb3454"
],
"FTBFConfig_v4" : [
"430b476c399d4cbc93eb3454"
],
"FTBFConfig_v5" : [
"430b476c399d4cbc93eb3454"
],
"FTBFConfig_v6" : [
"430b476c399d4cbc93eb3454"
],
"FTBFConfig_v7" : [
"430b476c399d4cbc93eb3454"
],
"FTBFConfig_v8" : [
"430b476c399d4cbc93eb3454"
],
"FTBFConfig_v9" : [
"430b476c399d4cbc93eb3454"
],
"FTBFConfig_v10" : [
"430b476c399d4cbc93eb3454"
],
"FTBFConfig_v11" : [
"430b476c399d4cbc93eb3454"
],
"FTBFConfig_v12" : [
"430b476c399d4cbc93eb3454"
],
"FTBFConfig_v13" : [
"430b476c399d4cbc93eb3454"
],
"FTBFConfig_v14" : [
"430b476c399d4cbc93eb3454"
],
"FTBFConfig_v15" : [
"430b476c399d4cbc93eb3454"
],
"FTBFConfig_v16" : [
"430b476c399d4cbc93eb3454"
],
"FTBFConfig_v17" : [
"430b476c399d4cbc93eb3454"
],
"FTBFConfig_v18" : [
"430b476c399d4cbc93eb3454"
],
"FTBFConfig_v19" : [
"430b476c399d4cbc93eb3454"
],
"FTBFConfig_v20" : [
"430b476c399d4cbc93eb3454"
],
"FTBFConfig_v21" : [
"430b476c399d4cbc93eb3454"
],
"FTBFConfig_v22" : [
"430b476c399d4cbc93eb3454"
],
"FTBFConfig_v23" : [
"430b476c399d4cbc93eb3454"
],
"FTBFConfig_v24" : [
"430b476c399d4cbc93eb3454"
],
"FTBFConfig_v25" : [
"430b476c399d4cbc93eb3454"
],
"FTBFConfig_v26" : [
"430b476c399d4cbc93eb3454"
],
"FTBFConfig_v27" : [
"430b476c399d4cbc93eb3454"
],
"FTBFConfig_v28" : [
"430b476c399d4cbc93eb3454"
],
"FTBFConfig_v29" : [
"430b476c399d4cbc93eb3454"
],
"FTBFConfig_v30" : [
"430b476c399d4cbc93eb3454"
],
"FTBFConfig_v31" : [
"430b476c399d4cbc93eb3454"
],
"FTBFConfig_v32" : [
"430b476c399d4cbc93eb3454"
],
"FTBFConfig_v33" : [
"430b476c399d4cbc93eb3454"
],
"FTBFConfig_v34" : [
"430b476c399d4cbc93eb3454"
],
"FTBFConfig_v35" : [
"430b476c399d4cbc93eb3454"
],
"FTBFConfig_v36" : [
"430b476c399d4cbc93eb3454"
],
"FTBFConfig_v37" : [
"430b476c399d4cbc93eb3454"
],
"FTBFConfig_v38" : [
"430b476c399d4cbc93eb3454"
],
"FTBFConfig_v39" : [
"430b476c399d4cbc93eb3454"
],
"FTBFConfig_v40" : [
"430b476c399d4cbc93eb3454"
],
"FTBFConfig_v41" : [
"430b476c399d4cbc93eb3454"
],
"FTBFConfig_v42" : [
"430b476c399d4cbc93eb3454"
],
"FTBFConfig_v43" : [
"430b476c399d4cbc93eb3454"
],
"FTBFConfig_v44" : [
"430b476c399d4cbc93eb3454"
],
"FTBFConfig_v45" : [
"430b476c399d4cbc93eb3454"
],
"FTBFConfig_v46" : [
"430b476c399d4cbc93eb3454"
],
"FTBFConfig_v47" : [
"430b476c399d4cbc93eb3454"
],
"FTBFConfig_v48" : [
"430b476c399d4cbc93eb3454"
],
"FTBFConfig_v49" : [
"430b476c399d4cbc93eb3454"
],
"FTBFConfig_v52" : [
"430b476c399d4cbc93eb3454"
],
"FTBFConfig_v53" : [
"430b476c399d4cbc93eb3454"
],
"FTBFConfig_v54" : [
"430b476c399d4cbc93eb3454"
],
"FTBFConfig_v55" : [
"430b476c399d4cbc93eb3454"
],
"FTBFConfig_v56" : [
"430b476c399d4cbc93eb3454"
],
"FTBFConfig_v57" : [
"430b476c399d4cbc93eb3454"
],
"FTBFConfig_v58" : [
"430b476c399d4cbc93eb3454"
],
"FTBFConfig_v59" : [
"430b476c399d4cbc93eb3454"
],
"FTBFConfig_v60" : [
"430b476c399d4cbc93eb3454"
],
"FTBFConfig_v61" : [
"430b476c399d4cbc93eb3454"
],
"FTBFConfig_v62" : [
"430b476c399d4cbc93eb3454"
],
"FTBFConfig_v63" : [
"430b476c399d4cbc93eb3454"
],
"FTBFConfig_v64" : [
"430b476c399d4cbc93eb3454"
],
"FTBFConfig_v65" : [
"430b476c399d4cbc93eb3454"
],
"FTBFConfig_v66" : [
"430b476c399d4cbc93eb3454"
],
"FTBFConfig_v67" : [
"430b476c399d4cbc93eb3454"
],
"FTBFConfig_v68" : [
"430b476c399d4cbc93eb3454"
],
"FTBFConfig_v69" : [
"430b476c399d4cbc93eb3454"
],
"FTBFConfig_v70" : [
"430b476c399d4cbc93eb3454"
],
"FTBFConfigNim_v0" : [
"430b476c399d4cbc93eb3454"
],
"FTBFConfigNim_v1" : [
"430b476c399d4cbc93eb3454"
],
"FTBFConfigNim_v2" : [
"430b476c399d4cbc93eb3454"
],
"FTBFConfigNim_v3" : [
"430b476c399d4cbc93eb3454"
],
"FTBFConfigNim_v4" : [
"430b476c399d4cbc93eb3454"
],
"FTBFConfigNim_v5" : [
"430b476c399d4cbc93eb3454"
],
"FTBFConfigNim_v6" : [
"430b476c399d4cbc93eb3454"
],
"FTBFConfigNim_v7" : [
"430b476c399d4cbc93eb3454"
],
"FTBFConfigNim_v8" : [
"430b476c399d4cbc93eb3454"
],
"FTBFConfigNim_v9" : [
"430b476c399d4cbc93eb3454"
],
"FTBFConfigNim_v10" : [
"430b476c399d4cbc93eb3454"
],
"FTBFConfigNim_v11" : [
"430b476c399d4cbc93eb3454"
],
"FTBFConfigNim_v12" : [
"430b476c399d4cbc93eb3454"
],
"FTBFConfigNim_v13" : [
"430b476c399d4cbc93eb3454"
],
"FTBFConfigNim_v14" : [
"430b476c399d4cbc93eb3454"
],
"FTBFConfigNim_v15" : [
"430b476c399d4cbc93eb3454"
],
"FTBFConfigNim_v16" : [
"430b476c399d4cbc93eb3454"
],
"FTBFConfigNim_v17" : [
"430b476c399d4cbc93eb3454"
],
"FTBFConfigNim_v18" : [
"430b476c399d4cbc93eb3454"
],
"FTBFConfigNim_v19" : [
"430b476c399d4cbc93eb3454"
],
"FTBFConfigNim_v20" : [
"430b476c399d4cbc93eb3454"
],
"FTBFConfigNim_v21" : [
"430b476c399d4cbc93eb3454"
],
"FTBFConfigNim_v22" : [
"430b476c399d4cbc93eb3454"
],
"FTBFConfigNim_v23" : [
"430b476c399d4cbc93eb3454"
],
"FTBFConfigNim_v24" : [
"430b476c399d4cbc93eb3454"
],
"FTBFConfigNim_v25" : [
"430b476c399d4cbc93eb3454"
],
"FTBFConfigNim_v26" : [
"430b476c399d4cbc93eb3454"
],
"FTBFConfigNim_v27" : [
"430b476c399d4cbc93eb3454"
],
"FTBFConfigNim_v28" : [
"430b476c399d4cbc93eb3454"
],
"FTBFConfigNim_v29" : [
"430b476c399d4cbc93eb3454"
],
"FTBFConfig_v71" : [
"430b476c399d4cbc93eb3454"
],
"FTBFConfig_v72" : [
"430b476c399d4cbc93eb3454"
],
"FTBFConfig_v73" : [
"430b476c399d4cbc93eb3454"
],
"FTBFConfig_v74" : [
"430b476c399d4cbc93eb3454"
],
"FTBFConfig_v75" : [
"430b476c399d4cbc93eb3454"
],
"FTBFConfig_v76" : [
"430b476c399d4cbc93eb3454"
],
"FTBFConfig_v77" : [
"430b476c399d4cbc93eb3454"
],
"FTBFConfig_v78" : [
"430b476c399d4cbc93eb3454"
],
"FTBFConfig_v79" : [
"430b476c399d4cbc93eb3454"
],
"FTBFConfig_v80" : [
"430b476c399d4cbc93eb3454"
],
"FTBFConfig_v81" : [
"430b476c399d4cbc93eb3454"
],
"FTBFConfig_v82" : [
"430b476c399d4cbc93eb3454"
],
"FTBFConfig_v83" : [
"430b476c399d4cbc93eb3454"
],
"FTBFConfig_v84" : [
"430b476c399d4cbc93eb3454"
],
"FTBFConfig_v85" : [
"430b476c399d4cbc93eb3454"
],
"FTBFConfig_v86" : [
"430b476c399d4cbc93eb3454"
],
"FTBFConfig_v87" : [
"430b476c399d4cbc93eb3454"
],
"FTBFConfig_v88" : [
"430b476c399d4cbc93eb3454"
],
"FTBFConfig_v89" : [
"430b476c399d4cbc93eb3454"
],
"FTBFConfig_v90" : [
"430b476c399d4cbc93eb3454"
],
"FTBFConfig_v91" : [
"430b476c399d4cbc93eb3454"
],
"FTBFConfig_v92" : [
"430b476c399d4cbc93eb3454"
],
"FTBFConfig_v93" : [
"430b476c399d4cbc93eb3454"
],
"FTBFConfig_v94" : [
"430b476c399d4cbc93eb3454"
],
"FTBFConfig_v95" : [
"430b476c399d4cbc93eb3454"
],
"FTBFConfig_v96" : [
"430b476c399d4cbc93eb3454"
],
"FTBFConfig_v97" : [
"430b476c399d4cbc93eb3454"
],
"FTBFConfig_v98" : [
"430b476c399d4cbc93eb3454"
],
"FTBFConfig_v99" : [
"430b476c399d4cbc93eb3454"
],
"FTBFConfig_v100" : [
"430b476c399d4cbc93eb3454"
],
"FTBFConfig_v101" : [
"430b476c399d4cbc93eb3454"
],
"FTBFConfig_v102" : [
"430b476c399d4cbc93eb3454"
],
"FTBFConfig_v103" : [
"430b476c399d4cbc93eb3454"
],
"FTBFConfig_v104" : [
"430b476c399d4cbc93eb3454"
],
"FTBFConfig_v105" : [
"430b476c399d4cbc93eb3454"
],
"FTBFConfig_v106" : [
"430b476c399d4cbc93eb3454"
],
"FTBFConfig_v107" : [
"430b476c399d4cbc93eb3454"
],
"FTBFConfig_v108" : [
"430b476c399d4cbc93eb3454"
],
"FTBFConfig_v109" : [
"430b476c399d4cbc93eb3454"
],
"FTBFConfig_v110" : [
"430b476c399d4cbc93eb3454"
],
"FTBFConfig_v111" : [
"430b476c399d4cbc93eb3454"
],
"FTBFConfig_v112" : [
"430b476c399d4cbc93eb3454"
],
"FTBFConfig_v113" : [
"430b476c399d4cbc93eb3454"
],
"FTBFConfig_v114" : [
"430b476c399d4cbc93eb3454"
],
"FTBFConfig_v115" : [
"430b476c399d4cbc93eb3454"
],
"FTBFConfig_v116" : [
"430b476c399d4cbc93eb3454"
],
"FTBFConfig_v117" : [
"430b476c399d4cbc93eb3454"
],
"FTBFConfig_v118" : [
"430b476c399d4cbc93eb3454"
],
"FTBFConfig_v119" : [
"430b476c399d4cbc93eb3454"
],
"FTBFConfig_v120" : [
"430b476c399d4cbc93eb3454"
],
"FTBFConfig_v121" : [
"430b476c399d4cbc93eb3454"
],
"FTBFConfig_v122" : [
"430b476c399d4cbc93eb3454"
],
"FTBFConfig_v123" : [
"430b476c399d4cbc93eb3454"
],
"FTBFConfig_v124" : [
"430b476c399d4cbc93eb3454"
],
"FTBFConfig_v125" : [
"430b476c399d4cbc93eb3454"
],
"FTBFConfig_v126" : [
"430b476c399d4cbc93eb3454"
],
"FTBFConfig_v127" : [
"430b476c399d4cbc93eb3454"
],
"FTBFConfig_v128" : [
"430b476c399d4cbc93eb3454"
],
"FTBFConfig_v129" : [
"430b476c399d4cbc93eb3454"
],
"FTBFConfig_v130" : [
"430b476c399d4cbc93eb3454"
],
"FTBFConfig_v131" : [
"430b476c399d4cbc93eb3454"
],
"FTBFConfig_v132" : [
"430b476c399d4cbc93eb3454"
],
"FTBFConfig_v133" : [
"430b476c399d4cbc93eb3454"
],
"FTBFConfig_v134" : [
"430b476c399d4cbc93eb3454"
],
"FTBFConfig_v135" : [
"430b476c399d4cbc93eb3454"
],
"FTBFConfig_v136" : [
"430b476c399d4cbc93eb3454"
],
"FTBFConfig_v137" : [
"430b476c399d4cbc93eb3454"
],
"FTBFConfig_v138" : [
"430b476c399d4cbc93eb3454"
],
"FTBFConfig_v139" : [
"430b476c399d4cbc93eb3454"
],
"FTBFConfig_v140" : [
"430b476c399d4cbc93eb3454"
],
"FTBFConfig_v141" : [
"430b476c399d4cbc93eb3454"
],
"FTBFConfig_v142" : [
"430b476c399d4cbc93eb3454"
]
},
"entities.name" : {
"OTSROOT" : [
"430b476c399d4cbc93eb3454"
]
},
"aliases.active.name" : {

},
"runs.name" : {

},
"configurations.assigned" : {
"notprovided" : [
"2017-11-08T15:56:02.976-0600"
],
"FTBFConfig_v0" : [
"2017-11-08T15:56:05.661-0600"
],
"FTBFConfig_v1" : [
"2017-11-09T09:56:30.250-0600"
],
"FTBFConfig_v2" : [
"2017-11-09T10:05:59.206-0600"
],
"FTBFConfig_v3" : [
"2017-11-09T10:37:10.776-0600"
],
"FTBFConfig_v4" : [
"2017-11-15T11:30:09.541-0600"
],
"FTBFConfig_v5" : [
"2017-11-15T11:54:56.345-0600"
],
"FTBFConfig_v6" : [
"2017-11-15T11:57:48.960-0600"
],
"FTBFConfig_v7" : [
"2017-11-15T12:42:31.363-0600"
],
"FTBFConfig_v8" : [
"2017-11-15T13:01:02.358-0600"
],
"FTBFConfig_v9" : [
"2017-11-15T13:02:55.748-0600"
],
"FTBFConfig_v10" : [
"2017-11-15T13:04:23.323-0600"
],
"FTBFConfig_v11" : [
"2017-11-15T13:07:50.823-0600"
],
"FTBFConfig_v12" : [
"2017-11-15T13:11:58.263-0600"
],
"FTBFConfig_v13" : [
"2017-11-15T13:13:52.196-0600"
],
"FTBFConfig_v14" : [
"2017-11-15T13:27:26.914-0600"
],
"FTBFConfig_v15" : [
"2017-11-15T13:35:46.162-0600"
],
"FTBFConfig_v16" : [
"2017-11-15T13:36:50.801-0600"
],
"FTBFConfig_v17" : [
"2017-11-15T15:33:29.340-0600"
],
"FTBFConfig_v18" : [
"2017-11-15T15:35:32.949-0600"
],
"FTBFConfig_v19" : [
"2017-11-15T15:38:01.796-0600"
],
"FTBFConfig_v20" : [
"2017-11-15T16:26:29.576-0600"
],
"FTBFConfig_v21" : [
"2017-11-16T09:22:30.599-0600"
],
"FTBFConfig_v22" : [
"2017-11-17T10:23:26.809-0600"
],
"FTBFConfig_v23" : [
"2017-11-17T17:26:44.330-0600"
],
"FTBFConfig_v24" : [
"2017-11-17T17:58:24.799-0600"
],
"FTBFConfig_v25" : [
"2017-11-17T18:24:44.479-0600"
],
"FTBFConfig_v26" : [
"2017-11-17T18:32:21.632-0600"
],
"FTBFConfig_v27" : [
"2017-11-17T18:43:28.761-0600"
],
"FTBFConfig_v28" : [
"2017-11-17T18:48:30.732-0600"
],
"FTBFConfig_v29" : [
"2017-11-20T14:48:29.799-0600"
],
"FTBFConfig_v30" : [
"2017-11-20T15:39:54.966-0600"
],
"FTBFConfig_v31" : [
"2017-11-20T16:41:00.945-0600"
],
"FTBFConfig_v32" : [
"2017-11-20T18:55:33.825-0600"
],
"FTBFConfig_v33" : [
"2017-11-20T18:57:29.108-0600"
],
"FTBFConfig_v34" : [
"2017-11-29T17:50:38.595-0600"
],
"FTBFConfig_v35" : [
"2017-11-29T18:00:31.437-0600"
],
"FTBFConfig_v36" : [
"2017-11-29T18:35:10.282-0600"
],
"FTBFConfig_v37" : [
"2017-12-01T09:36:16.525-0600"
],
"FTBFConfig_v38" : [
"2017-12-01T09:51:59.910-0600"
],
"FTBFConfig_v39" : [
"2017-12-01T11:51:57.169-0600"
],
"FTBFConfig_v40" : [
"2017-12-01T12:18:19.112-0600"
],
"FTBFConfig_v41" : [
"2017-12-01T12:21:01.256-0600"
],
"FTBFConfig_v42" : [
"2017-12-01T12:43:20.433-0600"
],
"FTBFConfig_v43" : [
"2017-12-01T12:57:57.715-0600"
],
"FTBFConfig_v44" : [
"2017-12-01T13:00:50.734-0600"
],
"FTBFConfig_v45" : [
"2017-12-01T13:25:47.479-0600"
],
"FTBFConfig_v46" : [
"2017-12-01T13:35:42.294-0600"
],
"FTBFConfig_v47" : [
"2017-12-01T14:00:50.561-0600"
],
"FTBFConfig_v48" : [
"2017-12-01T14:03:57.825-0600"
],
"FTBFConfig_v49" : [
"2017-12-01T15:31:58.035-0600"
],
"FTBFConfig_v52" : [
"2017-12-01T15:37:29.473-0600"
],
"FTBFConfig_v53" : [
"2017-12-01T15:40:57.555-0600"
],
"FTBFConfig_v54" : [
"2017-12-01T15:52:47.861-0600"
],
"FTBFConfig_v55" : [
"2017-12-01T15:54:33.005-0600"
],
"FTBFConfig_v56" : [
"2017-12-01T15:55:32.538-0600"
],
"FTBFConfig_v57" : [
"2017-12-01T15:56:38.333-0600"
],
"FTBFConfig_v58" : [
"2017-12-01T15:57:36.430-0600"
],
"FTBFConfig_v59" : [
"2017-12-01T15:58:28.330-0600"
],
"FTBFConfig_v60" : [
"2017-12-01T15:59:29.512-0600"
],
"FTBFConfig_v61" : [
"2017-12-01T16:19:39.273-0600"
],
"FTBFConfig_v62" : [
"2017-12-01T16:22:01.805-0600"
],
"FTBFConfig_v63" : [
"2017-12-01T16:31:22.429-0600"
],
"FTBFConfig_v64" : [
"2017-12-01T17:06:29.600-0600"
],
"FTBFConfig_v65" : [
"2017-12-01T17:32:41.763-0600"
],
"FTBFConfig_v66" : [
"2017-12-01T20:38:48.064-0600"
],
"FTBFConfig_v67" : [
"2017-12-01T21:24:59.543-0600"
],
"FTBFConfig_v68" : [
"2017-12-01T21:42:59.204-0600"
],
"FTBFConfig_v69" : [
"2017-12-01T21:44:57.847-0600"
],
"FTBFConfig_v70" : [
"2017-12-01T21:59:17.075-0600"
],
"FTBFConfigNim_v0" : [
"2017-12-01T22:00:03.780-0600"
],
"FTBFConfigNim_v1" : [
"2017-12-01T22:13:05.507-0600"
],
"FTBFConfigNim_v2" : [
"2017-12-01T22:15:52.750-0600"
],
"FTBFConfigNim_v3" : [
"2017-12-01T22:17:00.875-0600"
],
"FTBFConfigNim_v4" : [
"2017-12-01T22:19:03.836-0600"
],
"FTBFConfigNim_v5" : [
"2017-12-01T22:21:54.556-0600"
],
"FTBFConfigNim_v6" : [
"2017-12-01T22:23:10.706-0600"
],
"FTBFConfigNim_v7" : [
"2017-12-01T22:25:14.495-0600"
],
"FTBFConfigNim_v8" : [
"2017-12-01T22:27:02.056-0600"
],
"FTBFConfigNim_v9" : [
"2017-12-01T22:29:26.304-0600"
],
"FTBFConfigNim_v10" : [
"2017-12-01T22:52:31.421-0600"
],
"FTBFConfigNim_v11" : [
"2017-12-01T22:57:26.208-0600"
],
"FTBFConfigNim_v12" : [
"2017-12-01T23:00:04.474-0600"
],
"FTBFConfigNim_v13" : [
"2017-12-01T23:52:32.590-0600"
],
"FTBFConfigNim_v14" : [
"2017-12-01T23:58:06.985-0600"
],
"FTBFConfigNim_v15" : [
"2017-12-02T00:00:31.259-0600"
],
"FTBFConfigNim_v16" : [
"2017-12-02T00:13:06.398-0600"
],
"FTBFConfigNim_v17" : [
"2017-12-02T00:28:25.355-0600"
],
"FTBFConfigNim_v18" : [
"2017-12-02T00:29:31.406-0600"
],
"FTBFConfigNim_v19" : [
"2017-12-02T00:31:08.318-0600"
],
"FTBFConfigNim_v20" : [
"2017-12-02T00:57:24.392-0600"
],
"FTBFConfigNim_v21" : [
"2017-12-02T10:57:58.946-0600"
],
"FTBFConfigNim_v22" : [
"2017-12-02T11:08:15.120-0600"
],
"FTBFConfigNim_v23" : [
"2017-12-02T11:12:36.685-0600"
],
"FTBFConfigNim_v24" : [
"2017-12-02T11:18:39.588-0600"
],
"FTBFConfigNim_v25" : [
"2017-12-02T11:27:02.741-0600"
],
"FTBFConfigNim_v26" : [
"2017-12-02T11:38:33.784-0600"
],
"FTBFConfigNim_v27" : [
"2017-12-02T11:49:04.952-0600"
],
"FTBFConfigNim_v28" : [
"2017-12-02T11:55:06.395-0600"
],
"FTBFConfigNim_v29" : [
"2017-12-02T12:06:23.228-0600"
],
"FTBFConfig_v71" : [
"2017-12-02T12:24:11.861-0600"
],
"FTBFConfig_v72" : [
"2017-12-02T12:43:32.701-0600"
],
"FTBFConfig_v73" : [
"2017-12-02T13:55:32.296-0600"
],
"FTBFConfig_v74" : [
"2017-12-02T14:09:04.603-0600"
],
"FTBFConfig_v75" : [
"2017-12-02T14:12:15.436-0600"
],
"FTBFConfig_v76" : [
"2017-12-02T19:05:50.520-0600"
],
"FTBFConfig_v77" : [
"2017-12-02T19:12:10.401-0600"
],
"FTBFConfig_v78" : [
"2017-12-03T14:03:45.528-0600"
],
"FTBFConfig_v79" : [
"2017-12-03T14:09:03.734-0600"
],
"FTBFConfig_v80" : [
"2017-12-03T14:11:07.487-0600"
],
"FTBFConfig_v81" : [
"2017-12-03T14:22:30.511-0600"
],
"FTBFConfig_v82" : [
"2017-12-03T14:40:35.295-0600"
],
"FTBFConfig_v83" : [
"2017-12-03T14:45:02.656-0600"
],
"FTBFConfig_v84" : [
"2017-12-04T14:51:28.027-0600"
],
"FTBFConfig_v85" : [
"2017-12-04T14:55:41.190-0600"
],
"FTBFConfig_v86" : [
"2017-12-04T16:51:04.169-0600"
],
"FTBFConfig_v87" : [
"2017-12-04T16:56:44.781-0600"
],
"FTBFConfig_v88" : [
"2017-12-04T17:01:09.506-0600"
],
"FTBFConfig_v89" : [
"2017-12-04T17:03:54.600-0600"
],
"FTBFConfig_v90" : [
"2017-12-04T17:07:14.229-0600"
],
"FTBFConfig_v91" : [
"2017-12-04T17:09:23.345-0600"
],
"FTBFConfig_v92" : [
"2017-12-04T17:11:35.837-0600"
],
"FTBFConfig_v93" : [
"2017-12-04T21:05:18.442-0600"
],
"FTBFConfig_v94" : [
"2017-12-04T21:17:09.297-0600"
],
"FTBFConfig_v95" : [
"2017-12-04T21:41:15.021-0600"
],
"FTBFConfig_v96" : [
"2017-12-04T22:38:59.632-0600"
],
"FTBFConfig_v97" : [
"2017-12-04T23:01:10.147-0600"
],
"FTBFConfig_v98" : [
"2017-12-07T11:07:44.160-0600"
],
"FTBFConfig_v99" : [
"2017-12-07T11:49:56.833-0600"
],
"FTBFConfig_v100" : [
"2017-12-07T11:58:23.548-0600"
],
"FTBFConfig_v101" : [
"2017-12-08T13:30:45.660-0600"
],
"FTBFConfig_v102" : [
"2017-12-08T13:32:32.542-0600"
],
"FTBFConfig_v103" : [
"2017-12-12T11:03:02.330-0600"
],
"FTBFConfig_v104" : [
"2017-12-12T13:50:56.666-0600"
],
"FTBFConfig_v105" : [
"2017-12-12T15:25:02.704-0600"
],
"FTBFConfig_v106" : [
"2017-12-13T10:24:21.100-0600"
],
"FTBFConfig_v107" : [
"2017-12-13T10:26:59.851-0600"
],
"FTBFConfig_v108" : [
"2018-02-01T21:14:23.251-0600"
],
"FTBFConfig_v109" : [
"2018-02-01T21:21:00.370-0600"
],
"FTBFConfig_v110" : [
"2018-02-02T11:25:31.307-0600"
],
"FTBFConfig_v111" : [
"2018-02-02T11:37:10.143-0600"
],
"FTBFConfig_v112" : [
"2018-02-02T11:47:12.613-0600"
],
"FTBFConfig_v113" : [
"2018-02-02T11:53:33.863-0600"
],
"FTBFConfig_v114" : [
"2018-02-02T12:00:49.950-0600"
],
"FTBFConfig_v115" : [
"2018-02-02T12:27:11.439-0600"
],
"FTBFConfig_v116" : [
"2018-02-02T14:28:50.955-0600"
],
"FTBFConfig_v117" : [
"2018-02-02T14:30:17.275-0600"
],
"FTBFConfig_v118" : [
"2018-02-02T14:33:58.477-0600"
],
"FTBFConfig_v119" : [
"2018-02-02T14:36:25.092-0600"
],
"FTBFConfig_v120" : [
"2018-02-02T14:38:38.452-0600"
],
"FTBFConfig_v121" : [
"2018-02-02T14:41:47.767-0600"
],
"FTBFConfig_v122" : [
"2018-02-02T14:50:21.833-0600"
],
"FTBFConfig_v123" : [
"2018-02-02T14:52:54.638-0600"
],
"FTBFConfig_v124" : [
"2018-02-02T14:59:47.968-0600"
],
"FTBFConfig_v125" : [
"2018-02-02T15:04:06.083-0600"
],
"FTBFConfig_v126" : [
"2018-02-02T15:50:09.267-0600"
],
"FTBFConfig_v127" : [
"2018-02-02T15:51:28.750-0600"
],
"FTBFConfig_v128" : [
"2018-02-02T15:52:33.910-0600"
],
"FTBFConfig_v129" : [
"2018-02-02T16:02:42.804-0600"
],
"FTBFConfig_v130" : [
"2018-02-02T16:08:42.328-0600"
],
"FTBFConfig_v131" : [
"2018-02-02T16:11:28.139-0600"
],
"FTBFConfig_v132" : [
"2018-02-02T16:12:55.978-0600"
],
"FTBFConfig_v133" : [
"2018-02-02T16:14:26.600-0600"
],
"FTBFConfig_v134" : [
"2018-02-02T16:26:19.470-0600"
],
"FTBFConfig_v135" : [
"2018-02-02T16:27:06.593-0600"
],
"FTBFConfig_v136" : [
"2018-02-02T16:29:27.943-0600"
],
"FTBFConfig_v137" : [
"2018-02-02T16:31:38.450-0600"
],
"FTBFConfig_v138" : [
"2018-02-02T16:34:11.176-0600"
],
"FTBFConfig_v139" : [
"2018-02-02T17:39:27.225-0600"
],
"FTBFConfig_v140" : [
"2018-02-02T17:42:49.396-0600"
],
"FTBFConfig_v141" : [
"2018-02-02T17:47:34.560-0600"
],
"FTBFConfig_v142" : [
"2018-02-02T17:53:58.542-0600"
]
}
}