{
"ouid" : [
"20252f4e0db44b4383880dcd",
"2ee0bba9351e41c3a855bf33",
"4865dbae867b46a0bcd3c301",
"7b74707480704fbba62952c7",
"900d4f4e6fa64c88a32c334f",
"cbf4e5db3d114c09a2a8d3c1"
],
"version" : {
"0" : [
"2ee0bba9351e41c3a855bf33"
],
"1" : [
"4865dbae867b46a0bcd3c301"
],
"2" : [
"20252f4e0db44b4383880dcd"
],
"3" : [
"900d4f4e6fa64c88a32c334f"
],
"4" : [
"7b74707480704fbba62952c7"
],
"5" : [
"cbf4e5db3d114c09a2a8d3c1"
]
},
"configurations.name" : {
"notprovided" : [
"20252f4e0db44b4383880dcd",
"2ee0bba9351e41c3a855bf33",
"4865dbae867b46a0bcd3c301",
"7b74707480704fbba62952c7",
"900d4f4e6fa64c88a32c334f",
"cbf4e5db3d114c09a2a8d3c1"
],
"FTBFConfig_v0" : [
"2ee0bba9351e41c3a855bf33"
],
"FTBFConfig_v1" : [
"2ee0bba9351e41c3a855bf33"
],
"FTBFConfig_v2" : [
"4865dbae867b46a0bcd3c301"
],
"FTBFConfig_v3" : [
"4865dbae867b46a0bcd3c301"
],
"FTBFConfig_v4" : [
"4865dbae867b46a0bcd3c301"
],
"FTBFConfig_v5" : [
"4865dbae867b46a0bcd3c301"
],
"FTBFConfig_v6" : [
"4865dbae867b46a0bcd3c301"
],
"FTBFConfig_v7" : [
"4865dbae867b46a0bcd3c301"
],
"FTBFConfig_v8" : [
"4865dbae867b46a0bcd3c301"
],
"FTBFConfig_v9" : [
"4865dbae867b46a0bcd3c301"
],
"FTBFConfig_v10" : [
"4865dbae867b46a0bcd3c301"
],
"FTBFConfig_v11" : [
"4865dbae867b46a0bcd3c301"
],
"FTBFConfig_v12" : [
"4865dbae867b46a0bcd3c301"
],
"FTBFConfig_v13" : [
"4865dbae867b46a0bcd3c301"
],
"FTBFConfig_v14" : [
"4865dbae867b46a0bcd3c301"
],
"FTBFConfig_v15" : [
"4865dbae867b46a0bcd3c301"
],
"FTBFConfig_v16" : [
"4865dbae867b46a0bcd3c301"
],
"FTBFConfig_v17" : [
"4865dbae867b46a0bcd3c301"
],
"FTBFConfig_v18" : [
"4865dbae867b46a0bcd3c301"
],
"FTBFConfig_v19" : [
"4865dbae867b46a0bcd3c301"
],
"FTBFConfig_v20" : [
"4865dbae867b46a0bcd3c301"
],
"FTBFConfig_v21" : [
"4865dbae867b46a0bcd3c301"
],
"FTBFConfig_v22" : [
"4865dbae867b46a0bcd3c301"
],
"FTBFConfig_v23" : [
"4865dbae867b46a0bcd3c301"
],
"FTBFConfig_v24" : [
"4865dbae867b46a0bcd3c301"
],
"FTBFConfig_v25" : [
"4865dbae867b46a0bcd3c301"
],
"FTBFConfig_v26" : [
"4865dbae867b46a0bcd3c301"
],
"FTBFConfig_v27" : [
"4865dbae867b46a0bcd3c301"
],
"FTBFConfig_v28" : [
"4865dbae867b46a0bcd3c301"
],
"FTBFConfig_v29" : [
"20252f4e0db44b4383880dcd"
],
"FTBFConfig_v30" : [
"20252f4e0db44b4383880dcd"
],
"FTBFConfig_v31" : [
"20252f4e0db44b4383880dcd"
],
"FTBFConfig_v32" : [
"20252f4e0db44b4383880dcd"
],
"FTBFConfig_v33" : [
"20252f4e0db44b4383880dcd"
],
"FTBFConfig_v34" : [
"20252f4e0db44b4383880dcd"
],
"FTBFConfig_v35" : [
"20252f4e0db44b4383880dcd"
],
"FTBFConfig_v36" : [
"20252f4e0db44b4383880dcd"
],
"FTBFConfig_v37" : [
"20252f4e0db44b4383880dcd"
],
"FTBFConfig_v38" : [
"20252f4e0db44b4383880dcd"
],
"FTBFConfig_v39" : [
"20252f4e0db44b4383880dcd"
],
"FTBFConfig_v40" : [
"20252f4e0db44b4383880dcd"
],
"FTBFConfig_v41" : [
"20252f4e0db44b4383880dcd"
],
"FTBFConfig_v42" : [
"20252f4e0db44b4383880dcd"
],
"FTBFConfig_v43" : [
"20252f4e0db44b4383880dcd"
],
"FTBFConfig_v44" : [
"20252f4e0db44b4383880dcd"
],
"FTBFConfig_v45" : [
"20252f4e0db44b4383880dcd"
],
"FTBFConfig_v46" : [
"20252f4e0db44b4383880dcd"
],
"FTBFConfig_v47" : [
"20252f4e0db44b4383880dcd"
],
"FTBFConfig_v48" : [
"20252f4e0db44b4383880dcd"
],
"FTBFConfig_v49" : [
"20252f4e0db44b4383880dcd"
],
"FTBFConfig_v52" : [
"20252f4e0db44b4383880dcd"
],
"FTBFConfig_v53" : [
"20252f4e0db44b4383880dcd"
],
"FTBFConfig_v54" : [
"20252f4e0db44b4383880dcd"
],
"FTBFConfig_v55" : [
"20252f4e0db44b4383880dcd"
],
"FTBFConfig_v56" : [
"20252f4e0db44b4383880dcd"
],
"FTBFConfig_v57" : [
"20252f4e0db44b4383880dcd"
],
"FTBFConfig_v58" : [
"20252f4e0db44b4383880dcd"
],
"FTBFConfig_v59" : [
"20252f4e0db44b4383880dcd"
],
"FTBFConfig_v60" : [
"20252f4e0db44b4383880dcd"
],
"FTBFConfig_v61" : [
"20252f4e0db44b4383880dcd"
],
"FTBFConfig_v62" : [
"20252f4e0db44b4383880dcd"
],
"FTBFConfig_v63" : [
"20252f4e0db44b4383880dcd"
],
"FTBFConfig_v64" : [
"20252f4e0db44b4383880dcd"
],
"FTBFConfig_v65" : [
"20252f4e0db44b4383880dcd"
],
"FTBFConfig_v66" : [
"20252f4e0db44b4383880dcd"
],
"FTBFConfig_v67" : [
"20252f4e0db44b4383880dcd"
],
"FTBFConfig_v68" : [
"20252f4e0db44b4383880dcd"
],
"FTBFConfig_v69" : [
"20252f4e0db44b4383880dcd"
],
"FTBFConfig_v70" : [
"20252f4e0db44b4383880dcd"
],
"FTBFConfigNim_v0" : [
"20252f4e0db44b4383880dcd"
],
"FTBFConfigNim_v1" : [
"20252f4e0db44b4383880dcd"
],
"FTBFConfigNim_v2" : [
"20252f4e0db44b4383880dcd"
],
"FTBFConfigNim_v3" : [
"20252f4e0db44b4383880dcd"
],
"FTBFConfigNim_v4" : [
"20252f4e0db44b4383880dcd"
],
"FTBFConfigNim_v5" : [
"20252f4e0db44b4383880dcd"
],
"FTBFConfigNim_v6" : [
"20252f4e0db44b4383880dcd"
],
"FTBFConfigNim_v7" : [
"20252f4e0db44b4383880dcd"
],
"FTBFConfigNim_v8" : [
"20252f4e0db44b4383880dcd"
],
"FTBFConfigNim_v9" : [
"20252f4e0db44b4383880dcd"
],
"FTBFConfigNim_v10" : [
"20252f4e0db44b4383880dcd"
],
"FTBFConfigNim_v11" : [
"20252f4e0db44b4383880dcd"
],
"FTBFConfigNim_v12" : [
"20252f4e0db44b4383880dcd"
],
"FTBFConfigNim_v13" : [
"20252f4e0db44b4383880dcd"
],
"FTBFConfigNim_v14" : [
"20252f4e0db44b4383880dcd"
],
"FTBFConfigNim_v15" : [
"20252f4e0db44b4383880dcd"
],
"FTBFConfigNim_v16" : [
"20252f4e0db44b4383880dcd"
],
"FTBFConfigNim_v17" : [
"20252f4e0db44b4383880dcd"
],
"FTBFConfigNim_v18" : [
"20252f4e0db44b4383880dcd"
],
"FTBFConfigNim_v19" : [
"20252f4e0db44b4383880dcd"
],
"FTBFConfigNim_v20" : [
"20252f4e0db44b4383880dcd"
],
"FTBFConfigNim_v21" : [
"20252f4e0db44b4383880dcd"
],
"FTBFConfigNim_v22" : [
"20252f4e0db44b4383880dcd"
],
"FTBFConfigNim_v23" : [
"20252f4e0db44b4383880dcd"
],
"FTBFConfigNim_v24" : [
"20252f4e0db44b4383880dcd"
],
"FTBFConfigNim_v25" : [
"20252f4e0db44b4383880dcd"
],
"FTBFConfigNim_v26" : [
"20252f4e0db44b4383880dcd"
],
"FTBFConfigNim_v27" : [
"20252f4e0db44b4383880dcd"
],
"FTBFConfigNim_v28" : [
"20252f4e0db44b4383880dcd"
],
"FTBFConfigNim_v29" : [
"20252f4e0db44b4383880dcd"
],
"FTBFConfig_v71" : [
"20252f4e0db44b4383880dcd"
],
"FTBFConfig_v72" : [
"20252f4e0db44b4383880dcd"
],
"FTBFConfig_v73" : [
"20252f4e0db44b4383880dcd"
],
"FTBFConfig_v74" : [
"20252f4e0db44b4383880dcd"
],
"FTBFConfig_v75" : [
"20252f4e0db44b4383880dcd"
],
"FTBFConfig_v76" : [
"7b74707480704fbba62952c7"
],
"FTBFConfig_v77" : [
"cbf4e5db3d114c09a2a8d3c1"
],
"FTBFConfig_v78" : [
"cbf4e5db3d114c09a2a8d3c1"
],
"FTBFConfig_v79" : [
"cbf4e5db3d114c09a2a8d3c1"
],
"FTBFConfig_v80" : [
"cbf4e5db3d114c09a2a8d3c1"
],
"FTBFConfig_v81" : [
"cbf4e5db3d114c09a2a8d3c1"
],
"FTBFConfig_v82" : [
"cbf4e5db3d114c09a2a8d3c1"
],
"FTBFConfig_v83" : [
"cbf4e5db3d114c09a2a8d3c1"
],
"FTBFConfig_v84" : [
"cbf4e5db3d114c09a2a8d3c1"
],
"FTBFConfig_v85" : [
"cbf4e5db3d114c09a2a8d3c1"
],
"FTBFConfig_v86" : [
"cbf4e5db3d114c09a2a8d3c1"
],
"FTBFConfig_v87" : [
"cbf4e5db3d114c09a2a8d3c1"
],
"FTBFConfig_v88" : [
"cbf4e5db3d114c09a2a8d3c1"
],
"FTBFConfig_v89" : [
"cbf4e5db3d114c09a2a8d3c1"
],
"FTBFConfig_v90" : [
"cbf4e5db3d114c09a2a8d3c1"
],
"FTBFConfig_v91" : [
"cbf4e5db3d114c09a2a8d3c1"
],
"FTBFConfig_v92" : [
"cbf4e5db3d114c09a2a8d3c1"
],
"FTBFConfig_v93" : [
"cbf4e5db3d114c09a2a8d3c1"
],
"FTBFConfig_v94" : [
"cbf4e5db3d114c09a2a8d3c1"
],
"FTBFConfig_v95" : [
"cbf4e5db3d114c09a2a8d3c1"
],
"FTBFConfig_v96" : [
"cbf4e5db3d114c09a2a8d3c1"
],
"FTBFConfig_v97" : [
"cbf4e5db3d114c09a2a8d3c1"
],
"FTBFConfig_v98" : [
"cbf4e5db3d114c09a2a8d3c1"
],
"FTBFConfig_v99" : [
"cbf4e5db3d114c09a2a8d3c1"
],
"FTBFConfig_v100" : [
"cbf4e5db3d114c09a2a8d3c1"
],
"FTBFConfig_v101" : [
"cbf4e5db3d114c09a2a8d3c1"
],
"FTBFConfig_v102" : [
"cbf4e5db3d114c09a2a8d3c1"
],
"FTBFConfig_v103" : [
"cbf4e5db3d114c09a2a8d3c1"
],
"FTBFConfig_v104" : [
"cbf4e5db3d114c09a2a8d3c1"
],
"FTBFConfig_v105" : [
"cbf4e5db3d114c09a2a8d3c1"
],
"FTBFConfig_v106" : [
"cbf4e5db3d114c09a2a8d3c1"
],
"FTBFConfig_v107" : [
"cbf4e5db3d114c09a2a8d3c1"
],
"FTBFConfig_v108" : [
"cbf4e5db3d114c09a2a8d3c1"
],
"FTBFConfig_v109" : [
"cbf4e5db3d114c09a2a8d3c1"
],
"FTBFConfig_v110" : [
"cbf4e5db3d114c09a2a8d3c1"
],
"FTBFConfig_v111" : [
"cbf4e5db3d114c09a2a8d3c1"
],
"FTBFConfig_v112" : [
"cbf4e5db3d114c09a2a8d3c1"
],
"FTBFConfig_v113" : [
"cbf4e5db3d114c09a2a8d3c1"
],
"FTBFConfig_v114" : [
"cbf4e5db3d114c09a2a8d3c1"
],
"FTBFConfig_v115" : [
"cbf4e5db3d114c09a2a8d3c1"
],
"FTBFConfig_v116" : [
"cbf4e5db3d114c09a2a8d3c1"
],
"FTBFConfig_v117" : [
"cbf4e5db3d114c09a2a8d3c1"
],
"FTBFConfig_v118" : [
"cbf4e5db3d114c09a2a8d3c1"
],
"FTBFConfig_v119" : [
"cbf4e5db3d114c09a2a8d3c1"
],
"FTBFConfig_v120" : [
"cbf4e5db3d114c09a2a8d3c1"
],
"FTBFConfig_v121" : [
"cbf4e5db3d114c09a2a8d3c1"
],
"FTBFConfig_v122" : [
"cbf4e5db3d114c09a2a8d3c1"
],
"FTBFConfig_v123" : [
"cbf4e5db3d114c09a2a8d3c1"
],
"FTBFConfig_v124" : [
"cbf4e5db3d114c09a2a8d3c1"
],
"FTBFConfig_v125" : [
"cbf4e5db3d114c09a2a8d3c1"
],
"FTBFConfig_v126" : [
"cbf4e5db3d114c09a2a8d3c1"
],
"FTBFConfig_v127" : [
"cbf4e5db3d114c09a2a8d3c1"
],
"FTBFConfig_v128" : [
"cbf4e5db3d114c09a2a8d3c1"
],
"FTBFConfig_v129" : [
"cbf4e5db3d114c09a2a8d3c1"
],
"FTBFConfig_v130" : [
"cbf4e5db3d114c09a2a8d3c1"
],
"FTBFConfig_v131" : [
"cbf4e5db3d114c09a2a8d3c1"
],
"FTBFConfig_v132" : [
"cbf4e5db3d114c09a2a8d3c1"
],
"FTBFConfig_v133" : [
"cbf4e5db3d114c09a2a8d3c1"
],
"FTBFConfig_v134" : [
"cbf4e5db3d114c09a2a8d3c1"
],
"FTBFConfig_v135" : [
"cbf4e5db3d114c09a2a8d3c1"
],
"FTBFConfig_v136" : [
"cbf4e5db3d114c09a2a8d3c1"
],
"FTBFConfig_v137" : [
"cbf4e5db3d114c09a2a8d3c1"
],
"FTBFConfig_v138" : [
"cbf4e5db3d114c09a2a8d3c1"
],
"FTBFConfig_v139" : [
"cbf4e5db3d114c09a2a8d3c1"
],
"FTBFConfig_v140" : [
"cbf4e5db3d114c09a2a8d3c1"
],
"FTBFConfig_v141" : [
"cbf4e5db3d114c09a2a8d3c1"
],
"FTBFConfig_v142" : [
"cbf4e5db3d114c09a2a8d3c1"
]
},
"entities.name" : {
"OTSROOT" : [
"20252f4e0db44b4383880dcd",
"2ee0bba9351e41c3a855bf33",
"4865dbae867b46a0bcd3c301",
"7b74707480704fbba62952c7",
"900d4f4e6fa64c88a32c334f",
"cbf4e5db3d114c09a2a8d3c1"
]
},
"aliases.active.name" : {

},
"runs.name" : {

},
"configurations.assigned" : {
"notprovided" : [
"2017-11-08T15:56:03.618-0600",
"2017-11-09T10:05:57.065-0600",
"2017-11-20T14:48:21.219-0600",
"2017-12-02T18:59:21.468-0600",
"2017-12-02T19:04:33.529-0600",
"2017-12-02T19:12:00.659-0600"
],
"FTBFConfig_v0" : [
"2017-11-08T15:56:06.452-0600"
],
"FTBFConfig_v1" : [
"2017-11-09T09:56:31.220-0600"
],
"FTBFConfig_v2" : [
"2017-11-09T10:06:00.202-0600"
],
"FTBFConfig_v3" : [
"2017-11-09T10:37:11.759-0600"
],
"FTBFConfig_v4" : [
"2017-11-15T11:30:10.582-0600"
],
"FTBFConfig_v5" : [
"2017-11-15T11:54:57.410-0600"
],
"FTBFConfig_v6" : [
"2017-11-15T11:57:50.043-0600"
],
"FTBFConfig_v7" : [
"2017-11-15T12:42:32.497-0600"
],
"FTBFConfig_v8" : [
"2017-11-15T13:01:03.525-0600"
],
"FTBFConfig_v9" : [
"2017-11-15T13:02:56.867-0600"
],
"FTBFConfig_v10" : [
"2017-11-15T13:04:24.445-0600"
],
"FTBFConfig_v11" : [
"2017-11-15T13:07:51.955-0600"
],
"FTBFConfig_v12" : [
"2017-11-15T13:11:59.416-0600"
],
"FTBFConfig_v13" : [
"2017-11-15T13:13:53.367-0600"
],
"FTBFConfig_v14" : [
"2017-11-15T13:27:30.741-0600"
],
"FTBFConfig_v15" : [
"2017-11-15T13:35:47.372-0600"
],
"FTBFConfig_v16" : [
"2017-11-15T13:36:51.986-0600"
],
"FTBFConfig_v17" : [
"2017-11-15T15:33:30.532-0600"
],
"FTBFConfig_v18" : [
"2017-11-15T15:35:34.154-0600"
],
"FTBFConfig_v19" : [
"2017-11-15T15:38:03.011-0600"
],
"FTBFConfig_v20" : [
"2017-11-15T16:26:30.953-0600"
],
"FTBFConfig_v21" : [
"2017-11-16T09:22:31.817-0600"
],
"FTBFConfig_v22" : [
"2017-11-17T10:23:28.043-0600"
],
"FTBFConfig_v23" : [
"2017-11-17T17:26:45.609-0600"
],
"FTBFConfig_v24" : [
"2017-11-17T17:58:26.130-0600"
],
"FTBFConfig_v25" : [
"2017-11-17T18:24:45.799-0600"
],
"FTBFConfig_v26" : [
"2017-11-17T18:32:23.446-0600"
],
"FTBFConfig_v27" : [
"2017-11-17T18:43:30.580-0600"
],
"FTBFConfig_v28" : [
"2017-11-17T18:48:32.630-0600"
],
"FTBFConfig_v29" : [
"2017-11-20T14:48:31.249-0600"
],
"FTBFConfig_v30" : [
"2017-11-20T15:39:56.335-0600"
],
"FTBFConfig_v31" : [
"2017-11-20T16:41:02.359-0600"
],
"FTBFConfig_v32" : [
"2017-11-20T18:55:35.285-0600"
],
"FTBFConfig_v33" : [
"2017-11-20T18:57:30.567-0600"
],
"FTBFConfig_v34" : [
"2017-11-29T17:50:40.056-0600"
],
"FTBFConfig_v35" : [
"2017-11-29T18:00:33.017-0600"
],
"FTBFConfig_v36" : [
"2017-11-29T18:35:11.727-0600"
],
"FTBFConfig_v37" : [
"2017-12-01T09:36:18.307-0600"
],
"FTBFConfig_v38" : [
"2017-12-01T09:52:01.458-0600"
],
"FTBFConfig_v39" : [
"2017-12-01T11:51:58.724-0600"
],
"FTBFConfig_v40" : [
"2017-12-01T12:18:20.770-0600"
],
"FTBFConfig_v41" : [
"2017-12-01T12:21:02.818-0600"
],
"FTBFConfig_v42" : [
"2017-12-01T12:43:22.165-0600"
],
"FTBFConfig_v43" : [
"2017-12-01T12:58:00.073-0600"
],
"FTBFConfig_v44" : [
"2017-12-01T13:00:52.568-0600"
],
"FTBFConfig_v45" : [
"2017-12-01T13:25:49.176-0600"
],
"FTBFConfig_v46" : [
"2017-12-01T13:35:43.908-0600"
],
"FTBFConfig_v47" : [
"2017-12-01T14:00:52.230-0600"
],
"FTBFConfig_v48" : [
"2017-12-01T14:03:59.578-0600"
],
"FTBFConfig_v49" : [
"2017-12-01T15:31:59.733-0600"
],
"FTBFConfig_v52" : [
"2017-12-01T15:37:32.117-0600"
],
"FTBFConfig_v53" : [
"2017-12-01T15:40:59.248-0600"
],
"FTBFConfig_v54" : [
"2017-12-01T15:52:49.566-0600"
],
"FTBFConfig_v55" : [
"2017-12-01T15:54:34.732-0600"
],
"FTBFConfig_v56" : [
"2017-12-01T15:55:34.297-0600"
],
"FTBFConfig_v57" : [
"2017-12-01T15:56:40.133-0600"
],
"FTBFConfig_v58" : [
"2017-12-01T15:57:38.187-0600"
],
"FTBFConfig_v59" : [
"2017-12-01T15:58:30.105-0600"
],
"FTBFConfig_v60" : [
"2017-12-01T15:59:31.314-0600"
],
"FTBFConfig_v61" : [
"2017-12-01T16:19:41.144-0600"
],
"FTBFConfig_v62" : [
"2017-12-01T16:22:03.630-0600"
],
"FTBFConfig_v63" : [
"2017-12-01T16:31:24.258-0600"
],
"FTBFConfig_v64" : [
"2017-12-01T17:06:31.482-0600"
],
"FTBFConfig_v65" : [
"2017-12-01T17:32:43.611-0600"
],
"FTBFConfig_v66" : [
"2017-12-01T20:38:50.118-0600"
],
"FTBFConfig_v67" : [
"2017-12-01T21:25:01.467-0600"
],
"FTBFConfig_v68" : [
"2017-12-01T21:43:01.152-0600"
],
"FTBFConfig_v69" : [
"2017-12-01T21:44:59.750-0600"
],
"FTBFConfig_v70" : [
"2017-12-01T21:59:19.013-0600"
],
"FTBFConfigNim_v0" : [
"2017-12-01T22:00:05.750-0600"
],
"FTBFConfigNim_v1" : [
"2017-12-01T22:13:07.517-0600"
],
"FTBFConfigNim_v2" : [
"2017-12-01T22:15:54.764-0600"
],
"FTBFConfigNim_v3" : [
"2017-12-01T22:17:03.202-0600"
],
"FTBFConfigNim_v4" : [
"2017-12-01T22:19:05.840-0600"
],
"FTBFConfigNim_v5" : [
"2017-12-01T22:21:56.594-0600"
],
"FTBFConfigNim_v6" : [
"2017-12-01T22:23:12.945-0600"
],
"FTBFConfigNim_v7" : [
"2017-12-01T22:25:16.576-0600"
],
"FTBFConfigNim_v8" : [
"2017-12-01T22:27:04.258-0600"
],
"FTBFConfigNim_v9" : [
"2017-12-01T22:29:28.381-0600"
],
"FTBFConfigNim_v10" : [
"2017-12-01T22:52:33.675-0600"
],
"FTBFConfigNim_v11" : [
"2017-12-01T22:57:28.378-0600"
],
"FTBFConfigNim_v12" : [
"2017-12-01T23:00:06.572-0600"
],
"FTBFConfigNim_v13" : [
"2017-12-01T23:52:34.706-0600"
],
"FTBFConfigNim_v14" : [
"2017-12-01T23:58:09.164-0600"
],
"FTBFConfigNim_v15" : [
"2017-12-02T00:00:33.388-0600"
],
"FTBFConfigNim_v16" : [
"2017-12-02T00:13:08.550-0600"
],
"FTBFConfigNim_v17" : [
"2017-12-02T00:28:27.509-0600"
],
"FTBFConfigNim_v18" : [
"2017-12-02T00:29:33.570-0600"
],
"FTBFConfigNim_v19" : [
"2017-12-02T00:31:12.094-0600"
],
"FTBFConfigNim_v20" : [
"2017-12-02T00:57:26.602-0600"
],
"FTBFConfigNim_v21" : [
"2017-12-02T10:58:01.148-0600"
],
"FTBFConfigNim_v22" : [
"2017-12-02T11:08:17.353-0600"
],
"FTBFConfigNim_v23" : [
"2017-12-02T11:12:38.911-0600"
],
"FTBFConfigNim_v24" : [
"2017-12-02T11:18:41.826-0600"
],
"FTBFConfigNim_v25" : [
"2017-12-02T11:27:05.006-0600"
],
"FTBFConfigNim_v26" : [
"2017-12-02T11:38:36.055-0600"
],
"FTBFConfigNim_v27" : [
"2017-12-02T11:49:07.250-0600"
],
"FTBFConfigNim_v28" : [
"2017-12-02T11:55:08.726-0600"
],
"FTBFConfigNim_v29" : [
"2017-12-02T12:06:25.548-0600"
],
"FTBFConfig_v71" : [
"2017-12-02T12:24:14.204-0600"
],
"FTBFConfig_v72" : [
"2017-12-02T12:43:35.063-0600"
],
"FTBFConfig_v73" : [
"2017-12-02T13:55:34.731-0600"
],
"FTBFConfig_v74" : [
"2017-12-02T14:09:07.115-0600"
],
"FTBFConfig_v75" : [
"2017-12-02T14:12:17.867-0600"
],
"FTBFConfig_v76" : [
"2017-12-02T19:05:52.939-0600"
],
"FTBFConfig_v77" : [
"2017-12-02T19:12:12.809-0600"
],
"FTBFConfig_v78" : [
"2017-12-03T14:03:47.954-0600"
],
"FTBFConfig_v79" : [
"2017-12-03T14:09:06.212-0600"
],
"FTBFConfig_v80" : [
"2017-12-03T14:11:09.950-0600"
],
"FTBFConfig_v81" : [
"2017-12-03T14:22:32.996-0600"
],
"FTBFConfig_v82" : [
"2017-12-03T14:40:37.783-0600"
],
"FTBFConfig_v83" : [
"2017-12-03T14:45:05.153-0600"
],
"FTBFConfig_v84" : [
"2017-12-04T14:51:30.479-0600"
],
"FTBFConfig_v85" : [
"2017-12-04T14:55:43.655-0600"
],
"FTBFConfig_v86" : [
"2017-12-04T16:51:06.690-0600"
],
"FTBFConfig_v87" : [
"2017-12-04T16:56:47.329-0600"
],
"FTBFConfig_v88" : [
"2017-12-04T17:01:12.061-0600"
],
"FTBFConfig_v89" : [
"2017-12-04T17:03:57.173-0600"
],
"FTBFConfig_v90" : [
"2017-12-04T17:07:16.811-0600"
],
"FTBFConfig_v91" : [
"2017-12-04T17:09:25.935-0600"
],
"FTBFConfig_v92" : [
"2017-12-04T17:11:38.435-0600"
],
"FTBFConfig_v93" : [
"2017-12-04T21:05:21.008-0600"
],
"FTBFConfig_v94" : [
"2017-12-04T21:17:11.961-0600"
],
"FTBFConfig_v95" : [
"2017-12-04T21:41:17.621-0600"
],
"FTBFConfig_v96" : [
"2017-12-04T22:39:02.270-0600"
],
"FTBFConfig_v97" : [
"2017-12-04T23:01:12.772-0600"
],
"FTBFConfig_v98" : [
"2017-12-07T11:07:46.782-0600"
],
"FTBFConfig_v99" : [
"2017-12-07T11:49:59.459-0600"
],
"FTBFConfig_v100" : [
"2017-12-07T11:58:26.195-0600"
],
"FTBFConfig_v101" : [
"2017-12-08T13:30:48.365-0600"
],
"FTBFConfig_v102" : [
"2017-12-08T13:32:35.229-0600"
],
"FTBFConfig_v103" : [
"2017-12-12T11:03:05.042-0600"
],
"FTBFConfig_v104" : [
"2017-12-12T13:50:59.499-0600"
],
"FTBFConfig_v105" : [
"2017-12-12T15:25:05.499-0600"
],
"FTBFConfig_v106" : [
"2017-12-13T10:24:23.843-0600"
],
"FTBFConfig_v107" : [
"2017-12-13T10:27:02.582-0600"
],
"FTBFConfig_v108" : [
"2018-02-01T21:14:26.154-0600"
],
"FTBFConfig_v109" : [
"2018-02-01T21:21:03.289-0600"
],
"FTBFConfig_v110" : [
"2018-02-02T11:25:34.251-0600"
],
"FTBFConfig_v111" : [
"2018-02-02T11:37:13.074-0600"
],
"FTBFConfig_v112" : [
"2018-02-02T11:47:15.584-0600"
],
"FTBFConfig_v113" : [
"2018-02-02T11:53:36.834-0600"
],
"FTBFConfig_v114" : [
"2018-02-02T12:00:52.945-0600"
],
"FTBFConfig_v115" : [
"2018-02-02T12:27:14.411-0600"
],
"FTBFConfig_v116" : [
"2018-02-02T14:28:53.937-0600"
],
"FTBFConfig_v117" : [
"2018-02-02T14:30:20.279-0600"
],
"FTBFConfig_v118" : [
"2018-02-02T14:34:01.546-0600"
],
"FTBFConfig_v119" : [
"2018-02-02T14:36:28.142-0600"
],
"FTBFConfig_v120" : [
"2018-02-02T14:38:41.504-0600"
],
"FTBFConfig_v121" : [
"2018-02-02T14:41:50.799-0600"
],
"FTBFConfig_v122" : [
"2018-02-02T14:50:24.882-0600"
],
"FTBFConfig_v123" : [
"2018-02-02T14:52:57.752-0600"
],
"FTBFConfig_v124" : [
"2018-02-02T14:59:51.059-0600"
],
"FTBFConfig_v125" : [
"2018-02-02T15:04:09.175-0600"
],
"FTBFConfig_v126" : [
"2018-02-02T15:50:12.393-0600"
],
"FTBFConfig_v127" : [
"2018-02-02T15:51:31.878-0600"
],
"FTBFConfig_v128" : [
"2018-02-02T15:52:37.035-0600"
],
"FTBFConfig_v129" : [
"2018-02-02T16:02:45.951-0600"
],
"FTBFConfig_v130" : [
"2018-02-02T16:08:45.482-0600"
],
"FTBFConfig_v131" : [
"2018-02-02T16:11:31.338-0600"
],
"FTBFConfig_v132" : [
"2018-02-02T16:12:59.202-0600"
],
"FTBFConfig_v133" : [
"2018-02-02T16:14:29.790-0600"
],
"FTBFConfig_v134" : [
"2018-02-02T16:26:22.713-0600"
],
"FTBFConfig_v135" : [
"2018-02-02T16:27:09.814-0600"
],
"FTBFConfig_v136" : [
"2018-02-02T16:29:31.174-0600"
],
"FTBFConfig_v137" : [
"2018-02-02T16:31:41.781-0600"
],
"FTBFConfig_v138" : [
"2018-02-02T16:34:14.460-0600"
],
"FTBFConfig_v139" : [
"2018-02-02T17:39:30.504-0600"
],
"FTBFConfig_v140" : [
"2018-02-02T17:42:52.684-0600"
],
"FTBFConfig_v141" : [
"2018-02-02T17:47:37.872-0600"
],
"FTBFConfig_v142" : [
"2018-02-02T17:54:01.895-0600"
]
}
}