{
"document" : {
"data" : {
"NAME" : "ARTDAQ_AGGREGATOR_CONFIGURATION",
"COMMENT" : "Empty table.",
"AUTHOR" : "admin",
"CREATION_TIME" : 1504872434,
"COL_TYPES" : {
"SUPERVISOR_UID" : "VARCHAR2",
"STATUS" : "VARCHAR2",
"CONFIGURATION_STRING" : "VARCHAR2",
"SERVICES_LINK" : "VARCHAR2",
"SERVICES_LINK_UID" : "VARCHAR2",
"DAQ_LINK" : "VARCHAR2",
"DAQ_LINK_UID" : "VARCHAR2",
"OUTPUTS_LINK" : "VARCHAR2",
"OUTPUTS_LINK_UID" : "VARCHAR2",
"PHYSICS_LINK" : "VARCHAR2",
"PHYSICS_LINK_UID" : "VARCHAR2",
"SOURCE_LINK" : "VARCHAR2",
"SOURCE_LINK_UID" : "VARCHAR2",
"ARTDAQ_GLOBAL_CONFIGURATION_FOR_PROCESS_NAME_LINK" : "VARCHAR2",
"ARTDAQ_GLOBAL_CONFIGURATION_FOR_PROCESS_NAME_LINK_UID" : "VARCHAR2",
"COMMENT_DESCRIPTION" : "VARCHAR2",
"AUTHOR" : "VARCHAR2",
"RECORD_INSERTION_TIME" : "TIMESTAMP WITH TIMEZONE"
},
"DATA_SET" : [
{
"SUPERVISOR_UID" : "aggregator0",
"STATUS" : "On",
"CONFIGURATION_STRING" : "DEFAULT",
"SERVICES_LINK" : "ARTDAQAggregatorServicesConfiguration",
"SERVICES_LINK_UID" : "aggregator0services0",
"DAQ_LINK" : "ARTDAQAggregatorDaqConfiguration",
"DAQ_LINK_UID" : "aggregator0daq0",
"OUTPUTS_LINK" : "ARTDAQOutputConfiguration",
"OUTPUTS_LINK_UID" : "aggregator0outputs",
"PHYSICS_LINK" : "ARTDAQPhysicsConfiguration",
"PHYSICS_LINK_UID" : "aggregator0physics0",
"SOURCE_LINK" : "ARTDAQAggregatorSourceConfiguration",
"SOURCE_LINK_UID" : "aggregator0source0",
"ARTDAQ_GLOBAL_CONFIGURATION_FOR_PROCESS_NAME_LINK" : "ARTDAQGlobalConfiguration",
"ARTDAQ_GLOBAL_CONFIGURATION_FOR_PROCESS_NAME_LINK_UID" : "artdaq0",
"COMMENT_DESCRIPTION" : "No Comment",
"AUTHOR" : "DEFAULT",
"RECORD_INSERTION_TIME" : "0"
}
]
},
"metadata" : {

},
"search" : [

]
},
"comments" : [

],
"origin" : {
"source" : "template",
"name" : "notprovided",
"format" : "json",
"created" : "2017-11-08T15:56:02.141-0600",
"rawdata" : [

]
},
"version" : "0",
"entities" : [
{
"name" : "OTSROOT",
"assigned" : "2017-11-08T15:56:02.143-0600"
}
],
"configurations" : [
{
"name" : "notprovided",
"assigned" : "2017-11-08T15:56:02.142-0600"
},
{
"name" : "FTBFConfig_v0",
"assigned" : "2017-11-08T15:56:04.691-0600"
},
{
"name" : "FTBFConfig_v1",
"assigned" : "2017-11-09T09:56:29.031-0600"
},
{
"name" : "FTBFConfig_v2",
"assigned" : "2017-11-09T10:05:57.976-0600"
},
{
"name" : "FTBFConfig_v3",
"assigned" : "2017-11-09T10:37:09.526-0600"
},
{
"name" : "FTBFConfig_v4",
"assigned" : "2017-11-15T11:30:08.241-0600"
},
{
"name" : "FTBFConfig_v5",
"assigned" : "2017-11-15T11:54:54.988-0600"
},
{
"name" : "FTBFConfig_v6",
"assigned" : "2017-11-15T11:57:47.569-0600"
},
{
"name" : "FTBFConfig_v7",
"assigned" : "2017-11-15T12:42:30.001-0600"
}
],
"changelog" : "notprovided",
"bookkeeping" : {
"isdeleted" : false,
"isreadonly" : false,
"updates" : [
{
"event" : "addConfiguration",
"timestamp" : "2017-11-08T15:56:02.142-0600",
"value" : {
"name" : "notprovided",
"assigned" : "2017-11-08T15:56:02.142-0600"
}
},
{
"event" : "setVersion",
"timestamp" : "2017-11-08T15:56:02.142-0600",
"value" : {
"name" : "0",
"assigned" : "2017-11-08T15:56:02.142-0600"
}
},
{
"event" : "setCollection",
"timestamp" : "2017-11-08T15:56:02.142-0600",
"value" : {
"name" : "ARTDAQAggregatorConfiguration",
"assigned" : "2017-11-08T15:56:02.142-0600"
}
},
{
"event" : "addEntity",
"timestamp" : "2017-11-08T15:56:02.143-0600",
"value" : {
"name" : "OTSROOT",
"assigned" : "2017-11-08T15:56:02.143-0600"
}
},
{
"event" : "addConfiguration",
"timestamp" : "2017-11-08T15:56:04.691-0600",
"value" : {
"name" : "FTBFConfig_v0",
"assigned" : "2017-11-08T15:56:04.691-0600"
}
},
{
"event" : "addConfiguration",
"timestamp" : "2017-11-09T09:56:29.031-0600",
"value" : {
"name" : "FTBFConfig_v1",
"assigned" : "2017-11-09T09:56:29.031-0600"
}
},
{
"event" : "addConfiguration",
"timestamp" : "2017-11-09T10:05:57.976-0600",
"value" : {
"name" : "FTBFConfig_v2",
"assigned" : "2017-11-09T10:05:57.976-0600"
}
},
{
"event" : "addConfiguration",
"timestamp" : "2017-11-09T10:37:09.526-0600",
"value" : {
"name" : "FTBFConfig_v3",
"assigned" : "2017-11-09T10:37:09.526-0600"
}
},
{
"event" : "addConfiguration",
"timestamp" : "2017-11-15T11:30:08.241-0600",
"value" : {
"name" : "FTBFConfig_v4",
"assigned" : "2017-11-15T11:30:08.241-0600"
}
},
{
"event" : "addConfiguration",
"timestamp" : "2017-11-15T11:54:54.988-0600",
"value" : {
"name" : "FTBFConfig_v5",
"assigned" : "2017-11-15T11:54:54.988-0600"
}
},
{
"event" : "addConfiguration",
"timestamp" : "2017-11-15T11:57:47.569-0600",
"value" : {
"name" : "FTBFConfig_v6",
"assigned" : "2017-11-15T11:57:47.569-0600"
}
},
{
"event" : "addConfiguration",
"timestamp" : "2017-11-15T12:42:30.001-0600",
"value" : {
"name" : "FTBFConfig_v7",
"assigned" : "2017-11-15T12:42:30.001-0600"
}
}
],
"created" : "2017-11-08T15:56:02.141-0600"
},
"_id" : {
"$oid" : "51b976b8194b44fba1097abd"
},
"collection" : "ARTDAQAggregatorConfiguration",
"aliases" : {
"active" : [

],
"history" : [

]
},
"runs" : [

],
"attachments" : [

],
"configtype" : "notprovided"
}