{
"ouid" : [
"1b76fa6e49c64293b8e396bb",
"3ccc6ffe0ede407392875ec1",
"51b976b8194b44fba1097abd"
],
"version" : {
"0" : [
"51b976b8194b44fba1097abd"
],
"1" : [
"3ccc6ffe0ede407392875ec1"
],
"2" : [
"1b76fa6e49c64293b8e396bb"
]
},
"configurations.name" : {
"notprovided" : [
"1b76fa6e49c64293b8e396bb",
"3ccc6ffe0ede407392875ec1",
"51b976b8194b44fba1097abd"
],
"FTBFConfig_v0" : [
"51b976b8194b44fba1097abd"
],
"FTBFConfig_v1" : [
"51b976b8194b44fba1097abd"
],
"FTBFConfig_v2" : [
"51b976b8194b44fba1097abd"
],
"FTBFConfig_v3" : [
"51b976b8194b44fba1097abd"
],
"FTBFConfig_v4" : [
"51b976b8194b44fba1097abd"
],
"FTBFConfig_v5" : [
"51b976b8194b44fba1097abd"
],
"FTBFConfig_v6" : [
"51b976b8194b44fba1097abd"
],
"FTBFConfig_v7" : [
"51b976b8194b44fba1097abd"
],
"FTBFConfig_v8" : [
"3ccc6ffe0ede407392875ec1"
],
"FTBFConfig_v9" : [
"1b76fa6e49c64293b8e396bb"
],
"FTBFConfig_v10" : [
"1b76fa6e49c64293b8e396bb"
],
"FTBFConfig_v11" : [
"1b76fa6e49c64293b8e396bb"
],
"FTBFConfig_v12" : [
"1b76fa6e49c64293b8e396bb"
],
"FTBFConfig_v13" : [
"1b76fa6e49c64293b8e396bb"
],
"FTBFConfig_v14" : [
"1b76fa6e49c64293b8e396bb"
],
"FTBFConfig_v15" : [
"1b76fa6e49c64293b8e396bb"
],
"FTBFConfig_v16" : [
"1b76fa6e49c64293b8e396bb"
],
"FTBFConfig_v17" : [
"1b76fa6e49c64293b8e396bb"
],
"FTBFConfig_v18" : [
"1b76fa6e49c64293b8e396bb"
],
"FTBFConfig_v19" : [
"1b76fa6e49c64293b8e396bb"
],
"FTBFConfig_v20" : [
"1b76fa6e49c64293b8e396bb"
],
"FTBFConfig_v21" : [
"1b76fa6e49c64293b8e396bb"
],
"FTBFConfig_v22" : [
"1b76fa6e49c64293b8e396bb"
],
"FTBFConfig_v23" : [
"1b76fa6e49c64293b8e396bb"
],
"FTBFConfig_v24" : [
"1b76fa6e49c64293b8e396bb"
],
"FTBFConfig_v25" : [
"1b76fa6e49c64293b8e396bb"
],
"FTBFConfig_v26" : [
"1b76fa6e49c64293b8e396bb"
],
"FTBFConfig_v27" : [
"1b76fa6e49c64293b8e396bb"
],
"FTBFConfig_v28" : [
"1b76fa6e49c64293b8e396bb"
],
"FTBFConfig_v29" : [
"1b76fa6e49c64293b8e396bb"
],
"FTBFConfig_v30" : [
"1b76fa6e49c64293b8e396bb"
],
"FTBFConfig_v31" : [
"1b76fa6e49c64293b8e396bb"
],
"FTBFConfig_v32" : [
"1b76fa6e49c64293b8e396bb"
],
"FTBFConfig_v33" : [
"1b76fa6e49c64293b8e396bb"
],
"FTBFConfig_v34" : [
"1b76fa6e49c64293b8e396bb"
],
"FTBFConfig_v35" : [
"1b76fa6e49c64293b8e396bb"
],
"FTBFConfig_v36" : [
"1b76fa6e49c64293b8e396bb"
],
"FTBFConfig_v37" : [
"1b76fa6e49c64293b8e396bb"
],
"FTBFConfig_v38" : [
"1b76fa6e49c64293b8e396bb"
],
"FTBFConfig_v39" : [
"1b76fa6e49c64293b8e396bb"
],
"FTBFConfig_v40" : [
"1b76fa6e49c64293b8e396bb"
],
"FTBFConfig_v41" : [
"1b76fa6e49c64293b8e396bb"
],
"FTBFConfig_v42" : [
"1b76fa6e49c64293b8e396bb"
],
"FTBFConfig_v43" : [
"1b76fa6e49c64293b8e396bb"
],
"FTBFConfig_v44" : [
"1b76fa6e49c64293b8e396bb"
],
"FTBFConfig_v45" : [
"1b76fa6e49c64293b8e396bb"
],
"FTBFConfig_v46" : [
"1b76fa6e49c64293b8e396bb"
],
"FTBFConfig_v47" : [
"1b76fa6e49c64293b8e396bb"
],
"FTBFConfig_v48" : [
"1b76fa6e49c64293b8e396bb"
],
"FTBFConfig_v49" : [
"1b76fa6e49c64293b8e396bb"
],
"FTBFConfig_v50" : [
"1b76fa6e49c64293b8e396bb"
],
"FTBFConfig_v51" : [
"1b76fa6e49c64293b8e396bb"
],
"FTBFConfig_v52" : [
"1b76fa6e49c64293b8e396bb"
],
"FTBFConfig_v53" : [
"1b76fa6e49c64293b8e396bb"
],
"FTBFConfig_v54" : [
"1b76fa6e49c64293b8e396bb"
],
"FTBFConfig_v55" : [
"1b76fa6e49c64293b8e396bb"
],
"FTBFConfig_v56" : [
"1b76fa6e49c64293b8e396bb"
],
"FTBFConfig_v57" : [
"1b76fa6e49c64293b8e396bb"
],
"FTBFConfig_v58" : [
"1b76fa6e49c64293b8e396bb"
],
"FTBFConfig_v59" : [
"1b76fa6e49c64293b8e396bb"
],
"FTBFConfig_v60" : [
"1b76fa6e49c64293b8e396bb"
],
"FTBFConfig_v61" : [
"1b76fa6e49c64293b8e396bb"
],
"FTBFConfig_v62" : [
"1b76fa6e49c64293b8e396bb"
],
"FTBFConfig_v63" : [
"1b76fa6e49c64293b8e396bb"
],
"FTBFConfig_v64" : [
"1b76fa6e49c64293b8e396bb"
],
"FTBFConfig_v65" : [
"1b76fa6e49c64293b8e396bb"
],
"FTBFConfig_v66" : [
"1b76fa6e49c64293b8e396bb"
],
"FTBFConfig_v67" : [
"1b76fa6e49c64293b8e396bb"
],
"FTBFConfig_v68" : [
"1b76fa6e49c64293b8e396bb"
],
"FTBFConfig_v69" : [
"1b76fa6e49c64293b8e396bb"
],
"FTBFConfig_v70" : [
"1b76fa6e49c64293b8e396bb"
],
"FTBFConfigNim_v0" : [
"1b76fa6e49c64293b8e396bb"
],
"FTBFConfigNim_v1" : [
"1b76fa6e49c64293b8e396bb"
],
"FTBFConfigNim_v2" : [
"1b76fa6e49c64293b8e396bb"
],
"FTBFConfigNim_v3" : [
"1b76fa6e49c64293b8e396bb"
],
"FTBFConfigNim_v4" : [
"1b76fa6e49c64293b8e396bb"
],
"FTBFConfigNim_v5" : [
"1b76fa6e49c64293b8e396bb"
],
"FTBFConfigNim_v6" : [
"1b76fa6e49c64293b8e396bb"
],
"FTBFConfigNim_v7" : [
"1b76fa6e49c64293b8e396bb"
],
"FTBFConfigNim_v8" : [
"1b76fa6e49c64293b8e396bb"
],
"FTBFConfigNim_v9" : [
"1b76fa6e49c64293b8e396bb"
],
"FTBFConfigNim_v10" : [
"1b76fa6e49c64293b8e396bb"
],
"FTBFConfigNim_v11" : [
"1b76fa6e49c64293b8e396bb"
],
"FTBFConfigNim_v12" : [
"1b76fa6e49c64293b8e396bb"
],
"FTBFConfigNim_v13" : [
"1b76fa6e49c64293b8e396bb"
],
"FTBFConfigNim_v14" : [
"1b76fa6e49c64293b8e396bb"
],
"FTBFConfigNim_v15" : [
"1b76fa6e49c64293b8e396bb"
],
"FTBFConfigNim_v16" : [
"1b76fa6e49c64293b8e396bb"
],
"FTBFConfigNim_v17" : [
"1b76fa6e49c64293b8e396bb"
],
"FTBFConfigNim_v18" : [
"1b76fa6e49c64293b8e396bb"
],
"FTBFConfigNim_v19" : [
"1b76fa6e49c64293b8e396bb"
],
"FTBFConfigNim_v20" : [
"1b76fa6e49c64293b8e396bb"
],
"FTBFConfigNim_v21" : [
"1b76fa6e49c64293b8e396bb"
],
"FTBFConfigNim_v22" : [
"1b76fa6e49c64293b8e396bb"
],
"FTBFConfigNim_v23" : [
"1b76fa6e49c64293b8e396bb"
],
"FTBFConfigNim_v24" : [
"1b76fa6e49c64293b8e396bb"
],
"FTBFConfigNim_v25" : [
"1b76fa6e49c64293b8e396bb"
],
"FTBFConfigNim_v26" : [
"1b76fa6e49c64293b8e396bb"
],
"FTBFConfigNim_v27" : [
"1b76fa6e49c64293b8e396bb"
],
"FTBFConfigNim_v28" : [
"1b76fa6e49c64293b8e396bb"
],
"FTBFConfigNim_v29" : [
"1b76fa6e49c64293b8e396bb"
],
"FTBFConfig_v71" : [
"1b76fa6e49c64293b8e396bb"
],
"FTBFConfig_v72" : [
"1b76fa6e49c64293b8e396bb"
],
"FTBFConfig_v73" : [
"1b76fa6e49c64293b8e396bb"
],
"FTBFConfig_v74" : [
"1b76fa6e49c64293b8e396bb"
],
"FTBFConfig_v75" : [
"1b76fa6e49c64293b8e396bb"
],
"FTBFConfig_v76" : [
"1b76fa6e49c64293b8e396bb"
],
"FTBFConfig_v77" : [
"1b76fa6e49c64293b8e396bb"
],
"FTBFConfig_v78" : [
"1b76fa6e49c64293b8e396bb"
],
"FTBFConfig_v79" : [
"1b76fa6e49c64293b8e396bb"
],
"FTBFConfig_v80" : [
"1b76fa6e49c64293b8e396bb"
],
"FTBFConfig_v81" : [
"1b76fa6e49c64293b8e396bb"
],
"FTBFConfig_v82" : [
"1b76fa6e49c64293b8e396bb"
],
"FTBFConfig_v83" : [
"1b76fa6e49c64293b8e396bb"
],
"FTBFConfig_v84" : [
"1b76fa6e49c64293b8e396bb"
],
"FTBFConfig_v85" : [
"1b76fa6e49c64293b8e396bb"
],
"FTBFConfig_v86" : [
"1b76fa6e49c64293b8e396bb"
],
"FTBFConfig_v87" : [
"1b76fa6e49c64293b8e396bb"
],
"FTBFConfig_v88" : [
"1b76fa6e49c64293b8e396bb"
],
"FTBFConfig_v89" : [
"1b76fa6e49c64293b8e396bb"
],
"FTBFConfig_v90" : [
"1b76fa6e49c64293b8e396bb"
],
"FTBFConfig_v91" : [
"1b76fa6e49c64293b8e396bb"
],
"FTBFConfig_v92" : [
"1b76fa6e49c64293b8e396bb"
],
"FTBFConfig_v93" : [
"1b76fa6e49c64293b8e396bb"
],
"FTBFConfig_v94" : [
"1b76fa6e49c64293b8e396bb"
],
"FTBFConfig_v95" : [
"1b76fa6e49c64293b8e396bb"
],
"FTBFConfig_v96" : [
"1b76fa6e49c64293b8e396bb"
],
"FTBFConfig_v97" : [
"1b76fa6e49c64293b8e396bb"
],
"FTBFConfig_v98" : [
"1b76fa6e49c64293b8e396bb"
],
"FTBFConfig_v99" : [
"1b76fa6e49c64293b8e396bb"
],
"FTBFConfig_v100" : [
"1b76fa6e49c64293b8e396bb"
],
"FTBFConfig_v101" : [
"1b76fa6e49c64293b8e396bb"
],
"FTBFConfig_v102" : [
"1b76fa6e49c64293b8e396bb"
],
"FTBFConfig_v103" : [
"1b76fa6e49c64293b8e396bb"
],
"FTBFConfig_v104" : [
"1b76fa6e49c64293b8e396bb"
],
"FTBFConfig_v105" : [
"1b76fa6e49c64293b8e396bb"
],
"FTBFConfig_v106" : [
"1b76fa6e49c64293b8e396bb"
],
"FTBFConfig_v107" : [
"1b76fa6e49c64293b8e396bb"
],
"FTBFConfig_v108" : [
"1b76fa6e49c64293b8e396bb"
],
"FTBFConfig_v109" : [
"1b76fa6e49c64293b8e396bb"
],
"FTBFConfig_v110" : [
"1b76fa6e49c64293b8e396bb"
],
"FTBFConfig_v111" : [
"1b76fa6e49c64293b8e396bb"
],
"FTBFConfig_v112" : [
"1b76fa6e49c64293b8e396bb"
],
"FTBFConfig_v113" : [
"1b76fa6e49c64293b8e396bb"
],
"FTBFConfig_v114" : [
"1b76fa6e49c64293b8e396bb"
],
"FTBFConfig_v115" : [
"1b76fa6e49c64293b8e396bb"
],
"FTBFConfig_v116" : [
"1b76fa6e49c64293b8e396bb"
],
"FTBFConfig_v117" : [
"1b76fa6e49c64293b8e396bb"
],
"FTBFConfig_v118" : [
"1b76fa6e49c64293b8e396bb"
],
"FTBFConfig_v119" : [
"1b76fa6e49c64293b8e396bb"
],
"FTBFConfig_v120" : [
"1b76fa6e49c64293b8e396bb"
],
"FTBFConfig_v121" : [
"1b76fa6e49c64293b8e396bb"
],
"FTBFConfig_v122" : [
"1b76fa6e49c64293b8e396bb"
],
"FTBFConfig_v123" : [
"1b76fa6e49c64293b8e396bb"
],
"FTBFConfig_v124" : [
"1b76fa6e49c64293b8e396bb"
],
"FTBFConfig_v125" : [
"1b76fa6e49c64293b8e396bb"
],
"FTBFConfig_v126" : [
"1b76fa6e49c64293b8e396bb"
],
"FTBFConfig_v127" : [
"1b76fa6e49c64293b8e396bb"
],
"FTBFConfig_v128" : [
"1b76fa6e49c64293b8e396bb"
],
"FTBFConfig_v129" : [
"1b76fa6e49c64293b8e396bb"
],
"FTBFConfig_v130" : [
"1b76fa6e49c64293b8e396bb"
],
"FTBFConfig_v131" : [
"1b76fa6e49c64293b8e396bb"
],
"FTBFConfig_v132" : [
"1b76fa6e49c64293b8e396bb"
],
"FTBFConfig_v133" : [
"1b76fa6e49c64293b8e396bb"
],
"FTBFConfig_v134" : [
"1b76fa6e49c64293b8e396bb"
],
"FTBFConfig_v135" : [
"1b76fa6e49c64293b8e396bb"
],
"FTBFConfig_v136" : [
"1b76fa6e49c64293b8e396bb"
],
"FTBFConfig_v137" : [
"1b76fa6e49c64293b8e396bb"
],
"FTBFConfig_v138" : [
"1b76fa6e49c64293b8e396bb"
],
"FTBFConfig_v139" : [
"1b76fa6e49c64293b8e396bb"
],
"FTBFConfig_v140" : [
"1b76fa6e49c64293b8e396bb"
],
"FTBFConfig_v141" : [
"1b76fa6e49c64293b8e396bb"
],
"FTBFConfig_v142" : [
"1b76fa6e49c64293b8e396bb"
]
},
"entities.name" : {
"OTSROOT" : [
"1b76fa6e49c64293b8e396bb",
"3ccc6ffe0ede407392875ec1",
"51b976b8194b44fba1097abd"
]
},
"aliases.active.name" : {

},
"runs.name" : {

},
"configurations.assigned" : {
"notprovided" : [
"2017-11-08T15:56:02.142-0600",
"2017-11-15T13:01:00.037-0600",
"2017-11-15T13:02:29.240-0600"
],
"FTBFConfig_v0" : [
"2017-11-08T15:56:04.691-0600"
],
"FTBFConfig_v1" : [
"2017-11-09T09:56:29.031-0600"
],
"FTBFConfig_v2" : [
"2017-11-09T10:05:57.976-0600"
],
"FTBFConfig_v3" : [
"2017-11-09T10:37:09.526-0600"
],
"FTBFConfig_v4" : [
"2017-11-15T11:30:08.241-0600"
],
"FTBFConfig_v5" : [
"2017-11-15T11:54:54.988-0600"
],
"FTBFConfig_v6" : [
"2017-11-15T11:57:47.569-0600"
],
"FTBFConfig_v7" : [
"2017-11-15T12:42:30.001-0600"
],
"FTBFConfig_v8" : [
"2017-11-15T13:01:00.939-0600"
],
"FTBFConfig_v9" : [
"2017-11-15T13:02:54.317-0600"
],
"FTBFConfig_v10" : [
"2017-11-15T13:04:21.904-0600"
],
"FTBFConfig_v11" : [
"2017-11-15T13:07:49.357-0600"
],
"FTBFConfig_v12" : [
"2017-11-15T13:11:56.755-0600"
],
"FTBFConfig_v13" : [
"2017-11-15T13:13:50.728-0600"
],
"FTBFConfig_v14" : [
"2017-11-15T13:27:22.225-0600"
],
"FTBFConfig_v15" : [
"2017-11-15T13:35:44.681-0600"
],
"FTBFConfig_v16" : [
"2017-11-15T13:36:49.316-0600"
],
"FTBFConfig_v17" : [
"2017-11-15T15:33:27.833-0600"
],
"FTBFConfig_v18" : [
"2017-11-15T15:35:31.332-0600"
],
"FTBFConfig_v19" : [
"2017-11-15T15:38:00.254-0600"
],
"FTBFConfig_v20" : [
"2017-11-15T16:26:27.825-0600"
],
"FTBFConfig_v21" : [
"2017-11-16T09:22:29.041-0600"
],
"FTBFConfig_v22" : [
"2017-11-17T10:23:25.212-0600"
],
"FTBFConfig_v23" : [
"2017-11-17T17:26:42.675-0600"
],
"FTBFConfig_v24" : [
"2017-11-17T17:58:23.092-0600"
],
"FTBFConfig_v25" : [
"2017-11-17T18:24:42.744-0600"
],
"FTBFConfig_v26" : [
"2017-11-17T18:32:19.341-0600"
],
"FTBFConfig_v27" : [
"2017-11-17T18:43:26.409-0600"
],
"FTBFConfig_v28" : [
"2017-11-17T18:48:28.465-0600"
],
"FTBFConfig_v29" : [
"2017-11-20T14:48:27.978-0600"
],
"FTBFConfig_v30" : [
"2017-11-20T15:39:53.250-0600"
],
"FTBFConfig_v31" : [
"2017-11-20T16:40:59.203-0600"
],
"FTBFConfig_v32" : [
"2017-11-20T18:55:31.980-0600"
],
"FTBFConfig_v33" : [
"2017-11-20T18:57:27.253-0600"
],
"FTBFConfig_v34" : [
"2017-11-29T17:50:36.730-0600"
],
"FTBFConfig_v35" : [
"2017-11-29T18:00:29.607-0600"
],
"FTBFConfig_v36" : [
"2017-11-29T18:35:08.475-0600"
],
"FTBFConfig_v37" : [
"2017-12-01T09:36:14.595-0600"
],
"FTBFConfig_v38" : [
"2017-12-01T09:51:57.920-0600"
],
"FTBFConfig_v39" : [
"2017-12-01T11:51:55.169-0600"
],
"FTBFConfig_v40" : [
"2017-12-01T12:18:16.979-0600"
],
"FTBFConfig_v41" : [
"2017-12-01T12:20:59.225-0600"
],
"FTBFConfig_v42" : [
"2017-12-01T12:43:18.207-0600"
],
"FTBFConfig_v43" : [
"2017-12-01T12:57:55.087-0600"
],
"FTBFConfig_v44" : [
"2017-12-01T13:00:47.403-0600"
],
"FTBFConfig_v45" : [
"2017-12-01T13:25:45.152-0600"
],
"FTBFConfig_v46" : [
"2017-12-01T13:35:39.984-0600"
],
"FTBFConfig_v47" : [
"2017-12-01T14:00:48.401-0600"
],
"FTBFConfig_v48" : [
"2017-12-01T14:03:55.665-0600"
],
"FTBFConfig_v49" : [
"2017-12-01T15:31:55.784-0600"
],
"FTBFConfig_v50" : [
"2017-12-01T15:33:37.620-0600"
],
"FTBFConfig_v51" : [
"2017-12-01T15:36:17.247-0600"
],
"FTBFConfig_v52" : [
"2017-12-01T15:37:26.084-0600"
],
"FTBFConfig_v53" : [
"2017-12-01T15:40:55.363-0600"
],
"FTBFConfig_v54" : [
"2017-12-01T15:52:45.673-0600"
],
"FTBFConfig_v55" : [
"2017-12-01T15:54:30.772-0600"
],
"FTBFConfig_v56" : [
"2017-12-01T15:55:30.291-0600"
],
"FTBFConfig_v57" : [
"2017-12-01T15:56:36.037-0600"
],
"FTBFConfig_v58" : [
"2017-12-01T15:57:34.136-0600"
],
"FTBFConfig_v59" : [
"2017-12-01T15:58:26.009-0600"
],
"FTBFConfig_v60" : [
"2017-12-01T15:59:27.218-0600"
],
"FTBFConfig_v61" : [
"2017-12-01T16:19:36.901-0600"
],
"FTBFConfig_v62" : [
"2017-12-01T16:21:59.456-0600"
],
"FTBFConfig_v63" : [
"2017-12-01T16:31:20.035-0600"
],
"FTBFConfig_v64" : [
"2017-12-01T17:06:26.861-0600"
],
"FTBFConfig_v65" : [
"2017-12-01T17:32:39.183-0600"
],
"FTBFConfig_v66" : [
"2017-12-01T20:38:45.531-0600"
],
"FTBFConfig_v67" : [
"2017-12-01T21:24:57.082-0600"
],
"FTBFConfig_v68" : [
"2017-12-01T21:42:56.714-0600"
],
"FTBFConfig_v69" : [
"2017-12-01T21:44:55.311-0600"
],
"FTBFConfig_v70" : [
"2017-12-01T21:59:14.522-0600"
],
"FTBFConfigNim_v0" : [
"2017-12-01T22:00:01.235-0600"
],
"FTBFConfigNim_v1" : [
"2017-12-01T22:13:02.946-0600"
],
"FTBFConfigNim_v2" : [
"2017-12-01T22:15:50.156-0600"
],
"FTBFConfigNim_v3" : [
"2017-12-01T22:16:58.095-0600"
],
"FTBFConfigNim_v4" : [
"2017-12-01T22:19:01.201-0600"
],
"FTBFConfigNim_v5" : [
"2017-12-01T22:21:51.877-0600"
],
"FTBFConfigNim_v6" : [
"2017-12-01T22:23:07.214-0600"
],
"FTBFConfigNim_v7" : [
"2017-12-01T22:25:11.768-0600"
],
"FTBFConfigNim_v8" : [
"2017-12-01T22:26:59.310-0600"
],
"FTBFConfigNim_v9" : [
"2017-12-01T22:29:23.603-0600"
],
"FTBFConfigNim_v10" : [
"2017-12-01T22:52:28.689-0600"
],
"FTBFConfigNim_v11" : [
"2017-12-01T22:57:23.029-0600"
],
"FTBFConfigNim_v12" : [
"2017-12-01T23:00:01.701-0600"
],
"FTBFConfigNim_v13" : [
"2017-12-01T23:52:29.829-0600"
],
"FTBFConfigNim_v14" : [
"2017-12-01T23:58:04.203-0600"
],
"FTBFConfigNim_v15" : [
"2017-12-02T00:00:28.469-0600"
],
"FTBFConfigNim_v16" : [
"2017-12-02T00:13:03.562-0600"
],
"FTBFConfigNim_v17" : [
"2017-12-02T00:28:22.564-0600"
],
"FTBFConfigNim_v18" : [
"2017-12-02T00:29:28.574-0600"
],
"FTBFConfigNim_v19" : [
"2017-12-02T00:31:04.359-0600"
],
"FTBFConfigNim_v20" : [
"2017-12-02T00:57:21.543-0600"
],
"FTBFConfigNim_v21" : [
"2017-12-02T10:57:56.088-0600"
],
"FTBFConfigNim_v22" : [
"2017-12-02T11:08:12.244-0600"
],
"FTBFConfigNim_v23" : [
"2017-12-02T11:12:33.794-0600"
],
"FTBFConfigNim_v24" : [
"2017-12-02T11:18:36.566-0600"
],
"FTBFConfigNim_v25" : [
"2017-12-02T11:26:59.816-0600"
],
"FTBFConfigNim_v26" : [
"2017-12-02T11:38:30.848-0600"
],
"FTBFConfigNim_v27" : [
"2017-12-02T11:49:01.918-0600"
],
"FTBFConfigNim_v28" : [
"2017-12-02T11:55:03.345-0600"
],
"FTBFConfigNim_v29" : [
"2017-12-02T12:06:20.209-0600"
],
"FTBFConfig_v71" : [
"2017-12-02T12:24:08.822-0600"
],
"FTBFConfig_v72" : [
"2017-12-02T12:43:29.570-0600"
],
"FTBFConfig_v73" : [
"2017-12-02T13:55:29.114-0600"
],
"FTBFConfig_v74" : [
"2017-12-02T14:09:01.378-0600"
],
"FTBFConfig_v75" : [
"2017-12-02T14:12:12.249-0600"
],
"FTBFConfig_v76" : [
"2017-12-02T19:05:47.392-0600"
],
"FTBFConfig_v77" : [
"2017-12-02T19:12:07.169-0600"
],
"FTBFConfig_v78" : [
"2017-12-03T14:03:42.353-0600"
],
"FTBFConfig_v79" : [
"2017-12-03T14:09:00.507-0600"
],
"FTBFConfig_v80" : [
"2017-12-03T14:11:04.260-0600"
],
"FTBFConfig_v81" : [
"2017-12-03T14:22:27.281-0600"
],
"FTBFConfig_v82" : [
"2017-12-03T14:40:32.017-0600"
],
"FTBFConfig_v83" : [
"2017-12-03T14:44:59.309-0600"
],
"FTBFConfig_v84" : [
"2017-12-04T14:51:24.799-0600"
],
"FTBFConfig_v85" : [
"2017-12-04T14:55:37.861-0600"
],
"FTBFConfig_v86" : [
"2017-12-04T16:51:00.849-0600"
],
"FTBFConfig_v87" : [
"2017-12-04T16:56:41.471-0600"
],
"FTBFConfig_v88" : [
"2017-12-04T17:01:06.146-0600"
],
"FTBFConfig_v89" : [
"2017-12-04T17:03:51.195-0600"
],
"FTBFConfig_v90" : [
"2017-12-04T17:07:10.839-0600"
],
"FTBFConfig_v91" : [
"2017-12-04T17:09:19.924-0600"
],
"FTBFConfig_v92" : [
"2017-12-04T17:11:32.383-0600"
],
"FTBFConfig_v93" : [
"2017-12-04T21:05:15.022-0600"
],
"FTBFConfig_v94" : [
"2017-12-04T21:17:05.826-0600"
],
"FTBFConfig_v95" : [
"2017-12-04T21:41:11.592-0600"
],
"FTBFConfig_v96" : [
"2017-12-04T22:38:56.195-0600"
],
"FTBFConfig_v97" : [
"2017-12-04T23:01:06.657-0600"
],
"FTBFConfig_v98" : [
"2017-12-07T11:07:40.645-0600"
],
"FTBFConfig_v99" : [
"2017-12-07T11:49:53.358-0600"
],
"FTBFConfig_v100" : [
"2017-12-07T11:58:20.080-0600"
],
"FTBFConfig_v101" : [
"2017-12-08T13:30:42.135-0600"
],
"FTBFConfig_v102" : [
"2017-12-08T13:32:29.048-0600"
],
"FTBFConfig_v103" : [
"2017-12-12T11:02:58.763-0600"
],
"FTBFConfig_v104" : [
"2017-12-12T13:50:52.951-0600"
],
"FTBFConfig_v105" : [
"2017-12-12T15:24:58.989-0600"
],
"FTBFConfig_v106" : [
"2017-12-13T10:24:17.493-0600"
],
"FTBFConfig_v107" : [
"2017-12-13T10:26:56.292-0600"
],
"FTBFConfig_v108" : [
"2018-02-01T21:14:19.365-0600"
],
"FTBFConfig_v109" : [
"2018-02-01T21:20:56.523-0600"
],
"FTBFConfig_v110" : [
"2018-02-02T11:25:27.470-0600"
],
"FTBFConfig_v111" : [
"2018-02-02T11:37:06.289-0600"
],
"FTBFConfig_v112" : [
"2018-02-02T11:47:08.708-0600"
],
"FTBFConfig_v113" : [
"2018-02-02T11:53:29.953-0600"
],
"FTBFConfig_v114" : [
"2018-02-02T12:00:46.004-0600"
],
"FTBFConfig_v115" : [
"2018-02-02T12:27:07.502-0600"
],
"FTBFConfig_v116" : [
"2018-02-02T14:28:46.896-0600"
],
"FTBFConfig_v117" : [
"2018-02-02T14:30:13.319-0600"
],
"FTBFConfig_v118" : [
"2018-02-02T14:33:54.503-0600"
],
"FTBFConfig_v119" : [
"2018-02-02T14:36:21.084-0600"
],
"FTBFConfig_v120" : [
"2018-02-02T14:38:34.444-0600"
],
"FTBFConfig_v121" : [
"2018-02-02T14:41:43.771-0600"
],
"FTBFConfig_v122" : [
"2018-02-02T14:50:17.723-0600"
],
"FTBFConfig_v123" : [
"2018-02-02T14:52:50.608-0600"
],
"FTBFConfig_v124" : [
"2018-02-02T14:59:43.908-0600"
],
"FTBFConfig_v125" : [
"2018-02-02T15:04:01.994-0600"
],
"FTBFConfig_v126" : [
"2018-02-02T15:50:05.191-0600"
],
"FTBFConfig_v127" : [
"2018-02-02T15:51:24.631-0600"
],
"FTBFConfig_v128" : [
"2018-02-02T15:52:29.797-0600"
],
"FTBFConfig_v129" : [
"2018-02-02T16:02:38.682-0600"
],
"FTBFConfig_v130" : [
"2018-02-02T16:08:38.167-0600"
],
"FTBFConfig_v131" : [
"2018-02-02T16:11:23.927-0600"
],
"FTBFConfig_v132" : [
"2018-02-02T16:12:51.765-0600"
],
"FTBFConfig_v133" : [
"2018-02-02T16:14:22.333-0600"
],
"FTBFConfig_v134" : [
"2018-02-02T16:26:15.246-0600"
],
"FTBFConfig_v135" : [
"2018-02-02T16:27:02.338-0600"
],
"FTBFConfig_v136" : [
"2018-02-02T16:29:23.645-0600"
],
"FTBFConfig_v137" : [
"2018-02-02T16:31:34.149-0600"
],
"FTBFConfig_v138" : [
"2018-02-02T16:34:06.841-0600"
],
"FTBFConfig_v139" : [
"2018-02-02T17:39:22.874-0600"
],
"FTBFConfig_v140" : [
"2018-02-02T17:42:45.002-0600"
],
"FTBFConfig_v141" : [
"2018-02-02T17:47:30.181-0600"
],
"FTBFConfig_v142" : [
"2018-02-02T17:53:54.120-0600"
]
}
}