{
"document" : {
"data" : {
"NAME" : "GROUP_ALIASES_TABLE",
"COMMENT" : "Default Backbone.",
"AUTHOR" : "admin",
"CREATION_TIME" : 1575589956,
"COL_TYPES" : {
"GROUP_KEY_ALIAS" : "STRING",
"GROUP_NAME" : "STRING",
"GROUP_KEY" : "STRING",
"COMMENT_DESCRIPTION" : "STRING",
"AUTHOR" : "STRING",
"RECORD_INSERTION_TIME" : "TIMESTAMP WITH TIMEZONE"
},
"DATA_SET" : [
{
"GROUP_KEY_ALIAS" : "OuterTrackerContext",
"GROUP_NAME" : "DefaultContext",
"GROUP_KEY" : "12",
"COMMENT_DESCRIPTION" : "This Group Alias was automatically setup by the server.",
"AUTHOR" : "admin",
"RECORD_INSERTION_TIME" : "1575589956"
},
{
"GROUP_KEY_ALIAS" : "OuterTrackerTable",
"GROUP_NAME" : "DefaultConfig",
"GROUP_KEY" : "16",
"COMMENT_DESCRIPTION" : "This Group Alias was automatically setup by the server.",
"AUTHOR" : "admin",
"RECORD_INSERTION_TIME" : "1574289731"
}
]
},
"metadata" : {

},
"search" : [

]
},
"comments" : [

],
"origin" : {
"source" : "template",
"name" : "notprovided",
"format" : "json",
"created" : "2019-12-05T17:52:36.735-0600",
"rawdata" : [

]
},
"version" : "31",
"entities" : [
{
"name" : "OTSROOT",
"assigned" : "2019-12-05T17:52:36.736-0600"
}
],
"configurations" : [
{
"name" : "notprovided",
"assigned" : "2019-12-05T17:52:36.736-0600"
},
{
"name" : "GroupAliasTreeEditWizBackbone_v14",
"assigned" : "2019-12-05T17:52:37.236-0600"
}
],
"changelog" : "notprovided",
"bookkeeping" : {
"isdeleted" : false,
"isreadonly" : false,
"updates" : [
{
"event" : "addConfiguration",
"timestamp" : "2019-12-05T17:52:36.736-0600",
"value" : {
"name" : "notprovided",
"assigned" : "2019-12-05T17:52:36.736-0600"
}
},
{
"event" : "setVersion",
"timestamp" : "2019-12-05T17:52:36.736-0600",
"value" : {
"name" : "31",
"assigned" : "2019-12-05T17:52:36.736-0600"
}
},
{
"event" : "setCollection",
"timestamp" : "2019-12-05T17:52:36.736-0600",
"value" : {
"name" : "GroupAliasesTable",
"assigned" : "2019-12-05T17:52:36.736-0600"
}
},
{
"event" : "addEntity",
"timestamp" : "2019-12-05T17:52:36.736-0600",
"value" : {
"name" : "OTSROOT",
"assigned" : "2019-12-05T17:52:36.736-0600"
}
},
{
"event" : "addConfiguration",
"timestamp" : "2019-12-05T17:52:37.236-0600",
"value" : {
"name" : "GroupAliasTreeEditWizBackbone_v14",
"assigned" : "2019-12-05T17:52:37.236-0600"
}
}
],
"created" : "2019-12-05T17:52:36.735-0600"
},
"_id" : {
"$oid" : "042d6da5f8b04bf8b223922f"
},
"collection" : "GroupAliasesTable",
"aliases" : {
"active" : [

],
"history" : [

]
},
"runs" : [

],
"attachments" : [

],
"configtype" : "notprovided"
}