{
"document" : {
"data" : {
"NAME" : "GROUP_ALIASES_TABLE",
"COMMENT" : "Default Backbone.",
"AUTHOR" : "admin",
"CREATION_TIME" : 1576264857,
"COL_TYPES" : {
"GROUP_KEY_ALIAS" : "STRING",
"GROUP_NAME" : "STRING",
"GROUP_KEY" : "STRING",
"COMMENT_DESCRIPTION" : "STRING",
"AUTHOR" : "STRING",
"RECORD_INSERTION_TIME" : "TIMESTAMP WITH TIMEZONE"
},
"DATA_SET" : [
{
"GROUP_KEY_ALIAS" : "OuterTrackerContext",
"GROUP_NAME" : "DefaultContext",
"GROUP_KEY" : "15",
"COMMENT_DESCRIPTION" : "This Group Alias was automatically setup by the server.",
"AUTHOR" : "admin",
"RECORD_INSERTION_TIME" : "1576264857"
},
{
"GROUP_KEY_ALIAS" : "T992Config",
"GROUP_NAME" : "DefaultConfig",
"GROUP_KEY" : "18",
"COMMENT_DESCRIPTION" : "This Group Alias was automatically setup by the server.",
"AUTHOR" : "admin",
"RECORD_INSERTION_TIME" : "1576264533"
}
]
},
"metadata" : {

},
"search" : [

]
},
"comments" : [

],
"origin" : {
"source" : "template",
"name" : "notprovided",
"format" : "json",
"created" : "2019-12-13T13:20:57.304-0600",
"rawdata" : [

]
},
"version" : "38",
"entities" : [
{
"name" : "OTSROOT",
"assigned" : "2019-12-13T13:20:57.304-0600"
}
],
"configurations" : [
{
"name" : "notprovided",
"assigned" : "2019-12-13T13:20:57.304-0600"
},
{
"name" : "TableEditWizBackbone_v19",
"assigned" : "2019-12-13T13:20:58.811-0600"
}
],
"changelog" : "notprovided",
"bookkeeping" : {
"isdeleted" : false,
"isreadonly" : false,
"updates" : [
{
"event" : "addConfiguration",
"timestamp" : "2019-12-13T13:20:57.304-0600",
"value" : {
"name" : "notprovided",
"assigned" : "2019-12-13T13:20:57.304-0600"
}
},
{
"event" : "setVersion",
"timestamp" : "2019-12-13T13:20:57.304-0600",
"value" : {
"name" : "38",
"assigned" : "2019-12-13T13:20:57.304-0600"
}
},
{
"event" : "setCollection",
"timestamp" : "2019-12-13T13:20:57.304-0600",
"value" : {
"name" : "GroupAliasesTable",
"assigned" : "2019-12-13T13:20:57.304-0600"
}
},
{
"event" : "addEntity",
"timestamp" : "2019-12-13T13:20:57.304-0600",
"value" : {
"name" : "OTSROOT",
"assigned" : "2019-12-13T13:20:57.304-0600"
}
},
{
"event" : "addConfiguration",
"timestamp" : "2019-12-13T13:20:58.811-0600",
"value" : {
"name" : "TableEditWizBackbone_v19",
"assigned" : "2019-12-13T13:20:58.811-0600"
}
}
],
"created" : "2019-12-13T13:20:57.304-0600"
},
"_id" : {
"$oid" : "29112f3a7f404e958601839f"
},
"collection" : "GroupAliasesTable",
"aliases" : {
"active" : [

],
"history" : [

]
},
"runs" : [

],
"attachments" : [

],
"configtype" : "notprovided"
}