{
"document" : {
"data" : {
"NAME" : "GROUP_ALIASES_TABLE",
"COMMENT" : "Default Backbone.",
"AUTHOR" : "admin",
"CREATION_TIME" : 1575673780,
"COL_TYPES" : {
"GROUP_KEY_ALIAS" : "STRING",
"GROUP_NAME" : "STRING",
"GROUP_KEY" : "STRING",
"COMMENT_DESCRIPTION" : "STRING",
"AUTHOR" : "STRING",
"RECORD_INSERTION_TIME" : "TIMESTAMP WITH TIMEZONE"
},
"DATA_SET" : [
{
"GROUP_KEY_ALIAS" : "OuterTrackerContext",
"GROUP_NAME" : "DefaultContext",
"GROUP_KEY" : "13",
"COMMENT_DESCRIPTION" : "This Group Alias was automatically setup by the server.",
"AUTHOR" : "admin",
"RECORD_INSERTION_TIME" : "1575647652"
},
{
"GROUP_KEY_ALIAS" : "OuterTrackerTable",
"GROUP_NAME" : "DefaultConfig",
"GROUP_KEY" : "15",
"COMMENT_DESCRIPTION" : "This Group Alias was automatically setup by the server.",
"AUTHOR" : "admin",
"RECORD_INSERTION_TIME" : "1575673780"
}
]
},
"metadata" : {

},
"search" : [

]
},
"comments" : [

],
"origin" : {
"source" : "template",
"name" : "notprovided",
"format" : "json",
"created" : "2019-12-06T17:09:40.797-0600",
"rawdata" : [

]
},
"version" : "33",
"entities" : [
{
"name" : "OTSROOT",
"assigned" : "2019-12-06T17:09:40.798-0600"
}
],
"configurations" : [
{
"name" : "notprovided",
"assigned" : "2019-12-06T17:09:40.797-0600"
},
{
"name" : "TableEditWizBackbone_v18",
"assigned" : "2019-12-06T17:09:41.349-0600"
},
{
"name" : "GroupAliasTreeEditWizBackbone_v16",
"assigned" : "2019-12-09T15:50:02.247-0600"
}
],
"changelog" : "notprovided",
"bookkeeping" : {
"isdeleted" : false,
"isreadonly" : false,
"updates" : [
{
"event" : "addConfiguration",
"timestamp" : "2019-12-06T17:09:40.797-0600",
"value" : {
"name" : "notprovided",
"assigned" : "2019-12-06T17:09:40.797-0600"
}
},
{
"event" : "setVersion",
"timestamp" : "2019-12-06T17:09:40.798-0600",
"value" : {
"name" : "33",
"assigned" : "2019-12-06T17:09:40.798-0600"
}
},
{
"event" : "setCollection",
"timestamp" : "2019-12-06T17:09:40.798-0600",
"value" : {
"name" : "GroupAliasesTable",
"assigned" : "2019-12-06T17:09:40.798-0600"
}
},
{
"event" : "addEntity",
"timestamp" : "2019-12-06T17:09:40.798-0600",
"value" : {
"name" : "OTSROOT",
"assigned" : "2019-12-06T17:09:40.798-0600"
}
},
{
"event" : "addConfiguration",
"timestamp" : "2019-12-06T17:09:41.349-0600",
"value" : {
"name" : "TableEditWizBackbone_v18",
"assigned" : "2019-12-06T17:09:41.349-0600"
}
},
{
"event" : "addConfiguration",
"timestamp" : "2019-12-09T15:50:02.247-0600",
"value" : {
"name" : "GroupAliasTreeEditWizBackbone_v16",
"assigned" : "2019-12-09T15:50:02.247-0600"
}
}
],
"created" : "2019-12-06T17:09:40.797-0600"
},
"_id" : {
"$oid" : "fffbb9b61c1d4055bb9ef866"
},
"collection" : "GroupAliasesTable",
"aliases" : {
"active" : [

],
"history" : [

]
},
"runs" : [

],
"attachments" : [

],
"configtype" : "notprovided"
}