{
"ouid" : [
"358f942eeb864d07a100bc03",
"75e0599e569b4600917fa335"
],
"version" : {
"2" : [
"75e0599e569b4600917fa335"
],
"3" : [
"358f942eeb864d07a100bc03"
]
},
"configurations.name" : {
"notprovided" : [
"358f942eeb864d07a100bc03",
"75e0599e569b4600917fa335"
],
"DefaultContext_v2" : [
"75e0599e569b4600917fa335"
],
"DefaultContext_v3" : [
"75e0599e569b4600917fa335"
],
"DefaultContext_v4" : [
"358f942eeb864d07a100bc03"
],
"DefaultContext_v5" : [
"358f942eeb864d07a100bc03"
],
"DefaultContext_v6" : [
"358f942eeb864d07a100bc03"
],
"DefaultContext_v7" : [
"358f942eeb864d07a100bc03"
],
"DefaultContext_v8" : [
"358f942eeb864d07a100bc03"
],
"DefaultContext_v9" : [
"358f942eeb864d07a100bc03"
],
"DefaultContext_v10" : [
"358f942eeb864d07a100bc03"
],
"DefaultContext_v11" : [
"358f942eeb864d07a100bc03"
],
"DefaultContext_v12" : [
"358f942eeb864d07a100bc03"
],
"DefaultContext_v13" : [
"358f942eeb864d07a100bc03"
]
},
"entities.name" : {
"OTSROOT" : [
"358f942eeb864d07a100bc03",
"75e0599e569b4600917fa335"
]
},
"aliases.active.name" : {

},
"runs.name" : {

},
"configurations.assigned" : {
"notprovided" : [
"2019-02-22T16:11:43.201-0600",
"2019-11-19T16:07:04.090-0600"
],
"DefaultContext_v2" : [
"2019-02-22T16:11:43.435-0600"
],
"DefaultContext_v3" : [
"2019-07-23T09:05:25.396-0500"
],
"DefaultContext_v4" : [
"2019-11-19T16:07:21.549-0600"
],
"DefaultContext_v5" : [
"2019-11-20T14:24:12.485-0600"
],
"DefaultContext_v6" : [
"2019-11-20T14:39:27.343-0600"
],
"DefaultContext_v7" : [
"2019-11-20T15:26:58.374-0600"
],
"DefaultContext_v8" : [
"2019-11-20T15:27:24.405-0600"
],
"DefaultContext_v9" : [
"2019-11-20T15:28:33.584-0600"
],
"DefaultContext_v10" : [
"2019-11-20T15:56:57.625-0600"
],
"DefaultContext_v11" : [
"2019-11-20T16:00:09.038-0600"
],
"DefaultContext_v12" : [
"2020-06-17T17:20:13.607-0500"
],
"DefaultContext_v13" : [
"2020-07-01T16:09:03.939-0500"
]
}
}