{
"ouid" : [
"322464f1e5d74103a7fa9f4a",
"cca0dd94f1bf49569a63876b"
],
"version" : {
"2" : [
"322464f1e5d74103a7fa9f4a"
],
"3" : [
"cca0dd94f1bf49569a63876b"
]
},
"configurations.name" : {
"notprovided" : [
"322464f1e5d74103a7fa9f4a",
"cca0dd94f1bf49569a63876b"
],
"DefaultContext_v2" : [
"322464f1e5d74103a7fa9f4a"
],
"DefaultContext_v3" : [
"322464f1e5d74103a7fa9f4a"
],
"DefaultContext_v4" : [
"322464f1e5d74103a7fa9f4a"
],
"DefaultContext_v5" : [
"322464f1e5d74103a7fa9f4a"
],
"DefaultContext_v6" : [
"322464f1e5d74103a7fa9f4a"
],
"DefaultContext_v7" : [
"cca0dd94f1bf49569a63876b"
],
"DefaultContext_v8" : [
"cca0dd94f1bf49569a63876b"
],
"DefaultContext_v9" : [
"cca0dd94f1bf49569a63876b"
],
"DefaultContext_v10" : [
"cca0dd94f1bf49569a63876b"
],
"DefaultContext_v11" : [
"cca0dd94f1bf49569a63876b"
],
"DefaultContext_v12" : [
"cca0dd94f1bf49569a63876b"
],
"DefaultContext_v13" : [
"cca0dd94f1bf49569a63876b"
],
"DefaultContext_v14" : [
"cca0dd94f1bf49569a63876b"
],
"DefaultContext_v15" : [
"cca0dd94f1bf49569a63876b"
],
"DefaultContext_v16" : [
"cca0dd94f1bf49569a63876b"
],
"DefaultContext_v17" : [
"cca0dd94f1bf49569a63876b"
],
"DefaultContext_v18" : [
"cca0dd94f1bf49569a63876b"
]
},
"entities.name" : {
"OTSROOT" : [
"322464f1e5d74103a7fa9f4a",
"cca0dd94f1bf49569a63876b"
]
},
"aliases.active.name" : {

},
"runs.name" : {

},
"configurations.assigned" : {
"notprovided" : [
"2020-07-21T14:27:47.281-0500",
"2020-07-21T14:55:56.341-0500"
],
"DefaultContext_v2" : [
"2020-07-21T14:27:47.682-0500"
],
"DefaultContext_v3" : [
"2020-07-21T14:42:50.405-0500"
],
"DefaultContext_v4" : [
"2020-07-21T14:46:44.291-0500"
],
"DefaultContext_v5" : [
"2020-07-21T14:51:16.573-0500"
],
"DefaultContext_v6" : [
"2020-07-21T14:55:16.896-0500"
],
"DefaultContext_v7" : [
"2020-07-21T14:55:56.902-0500"
],
"DefaultContext_v8" : [
"2020-07-21T15:50:01.258-0500"
],
"DefaultContext_v9" : [
"2020-08-23T13:00:05.894-0400"
],
"DefaultContext_v10" : [
"2020-08-26T07:36:02.943-0400"
],
"DefaultContext_v11" : [
"2020-08-26T07:36:45.217-0400"
],
"DefaultContext_v12" : [
"2020-08-26T07:41:34.860-0400"
],
"DefaultContext_v13" : [
"2020-08-26T07:49:46.412-0400"
],
"DefaultContext_v14" : [
"2020-08-26T07:52:48.524-0400"
],
"DefaultContext_v15" : [
"2020-09-07T08:30:59.404-0400"
],
"DefaultContext_v16" : [
"2020-09-07T08:42:41.007-0400"
],
"DefaultContext_v17" : [
"2020-09-07T08:52:41.436-0400"
],
"DefaultContext_v18" : [
"2020-09-07T09:05:05.371-0400"
]
}
}