{
"document" : {
"data" : {
"NAME" : "GROUP_ALIASES_CONFIGURATION",
"COMMENT" : "Default Backbone.",
"AUTHOR" : "rrivera",
"CREATION_TIME" : 1510846031,
"COL_TYPES" : {
"GROUP_KEY_ALIAS" : "VARCHAR2",
"GROUP_NAME" : "VARCHAR2",
"GROUP_KEY" : "VARCHAR2",
"COMMENT_DESCRIPTION" : "VARCHAR2",
"AUTHOR" : "VARCHAR2",
"RECORD_INSERTION_TIME" : "TIMESTAMP WITH TIMEZONE"
},
"DATA_SET" : [
{
"GROUP_KEY_ALIAS" : "FTBFContextAlias",
"GROUP_NAME" : "FTBFContext",
"GROUP_KEY" : "28",
"COMMENT_DESCRIPTION" : "FTBF \"facility daq\" context alias.",
"AUTHOR" : "rrivera",
"RECORD_INSERTION_TIME" : "1510846031"
},
{
"GROUP_KEY_ALIAS" : "FTBFSystemAlias",
"GROUP_NAME" : "FTBFConfig",
"GROUP_KEY" : "21",
"COMMENT_DESCRIPTION" : "FTBF \"facility daq\" configuration system alias.",
"AUTHOR" : "rrivera",
"RECORD_INSERTION_TIME" : "1510845754"
}
]
},
"metadata" : {

},
"search" : [

]
},
"comments" : [

],
"origin" : {
"source" : "template",
"name" : "notprovided",
"format" : "json",
"created" : "2017-11-16T09:27:11.515-0600",
"rawdata" : [

]
},
"version" : "49",
"entities" : [
{
"name" : "OTSROOT",
"assigned" : "2017-11-16T09:27:11.517-0600"
}
],
"configurations" : [
{
"name" : "notprovided",
"assigned" : "2017-11-16T09:27:11.516-0600"
},
{
"name" : "GroupAliasTreeEditWizBackbone_v9",
"assigned" : "2017-11-16T09:27:13.149-0600"
}
],
"changelog" : "notprovided",
"bookkeeping" : {
"isdeleted" : false,
"isreadonly" : false,
"updates" : [
{
"event" : "addConfiguration",
"timestamp" : "2017-11-16T09:27:11.516-0600",
"value" : {
"name" : "notprovided",
"assigned" : "2017-11-16T09:27:11.516-0600"
}
},
{
"event" : "setVersion",
"timestamp" : "2017-11-16T09:27:11.516-0600",
"value" : {
"name" : "49",
"assigned" : "2017-11-16T09:27:11.516-0600"
}
},
{
"event" : "setCollection",
"timestamp" : "2017-11-16T09:27:11.516-0600",
"value" : {
"name" : "GroupAliasesConfiguration",
"assigned" : "2017-11-16T09:27:11.516-0600"
}
},
{
"event" : "addEntity",
"timestamp" : "2017-11-16T09:27:11.517-0600",
"value" : {
"name" : "OTSROOT",
"assigned" : "2017-11-16T09:27:11.517-0600"
}
},
{
"event" : "addConfiguration",
"timestamp" : "2017-11-16T09:27:13.149-0600",
"value" : {
"name" : "GroupAliasTreeEditWizBackbone_v9",
"assigned" : "2017-11-16T09:27:13.149-0600"
}
}
],
"created" : "2017-11-16T09:27:11.515-0600"
},
"_id" : {
"$oid" : "021ff5cd8f174290aab4e7e6"
},
"collection" : "GroupAliasesConfiguration",
"aliases" : {
"active" : [

],
"history" : [

]
},
"runs" : [

],
"attachments" : [

],
"configtype" : "notprovided"
}