{
"document" : {
"data" : {
"NAME" : "GROUP_ALIASES_CONFIGURATION",
"COMMENT" : "Default Backbone.",
"AUTHOR" : "uplegger",
"CREATION_TIME" : 1510964688,
"COL_TYPES" : {
"GROUP_KEY_ALIAS" : "VARCHAR2",
"GROUP_NAME" : "VARCHAR2",
"GROUP_KEY" : "VARCHAR2",
"COMMENT_DESCRIPTION" : "VARCHAR2",
"AUTHOR" : "VARCHAR2",
"RECORD_INSERTION_TIME" : "TIMESTAMP WITH TIMEZONE"
},
"DATA_SET" : [
{
"GROUP_KEY_ALIAS" : "FTBFContextAlias",
"GROUP_NAME" : "FTBFContext",
"GROUP_KEY" : "29",
"COMMENT_DESCRIPTION" : "FTBF \"facility daq\" context alias.",
"AUTHOR" : "uplegger",
"RECORD_INSERTION_TIME" : "1510961076"
},
{
"GROUP_KEY_ALIAS" : "FTBFSystemAlias",
"GROUP_NAME" : "FTBFConfig",
"GROUP_KEY" : "25",
"COMMENT_DESCRIPTION" : "FTBF \"facility daq\" configuration system alias.",
"AUTHOR" : "uplegger",
"RECORD_INSERTION_TIME" : "1510964688"
}
]
},
"metadata" : {

},
"search" : [

]
},
"comments" : [

],
"origin" : {
"source" : "template",
"name" : "notprovided",
"format" : "json",
"created" : "2017-11-17T18:24:48.600-0600",
"rawdata" : [

]
},
"version" : "54",
"entities" : [
{
"name" : "OTSROOT",
"assigned" : "2017-11-17T18:24:48.601-0600"
}
],
"configurations" : [
{
"name" : "notprovided",
"assigned" : "2017-11-17T18:24:48.600-0600"
},
{
"name" : "GroupAliasTreeEditWizBackbone_v13",
"assigned" : "2017-11-17T18:24:50.336-0600"
}
],
"changelog" : "notprovided",
"bookkeeping" : {
"isdeleted" : false,
"isreadonly" : false,
"updates" : [
{
"event" : "addConfiguration",
"timestamp" : "2017-11-17T18:24:48.600-0600",
"value" : {
"name" : "notprovided",
"assigned" : "2017-11-17T18:24:48.600-0600"
}
},
{
"event" : "setVersion",
"timestamp" : "2017-11-17T18:24:48.600-0600",
"value" : {
"name" : "54",
"assigned" : "2017-11-17T18:24:48.600-0600"
}
},
{
"event" : "setCollection",
"timestamp" : "2017-11-17T18:24:48.601-0600",
"value" : {
"name" : "GroupAliasesConfiguration",
"assigned" : "2017-11-17T18:24:48.601-0600"
}
},
{
"event" : "addEntity",
"timestamp" : "2017-11-17T18:24:48.601-0600",
"value" : {
"name" : "OTSROOT",
"assigned" : "2017-11-17T18:24:48.601-0600"
}
},
{
"event" : "addConfiguration",
"timestamp" : "2017-11-17T18:24:50.336-0600",
"value" : {
"name" : "GroupAliasTreeEditWizBackbone_v13",
"assigned" : "2017-11-17T18:24:50.336-0600"
}
}
],
"created" : "2017-11-17T18:24:48.600-0600"
},
"_id" : {
"$oid" : "0795acc8bed6494e89d198a7"
},
"collection" : "GroupAliasesConfiguration",
"aliases" : {
"active" : [

],
"history" : [

]
},
"runs" : [

],
"attachments" : [

],
"configtype" : "notprovided"
}