{
"document" : {
"data" : {
"NAME" : "GROUP_ALIASES_CONFIGURATION",
"COMMENT" : "Default Backbone.",
"AUTHOR" : "admin",
"CREATION_TIME" : 1511892581,
"COL_TYPES" : {
"GROUP_KEY_ALIAS" : "VARCHAR2",
"GROUP_NAME" : "VARCHAR2",
"GROUP_KEY" : "VARCHAR2",
"COMMENT_DESCRIPTION" : "VARCHAR2",
"AUTHOR" : "VARCHAR2",
"RECORD_INSERTION_TIME" : "TIMESTAMP WITH TIMEZONE"
},
"DATA_SET" : [
{
"GROUP_KEY_ALIAS" : "FTBFContextAlias",
"GROUP_NAME" : "FTBFContext",
"GROUP_KEY" : "33",
"COMMENT_DESCRIPTION" : "FTBF \"facility daq\" context alias.",
"AUTHOR" : "admin",
"RECORD_INSERTION_TIME" : "1511892581"
},
{
"GROUP_KEY_ALIAS" : "FTBFSystemAlias",
"GROUP_NAME" : "FTBFConfig",
"GROUP_KEY" : "33",
"COMMENT_DESCRIPTION" : "FTBF \"facility daq\" configuration system alias.",
"AUTHOR" : "uplegger",
"RECORD_INSERTION_TIME" : "1511225853"
}
]
},
"metadata" : {

},
"search" : [

]
},
"comments" : [

],
"origin" : {
"source" : "template",
"name" : "notprovided",
"format" : "json",
"created" : "2017-11-28T12:09:41.265-0600",
"rawdata" : [

]
},
"version" : "66",
"entities" : [
{
"name" : "OTSROOT",
"assigned" : "2017-11-28T12:09:41.266-0600"
}
],
"configurations" : [
{
"name" : "notprovided",
"assigned" : "2017-11-28T12:09:41.266-0600"
},
{
"name" : "TableEditWizBackbone_v38",
"assigned" : "2017-11-28T12:09:43.529-0600"
}
],
"changelog" : "notprovided",
"bookkeeping" : {
"isdeleted" : false,
"isreadonly" : false,
"updates" : [
{
"event" : "addConfiguration",
"timestamp" : "2017-11-28T12:09:41.266-0600",
"value" : {
"name" : "notprovided",
"assigned" : "2017-11-28T12:09:41.266-0600"
}
},
{
"event" : "setVersion",
"timestamp" : "2017-11-28T12:09:41.266-0600",
"value" : {
"name" : "66",
"assigned" : "2017-11-28T12:09:41.266-0600"
}
},
{
"event" : "setCollection",
"timestamp" : "2017-11-28T12:09:41.266-0600",
"value" : {
"name" : "GroupAliasesConfiguration",
"assigned" : "2017-11-28T12:09:41.266-0600"
}
},
{
"event" : "addEntity",
"timestamp" : "2017-11-28T12:09:41.266-0600",
"value" : {
"name" : "OTSROOT",
"assigned" : "2017-11-28T12:09:41.266-0600"
}
},
{
"event" : "addConfiguration",
"timestamp" : "2017-11-28T12:09:43.529-0600",
"value" : {
"name" : "TableEditWizBackbone_v38",
"assigned" : "2017-11-28T12:09:43.529-0600"
}
}
],
"created" : "2017-11-28T12:09:41.265-0600"
},
"_id" : {
"$oid" : "38fa8a1fa70847f7aab201e7"
},
"collection" : "GroupAliasesConfiguration",
"aliases" : {
"active" : [

],
"history" : [

]
},
"runs" : [

],
"attachments" : [

],
"configtype" : "notprovided"
}