{
"document" : {
"data" : {
"NAME" : "GROUP_ALIASES_CONFIGURATION",
"COMMENT" : "Default Backbone.",
"AUTHOR" : "admin",
"CREATION_TIME" : 1513182123,
"COL_TYPES" : {
"GROUP_KEY_ALIAS" : "VARCHAR2",
"GROUP_NAME" : "VARCHAR2",
"GROUP_KEY" : "VARCHAR2",
"COMMENT_DESCRIPTION" : "VARCHAR2",
"AUTHOR" : "VARCHAR2",
"RECORD_INSERTION_TIME" : "TIMESTAMP WITH TIMEZONE"
},
"DATA_SET" : [
{
"GROUP_KEY_ALIAS" : "FTBFContextNoPixels",
"GROUP_NAME" : "FTBFContext",
"GROUP_KEY" : "52",
"COMMENT_DESCRIPTION" : "Outer Tracker Context without pixels",
"AUTHOR" : "admin",
"RECORD_INSERTION_TIME" : "1512325946"
},
{
"GROUP_KEY_ALIAS" : "FTBFContextPixels",
"GROUP_NAME" : "FTBFContext",
"GROUP_KEY" : "53",
"COMMENT_DESCRIPTION" : "Outer Tracker Context with pixels",
"AUTHOR" : "admin",
"RECORD_INSERTION_TIME" : "1513182123"
},
{
"GROUP_KEY_ALIAS" : "FTBFSystemAlias",
"GROUP_NAME" : "FTBFConfig",
"GROUP_KEY" : "105",
"COMMENT_DESCRIPTION" : "FTBF \"facility daq\" configuration system alias.",
"AUTHOR" : "admin",
"RECORD_INSERTION_TIME" : "1513113911"
},
{
"GROUP_KEY_ALIAS" : "FTBFNIMPlusTestContext",
"GROUP_NAME" : "FTBFContext",
"GROUP_KEY" : "43",
"COMMENT_DESCRIPTION" : "This Group Alias was automatically setup by the server.",
"AUTHOR" : "admin",
"RECORD_INSERTION_TIME" : "1512325946"
},
{
"GROUP_KEY_ALIAS" : "FTBFNIMPlusTestConfig",
"GROUP_NAME" : "FTBFConfigNim",
"GROUP_KEY" : "20",
"COMMENT_DESCRIPTION" : "This Group Alias was automatically setup by the server.",
"AUTHOR" : "admin",
"RECORD_INSERTION_TIME" : "1512325946"
}
]
},
"metadata" : {

},
"search" : [

]
},
"comments" : [

],
"origin" : {
"source" : "template",
"name" : "notprovided",
"format" : "json",
"created" : "2017-12-13T10:22:03.292-0600",
"rawdata" : [

]
},
"version" : "203",
"entities" : [
{
"name" : "OTSROOT",
"assigned" : "2017-12-13T10:22:03.295-0600"
}
],
"configurations" : [
{
"name" : "notprovided",
"assigned" : "2017-12-13T10:22:03.293-0600"
},
{
"name" : "GroupAliasTreeEditWizBackbone_v70",
"assigned" : "2017-12-13T10:22:08.027-0600"
}
],
"changelog" : "notprovided",
"bookkeeping" : {
"isdeleted" : false,
"isreadonly" : false,
"updates" : [
{
"event" : "addConfiguration",
"timestamp" : "2017-12-13T10:22:03.293-0600",
"value" : {
"name" : "notprovided",
"assigned" : "2017-12-13T10:22:03.293-0600"
}
},
{
"event" : "setVersion",
"timestamp" : "2017-12-13T10:22:03.294-0600",
"value" : {
"name" : "203",
"assigned" : "2017-12-13T10:22:03.294-0600"
}
},
{
"event" : "setCollection",
"timestamp" : "2017-12-13T10:22:03.294-0600",
"value" : {
"name" : "GroupAliasesConfiguration",
"assigned" : "2017-12-13T10:22:03.294-0600"
}
},
{
"event" : "addEntity",
"timestamp" : "2017-12-13T10:22:03.295-0600",
"value" : {
"name" : "OTSROOT",
"assigned" : "2017-12-13T10:22:03.295-0600"
}
},
{
"event" : "addConfiguration",
"timestamp" : "2017-12-13T10:22:08.027-0600",
"value" : {
"name" : "GroupAliasTreeEditWizBackbone_v70",
"assigned" : "2017-12-13T10:22:08.027-0600"
}
}
],
"created" : "2017-12-13T10:22:03.292-0600"
},
"_id" : {
"$oid" : "3900808b828b43cf86e33a61"
},
"collection" : "GroupAliasesConfiguration",
"aliases" : {
"active" : [

],
"history" : [

]
},
"runs" : [

],
"attachments" : [

],
"configtype" : "notprovided"
}