{
"document" : {
"data" : {
"NAME" : "FENIM_PLUS_INTERFACE_OPTIONAL_CONFIGURATION",
"COMMENT" : "NIM+ advanced features.",
"AUTHOR" : "admin",
"CREATION_TIME" : 1512668985,
"COL_TYPES" : {
"INTERFACE_ID" : "VARCHAR2",
"ENABLE_EXPERT_WEBAPP_FEATURES" : "VARCHAR2",
"ENABLE_CLOCK_RESET_DURING_CONFIGURE" : "VARCHAR2",
"USE_EXTERNAL_CLOCK" : "VARCHAR2",
"ENABLE_DAC_SETUP_DURING_CONFIGURE" : "VARCHAR2",
"DAC_VALUE_CHANNEL_A" : "NUMBER",
"DAC_VALUE_CHANNEL_B" : "NUMBER",
"DAC_VALUE_CHANNEL_C" : "NUMBER",
"DAC_VALUE_CHANNEL_D" : "NUMBER",
"DELAY_INPUT_CHANNEL_A" : "NUMBER",
"WIDTH_INPUT_CHANNEL_A" : "NUMBER",
"INVERT_POLARITY_INPUT_CHANNEL_A" : "VARCHAR2",
"DELAY_INPUT_CHANNEL_B" : "NUMBER",
"WIDTH_INPUT_CHANNEL_B" : "NUMBER",
"INVERT_POLARITY_INPUT_CHANNEL_B" : "VARCHAR2",
"DELAY_INPUT_CHANNEL_C" : "NUMBER",
"WIDTH_INPUT_CHANNEL_C" : "NUMBER",
"INVERT_POLARITY_INPUT_CHANNEL_C" : "VARCHAR2",
"DELAY_INPUT_CHANNEL_D" : "NUMBER",
"WIDTH_INPUT_CHANNEL_D" : "NUMBER",
"INVERT_POLARITY_INPUT_CHANNEL_D" : "VARCHAR2",
"ENABLE_BACK_PRESSURE_INPUT_A" : "VARCHAR2",
"ENABLE_BACK_PRESSURE_INPUT_B" : "VARCHAR2",
"OVERRIDE1ST_AND_WITH_SELECTION_LOGIC_REGISTER" : "NUMBER",
"OVERRIDE2ND_OR_WITH_SELECTION_LOGIC_REGISTER" : "NUMBER",
"ACCELERATOR_CLOCK_MASK" : "NUMBER",
"TRIGGER_CLOCK_MASK" : "NUMBER",
"DELAY_OUTPUT_CHANNEL0" : "NUMBER",
"WIDTH_OUTPUT_CHANNEL0" : "NUMBER",
"OUTPUT_TIME_VETO_DURATION_CHANNEL0" : "NUMBER",
"OUTPUT_PRESCALE_COUNT_CHANNEL0" : "NUMBER",
"OUTPUT_BACKPRESSURE_SELECT_CHANNEL0" : "VARCHAR2",
"ENABLE_CLOCK_MASK_CHANNEL0" : "VARCHAR2",
"INPUT_CHANNEL_VETO_SOURCE_FOR_OUTPUT_CHANNEL0" : "VARCHAR2",
"DELAY_OUTPUT_CHANNEL1" : "NUMBER",
"WIDTH_OUTPUT_CHANNEL1" : "NUMBER",
"OUTPUT_TIME_VETO_DURATION_CHANNEL1" : "NUMBER",
"OUTPUT_PRESCALE_COUNT_CHANNEL1" : "NUMBER",
"OUTPUT_BACKPRESSURE_SELECT_CHANNEL1" : "VARCHAR2",
"ENABLE_CLOCK_MASK_CHANNEL1" : "VARCHAR2",
"INPUT_CHANNEL_VETO_SOURCE_FOR_OUTPUT_CHANNEL1" : "VARCHAR2",
"DELAY_OUTPUT_CHANNEL2" : "NUMBER",
"WIDTH_OUTPUT_CHANNEL2" : "NUMBER",
"OUTPUT_TIME_VETO_DURATION_CHANNEL2" : "NUMBER",
"OUTPUT_PRESCALE_COUNT_CHANNEL2" : "NUMBER",
"OUTPUT_BACKPRESSURE_SELECT_CHANNEL2" : "VARCHAR2",
"ENABLE_CLOCK_MASK_CHANNEL2" : "VARCHAR2",
"INPUT_CHANNEL_VETO_SOURCE_FOR_OUTPUT_CHANNEL2" : "VARCHAR2",
"INVERT_POLARITY_OUTPUT_CHANNEL_A" : "VARCHAR2",
"INVERT_POLARITY_OUTPUT_CHANNEL_B" : "VARCHAR2",
"INVERT_POLARITY_OUTPUT_CHANNEL_C" : "VARCHAR2",
"INVERT_POLARITY_OUTPUT_CHANNEL_D" : "VARCHAR2",
"SIGNAL_GENERATOR_PULSE_COUNT" : "NUMBER",
"SIGNAL_GENERATOR_HIGH_PERIOD" : "NUMBER",
"SIGNAL_GENERATOR_LOW_PERIOD" : "NUMBER",
"SIGNAL_GENERATOR_INVERT_POLARITY" : "VARCHAR2",
"SIGNAL_GENERATOR_ENABLE" : "VARCHAR2",
"ENABLE_BURST_DATA" : "VARCHAR2",
"BURST_DATA_MUX_SELECT" : "VARCHAR2",
"BURST_DATA_LOGIC_SAMPLE_DELAY" : "NUMBER",
"BURST_DATA_GATE_INPUT_CHANNEL" : "VARCHAR2",
"COMMENT_DESCRIPTION" : "VARCHAR2",
"AUTHOR" : "VARCHAR2",
"RECORD_INSERTION_TIME" : "TIMESTAMP WITH TIMEZONE"
},
"DATA_SET" : [
{
"INTERFACE_ID" : "NIM0",
"ENABLE_EXPERT_WEBAPP_FEATURES" : "Yes",
"ENABLE_CLOCK_RESET_DURING_CONFIGURE" : "No",
"USE_EXTERNAL_CLOCK" : "Yes",
"ENABLE_DAC_SETUP_DURING_CONFIGURE" : "Yes",
"DAC_VALUE_CHANNEL_A" : "1000",
"DAC_VALUE_CHANNEL_B" : "2500",
"DAC_VALUE_CHANNEL_C" : "2500",
"DAC_VALUE_CHANNEL_D" : "2500",
"DELAY_INPUT_CHANNEL_A" : "0",
"WIDTH_INPUT_CHANNEL_A" : "4",
"INVERT_POLARITY_INPUT_CHANNEL_A" : "Yes",
"DELAY_INPUT_CHANNEL_B" : "0",
"WIDTH_INPUT_CHANNEL_B" : "10",
"INVERT_POLARITY_INPUT_CHANNEL_B" : "Yes",
"DELAY_INPUT_CHANNEL_C" : "0",
"WIDTH_INPUT_CHANNEL_C" : "3",
"INVERT_POLARITY_INPUT_CHANNEL_C" : "Yes",
"DELAY_INPUT_CHANNEL_D" : "0",
"WIDTH_INPUT_CHANNEL_D" : "3",
"INVERT_POLARITY_INPUT_CHANNEL_D" : "Yes",
"ENABLE_BACK_PRESSURE_INPUT_A" : "True",
"ENABLE_BACK_PRESSURE_INPUT_B" : "False",
"OVERRIDE1ST_AND_WITH_SELECTION_LOGIC_REGISTER" : "0xFFFF",
"OVERRIDE2ND_OR_WITH_SELECTION_LOGIC_REGISTER" : "0",
"ACCELERATOR_CLOCK_MASK" : "b0100",
"TRIGGER_CLOCK_MASK" : "b0100",
"DELAY_OUTPUT_CHANNEL0" : "0",
"WIDTH_OUTPUT_CHANNEL0" : "1",
"OUTPUT_TIME_VETO_DURATION_CHANNEL0" : "0",
"OUTPUT_PRESCALE_COUNT_CHANNEL0" : "0",
"OUTPUT_BACKPRESSURE_SELECT_CHANNEL0" : "False",
"ENABLE_CLOCK_MASK_CHANNEL0" : "False",
"INPUT_CHANNEL_VETO_SOURCE_FOR_OUTPUT_CHANNEL0" : "DEFAULT",
"DELAY_OUTPUT_CHANNEL1" : "0",
"WIDTH_OUTPUT_CHANNEL1" : "8",
"OUTPUT_TIME_VETO_DURATION_CHANNEL1" : "0",
"OUTPUT_PRESCALE_COUNT_CHANNEL1" : "0",
"OUTPUT_BACKPRESSURE_SELECT_CHANNEL1" : "True",
"ENABLE_CLOCK_MASK_CHANNEL1" : "True",
"INPUT_CHANNEL_VETO_SOURCE_FOR_OUTPUT_CHANNEL1" : "DEFAULT",
"DELAY_OUTPUT_CHANNEL2" : "0",
"WIDTH_OUTPUT_CHANNEL2" : "12",
"OUTPUT_TIME_VETO_DURATION_CHANNEL2" : "0",
"OUTPUT_PRESCALE_COUNT_CHANNEL2" : "0",
"OUTPUT_BACKPRESSURE_SELECT_CHANNEL2" : "False",
"ENABLE_CLOCK_MASK_CHANNEL2" : "False",
"INPUT_CHANNEL_VETO_SOURCE_FOR_OUTPUT_CHANNEL2" : "DEFAULT",
"INVERT_POLARITY_OUTPUT_CHANNEL_A" : "Yes",
"INVERT_POLARITY_OUTPUT_CHANNEL_B" : "Yes",
"INVERT_POLARITY_OUTPUT_CHANNEL_C" : "Yes",
"INVERT_POLARITY_OUTPUT_CHANNEL_D" : "Yes",
"SIGNAL_GENERATOR_PULSE_COUNT" : "0",
"SIGNAL_GENERATOR_HIGH_PERIOD" : "10",
"SIGNAL_GENERATOR_LOW_PERIOD" : "3190",
"SIGNAL_GENERATOR_INVERT_POLARITY" : "No",
"SIGNAL_GENERATOR_ENABLE" : "Yes",
"ENABLE_BURST_DATA" : "False",
"BURST_DATA_MUX_SELECT" : "DEFAULT",
"BURST_DATA_LOGIC_SAMPLE_DELAY" : "0",
"BURST_DATA_GATE_INPUT_CHANNEL" : "DEFAULT",
"COMMENT_DESCRIPTION" : "No Comment",
"AUTHOR" : "admin",
"RECORD_INSERTION_TIME" : "1512668985"
}
]
},
"metadata" : {

},
"search" : [

]
},
"comments" : [

],
"origin" : {
"source" : "template",
"name" : "notprovided",
"format" : "json",
"created" : "2017-12-07T11:49:45.818-0600",
"rawdata" : [

]
},
"version" : "79",
"entities" : [
{
"name" : "OTSROOT",
"assigned" : "2017-12-07T11:49:45.821-0600"
}
],
"configurations" : [
{
"name" : "notprovided",
"assigned" : "2017-12-07T11:49:45.819-0600"
},
{
"name" : "FTBFConfig_v99",
"assigned" : "2017-12-07T11:49:59.745-0600"
},
{
"name" : "FTBFConfig_v100",
"assigned" : "2017-12-07T11:58:26.493-0600"
},
{
"name" : "FTBFConfig_v101",
"assigned" : "2017-12-08T13:30:48.657-0600"
}
],
"changelog" : "notprovided",
"bookkeeping" : {
"isdeleted" : false,
"isreadonly" : false,
"updates" : [
{
"event" : "addConfiguration",
"timestamp" : "2017-12-07T11:49:45.819-0600",
"value" : {
"name" : "notprovided",
"assigned" : "2017-12-07T11:49:45.819-0600"
}
},
{
"event" : "setVersion",
"timestamp" : "2017-12-07T11:49:45.820-0600",
"value" : {
"name" : "79",
"assigned" : "2017-12-07T11:49:45.820-0600"
}
},
{
"event" : "setCollection",
"timestamp" : "2017-12-07T11:49:45.821-0600",
"value" : {
"name" : "FENIMPlusInterfaceOptionalConfiguration",
"assigned" : "2017-12-07T11:49:45.821-0600"
}
},
{
"event" : "addEntity",
"timestamp" : "2017-12-07T11:49:45.821-0600",
"value" : {
"name" : "OTSROOT",
"assigned" : "2017-12-07T11:49:45.821-0600"
}
},
{
"event" : "addConfiguration",
"timestamp" : "2017-12-07T11:49:59.745-0600",
"value" : {
"name" : "FTBFConfig_v99",
"assigned" : "2017-12-07T11:49:59.745-0600"
}
},
{
"event" : "addConfiguration",
"timestamp" : "2017-12-07T11:58:26.493-0600",
"value" : {
"name" : "FTBFConfig_v100",
"assigned" : "2017-12-07T11:58:26.493-0600"
}
},
{
"event" : "addConfiguration",
"timestamp" : "2017-12-08T13:30:48.657-0600",
"value" : {
"name" : "FTBFConfig_v101",
"assigned" : "2017-12-08T13:30:48.657-0600"
}
}
],
"created" : "2017-12-07T11:49:45.818-0600"
},
"_id" : {
"$oid" : "bbc53baf093646329eba2c9d"
},
"collection" : "FENIMPlusInterfaceOptionalConfiguration",
"aliases" : {
"active" : [

],
"history" : [

]
},
"runs" : [

],
"attachments" : [

],
"configtype" : "notprovided"
}