28 Jul 2020 16:48:03.636 [139720082331840] INFO  gov.fnal.dhcp.kenny01.p:2016 <> - xdaq version: 05.03.01, compiled on Apr 19 2019 at 09:27:21, 64bit
28 Jul 2020 16:48:03.638 [139720082331840] INFO  gov.fnal.dhcp.kenny01.p:2016 <> - Loaded profile: /home/otsdaq/Programming/otsdaq/srcs/otsdaq_cmsoutertracker/DataIterator/XDAQConfigurations/otsConfiguration_CMake.xml
28 Jul 2020 16:48:03.639 [139720082331840] INFO  gov.fnal.dhcp.kenny01.p:2016 <> - b2innub version: 02.05.01, compiled on Apr 19 2019 at 09:30:32
28 Jul 2020 16:48:03.640 [139720082331840] INFO  gov.fnal.dhcp.kenny01.p:2016 <> - executive version: 04.00.06, compiled on Apr 19 2019 at 09:29:54
28 Jul 2020 16:48:03.642 [139720082331840] INFO  gov.fnal.dhcp.kenny01.p:2016 <> - b2inutils version: 04.04.05, compiled on Apr 19 2019 at 09:30:40
28 Jul 2020 16:48:03.644 [139720082331840] INFO  gov.fnal.dhcp.kenny01.p:2016 <> - pthttp version: 04.05.07, compiled on Apr 19 2019 at 09:28:34
28 Jul 2020 16:48:03.645 [139720082331840] INFO  gov.fnal.dhcp.kenny01.p:2016 <> - ptfifo version: 04.03.01, compiled on Apr 19 2019 at 09:29:26
28 Jul 2020 16:48:03.645 [139720082331840] INFO  gov.fnal.dhcp.kenny01.p:2016 <> - xrelay version: 04.01.00, compiled on Apr 19 2019 at 09:30:24
28 Jul 2020 16:48:03.648 [139720082331840] INFO  gov.fnal.dhcp.kenny01.p:2016 <> - hyperdaq version: 05.02.01, compiled on Apr 19 2019 at 09:30:21
28 Jul 2020 16:48:03.649 [139720082331840] DEBUG gov.fnal.dhcp.kenny01.p:2016 <> - Create application descriptor for class: executive::Application id: 0
28 Jul 2020 16:48:03.660 [139720082331840] INFO  gov.fnal.dhcp.kenny01.p:2016.executive::Application.lid(0) <> - Log URL not set (was already console)
28 Jul 2020 16:48:03.661 [139720082331840] INFO  gov.fnal.dhcp.kenny01.p:2016.executive::Application.lid(0) <> - Changed Log level to INFO
28 Jul 2020 16:48:03.664 [139720082331840] INFO  gov.fnal.dhcp.kenny01.p:2016.pt::http::PeerTransportHTTP.lid(1) <> - No security policies on this server
07-28 11:48:03.860970                    MessageFacility.h dbg Configuring message facility with /home/otsdaq/Programming/otsdaq/srcs/otsdaq_cmsoutertracker/DataIterator/MessageFacilityConfigurations/MessageFacilityWiz.fcl
udp: { 
	type: 					UDP 
	threshold: 				DEBUG 
	port: 					32016 
	host: 					"127.0.0.1" 
}

console: { 
	type: 					OTS
	threshold: 				DEBUG
	filename_delimit: 		"/srcs/"
	format_string: 			"|%L:%N:%f [%u]\t%m"
}

#file: {
#	type: "file" 
#	filename: "/dev/null" 
#}
file:""


|Info:configureMessageFacility:configureMessageFacility.cc [290]	Message Facility Application . configured with: destinations:{console:{filename_delimit:"/srcs/" format_string:"|%L:%N:%f [%u]\t%m" threshold:"DEBUG" type:"OTS"} file:"" udp:{host:"127.0.0.1" port:32016 threshold:"DEBUG" type:"UDP"}}
07-28 11:48:03.874108                         OTSDAQ_TRACE nfo Resolving host 127.0.0.1, on port 32016
07-28 11:48:03.874382                         OTSDAQ_TRACE nfo Resolving ip kenny01.dhcp.fnal.gov
|Debug:WebUsers:otsdaq/otsdaq/WebUsersUtilities/WebUsers.cc [484]	/home/otsdaq/Programming/otsdaq/srcs/otsdaq_cmsoutertracker/DataIterator/ServiceData/LoginData/HashesData//hashes.xml
|Debug:WebUsers:otsdaq/otsdaq/WebUsersUtilities/WebUsers.cc [537]	0 Hashes found.
|Debug:WebUsers:otsdaq/otsdaq/WebUsersUtilities/WebUsers.cc [574]	Users database: /home/otsdaq/Programming/otsdaq/srcs/otsdaq_cmsoutertracker/DataIterator/ServiceData/LoginData/UsersData//users.xml
|Debug:WebUsers:otsdaq/otsdaq/WebUsersUtilities/WebUsers.cc [601]	Found Users database next user Id: 1
|Debug:WebUsers:otsdaq/otsdaq/WebUsersUtilities/WebUsers.cc [698]	1 Users found.
User [0] 	Name: admin               	Display Name: Administrator                 	Email: root@otsdaq.fnal.gov          	NAC: 00000	FailedCount: 0	Permissions: allUsers: 255
|Debug:WebUsers:otsdaq/otsdaq/WebUsersUtilities/WebUsers.cc [3232]	The current security type is NoSecurity
|Debug:WebUsers:otsdaq/otsdaq/WebUsersUtilities/WebUsers.cc [3242]	CareAboutCookieCodes_: 0
|Debug:WebUsers:otsdaq/otsdaq/WebUsersUtilities/WebUsers.cc [402]	/home/otsdaq/Programming/otsdaq/srcs/otsdaq_cmsoutertracker/DataIterator/ServiceData/LoginData/UsersData//activeSessions.sv
|Debug:WebUsers:otsdaq/otsdaq/WebUsersUtilities/WebUsers.cc [452]	Active Sessions loaded with size 0
|Debug:WebUsers:otsdaq/otsdaq/WebUsersUtilities/WebUsers.cc [2894]	Attempting to load username with lock: admin
|Debug:WebUsers:otsdaq/otsdaq/WebUsersUtilities/WebUsers.cc [2908]	Setting lock
|Debug:WebUsers:otsdaq/otsdaq/WebUsersUtilities/WebUsers.cc [2642]	actingUser = admin
|Debug:WebUsers:otsdaq/otsdaq/WebUsersUtilities/WebUsers.cc [2643]	Permissions: allUsers: 255
|Debug:WebUsers:otsdaq/otsdaq/WebUsersUtilities/WebUsers.cc [2644]	usersUsernameWithLock_ = 
|Debug:WebUsers:otsdaq/otsdaq/WebUsersUtilities/WebUsers.cc [2645]	lock = 1
|Debug:WebUsers:otsdaq/otsdaq/WebUsersUtilities/WebUsers.cc [2646]	username = admin
|Debug:WebUsers:otsdaq/otsdaq/WebUsersUtilities/WebUsers.cc [2647]	isUsernameActive(username) = 0
|Info:WebUsers:otsdaq/otsdaq/WebUsersUtilities/WebUsers.cc [2673]	User 'admin' has locked out the system!
|Debug:WebUsers:otsdaq/otsdaq/WebUsersUtilities/WebUsers.cc [157]	Done with Web Users initialization!
28 Jul 2020 16:48:03.876 [139720082331840] INFO  gov.fnal.dhcp.kenny01.p:2016 <> - ConfigurationGUI version: 03.00.00, compiled on Jul 28 2020 at 11:00:53
28 Jul 2020 16:48:03.879 [139720082331840] INFO  gov.fnal.dhcp.kenny01.p:2016 <> - WizardSupervisor version: 01.00.00, compiled on Jul 28 2020 at 10:59:55
28 Jul 2020 16:48:03.881 [139720082331840] INFO  gov.fnal.dhcp.kenny01.p:2016 <> - Console version: 03.00.00, compiled on Jul 28 2020 at 11:00:54
28 Jul 2020 16:48:03.883 [139720082331840] INFO  gov.fnal.dhcp.kenny01.p:2016 <> - CodeEditor version: 03.00.00, compiled on Jul 28 2020 at 10:59:57
|Debug:CorePropertySupervisorBase.cc:otsdaq/otsdaq/CoreSupervisors/CorePropertySupervisorBase.cc [24]	ConfigurationGUISupervisor:UNINITIALIZED_supervisorApplicationUID	<> application->getApplicationContext()->getContextDescriptor()->getURL() = http://kenny01.dhcp.fnal.gov:2016
|Debug:CorePropertySupervisorBase.cc:otsdaq/otsdaq/CoreSupervisors/CorePropertySupervisorBase.cc [25]	ConfigurationGUISupervisor:UNINITIALIZED_supervisorApplicationUID	<> application->getApplicationDescriptor()->getLocalId() = 280
|Debug:CorePropertySupervisorBase.cc:otsdaq/otsdaq/CoreSupervisors/CorePropertySupervisorBase.cc [26]	ConfigurationGUISupervisor:UNINITIALIZED_supervisorApplicationUID	<> supervisorClass_ = ots::ConfigurationGUISupervisor
|Debug:CorePropertySupervisorBase.cc:otsdaq/otsdaq/CoreSupervisors/CorePropertySupervisorBase.cc [27]	ConfigurationGUISupervisor:UNINITIALIZED_supervisorApplicationUID	<> supervisorClassNoNamespace_ = ConfigurationGUISupervisor
|Debug:AllSupervisorInfo.cc:otsdaq/otsdaq/SupervisorInfo/AllSupervisorInfo.cc [48]	Initializing info based on XDAQ context...
|Debug:SupervisorDescriptorInfoBase.cc:otsdaq/otsdaq/SupervisorInfo/SupervisorDescriptorInfoBase.cc [33]	Init
|Debug:AllSupervisorInfo.cc:otsdaq/otsdaq/SupervisorInfo/AllSupervisorInfo.cc [105]	Initializing info for Wiz mode XDAQ context...
|Debug:AllSupervisorInfo.cc:otsdaq/otsdaq/SupervisorInfo/AllSupervisorInfo.cc [288]	TRACE app for hostname 'kenny01.dhcp.fnal.gov' is CLASS:LID = ots::CodeEditorSupervisor:240
|Debug:AllSupervisorInfo.cc:otsdaq/otsdaq/SupervisorInfo/AllSupervisorInfo.cc [298]	TRACE app count = 1
|Debug:AllSupervisorInfo.cc:otsdaq/otsdaq/SupervisorInfo/AllSupervisorInfo.cc [304]	Supervisor Info initialization complete!
|Debug:CorePropertySupervisorBase.cc:otsdaq/otsdaq/CoreSupervisors/CorePropertySupervisorBase.cc [54]	ConfigurationGUISupervisor:UNINITIALIZED_supervisorApplicationUID	<> Wiz mode detected. So skipping configuration location work for supervisor of class 'ots::ConfigurationGUISupervisor'
|Debug:CorePropertySupervisorBase.cc:otsdaq/otsdaq/CoreSupervisors/CorePropertySupervisorBase.cc [61]	ConfigurationGUISupervisor:280	<> CorePropertySupervisorBase::supervisorContextUID_ = NO CONTEXT ID IN WIZ MODE
|Debug:CorePropertySupervisorBase.cc:otsdaq/otsdaq/CoreSupervisors/CorePropertySupervisorBase.cc [62]	ConfigurationGUISupervisor:280	<> CorePropertySupervisorBase::supervisorApplicationUID_ = 280
|Debug:CorePropertySupervisorBase.cc:otsdaq/otsdaq/CoreSupervisors/CorePropertySupervisorBase.cc [63]	ConfigurationGUISupervisor:280	<> CorePropertySupervisorBase::supervisorConfigurationPath_ = NO APP PATH IN WIZ MODE
|Debug:FSM:otsdaq/otsdaq/FiniteStateMachine/FiniteStateMachine.cc [19]	FSM-ConfigurationGUISupervisor	<> Constructing FiniteStateMachine
|Debug:FSM:otsdaq/otsdaq/FiniteStateMachine/RunControlStateMachine.cc [97]	FSM-ConfigurationGUISupervisor	<> Resetting RunControlStateMachine with name 'ConfigurationGUISupervisor'...
|Debug:WorkLoopManager.cc:otsdaq/otsdaq/WorkLoopManager/WorkLoopManager.cc [19]	Request name: StateMachine jobName: StateMachine
|Debug:CoreSupervisorBase.cc:otsdaq/otsdaq/CoreSupervisors/CoreSupervisorBase.cc [26]	ConfigurationGUISupervisor:280	<> Constructor.
|Debug:CoreSupervisorBase.cc:otsdaq/otsdaq/CoreSupervisors/CoreSupervisorBase.cc [41]	ConfigurationGUISupervisor:280	<> Constructed.
|Debug:CfgGUI:otsdaq_utilities/otsdaq-utilities/ConfigurationGUI/ConfigurationGUISupervisor.cc [46]	ConfigurationGUISupervisor:280	<> Constructor started.
|Debug:CfgGUI:otsdaq_utilities/otsdaq-utilities/ConfigurationGUI/ConfigurationGUISupervisor.cc [63]	ConfigurationGUISupervisor:280	<> Initializing...
|Debug:CfgGUI:otsdaq_utilities/otsdaq-utilities/ConfigurationGUI/ConfigurationGUISupervisor.cc [65]	ConfigurationGUISupervisor:280	<> Activating saved context, which may prepare for normal mode...
|Debug:CfgGUI:otsdaq_utilities/otsdaq-utilities/ConfigurationGUI/ConfigurationGUISupervisor.cc [6929]	ConfigurationGUISupervisor:280	<> Attempting test activation of the context group.
|Debug:TableBase:otsdaq/otsdaq/TableCore/TableBase.cc [90]	TableBase-TableGroupMetadata	<> Special table 'TableGroupMetadata' constructed. 1
|Debug:ConfigurationManager:otsdaq/otsdaq/ConfigurationInterface/ConfigurationManager.cc [179]	username_ = READONLY_USER
|Debug:ConfigurationManager:otsdaq/otsdaq/ConfigurationInterface/ConfigurationManager.cc [225]	ACTIVE_GROUPS_FILENAME = /home/otsdaq/Programming/otsdaq/srcs/otsdaq_cmsoutertracker/DataIterator/ServiceData/ActiveTableGroups.cfg
|Debug:ConfigurationManager:otsdaq/otsdaq/ConfigurationInterface/ConfigurationManager.cc [226]	ARTDAQ_DATABASE_URI = filesystemdb:///home/otsdaq/Programming/otsdaq/srcs/otsdaq_cmsoutertracker/databases/filesystemdb/iterator_db
|Debug:ConfigurationManager:otsdaq/otsdaq/ConfigurationInterface/ConfigurationManager.cc [1363]	------------------------------------- init start    	 [for all plug-ins in Context group 'DefaultContext(8)']
|Debug:MessageFacilityTable_table.cc:otsdaq/otsdaq/TablePlugins/MessageFacilityTable_table.cc [111]	Forwarding to Web GUI with UDP forward MesageFacility table.
|Debug:MessageFacilityTable_table.cc:otsdaq/otsdaq/TablePlugins/MessageFacilityTable_table.cc [233]	Opened.. /home/otsdaq/Programming/otsdaq/srcs/otsdaq_cmsoutertracker/DataIterator/MessageFacilityConfigurations/MessageFacilityGen.fcl
|Debug:MessageFacilityTable_table.cc:otsdaq/otsdaq/TablePlugins/MessageFacilityTable_table.cc [244]	Opened for artdaq.. /home/otsdaq/Programming/otsdaq/srcs/otsdaq_cmsoutertracker/DataIterator/MessageFacilityConfigurations/ARTDAQInterfaceMessageFacilityGen.fcl
|Debug:XDAQContextTable_table.cc:otsdaq/otsdaq/TablePlugins/XDAQContextTable_table.cc [248]	Fixing deprecated Supervisor class from ots::Supervisor to ots::GatewaySupervisor
|Debug:ConfigurationManager:otsdaq/otsdaq/ConfigurationInterface/ConfigurationManager.cc [1529]	------------------------------------- init complete 	 [for all plug-ins in Context group 'DefaultContext(8)']
|Debug:ConfigurationManager:otsdaq/otsdaq/ConfigurationInterface/ConfigurationManager.cc [1363]	------------------------------------- init start    	 [for all plug-ins in Backbone group 'GroupAliasTreeEditWizBackbone(6)']
|Debug:ConfigurationManager:otsdaq/otsdaq/ConfigurationInterface/ConfigurationManager.cc [1529]	------------------------------------- init complete 	 [for all plug-ins in Backbone group 'GroupAliasTreeEditWizBackbone(6)']
|Warning:ConfigurationManager:otsdaq/otsdaq/ConfigurationInterface/ConfigurationManager.cc [1356]	Not loading group because it is not of type Context or Backbone (it is type 'Iterate').
|Warning:ConfigurationManager:otsdaq/otsdaq/ConfigurationInterface/ConfigurationManager.cc [1356]	Not loading group because it is not of type Context or Backbone (it is type 'Configuration').
|Debug:ConfigurationManager:otsdaq/otsdaq/ConfigurationInterface/ConfigurationManager.cc [442]	Destroying Backbone Key: 6
|Debug:ConfigurationManager:otsdaq/otsdaq/ConfigurationInterface/ConfigurationManager.cc [460]	Destroying Context Key: 8
|Debug:CfgGUI:otsdaq_utilities/otsdaq-utilities/ConfigurationGUI/ConfigurationGUISupervisor.cc [74]	ConfigurationGUISupervisor:280	<> Done with test context.
|Debug:CfgGUI:otsdaq_utilities/otsdaq-utilities/ConfigurationGUI/ConfigurationGUISupervisor.cc [54]	ConfigurationGUISupervisor:280	<> Constructor complete.
|Debug:Wizard:otsdaq/otsdaq/WizardSupervisor/WizardSupervisor.cc [96]	Constructor.
|Debug:AllSupervisorInfo.cc:otsdaq/otsdaq/SupervisorInfo/AllSupervisorInfo.cc [48]	Initializing info based on XDAQ context...
|Debug:SupervisorDescriptorInfoBase.cc:otsdaq/otsdaq/SupervisorInfo/SupervisorDescriptorInfoBase.cc [33]	Init
|Debug:AllSupervisorInfo.cc:otsdaq/otsdaq/SupervisorInfo/AllSupervisorInfo.cc [105]	Initializing info for Wiz mode XDAQ context...
|Debug:AllSupervisorInfo.cc:otsdaq/otsdaq/SupervisorInfo/AllSupervisorInfo.cc [288]	TRACE app for hostname 'kenny01.dhcp.fnal.gov' is CLASS:LID = ots::CodeEditorSupervisor:240
|Debug:AllSupervisorInfo.cc:otsdaq/otsdaq/SupervisorInfo/AllSupervisorInfo.cc [298]	TRACE app count = 1
|Debug:AllSupervisorInfo.cc:otsdaq/otsdaq/SupervisorInfo/AllSupervisorInfo.cc [304]	Supervisor Info initialization complete!
|Info:Wizard:otsdaq/otsdaq/WizardSupervisor/WizardSupervisor.cc [287]	Sequence length file found: /home/otsdaq/Programming/otsdaq/srcs/otsdaq_cmsoutertracker/DataIterator/ServiceData/OtsWizardData/sequence.dat
|Debug:Wizard:otsdaq/otsdaq/WizardSupervisor/WizardSupervisor.cc [304]	Sequence length = 8
|Debug:Wizard:otsdaq/otsdaq/WizardSupervisor/WizardSupervisor.cc [318]	kenny01.dhcp.fnal.gov:2016/urn:xdaq-application:lid=290/Verify?code=LbJ05bRJ
|Debug:CorePropertySupervisorBase.cc:otsdaq/otsdaq/CoreSupervisors/CorePropertySupervisorBase.cc [168]	Marked alive: /home/otsdaq/Programming/otsdaq/srcs/otsdaq_cmsoutertracker/DataIterator/Logs/otsdaq_is_alive-wiz-0.dat
|Debug:Wizard:otsdaq/otsdaq/WizardSupervisor/WizardSupervisor.cc [118]	Constructed.
|Debug:CorePropertySupervisorBase.cc:otsdaq/otsdaq/CoreSupervisors/CorePropertySupervisorBase.cc [24]	ConsoleSupervisor:UNINITIALIZED_supervisorApplicationUID	<> application->getApplicationContext()->getContextDescriptor()->getURL() = http://kenny01.dhcp.fnal.gov:2016
|Debug:CorePropertySupervisorBase.cc:otsdaq/otsdaq/CoreSupervisors/CorePropertySupervisorBase.cc [25]	ConsoleSupervisor:UNINITIALIZED_supervisorApplicationUID	<> application->getApplicationDescriptor()->getLocalId() = 260
|Debug:CorePropertySupervisorBase.cc:otsdaq/otsdaq/CoreSupervisors/CorePropertySupervisorBase.cc [26]	ConsoleSupervisor:UNINITIALIZED_supervisorApplicationUID	<> supervisorClass_ = ots::ConsoleSupervisor
|Debug:CorePropertySupervisorBase.cc:otsdaq/otsdaq/CoreSupervisors/CorePropertySupervisorBase.cc [27]	ConsoleSupervisor:UNINITIALIZED_supervisorApplicationUID	<> supervisorClassNoNamespace_ = ConsoleSupervisor
|Debug:AllSupervisorInfo.cc:otsdaq/otsdaq/SupervisorInfo/AllSupervisorInfo.cc [48]	Initializing info based on XDAQ context...
|Debug:SupervisorDescriptorInfoBase.cc:otsdaq/otsdaq/SupervisorInfo/SupervisorDescriptorInfoBase.cc [33]	Init
|Debug:AllSupervisorInfo.cc:otsdaq/otsdaq/SupervisorInfo/AllSupervisorInfo.cc [105]	Initializing info for Wiz mode XDAQ context...
|Debug:AllSupervisorInfo.cc:otsdaq/otsdaq/SupervisorInfo/AllSupervisorInfo.cc [288]	TRACE app for hostname 'kenny01.dhcp.fnal.gov' is CLASS:LID = ots::CodeEditorSupervisor:240
|Debug:AllSupervisorInfo.cc:otsdaq/otsdaq/SupervisorInfo/AllSupervisorInfo.cc [298]	TRACE app count = 1
|Debug:AllSupervisorInfo.cc:otsdaq/otsdaq/SupervisorInfo/AllSupervisorInfo.cc [304]	Supervisor Info initialization complete!
|Debug:CorePropertySupervisorBase.cc:otsdaq/otsdaq/CoreSupervisors/CorePropertySupervisorBase.cc [54]	ConsoleSupervisor:UNINITIALIZED_supervisorApplicationUID	<> Wiz mode detected. So skipping configuration location work for supervisor of class 'ots::ConsoleSupervisor'
|Debug:CorePropertySupervisorBase.cc:otsdaq/otsdaq/CoreSupervisors/CorePropertySupervisorBase.cc [61]	ConsoleSupervisor:260	<> CorePropertySupervisorBase::supervisorContextUID_ = NO CONTEXT ID IN WIZ MODE
|Debug:CorePropertySupervisorBase.cc:otsdaq/otsdaq/CoreSupervisors/CorePropertySupervisorBase.cc [62]	ConsoleSupervisor:260	<> CorePropertySupervisorBase::supervisorApplicationUID_ = 260
|Debug:CorePropertySupervisorBase.cc:otsdaq/otsdaq/CoreSupervisors/CorePropertySupervisorBase.cc [63]	ConsoleSupervisor:260	<> CorePropertySupervisorBase::supervisorConfigurationPath_ = NO APP PATH IN WIZ MODE
|Debug:FSM:otsdaq/otsdaq/FiniteStateMachine/FiniteStateMachine.cc [19]	FSM-ConsoleSupervisor	<> Constructing FiniteStateMachine
|Debug:FSM:otsdaq/otsdaq/FiniteStateMachine/RunControlStateMachine.cc [97]	FSM-ConsoleSupervisor	<> Resetting RunControlStateMachine with name 'ConsoleSupervisor'...
|Debug:WorkLoopManager.cc:otsdaq/otsdaq/WorkLoopManager/WorkLoopManager.cc [19]	Request name: StateMachine jobName: StateMachine
|Debug:CoreSupervisorBase.cc:otsdaq/otsdaq/CoreSupervisors/CoreSupervisorBase.cc [26]	ConsoleSupervisor:260	<> Constructor.
|Debug:CoreSupervisorBase.cc:otsdaq/otsdaq/CoreSupervisors/CoreSupervisorBase.cc [41]	ConsoleSupervisor:260	<> Constructed.
|Debug:Console:otsdaq_utilities/otsdaq-utilities/Console/ConsoleSupervisor.cc [52]	ConsoleSupervisor:260	<> Constructor started.
|Debug:Console:otsdaq_utilities/otsdaq-utilities/Console/ConsoleSupervisor.cc [62]	ConsoleSupervisor:260	<> Constructor complete.
|Debug:CorePropertySupervisorBase.cc:otsdaq/otsdaq/CoreSupervisors/CorePropertySupervisorBase.cc [24]	CodeEditorSupervisor:UNINITIALIZED_supervisorApplicationUID	<> application->getApplicationContext()->getContextDescriptor()->getURL() = http://kenny01.dhcp.fnal.gov:2016
|Debug:CorePropertySupervisorBase.cc:otsdaq/otsdaq/CoreSupervisors/CorePropertySupervisorBase.cc [25]	CodeEditorSupervisor:UNINITIALIZED_supervisorApplicationUID	<> application->getApplicationDescriptor()->getLocalId() = 240
|Debug:CorePropertySupervisorBase.cc:otsdaq/otsdaq/CoreSupervisors/CorePropertySupervisorBase.cc [26]	CodeEditorSupervisor:UNINITIALIZED_supervisorApplicationUID	<> supervisorClass_ = ots::CodeEditorSupervisor
|Debug:CorePropertySupervisorBase.cc:otsdaq/otsdaq/CoreSupervisors/CorePropertySupervisorBase.cc [27]	CodeEditorSupervisor:UNINITIALIZED_supervisorApplicationUID	<> supervisorClassNoNamespace_ = CodeEditorSupervisor
|Debug:AllSupervisorInfo.cc:otsdaq/otsdaq/SupervisorInfo/AllSupervisorInfo.cc [48]	Initializing info based on XDAQ context...
|Debug:SupervisorDescriptorInfoBase.cc:otsdaq/otsdaq/SupervisorInfo/SupervisorDescriptorInfoBase.cc [33]	Init
|Debug:AllSupervisorInfo.cc:otsdaq/otsdaq/SupervisorInfo/AllSupervisorInfo.cc [105]	Initializing info for Wiz mode XDAQ context...
|Debug:AllSupervisorInfo.cc:otsdaq/otsdaq/SupervisorInfo/AllSupervisorInfo.cc [288]	TRACE app for hostname 'kenny01.dhcp.fnal.gov' is CLASS:LID = ots::CodeEditorSupervisor:240
|Debug:AllSupervisorInfo.cc:otsdaq/otsdaq/SupervisorInfo/AllSupervisorInfo.cc [298]	TRACE app count = 1
|Debug:AllSupervisorInfo.cc:otsdaq/otsdaq/SupervisorInfo/AllSupervisorInfo.cc [304]	Supervisor Info initialization complete!
|Debug:CorePropertySupervisorBase.cc:otsdaq/otsdaq/CoreSupervisors/CorePropertySupervisorBase.cc [54]	CodeEditorSupervisor:UNINITIALIZED_supervisorApplicationUID	<> Wiz mode detected. So skipping configuration location work for supervisor of class 'ots::CodeEditorSupervisor'
|Debug:Console:otsdaq_utilities/otsdaq-utilities/Console/ConsoleSupervisor.cc [92]	
|Debug:CorePropertySupervisorBase.cc:otsdaq/otsdaq/CoreSupervisors/CorePropertySupervisorBase.cc [61]	CodeEditorSupervisor:240	<> CorePropertySupervisorBase::supervisorContextUID_ = NO CONTEXT ID IN WIZ MODE
|Debug:CorePropertySupervisorBase.cc:otsdaq/otsdaq/CoreSupervisors/CorePropertySupervisorBase.cc [62]	CodeEditorSupervisor:240	<> CorePropertySupervisorBase::supervisorApplicationUID_ = 240
|Debug:CorePropertySupervisorBase.cc:otsdaq/otsdaq/CoreSupervisors/CorePropertySupervisorBase.cc [63]	CodeEditorSupervisor:240	<> CorePropertySupervisorBase::supervisorConfigurationPath_ = NO APP PATH IN WIZ MODE
|Debug:FSM:otsdaq/otsdaq/FiniteStateMachine/FiniteStateMachine.cc [19]	FSM-CodeEditorSupervisor	<> Constructing FiniteStateMachine
|Debug:FSM:otsdaq/otsdaq/FiniteStateMachine/RunControlStateMachine.cc [97]	FSM-CodeEditorSupervisor	<> Resetting RunControlStateMachine with name 'CodeEditorSupervisor'...
|Debug:WorkLoopManager.cc:otsdaq/otsdaq/WorkLoopManager/WorkLoopManager.cc [19]	Request name: StateMachine jobName: StateMachine
|Debug:CoreSupervisorBase.cc:otsdaq/otsdaq/CoreSupervisors/CoreSupervisorBase.cc [26]	CodeEditorSupervisor:240	<> Constructor.
|Debug:CoreSupervisorBase.cc:otsdaq/otsdaq/CoreSupervisors/CoreSupervisorBase.cc [41]	CodeEditorSupervisor:240	<> Constructed.
|Debug:CodeEditorSupervisor.cc:otsdaq/otsdaq/CodeEditor/CodeEditorSupervisor.cc [8]	CodeEditorSupervisor:240	<> Constructed.
|Debug:Socket.cc:otsdaq/otsdaq/NetworkUtilities/Socket.cc [30]	Socket constructor 127.0.0.1:32017
|Debug:Socket.cc:otsdaq/otsdaq/NetworkUtilities/Socket.cc [44]	IPAddress: 127.0.0.1 port: 32017 htons: 4477
|Debug:Socket.cc:otsdaq/otsdaq/NetworkUtilities/Socket.cc [56]	Constructed socket for port 32017=32017 htons: 4477
|Debug:ReceiverSocket.cc:otsdaq/otsdaq/NetworkUtilities/ReceiverSocket.cc [19]	ReceiverSocket constructor 127.0.0.1:32017
|Debug:Socket.cc:otsdaq/otsdaq/NetworkUtilities/Socket.cc [83]	Initializing port 32017 htons: 4477
|Debug:Socket.cc:otsdaq/otsdaq/NetworkUtilities/Socket.cc [107]	]	Binding port: 32017
|Debug:Socket.cc:otsdaq/otsdaq/NetworkUtilities/Socket.cc [119]	]	Socket Number: 8 for port: 32017 initialized.
|Debug:Socket.cc:otsdaq/otsdaq/NetworkUtilities/Socket.cc [134]	:):):):):):):):):):):):):):):):):):):):):):):):):):):):):):):):):):):)
|Debug:Socket.cc:otsdaq/otsdaq/NetworkUtilities/Socket.cc [137]	:):):):):):):):):):):):):):):):):):):):):):):):):):):):):):):):):):):)
|Debug:Socket.cc:otsdaq/otsdaq/NetworkUtilities/Socket.cc [140]	SOCKET ON PORT: 32017 ON IP: 127.0.0.1 INITIALIZED OK!
|Debug:Socket.cc:otsdaq/otsdaq/NetworkUtilities/Socket.cc [141]	:):):):):):):):):):):):):):):):):):):):):):):):):):):):):):):):):):):)
|Debug:Socket.cc:otsdaq/otsdaq/NetworkUtilities/Socket.cc [144]	:):):):):):):):):):):):):):):):):):):):):):):):):):):):):):):):):):):)
|Debug:Socket.cc:otsdaq/otsdaq/NetworkUtilities/Socket.cc [150]	]	Socket Number: 8 for port: 32017 initialized.
|Debug:Socket.cc:otsdaq/otsdaq/NetworkUtilities/Socket.cc [164]	Setting socket receive buffer size = 10485760 0xa00000
|Debug:Console:otsdaq_utilities/otsdaq-utilities/Console/ConsoleSupervisor.cc [168]	DEBUG messages look like this.
|Debug:Console:otsdaq_utilities/otsdaq-utilities/Console/ConsoleSupervisor.cc [189]	Console has first message.
|Info:Console:otsdaq_utilities/otsdaq-utilities/Console/ConsoleSupervisor.cc [193]	INFO messages look like this.
|Warning:Console:otsdaq_utilities/otsdaq-utilities/Console/ConsoleSupervisor.cc [194]	WARNING messages look like this.
|Error:Console:otsdaq_utilities/otsdaq-utilities/Console/ConsoleSupervisor.cc [195]	ERROR messages look like this.
28 Jul 2020 16:48:04.007 [139720082331840] INFO  gov.fnal.dhcp.kenny01.p:2016 <> - Ready.
|Debug:CorePropertySupervisorBase.cc:otsdaq/otsdaq/CoreSupervisors/CorePropertySupervisorBase.cc [302]	ConfigurationGUISupervisor:280	<> Wiz mode detected. Skipping setup of supervisor properties for supervisor of class 'ots::ConfigurationGUISupervisor'
|Debug:CorePropertySupervisorBase.cc:otsdaq/otsdaq/CoreSupervisors/CorePropertySupervisorBase.cc [343]	ConfigurationGUISupervisor:280	<> Final supervisor property settings:
|Debug:CorePropertySupervisorBase.cc:otsdaq/otsdaq/CoreSupervisors/CorePropertySupervisorBase.cc [345]	ConfigurationGUISupervisor:280	<> 	AllowNoLoginRequestTypes = 
|Debug:CorePropertySupervisorBase.cc:otsdaq/otsdaq/CoreSupervisors/CorePropertySupervisorBase.cc [345]	ConfigurationGUISupervisor:280	<> 	AutomatedRequestTypes = getActiveTableGroups
|Debug:CorePropertySupervisorBase.cc:otsdaq/otsdaq/CoreSupervisors/CorePropertySupervisorBase.cc [345]	ConfigurationGUISupervisor:280	<> 	CheckUserLockRequestTypes = *
|Debug:CorePropertySupervisorBase.cc:otsdaq/otsdaq/CoreSupervisors/CorePropertySupervisorBase.cc [345]	ConfigurationGUISupervisor:280	<> 	NoXmlWhiteSpaceRequestTypes = 
|Debug:CorePropertySupervisorBase.cc:otsdaq/otsdaq/CoreSupervisors/CorePropertySupervisorBase.cc [345]	ConfigurationGUISupervisor:280	<> 	NonXMLRequestTypes = 
|Debug:CorePropertySupervisorBase.cc:otsdaq/otsdaq/CoreSupervisors/CorePropertySupervisorBase.cc [345]	ConfigurationGUISupervisor:280	<> 	RequireSecurityRequestTypes = 
|Debug:CorePropertySupervisorBase.cc:otsdaq/otsdaq/CoreSupervisors/CorePropertySupervisorBase.cc [345]	ConfigurationGUISupervisor:280	<> 	RequireUserLockRequestTypes = *
|Debug:CorePropertySupervisorBase.cc:otsdaq/otsdaq/CoreSupervisors/CorePropertySupervisorBase.cc [345]	ConfigurationGUISupervisor:280	<> 	UserGroupsAllowed = 
|Debug:CorePropertySupervisorBase.cc:otsdaq/otsdaq/CoreSupervisors/CorePropertySupervisorBase.cc [345]	ConfigurationGUISupervisor:280	<> 	UserGroupsDisallowed = 
|Debug:CorePropertySupervisorBase.cc:otsdaq/otsdaq/CoreSupervisors/CorePropertySupervisorBase.cc [345]	ConfigurationGUISupervisor:280	<> 	UserPermissionsThreshold = *=10 | deleteTreeNodeRecords=255 | saveTableInfo=255 | deleteTableInfo=255
|Debug:Wizard:otsdaq/otsdaq/WizardSupervisor/WizardSupervisor.cc [460]	Unauthorized Request made, security sequence doesn't match!
|Debug:WebUsers:otsdaq/otsdaq/WebUsersUtilities/WebUsers.cc [298]	User (@131.225.78.82) has insufficient permissions for requestType 'getAffectedActiveGroups' : 0<10
|Error:RemoteWebUsers:otsdaq/otsdaq/WebUsersUtilities/RemoteWebUsers.cc [243]	Failed request (requestType = getAffectedActiveGroups): NoPermission
|Debug:CoreSupervisorBase.cc:otsdaq/otsdaq/CoreSupervisors/CoreSupervisorBase.cc [111]	ConfigurationGUISupervisor:280	<> requestType: getAffectedActiveGroups
|Info:CfgGUI:otsdaq_utilities/otsdaq-utilities/ConfigurationGUI/ConfigurationGUISupervisor.cc [5170]	ConfigurationGUISupervisor:280	<> Creating new Configuration Manager.
|Debug:TableBase:otsdaq/otsdaq/TableCore/TableBase.cc [90]	TableBase-TableGroupMetadata	<> Special table 'TableGroupMetadata' constructed. 1
|Debug:ConfigurationManager:otsdaq/otsdaq/ConfigurationInterface/ConfigurationManager.cc [179]	username_ = READONLY_USER
|Debug:ConfigurationManager:otsdaq/otsdaq/ConfigurationInterface/ConfigurationManager.cc [225]	ACTIVE_GROUPS_FILENAME = /home/otsdaq/Programming/otsdaq/srcs/otsdaq_cmsoutertracker/DataIterator/ServiceData/ActiveTableGroups.cfg
|Debug:ConfigurationManager:otsdaq/otsdaq/ConfigurationInterface/ConfigurationManager.cc [226]	ARTDAQ_DATABASE_URI = filesystemdb:///home/otsdaq/Programming/otsdaq/srcs/otsdaq_cmsoutertracker/databases/filesystemdb/iterator_db
|Debug:ConfigurationManager:otsdaq/otsdaq/ConfigurationInterface/ConfigurationManager.cc [1363]	------------------------------------- init start    	 [for all plug-ins in Context group 'DefaultContext(8)']
|Debug:MessageFacilityTable_table.cc:otsdaq/otsdaq/TablePlugins/MessageFacilityTable_table.cc [111]	Forwarding to Web GUI with UDP forward MesageFacility table.
|Debug:MessageFacilityTable_table.cc:otsdaq/otsdaq/TablePlugins/MessageFacilityTable_table.cc [233]	Opened.. /home/otsdaq/Programming/otsdaq/srcs/otsdaq_cmsoutertracker/DataIterator/MessageFacilityConfigurations/MessageFacilityGen.fcl
|Debug:MessageFacilityTable_table.cc:otsdaq/otsdaq/TablePlugins/MessageFacilityTable_table.cc [244]	Opened for artdaq.. /home/otsdaq/Programming/otsdaq/srcs/otsdaq_cmsoutertracker/DataIterator/MessageFacilityConfigurations/ARTDAQInterfaceMessageFacilityGen.fcl
|Debug:XDAQContextTable_table.cc:otsdaq/otsdaq/TablePlugins/XDAQContextTable_table.cc [248]	Fixing deprecated Supervisor class from ots::Supervisor to ots::GatewaySupervisor
|Debug:ConfigurationManager:otsdaq/otsdaq/ConfigurationInterface/ConfigurationManager.cc [1529]	------------------------------------- init complete 	 [for all plug-ins in Context group 'DefaultContext(8)']
|Debug:ConfigurationManager:otsdaq/otsdaq/ConfigurationInterface/ConfigurationManager.cc [1363]	------------------------------------- init start    	 [for all plug-ins in Backbone group 'GroupAliasTreeEditWizBackbone(6)']
|Debug:ConfigurationManager:otsdaq/otsdaq/ConfigurationInterface/ConfigurationManager.cc [1529]	------------------------------------- init complete 	 [for all plug-ins in Backbone group 'GroupAliasTreeEditWizBackbone(6)']
|Debug:ConfigurationManager:otsdaq/otsdaq/ConfigurationInterface/ConfigurationManager.cc [1363]	------------------------------------- init start    	 [for all plug-ins in Iterate group 'iterateDefaultGroup(6)']
|Debug:ConfigurationManager:otsdaq/otsdaq/ConfigurationInterface/ConfigurationManager.cc [1529]	------------------------------------- init complete 	 [for all plug-ins in Iterate group 'iterateDefaultGroup(6)']
|Debug:ConfigurationManager:otsdaq/otsdaq/ConfigurationInterface/ConfigurationManager.cc [1363]	------------------------------------- init start    	 [for all plug-ins in Configuration group 'DefaultConfig(3)']
|Debug:FESlowControlsTable_table.cc:otsdaq/otsdaq/TablePlugins/FESlowControlsTable_table.cc [25]	isFirstAppInContext = 1
|Debug:FESlowControlsTable_table.cc:otsdaq/otsdaq/TablePlugins/FESlowControlsTable_table.cc [30]	*&*&*&*&*&*&*&*&*&*&*&*&*&*&*&*&*&*&*&*&*&*
|Debug:FESlowControlsTable_table.cc:otsdaq/otsdaq/TablePlugins/FESlowControlsTable_table.cc [31]	FESlowControlsTable
|Debug:FESlowControlsTable_table.cc:otsdaq/otsdaq/TablePlugins/FESlowControlsTable_table.cc [41]	BurstDataCount
|Debug:FESlowControlsTable_table.cc:otsdaq/otsdaq/TablePlugins/FESlowControlsTable_table.cc [43]	childType=unsigned long long
|Debug:ConfigurationManager:otsdaq/otsdaq/ConfigurationInterface/ConfigurationManager.cc [1529]	------------------------------------- init complete 	 [for all plug-ins in Configuration group 'DefaultConfig(3)']
|Info:ConfigurationManager:otsdaq/otsdaq/ConfigurationInterface/ConfigurationManager.cc [154]	Private constructor for write access called.
|Debug:ConfigurationManagerRW:otsdaq/otsdaq/ConfigurationInterface/ConfigurationManagerRW.cc [21]	Instantiating Config Manager with Write Access! (for admin)
|Debug:ConfigurationManagerRW:otsdaq/otsdaq/ConfigurationInterface/ConfigurationManagerRW.cc [183]	======================================================== getAllTableInfo start
|Debug:ConfigurationManagerRW:otsdaq/otsdaq/ConfigurationInterface/ConfigurationManagerRW.cc [186]	Refreshing all! Extracting list of tables...
|Debug:ARTDAQBoardReaderTable_table.cc:otsdaq/otsdaq/TablePlugins/ARTDAQBoardReaderTable_table.cc [26]	ARTDAQBoardReaderTable Constructed.
|Debug:TableBase:otsdaq/otsdaq/TableCore/TableBase.cc [37]	TableBase-ARTDAQEventBuilderTable	<> tableName = ARTDAQEventBuilderTable
|Debug:TableBase:otsdaq/otsdaq/TableCore/TableBase.cc [40]	TableBase-ARTDAQEventBuilderTable	<> Reading...
|Debug:TableBase:otsdaq/otsdaq/TableCore/TableBase.cc [44]	TableBase-ARTDAQEventBuilderTable	<> Read.
|Debug:TableBase:otsdaq/otsdaq/TableCore/TableBase.cc [62]	TableBase-ARTDAQEventBuilderTable	<> Initializing...
|Debug:TableBase:otsdaq/otsdaq/TableCore/TableBase.cc [67]	TableBase-ARTDAQEventBuilderTable	<> Init.
|Debug:ARTDAQEventBuilderTable_table.cc:otsdaq/otsdaq/TablePlugins/ARTDAQEventBuilderTable_table.cc [26]	ARTDAQEventBuilderTable Constructed.
|Debug:ConfigurationInterface.icc:otsdaq/otsdaq/ConfigurationInterface/ConfigurationInterface.icc [72]	ARTDAQEventBuilderTable Table constructed!
|Debug:ConfigurationManagerRW:otsdaq/otsdaq/ConfigurationInterface/ConfigurationManagerRW.cc [317]	Extracting list of tables complete. Now initializing...
|Debug:ConfigurationManager:otsdaq/otsdaq/ConfigurationInterface/ConfigurationManager.cc [179]	username_ = admin
|Debug:ConfigurationManager:otsdaq/otsdaq/ConfigurationInterface/ConfigurationManager.cc [431]	Destroying Configuration Key: 3
|Debug:ConfigurationManager:otsdaq/otsdaq/ConfigurationInterface/ConfigurationManager.cc [442]	Destroying Backbone Key: 6
|Debug:ConfigurationManager:otsdaq/otsdaq/ConfigurationInterface/ConfigurationManager.cc [451]	Destroying Iterate Key: 6
|Debug:ConfigurationManager:otsdaq/otsdaq/ConfigurationInterface/ConfigurationManager.cc [460]	Destroying Context Key: 8
|Debug:ConfigurationManager:otsdaq/otsdaq/ConfigurationInterface/ConfigurationManager.cc [225]	ACTIVE_GROUPS_FILENAME = /home/otsdaq/Programming/otsdaq/srcs/otsdaq_cmsoutertracker/DataIterator/ServiceData/ActiveTableGroups.cfg
|Debug:ConfigurationManager:otsdaq/otsdaq/ConfigurationInterface/ConfigurationManager.cc [226]	ARTDAQ_DATABASE_URI = filesystemdb:///home/otsdaq/Programming/otsdaq/srcs/otsdaq_cmsoutertracker/databases/filesystemdb/iterator_db
|Debug:ConfigurationManager:otsdaq/otsdaq/ConfigurationInterface/ConfigurationManager.cc [1363]	------------------------------------- init start    	 [for all plug-ins in Context group 'DefaultContext(8)']
|Debug:MessageFacilityTable_table.cc:otsdaq/otsdaq/TablePlugins/MessageFacilityTable_table.cc [111]	Forwarding to Web GUI with UDP forward MesageFacility table.
|Debug:MessageFacilityTable_table.cc:otsdaq/otsdaq/TablePlugins/MessageFacilityTable_table.cc [233]	Opened.. /home/otsdaq/Programming/otsdaq/srcs/otsdaq_cmsoutertracker/DataIterator/MessageFacilityConfigurations/MessageFacilityGen.fcl
|Debug:MessageFacilityTable_table.cc:otsdaq/otsdaq/TablePlugins/MessageFacilityTable_table.cc [244]	Opened for artdaq.. /home/otsdaq/Programming/otsdaq/srcs/otsdaq_cmsoutertracker/DataIterator/MessageFacilityConfigurations/ARTDAQInterfaceMessageFacilityGen.fcl
|Debug:XDAQContextTable_table.cc:otsdaq/otsdaq/TablePlugins/XDAQContextTable_table.cc [248]	Fixing deprecated Supervisor class from ots::Supervisor to ots::GatewaySupervisor
|Debug:ConfigurationManager:otsdaq/otsdaq/ConfigurationInterface/ConfigurationManager.cc [1529]	------------------------------------- init complete 	 [for all plug-ins in Context group 'DefaultContext(8)']
|Debug:ConfigurationManager:otsdaq/otsdaq/ConfigurationInterface/ConfigurationManager.cc [1363]	------------------------------------- init start    	 [for all plug-ins in Backbone group 'GroupAliasTreeEditWizBackbone(6)']
|Debug:ConfigurationManager:otsdaq/otsdaq/ConfigurationInterface/ConfigurationManager.cc [1529]	------------------------------------- init complete 	 [for all plug-ins in Backbone group 'GroupAliasTreeEditWizBackbone(6)']
|Debug:ConfigurationManager:otsdaq/otsdaq/ConfigurationInterface/ConfigurationManager.cc [1363]	------------------------------------- init start    	 [for all plug-ins in Iterate group 'iterateDefaultGroup(6)']
|Debug:ConfigurationManager:otsdaq/otsdaq/ConfigurationInterface/ConfigurationManager.cc [1529]	------------------------------------- init complete 	 [for all plug-ins in Iterate group 'iterateDefaultGroup(6)']
|Debug:ConfigurationManager:otsdaq/otsdaq/ConfigurationInterface/ConfigurationManager.cc [1363]	------------------------------------- init start    	 [for all plug-ins in Configuration group 'DefaultConfig(3)']
|Debug:FESlowControlsTable_table.cc:otsdaq/otsdaq/TablePlugins/FESlowControlsTable_table.cc [25]	isFirstAppInContext = 1
|Debug:FESlowControlsTable_table.cc:otsdaq/otsdaq/TablePlugins/FESlowControlsTable_table.cc [30]	*&*&*&*&*&*&*&*&*&*&*&*&*&*&*&*&*&*&*&*&*&*
|Debug:FESlowControlsTable_table.cc:otsdaq/otsdaq/TablePlugins/FESlowControlsTable_table.cc [31]	FESlowControlsTable
|Debug:FESlowControlsTable_table.cc:otsdaq/otsdaq/TablePlugins/FESlowControlsTable_table.cc [41]	BurstDataCount
|Debug:FESlowControlsTable_table.cc:otsdaq/otsdaq/TablePlugins/FESlowControlsTable_table.cc [43]	childType=unsigned long long
|Debug:ConfigurationManager:otsdaq/otsdaq/ConfigurationInterface/ConfigurationManager.cc [1529]	------------------------------------- init complete 	 [for all plug-ins in Configuration group 'DefaultConfig(3)']
|Debug:ConfigurationManagerRW:otsdaq/otsdaq/ConfigurationInterface/ConfigurationManagerRW.cc [328]	======================================================== getAllTableInfo end
|Debug:ConfigurationManagerRW:otsdaq/otsdaq/ConfigurationInterface/ConfigurationManagerRW.cc [336]	Number of Groups: 28
|Error:ConfigurationManager:otsdaq/otsdaq/ConfigurationInterface/ConfigurationManager.cc [590]	:ConfigurationManager:otsdaq/otsdaq/ConfigurationInterface/ConfigurationManager.cc [589]	This group is an incomplete match to a Iterate group.
|Error:ConfigurationManager:otsdaq/otsdaq/ConfigurationInterface/ConfigurationManager.cc [601]	:ConfigurationManager:otsdaq/otsdaq/ConfigurationInterface/ConfigurationManager.cc [589]	This group is an incomplete match to a Iterate group.

To be a Iterate group, the members must exactly match the following members:
1. IterateTable
2. IterationCommandBeginLabelTable
3. IterationCommandChooseFSMTable
4. IterationCommandConfigureAliasTable
5. IterationCommandConfigureGroupTable
6. IterationCommandExecuteFEMacroTable
7. IterationCommandExecuteMacroTable
8. IterationCommandMacroDimensionalLoopParameterTable
9. IterationCommandMacroDimensionalLoopTable
10. IterationCommandModifyGroupTable
11. IterationCommandRepeatLabelTable
12. IterationCommandRunTable
13. IterationPlanTable
14. IterationTargetTable

The members are as follows::
1. DQMHistoMakerConsumerTable
2. DataBufferTable
3. DataManagerSupervisorTable
4. DataProcessorTable
5. FEHistoMakerInterfaceTable
6. FEInterfaceTable
7. FEMiddlewareInterfaceTable
8. FESlowControlsTable
9. FESupervisorTable
10. IterationCommandMacroDimensionalLoopTable
11. OTDQMHistosConsumerTable
12. RawDataSaverConsumerTable
13. TCPDataListenerProducerTable
14. UDPDataListenerProducerTable
|Warning:ConfigurationManagerRW:otsdaq/otsdaq/ConfigurationInterface/ConfigurationManagerRW.cc [365]	Error occurred loading latest group info into cache for 'DefaultConfig'...
|Debug:CfgGUI:otsdaq_utilities/otsdaq-utilities/ConfigurationGUI/ConfigurationGUISupervisor.cc [1040]	ConfigurationGUISupervisor:280	<> modifiedTables: IterationCommandMacroDimensionalLoopTable,-1
|Debug:CfgGUI:otsdaq_utilities/otsdaq-utilities/ConfigurationGUI/ConfigurationGUISupervisor.cc [1041]	ConfigurationGUISupervisor:280	<> groupName: iterateDefaultGroup
|Debug:CfgGUI:otsdaq_utilities/otsdaq-utilities/ConfigurationGUI/ConfigurationGUISupervisor.cc [1042]	ConfigurationGUISupervisor:280	<> groupKey: 6
|Debug:CfgGUI:otsdaq_utilities/otsdaq-utilities/ConfigurationGUI/ConfigurationGUISupervisor.cc [1454]	ConfigurationGUISupervisor:280	<> StringMacros::mapToString(consideredGroups) = Backbone/GroupAliasTreeEditWizBackbone: 6, Configuration/DefaultConfig: 3, Context/DefaultContext: 8, Iterate/iterateDefaultGroup: 6
|Debug:CfgGUI:otsdaq_utilities/otsdaq-utilities/ConfigurationGUI/ConfigurationGUISupervisor.cc [1523]	ConfigurationGUISupervisor:280	<> IterationCommandMacroDimensionalLoopTable,-1
|Debug:CfgGUI:otsdaq_utilities/otsdaq-utilities/ConfigurationGUI/ConfigurationGUISupervisor.cc [1525]	ConfigurationGUISupervisor:280	<> modified table IterationCommandMacroDimensionalLoopTable:Mock-up
|Debug:CfgGUI:otsdaq_utilities/otsdaq-utilities/ConfigurationGUI/ConfigurationGUISupervisor.cc [1549]	ConfigurationGUISupervisor:280	<> Considering Context group DefaultContext (8)
|Debug:CfgGUI:otsdaq_utilities/otsdaq-utilities/ConfigurationGUI/ConfigurationGUISupervisor.cc [1566]	ConfigurationGUISupervisor:280	<> groupComment = No%20Comment
|Debug:CfgGUI:otsdaq_utilities/otsdaq-utilities/ConfigurationGUI/ConfigurationGUISupervisor.cc [1549]	ConfigurationGUISupervisor:280	<> Considering Backbone group GroupAliasTreeEditWizBackbone (6)
|Debug:CfgGUI:otsdaq_utilities/otsdaq-utilities/ConfigurationGUI/ConfigurationGUISupervisor.cc [1566]	ConfigurationGUISupervisor:280	<> groupComment = 
|Debug:CfgGUI:otsdaq_utilities/otsdaq-utilities/ConfigurationGUI/ConfigurationGUISupervisor.cc [1549]	ConfigurationGUISupervisor:280	<> Considering Iterate group iterateDefaultGroup (6)
|Debug:CfgGUI:otsdaq_utilities/otsdaq-utilities/ConfigurationGUI/ConfigurationGUISupervisor.cc [1566]	ConfigurationGUISupervisor:280	<> groupComment = 
|Debug:CfgGUI:otsdaq_utilities/otsdaq-utilities/ConfigurationGUI/ConfigurationGUISupervisor.cc [1575]	ConfigurationGUISupervisor:280	<> Affected by IterationCommandMacroDimensionalLoopTable:Mock-up
|Debug:CfgGUI:otsdaq_utilities/otsdaq-utilities/ConfigurationGUI/ConfigurationGUISupervisor.cc [1549]	ConfigurationGUISupervisor:280	<> Considering Configuration group DefaultConfig (3)
|Debug:CfgGUI:otsdaq_utilities/otsdaq-utilities/ConfigurationGUI/ConfigurationGUISupervisor.cc [1566]	ConfigurationGUISupervisor:280	<> groupComment = Default%20Outer%20Tracker%20Table
|Debug:CoreSupervisorBase.cc:otsdaq/otsdaq/CoreSupervisors/CoreSupervisorBase.cc [111]	ConfigurationGUISupervisor:280	<> requestType: getGroupAliases
|Debug:CfgGUI:otsdaq_utilities/otsdaq-utilities/ConfigurationGUI/ConfigurationGUISupervisor.cc [411]	ConfigurationGUISupervisor:280	<> reloadActive: 0
|Debug:CfgGUI:otsdaq_utilities/otsdaq-utilities/ConfigurationGUI/ConfigurationGUISupervisor.cc [6058]	ConfigurationGUISupervisor:280	<> activeVersions["GroupAliasesTable"]=12
Terminating...
|Debug:MetricManager:MetricManager.cc [178]	MetricManager is shutting down...
|Debug:MetricManager:MetricManager.cc [154]	Stopping Metrics
|Debug:MetricManager:MetricManager.cc [157]	Joining Metric-Sending thread
|Debug:MetricManager:MetricManager.cc [160]	do_stop Complete
