{
"document" : {
"data" : {
"NAME" : "TABLE_GROUP_METADATA",
"COMMENT" : "",
"AUTHOR" : "",
"CREATION_TIME" : 1550763300,
"COL_TYPES" : {
"UNUSED_UID" : "NUMBER",
"GROUP_ALIASES" : "STRING",
"COMMENT_DESCRIPTION" : "STRING",
"AUTHOR" : "STRING",
"GROUP_CREATION_TIME" : "TIMESTAMP WITH TIMEZONE"
},
"DATA_SET" : [
{
"UNUSED_UID" : "0",
"GROUP_ALIASES" : "",
"COMMENT_DESCRIPTION" : "",
"AUTHOR" : "admin",
"GROUP_CREATION_TIME" : "1598442771"
}
]
},
"metadata" : {

},
"search" : [

]
},
"comments" : [

],
"origin" : {
"source" : "template",
"name" : "notprovided",
"format" : "json",
"created" : "2020-08-26T07:52:51.134-0400",
"rawdata" : [

]
},
"version" : "67",
"entities" : [
{
"name" : "OTSROOT",
"assigned" : "2020-08-26T07:52:51.134-0400"
}
],
"configurations" : [
{
"name" : "notprovided",
"assigned" : "2020-08-26T07:52:51.134-0400"
},
{
"name" : "GroupAliasTreeEditWizBackbone_v18",
"assigned" : "2020-08-26T07:52:51.179-0400"
}
],
"changelog" : "notprovided",
"bookkeeping" : {
"isdeleted" : false,
"isreadonly" : false,
"updates" : [
{
"event" : "addConfiguration",
"timestamp" : "2020-08-26T07:52:51.134-0400",
"value" : {
"name" : "notprovided",
"assigned" : "2020-08-26T07:52:51.134-0400"
}
},
{
"event" : "setVersion",
"timestamp" : "2020-08-26T07:52:51.134-0400",
"value" : {
"name" : "67",
"assigned" : "2020-08-26T07:52:51.134-0400"
}
},
{
"event" : "setCollection",
"timestamp" : "2020-08-26T07:52:51.134-0400",
"value" : {
"name" : "TableGroupMetadata",
"assigned" : "2020-08-26T07:52:51.134-0400"
}
},
{
"event" : "addEntity",
"timestamp" : "2020-08-26T07:52:51.134-0400",
"value" : {
"name" : "OTSROOT",
"assigned" : "2020-08-26T07:52:51.134-0400"
}
},
{
"event" : "addConfiguration",
"timestamp" : "2020-08-26T07:52:51.179-0400",
"value" : {
"name" : "GroupAliasTreeEditWizBackbone_v18",
"assigned" : "2020-08-26T07:52:51.179-0400"
}
}
],
"created" : "2020-08-26T07:52:51.134-0400"
},
"_id" : {
"$oid" : "f1a920261a3447a796c5c659"
},
"collection" : "TableGroupMetadata",
"aliases" : {
"active" : [

],
"history" : [

]
},
"runs" : [

],
"attachments" : [

],
"configtype" : "notprovided"
}