{
"document" : {
"data" : {
"NAME" : "FE_INTERFACE_TABLE",
"COMMENT" : "FE interfaces top level.",
"AUTHOR" : "admin",
"CREATION_TIME" : 1550768221,
"COL_TYPES" : {
"FE_INTERFACE_GROUP_ID" : "VARCHAR2",
"FE_INTERFACE_UID" : "VARCHAR2",
"STATUS" : "VARCHAR2",
"FE_INTERFACE_PLUGIN_NAME" : "VARCHAR2",
"LINK_TO_FE_TYPE_TABLE" : "VARCHAR2",
"LINK_TO_FE_TYPE_UID" : "VARCHAR2",
"LINK_TO_FE_TO_DETECTOR_TABLE" : "VARCHAR2",
"LINK_TO_FE_TO_DETECTOR_GROUP_ID" : "VARCHAR2",
"LINK_TO_SLOW_CONTROL_CHANNELS_TABLE" : "VARCHAR2",
"LINK_TO_SLOW_CONTROL_CHANNELS_GROUP_ID" : "VARCHAR2",
"LINK_TO_SLOW_CONTROLS_MONITOR_TABLE" : "VARCHAR2",
"LINK_TO_SLOW_CONTROLS_MONITOR_UID" : "VARCHAR2",
"SLOW_CONTROLS_TX_SOCKET_IP_ADDRESS" : "VARCHAR2",
"SLOW_CONTROLS_TX_SOCKET_PORT" : "NUMBER",
"SLOW_CONTROLS_LOCAL_AGGREGATE_SAVING_ENABLED" : "VARCHAR2",
"SLOW_CONTROLS_LOCAL_FILE_PATH" : "VARCHAR2",
"SLOW_CONTROLS_RADIX_FILE_NAME" : "VARCHAR2",
"SLOW_CONTROLS_SAVE_BINARY_FILE" : "VARCHAR2",
"COMMENT_DESCRIPTION" : "VARCHAR2",
"AUTHOR" : "VARCHAR2",
"RECORD_INSERTION_TIME" : "TIMESTAMP WITH TIMEZONE"
},
"DATA_SET" : [
{
"FE_INTERFACE_GROUP_ID" : "OuterTrackerFESupervisor0",
"FE_INTERFACE_UID" : "OuterTrackerFEInterface0",
"STATUS" : "On",
"FE_INTERFACE_PLUGIN_NAME" : "FEMiddlewareInterface",
"LINK_TO_FE_TYPE_TABLE" : "FEMiddlewareInterfaceTable",
"LINK_TO_FE_TYPE_UID" : "OuterTrackerFEInterface0",
"LINK_TO_FE_TO_DETECTOR_TABLE" : "NO_LINK",
"LINK_TO_FE_TO_DETECTOR_GROUP_ID" : "DEFAULT",
"LINK_TO_SLOW_CONTROL_CHANNELS_TABLE" : "NO_LINK",
"LINK_TO_SLOW_CONTROL_CHANNELS_GROUP_ID" : "DEFAULT",
"LINK_TO_SLOW_CONTROLS_MONITOR_TABLE" : "NO_LINK",
"LINK_TO_SLOW_CONTROLS_MONITOR_UID" : "DEFAULT",
"SLOW_CONTROLS_TX_SOCKET_IP_ADDRESS" : "DEFAULT",
"SLOW_CONTROLS_TX_SOCKET_PORT" : "0",
"SLOW_CONTROLS_LOCAL_AGGREGATE_SAVING_ENABLED" : "No",
"SLOW_CONTROLS_LOCAL_FILE_PATH" : "DEFAULT",
"SLOW_CONTROLS_RADIX_FILE_NAME" : "DEFAULT",
"SLOW_CONTROLS_SAVE_BINARY_FILE" : "False",
"COMMENT_DESCRIPTION" : "No Comment",
"AUTHOR" : "admin",
"RECORD_INSERTION_TIME" : "1550768221"
}
]
},
"metadata" : {

},
"search" : [

]
},
"comments" : [

],
"origin" : {
"source" : "template",
"name" : "notprovided",
"format" : "json",
"created" : "2019-02-22T16:11:42.726-0600",
"rawdata" : [

]
},
"version" : "1",
"entities" : [
{
"name" : "OTSROOT",
"assigned" : "2019-02-22T16:11:42.726-0600"
}
],
"tables" : [
{
"name" : "notprovided",
"assigned" : "2019-02-22T16:11:42.726-0600"
},
{
"name" : "DefaultConfig_v1",
"assigned" : "2019-02-22T16:11:43.015-0600"
}
],
"changelog" : "notprovided",
"bookkeeping" : {
"isdeleted" : false,
"isreadonly" : false,
"updates" : [
{
"event" : "addTable",
"timestamp" : "2019-02-22T16:11:42.726-0600",
"value" : {
"name" : "notprovided",
"assigned" : "2019-02-22T16:11:42.726-0600"
}
},
{
"event" : "setVersion",
"timestamp" : "2019-02-22T16:11:42.726-0600",
"value" : {
"name" : "1",
"assigned" : "2019-02-22T16:11:42.726-0600"
}
},
{
"event" : "setCollection",
"timestamp" : "2019-02-22T16:11:42.726-0600",
"value" : {
"name" : "FEInterfaceTable",
"assigned" : "2019-02-22T16:11:42.726-0600"
}
},
{
"event" : "addEntity",
"timestamp" : "2019-02-22T16:11:42.726-0600",
"value" : {
"name" : "OTSROOT",
"assigned" : "2019-02-22T16:11:42.726-0600"
}
},
{
"event" : "addTable",
"timestamp" : "2019-02-22T16:11:43.015-0600",
"value" : {
"name" : "DefaultConfig_v1",
"assigned" : "2019-02-22T16:11:43.015-0600"
}
}
],
"created" : "2019-02-22T16:11:42.726-0600"
},
"_id" : {
"$oid" : "8677d5e9efb841ee80ae4296"
},
"collection" : "FEInterfaceTable",
"aliases" : {
"active" : [

],
"history" : [

]
},
"runs" : [

],
"attachments" : [

],
"configtype" : "notprovided"
}