{
"document" : {
"data" : {
"NAME" : "STATE_MACHINE_CONFIGURATION",
"COMMENT" : "three FSMs for The Supervisor.",
"AUTHOR" : "admin",
"CREATION_TIME" : 1496767347,
"COL_TYPES" : {
"STATE_MACHINE_GROUP_ID" : "VARCHAR2",
"STATE_MACHINE_UID" : "VARCHAR2",
"SYSTEM_ALIAS_FILTER" : "VARCHAR2",
"RUN_DISPLAY_ALIAS" : "VARCHAR2",
"ENABLE_CONFIGURATION_DUMP_ON_CONFIGURE_TRANSITION" : "VARCHAR2",
"CONFIGURATION_DUMP_ON_CONFIGURE_FORMAT" : "VARCHAR2",
"CONFIGURATION_DUMP_ON_CONFIGURE_FILE_PATH" : "VARCHAR2",
"CONFIGURATION_DUMP_ON_CONFIGURE_FILE_RADIX" : "VARCHAR2",
"ENABLE_CONFIGURATION_DUMP_ON_RUN_TRANSITION" : "VARCHAR2",
"CONFIGURATION_DUMP_ON_RUN_FORMAT" : "VARCHAR2",
"CONFIGURATION_DUMP_ON_RUN_FILE_PATH" : "VARCHAR2",
"CONFIGURATION_DUMP_ON_RUN_FILE_RADIX" : "VARCHAR2",
"COMMENT_DESCRIPTION" : "VARCHAR2",
"AUTHOR" : "VARCHAR2",
"RECORD_INSERTION_TIME" : "TIMESTAMP WITH TIMEZONE"
},
"DATA_SET" : [
{
"STATE_MACHINE_GROUP_ID" : "Supervisor0_FSMs",
"STATE_MACHINE_UID" : "PhysicsRuns0",
"SYSTEM_ALIAS_FILTER" : "*Physics*Config*",
"RUN_DISPLAY_ALIAS" : "Physics Run",
"ENABLE_CONFIGURATION_DUMP_ON_CONFIGURE_TRANSITION" : "No",
"CONFIGURATION_DUMP_ON_CONFIGURE_FORMAT" : "DEFAULT",
"CONFIGURATION_DUMP_ON_CONFIGURE_FILE_PATH" : "DEFAULT",
"CONFIGURATION_DUMP_ON_CONFIGURE_FILE_RADIX" : "DEFAULT",
"ENABLE_CONFIGURATION_DUMP_ON_RUN_TRANSITION" : "No",
"CONFIGURATION_DUMP_ON_RUN_FORMAT" : "DEFAULT",
"CONFIGURATION_DUMP_ON_RUN_FILE_PATH" : "DEFAULT",
"CONFIGURATION_DUMP_ON_RUN_FILE_RADIX" : "DEFAULT",
"COMMENT_DESCRIPTION" : "System alias filter will only show Physics config groups. And the FSM display will show \"Physics Run.\"",
"AUTHOR" : "admin",
"RECORD_INSERTION_TIME" : "1483025802"
},
{
"STATE_MACHINE_GROUP_ID" : "Supervisor0_FSMs",
"STATE_MACHINE_UID" : "CalibrationRuns0",
"SYSTEM_ALIAS_FILTER" : "*Calib*Config*",
"RUN_DISPLAY_ALIAS" : "Calibration",
"ENABLE_CONFIGURATION_DUMP_ON_CONFIGURE_TRANSITION" : "No",
"CONFIGURATION_DUMP_ON_CONFIGURE_FORMAT" : "DEFAULT",
"CONFIGURATION_DUMP_ON_CONFIGURE_FILE_PATH" : "DEFAULT",
"CONFIGURATION_DUMP_ON_CONFIGURE_FILE_RADIX" : "DEFAULT",
"ENABLE_CONFIGURATION_DUMP_ON_RUN_TRANSITION" : "No",
"CONFIGURATION_DUMP_ON_RUN_FORMAT" : "DEFAULT",
"CONFIGURATION_DUMP_ON_RUN_FILE_PATH" : "DEFAULT",
"CONFIGURATION_DUMP_ON_RUN_FILE_RADIX" : "DEFAULT",
"COMMENT_DESCRIPTION" : "Filter selects only groups with Calib in the name (for Calibrations). Displays runs as \"Calibration.\"",
"AUTHOR" : "admin",
"RECORD_INSERTION_TIME" : "1483025802"
},
{
"STATE_MACHINE_GROUP_ID" : "Supervisor0_FSMs",
"STATE_MACHINE_UID" : "OtherRuns0",
"SYSTEM_ALIAS_FILTER" : "!*Context*",
"RUN_DISPLAY_ALIAS" : "Run",
"ENABLE_CONFIGURATION_DUMP_ON_CONFIGURE_TRANSITION" : "No",
"CONFIGURATION_DUMP_ON_CONFIGURE_FORMAT" : "DEFAULT",
"CONFIGURATION_DUMP_ON_CONFIGURE_FILE_PATH" : "DEFAULT",
"CONFIGURATION_DUMP_ON_CONFIGURE_FILE_RADIX" : "DEFAULT",
"ENABLE_CONFIGURATION_DUMP_ON_RUN_TRANSITION" : "No",
"CONFIGURATION_DUMP_ON_RUN_FORMAT" : "DEFAULT",
"CONFIGURATION_DUMP_ON_RUN_FILE_PATH" : "DEFAULT",
"CONFIGURATION_DUMP_ON_RUN_FILE_RADIX" : "DEFAULT",
"COMMENT_DESCRIPTION" : "System alias filter will only show non-context config groups. And the FSM display will show \"Oddball-Run.\"",
"AUTHOR" : "admin",
"RECORD_INSERTION_TIME" : "1483025802"
}
]
},
"metadata" : {

},
"search" : [

]
},
"comments" : [

],
"origin" : {
"source" : "template",
"name" : "notprovided",
"format" : "json",
"created" : "Fri Jul 07 22:54:22 2017",
"rawdata" : [

]
},
"version" : "4",
"entities" : [
{
"name" : "OTSROOT",
"assigned" : "Fri Jul 07 22:54:22 2017"
}
],
"configurations" : [
{
"name" : "notprovided",
"assigned" : "Fri Jul 07 22:54:22 2017"
},
{
"name" : "OTMiniModuleContext_v4",
"assigned" : "Fri Jul 07 22:54:23 2017"
}
],
"changelog" : "notprovided",
"bookkeeping" : {
"isdeleted" : false,
"isreadonly" : false,
"updates" : [
{
"event" : "addConfiguration",
"timestamp" : "Fri Jul 07 22:54:22 2017",
"value" : {
"name" : "notprovided",
"assigned" : "Fri Jul 07 22:54:22 2017"
}
},
{
"event" : "setVersion",
"timestamp" : "Fri Jul 07 22:54:22 2017",
"value" : {
"name" : "4",
"assigned" : "Fri Jul 07 22:54:22 2017"
}
},
{
"event" : "setCollection",
"timestamp" : "Fri Jul 07 22:54:22 2017",
"value" : {
"name" : "StateMachineConfiguration",
"assigned" : "Fri Jul 07 22:54:22 2017"
}
},
{
"event" : "addEntity",
"timestamp" : "Fri Jul 07 22:54:22 2017",
"value" : {
"name" : "OTSROOT",
"assigned" : "Fri Jul 07 22:54:22 2017"
}
},
{
"event" : "addConfiguration",
"timestamp" : "Fri Jul 07 22:54:23 2017",
"value" : {
"name" : "OTMiniModuleContext_v4",
"assigned" : "Fri Jul 07 22:54:23 2017"
}
}
],
"created" : "Fri Jul 07 22:54:22 2017"
},
"_id" : {
"$oid" : "16fdb59d8bac431f9e2e70ba"
},
"collection" : "StateMachineConfiguration",
"aliases" : {
"active" : [

],
"history" : [

]
},
"runs" : [

],
"attachments" : [

],
"configtype" : "notprovided"
}