{
"ouid" : [
"6dec0b6dfd584959b3c60f5f",
"858ec9c02dae45369ba166f9",
"85e2a401a84a4d37a431f088",
"8b87103f59ad41049aad75d0",
"ab454ffc67f5499a90e79437",
"b6fc4ecebcca48d2b3baff8b"
],
"version" : {
"2" : [
"6dec0b6dfd584959b3c60f5f"
],
"3" : [
"ab454ffc67f5499a90e79437"
],
"4" : [
"858ec9c02dae45369ba166f9"
],
"5" : [
"8b87103f59ad41049aad75d0"
],
"6" : [
"b6fc4ecebcca48d2b3baff8b"
],
"7" : [
"85e2a401a84a4d37a431f088"
]
},
"configurations.name" : {
"notprovided" : [
"6dec0b6dfd584959b3c60f5f",
"858ec9c02dae45369ba166f9",
"85e2a401a84a4d37a431f088",
"8b87103f59ad41049aad75d0",
"ab454ffc67f5499a90e79437",
"b6fc4ecebcca48d2b3baff8b"
],
"DefaultContext_v2" : [
"6dec0b6dfd584959b3c60f5f"
],
"DefaultContext_v3" : [
"6dec0b6dfd584959b3c60f5f"
],
"DefaultContext_v4" : [
"ab454ffc67f5499a90e79437"
],
"DefaultContext_v5" : [
"858ec9c02dae45369ba166f9"
],
"DefaultContext_v6" : [
"858ec9c02dae45369ba166f9"
],
"DefaultContext_v7" : [
"858ec9c02dae45369ba166f9"
],
"DefaultContext_v8" : [
"858ec9c02dae45369ba166f9"
],
"DefaultContext_v9" : [
"8b87103f59ad41049aad75d0"
],
"DefaultContext_v10" : [
"b6fc4ecebcca48d2b3baff8b"
],
"DefaultContext_v11" : [
"8b87103f59ad41049aad75d0"
],
"DefaultContext_v12" : [
"8b87103f59ad41049aad75d0"
],
"DefaultContext_v13" : [
"85e2a401a84a4d37a431f088"
]
},
"entities.name" : {
"OTSROOT" : [
"6dec0b6dfd584959b3c60f5f",
"858ec9c02dae45369ba166f9",
"85e2a401a84a4d37a431f088",
"8b87103f59ad41049aad75d0",
"ab454ffc67f5499a90e79437",
"b6fc4ecebcca48d2b3baff8b"
]
},
"aliases.active.name" : {

},
"runs.name" : {

},
"configurations.assigned" : {
"notprovided" : [
"2019-02-22T16:11:43.390-0600",
"2019-11-19T16:04:56.385-0600",
"2019-11-20T14:08:55.841-0600",
"2019-11-20T15:28:33.120-0600",
"2019-11-20T15:56:56.473-0600",
"2020-07-01T16:09:02.987-0500"
],
"DefaultContext_v2" : [
"2019-02-22T16:11:43.600-0600"
],
"DefaultContext_v3" : [
"2019-07-23T09:05:25.721-0500"
],
"DefaultContext_v4" : [
"2019-11-19T16:07:21.865-0600"
],
"DefaultContext_v5" : [
"2019-11-20T14:24:12.818-0600"
],
"DefaultContext_v6" : [
"2019-11-20T14:39:27.680-0600"
],
"DefaultContext_v7" : [
"2019-11-20T15:26:58.699-0600"
],
"DefaultContext_v8" : [
"2019-11-20T15:27:24.740-0600"
],
"DefaultContext_v9" : [
"2019-11-20T15:28:33.923-0600"
],
"DefaultContext_v10" : [
"2019-11-20T15:56:57.991-0600"
],
"DefaultContext_v11" : [
"2019-11-20T16:00:09.384-0600"
],
"DefaultContext_v12" : [
"2020-06-17T17:20:13.998-0500"
],
"DefaultContext_v13" : [
"2020-07-01T16:09:04.341-0500"
]
}
}