{
"document" : {
"data" : {
"NAME" : "TCP_DATA_LISTENER_PRODUCER_TABLE",
"COMMENT" : "No comment.",
"AUTHOR" : "admin",
"CREATION_TIME" : 1592578587,
"COL_TYPES" : {
"PROCESSOR_UID" : "STRING",
"BUFFER_SIZE" : "NUMBER",
"SERVER_IP_ADDRESS" : "STRING",
"SERVER_PORT" : "NUMBER",
"DATA_TYPE" : "STRING",
"COMMENT_DESCRIPTION" : "STRING",
"AUTHOR" : "STRING",
"RECORD_INSERTION_TIME" : "TIMESTAMP WITH TIMEZONE"
},
"DATA_SET" : [
{
"PROCESSOR_UID" : "VisualDataBufferListener",
"BUFFER_SIZE" : "1000",
"SERVER_IP_ADDRESS" : "127.0.0.1",
"SERVER_PORT" : "6000",
"DATA_TYPE" : "Raw",
"COMMENT_DESCRIPTION" : "No Comment",
"AUTHOR" : "admin",
"RECORD_INSERTION_TIME" : "1592578587"
}
]
},
"metadata" : {

},
"search" : [

]
},
"comments" : [

],
"origin" : {
"source" : "template",
"name" : "notprovided",
"format" : "json",
"created" : "2020-06-19T16:56:27.386+0200",
"rawdata" : [

]
},
"version" : "1",
"entities" : [
{
"name" : "OTSROOT",
"assigned" : "2020-06-19T16:56:27.388+0200"
}
],
"configurations" : [
{
"name" : "notprovided",
"assigned" : "2020-06-19T16:56:27.387+0200"
},
{
"name" : "DefaultConfig_v18",
"assigned" : "2020-06-19T16:56:28.771+0200"
},
{
"name" : "DefaultConfig_v19",
"assigned" : "2020-07-01T16:27:42.092-0500"
},
{
"name" : "DefaultConfig_v20",
"assigned" : "2020-07-01T16:43:50.349-0500"
},
{
"name" : "DefaultConfig_v21",
"assigned" : "2020-07-01T16:52:30.323-0500"
},
{
"name" : "DefaultConfig_v22",
"assigned" : "2020-07-01T16:57:29.991-0500"
},
{
"name" : "DefaultConfig_v23",
"assigned" : "2020-07-01T17:36:18.509-0500"
},
{
"name" : "DefaultConfig_v24",
"assigned" : "2020-07-10T17:08:15.431-0500"
}
],
"changelog" : "notprovided",
"bookkeeping" : {
"isdeleted" : false,
"isreadonly" : false,
"updates" : [
{
"event" : "addConfiguration",
"timestamp" : "2020-06-19T16:56:27.387+0200",
"value" : {
"name" : "notprovided",
"assigned" : "2020-06-19T16:56:27.387+0200"
}
},
{
"event" : "setVersion",
"timestamp" : "2020-06-19T16:56:27.388+0200",
"value" : {
"name" : "1",
"assigned" : "2020-06-19T16:56:27.388+0200"
}
},
{
"event" : "setCollection",
"timestamp" : "2020-06-19T16:56:27.388+0200",
"value" : {
"name" : "TCPDataListenerProducerTable",
"assigned" : "2020-06-19T16:56:27.388+0200"
}
},
{
"event" : "addEntity",
"timestamp" : "2020-06-19T16:56:27.388+0200",
"value" : {
"name" : "OTSROOT",
"assigned" : "2020-06-19T16:56:27.388+0200"
}
},
{
"event" : "addConfiguration",
"timestamp" : "2020-06-19T16:56:28.771+0200",
"value" : {
"name" : "DefaultConfig_v18",
"assigned" : "2020-06-19T16:56:28.771+0200"
}
},
{
"event" : "addConfiguration",
"timestamp" : "2020-07-01T16:27:42.092-0500",
"value" : {
"name" : "DefaultConfig_v19",
"assigned" : "2020-07-01T16:27:42.092-0500"
}
},
{
"event" : "addConfiguration",
"timestamp" : "2020-07-01T16:43:50.349-0500",
"value" : {
"name" : "DefaultConfig_v20",
"assigned" : "2020-07-01T16:43:50.349-0500"
}
},
{
"event" : "addConfiguration",
"timestamp" : "2020-07-01T16:52:30.323-0500",
"value" : {
"name" : "DefaultConfig_v21",
"assigned" : "2020-07-01T16:52:30.323-0500"
}
},
{
"event" : "addConfiguration",
"timestamp" : "2020-07-01T16:57:29.991-0500",
"value" : {
"name" : "DefaultConfig_v22",
"assigned" : "2020-07-01T16:57:29.991-0500"
}
},
{
"event" : "addConfiguration",
"timestamp" : "2020-07-01T17:36:18.509-0500",
"value" : {
"name" : "DefaultConfig_v23",
"assigned" : "2020-07-01T17:36:18.509-0500"
}
},
{
"event" : "addConfiguration",
"timestamp" : "2020-07-10T17:08:15.431-0500",
"value" : {
"name" : "DefaultConfig_v24",
"assigned" : "2020-07-10T17:08:15.431-0500"
}
}
],
"created" : "2020-06-19T16:56:27.386+0200"
},
"_id" : {
"$oid" : "13a9a637dffa4ea39c308449"
},
"collection" : "TCPDataListenerProducerTable",
"aliases" : {
"active" : [

],
"history" : [

]
},
"runs" : [

],
"attachments" : [

],
"configtype" : "notprovided"
}