{
"ouid" : [
"2d6f6764aa79432e99e932f9",
"9b3e10a83a1147a7b04d12aa",
"e8fbdd856ddb423e90b4e1db"
],
"version" : {
"0" : [
"e8fbdd856ddb423e90b4e1db"
],
"1" : [
"9b3e10a83a1147a7b04d12aa"
],
"2" : [
"2d6f6764aa79432e99e932f9"
]
},
"configurations.name" : {
"notprovided" : [
"2d6f6764aa79432e99e932f9",
"9b3e10a83a1147a7b04d12aa",
"e8fbdd856ddb423e90b4e1db"
],
"FTBFConfig_v0" : [
"e8fbdd856ddb423e90b4e1db"
],
"FTBFConfig_v1" : [
"e8fbdd856ddb423e90b4e1db"
],
"FTBFConfig_v2" : [
"e8fbdd856ddb423e90b4e1db"
],
"FTBFConfig_v3" : [
"e8fbdd856ddb423e90b4e1db"
],
"FTBFConfig_v4" : [
"e8fbdd856ddb423e90b4e1db"
],
"FTBFConfig_v5" : [
"e8fbdd856ddb423e90b4e1db"
],
"FTBFConfig_v6" : [
"e8fbdd856ddb423e90b4e1db"
],
"FTBFConfig_v7" : [
"e8fbdd856ddb423e90b4e1db"
],
"FTBFConfig_v8" : [
"e8fbdd856ddb423e90b4e1db"
],
"FTBFConfig_v9" : [
"e8fbdd856ddb423e90b4e1db"
],
"FTBFConfig_v10" : [
"e8fbdd856ddb423e90b4e1db"
],
"FTBFConfig_v11" : [
"e8fbdd856ddb423e90b4e1db"
],
"FTBFConfig_v12" : [
"e8fbdd856ddb423e90b4e1db"
],
"FTBFConfig_v13" : [
"9b3e10a83a1147a7b04d12aa"
],
"FTBFConfig_v14" : [
"9b3e10a83a1147a7b04d12aa"
],
"FTBFConfig_v15" : [
"9b3e10a83a1147a7b04d12aa"
],
"FTBFConfig_v16" : [
"9b3e10a83a1147a7b04d12aa"
],
"FTBFConfig_v17" : [
"9b3e10a83a1147a7b04d12aa"
],
"FTBFConfig_v18" : [
"9b3e10a83a1147a7b04d12aa"
],
"FTBFConfig_v19" : [
"9b3e10a83a1147a7b04d12aa"
],
"FTBFConfig_v20" : [
"2d6f6764aa79432e99e932f9"
],
"FTBFConfig_v21" : [
"2d6f6764aa79432e99e932f9"
],
"FTBFConfig_v22" : [
"2d6f6764aa79432e99e932f9"
],
"FTBFConfig_v23" : [
"2d6f6764aa79432e99e932f9"
],
"FTBFConfig_v24" : [
"2d6f6764aa79432e99e932f9"
],
"FTBFConfig_v25" : [
"2d6f6764aa79432e99e932f9"
],
"FTBFConfig_v26" : [
"2d6f6764aa79432e99e932f9"
],
"FTBFConfig_v27" : [
"2d6f6764aa79432e99e932f9"
],
"FTBFConfig_v28" : [
"2d6f6764aa79432e99e932f9"
],
"FTBFConfig_v29" : [
"2d6f6764aa79432e99e932f9"
],
"FTBFConfig_v30" : [
"2d6f6764aa79432e99e932f9"
],
"FTBFConfig_v31" : [
"2d6f6764aa79432e99e932f9"
],
"FTBFConfig_v32" : [
"2d6f6764aa79432e99e932f9"
],
"FTBFConfig_v33" : [
"2d6f6764aa79432e99e932f9"
],
"FTBFConfig_v34" : [
"2d6f6764aa79432e99e932f9"
],
"FTBFConfig_v35" : [
"2d6f6764aa79432e99e932f9"
],
"FTBFConfig_v36" : [
"2d6f6764aa79432e99e932f9"
],
"FTBFConfig_v37" : [
"2d6f6764aa79432e99e932f9"
],
"FTBFConfig_v38" : [
"2d6f6764aa79432e99e932f9"
],
"FTBFConfig_v39" : [
"2d6f6764aa79432e99e932f9"
],
"FTBFConfig_v40" : [
"2d6f6764aa79432e99e932f9"
],
"FTBFConfig_v41" : [
"2d6f6764aa79432e99e932f9"
],
"FTBFConfig_v42" : [
"2d6f6764aa79432e99e932f9"
],
"FTBFConfig_v43" : [
"2d6f6764aa79432e99e932f9"
],
"FTBFConfig_v44" : [
"2d6f6764aa79432e99e932f9"
],
"FTBFConfig_v45" : [
"2d6f6764aa79432e99e932f9"
],
"FTBFConfig_v46" : [
"2d6f6764aa79432e99e932f9"
],
"FTBFConfig_v47" : [
"2d6f6764aa79432e99e932f9"
],
"FTBFConfig_v48" : [
"2d6f6764aa79432e99e932f9"
],
"FTBFConfig_v49" : [
"2d6f6764aa79432e99e932f9"
],
"FTBFConfig_v50" : [
"2d6f6764aa79432e99e932f9"
],
"FTBFConfig_v51" : [
"2d6f6764aa79432e99e932f9"
],
"FTBFConfig_v52" : [
"2d6f6764aa79432e99e932f9"
],
"FTBFConfig_v53" : [
"2d6f6764aa79432e99e932f9"
],
"FTBFConfig_v54" : [
"2d6f6764aa79432e99e932f9"
],
"FTBFConfig_v55" : [
"2d6f6764aa79432e99e932f9"
],
"FTBFConfig_v56" : [
"2d6f6764aa79432e99e932f9"
],
"FTBFConfig_v57" : [
"2d6f6764aa79432e99e932f9"
],
"FTBFConfig_v58" : [
"2d6f6764aa79432e99e932f9"
],
"FTBFConfig_v59" : [
"2d6f6764aa79432e99e932f9"
],
"FTBFConfig_v60" : [
"2d6f6764aa79432e99e932f9"
],
"FTBFConfig_v61" : [
"2d6f6764aa79432e99e932f9"
],
"FTBFConfig_v62" : [
"2d6f6764aa79432e99e932f9"
],
"FTBFConfig_v63" : [
"2d6f6764aa79432e99e932f9"
],
"FTBFConfig_v64" : [
"2d6f6764aa79432e99e932f9"
],
"FTBFConfig_v65" : [
"2d6f6764aa79432e99e932f9"
],
"FTBFConfig_v66" : [
"2d6f6764aa79432e99e932f9"
],
"FTBFConfig_v67" : [
"2d6f6764aa79432e99e932f9"
],
"FTBFConfig_v68" : [
"2d6f6764aa79432e99e932f9"
],
"FTBFConfig_v69" : [
"2d6f6764aa79432e99e932f9"
],
"FTBFConfig_v70" : [
"2d6f6764aa79432e99e932f9"
],
"FTBFConfigNim_v0" : [
"2d6f6764aa79432e99e932f9"
],
"FTBFConfigNim_v1" : [
"2d6f6764aa79432e99e932f9"
],
"FTBFConfigNim_v2" : [
"2d6f6764aa79432e99e932f9"
],
"FTBFConfigNim_v3" : [
"2d6f6764aa79432e99e932f9"
],
"FTBFConfigNim_v4" : [
"2d6f6764aa79432e99e932f9"
],
"FTBFConfigNim_v5" : [
"2d6f6764aa79432e99e932f9"
],
"FTBFConfigNim_v6" : [
"2d6f6764aa79432e99e932f9"
],
"FTBFConfigNim_v7" : [
"2d6f6764aa79432e99e932f9"
],
"FTBFConfigNim_v8" : [
"2d6f6764aa79432e99e932f9"
],
"FTBFConfigNim_v9" : [
"2d6f6764aa79432e99e932f9"
],
"FTBFConfigNim_v10" : [
"2d6f6764aa79432e99e932f9"
],
"FTBFConfigNim_v11" : [
"2d6f6764aa79432e99e932f9"
],
"FTBFConfigNim_v12" : [
"2d6f6764aa79432e99e932f9"
],
"FTBFConfigNim_v13" : [
"2d6f6764aa79432e99e932f9"
],
"FTBFConfigNim_v14" : [
"2d6f6764aa79432e99e932f9"
],
"FTBFConfigNim_v15" : [
"2d6f6764aa79432e99e932f9"
],
"FTBFConfigNim_v16" : [
"2d6f6764aa79432e99e932f9"
],
"FTBFConfigNim_v17" : [
"2d6f6764aa79432e99e932f9"
],
"FTBFConfigNim_v18" : [
"2d6f6764aa79432e99e932f9"
],
"FTBFConfigNim_v19" : [
"2d6f6764aa79432e99e932f9"
],
"FTBFConfigNim_v20" : [
"2d6f6764aa79432e99e932f9"
],
"FTBFConfigNim_v21" : [
"2d6f6764aa79432e99e932f9"
],
"FTBFConfigNim_v22" : [
"2d6f6764aa79432e99e932f9"
],
"FTBFConfigNim_v23" : [
"2d6f6764aa79432e99e932f9"
],
"FTBFConfigNim_v24" : [
"2d6f6764aa79432e99e932f9"
],
"FTBFConfigNim_v25" : [
"2d6f6764aa79432e99e932f9"
],
"FTBFConfigNim_v26" : [
"2d6f6764aa79432e99e932f9"
],
"FTBFConfigNim_v27" : [
"2d6f6764aa79432e99e932f9"
],
"FTBFConfigNim_v28" : [
"2d6f6764aa79432e99e932f9"
],
"FTBFConfigNim_v29" : [
"2d6f6764aa79432e99e932f9"
],
"FTBFConfig_v71" : [
"2d6f6764aa79432e99e932f9"
],
"FTBFConfig_v72" : [
"2d6f6764aa79432e99e932f9"
],
"FTBFConfig_v73" : [
"2d6f6764aa79432e99e932f9"
],
"FTBFConfig_v74" : [
"2d6f6764aa79432e99e932f9"
],
"FTBFConfig_v75" : [
"2d6f6764aa79432e99e932f9"
],
"FTBFConfig_v76" : [
"2d6f6764aa79432e99e932f9"
],
"FTBFConfig_v77" : [
"2d6f6764aa79432e99e932f9"
],
"FTBFConfig_v78" : [
"2d6f6764aa79432e99e932f9"
],
"FTBFConfig_v79" : [
"2d6f6764aa79432e99e932f9"
],
"FTBFConfig_v80" : [
"2d6f6764aa79432e99e932f9"
],
"FTBFConfig_v81" : [
"2d6f6764aa79432e99e932f9"
],
"FTBFConfig_v82" : [
"2d6f6764aa79432e99e932f9"
],
"FTBFConfig_v83" : [
"2d6f6764aa79432e99e932f9"
],
"FTBFConfig_v84" : [
"2d6f6764aa79432e99e932f9"
],
"FTBFConfig_v85" : [
"2d6f6764aa79432e99e932f9"
],
"FTBFConfig_v86" : [
"2d6f6764aa79432e99e932f9"
],
"FTBFConfig_v87" : [
"2d6f6764aa79432e99e932f9"
],
"FTBFConfig_v88" : [
"2d6f6764aa79432e99e932f9"
],
"FTBFConfig_v89" : [
"2d6f6764aa79432e99e932f9"
],
"FTBFConfig_v90" : [
"2d6f6764aa79432e99e932f9"
],
"FTBFConfig_v91" : [
"2d6f6764aa79432e99e932f9"
],
"FTBFConfig_v92" : [
"2d6f6764aa79432e99e932f9"
],
"FTBFConfig_v93" : [
"2d6f6764aa79432e99e932f9"
],
"FTBFConfig_v94" : [
"2d6f6764aa79432e99e932f9"
],
"FTBFConfig_v95" : [
"2d6f6764aa79432e99e932f9"
],
"FTBFConfig_v96" : [
"2d6f6764aa79432e99e932f9"
],
"FTBFConfig_v97" : [
"2d6f6764aa79432e99e932f9"
],
"FTBFConfig_v98" : [
"2d6f6764aa79432e99e932f9"
],
"FTBFConfig_v99" : [
"2d6f6764aa79432e99e932f9"
],
"FTBFConfig_v100" : [
"2d6f6764aa79432e99e932f9"
],
"FTBFConfig_v101" : [
"2d6f6764aa79432e99e932f9"
],
"FTBFConfig_v102" : [
"2d6f6764aa79432e99e932f9"
],
"FTBFConfig_v103" : [
"2d6f6764aa79432e99e932f9"
],
"FTBFConfig_v104" : [
"2d6f6764aa79432e99e932f9"
],
"FTBFConfig_v105" : [
"2d6f6764aa79432e99e932f9"
],
"FTBFConfig_v106" : [
"2d6f6764aa79432e99e932f9"
],
"FTBFConfig_v107" : [
"2d6f6764aa79432e99e932f9"
],
"FTBFConfig_v108" : [
"2d6f6764aa79432e99e932f9"
],
"FTBFConfig_v109" : [
"2d6f6764aa79432e99e932f9"
],
"FTBFConfig_v110" : [
"2d6f6764aa79432e99e932f9"
],
"FTBFConfig_v111" : [
"2d6f6764aa79432e99e932f9"
],
"FTBFConfig_v112" : [
"2d6f6764aa79432e99e932f9"
],
"FTBFConfig_v113" : [
"2d6f6764aa79432e99e932f9"
],
"FTBFConfig_v114" : [
"2d6f6764aa79432e99e932f9"
],
"FTBFConfig_v115" : [
"2d6f6764aa79432e99e932f9"
],
"FTBFConfig_v116" : [
"2d6f6764aa79432e99e932f9"
],
"FTBFConfig_v117" : [
"2d6f6764aa79432e99e932f9"
],
"FTBFConfig_v118" : [
"2d6f6764aa79432e99e932f9"
],
"FTBFConfig_v119" : [
"2d6f6764aa79432e99e932f9"
],
"FTBFConfig_v120" : [
"2d6f6764aa79432e99e932f9"
],
"FTBFConfig_v121" : [
"2d6f6764aa79432e99e932f9"
],
"FTBFConfig_v122" : [
"2d6f6764aa79432e99e932f9"
],
"FTBFConfig_v123" : [
"2d6f6764aa79432e99e932f9"
],
"FTBFConfig_v124" : [
"2d6f6764aa79432e99e932f9"
],
"FTBFConfig_v125" : [
"2d6f6764aa79432e99e932f9"
],
"FTBFConfig_v126" : [
"2d6f6764aa79432e99e932f9"
],
"FTBFConfig_v127" : [
"2d6f6764aa79432e99e932f9"
],
"FTBFConfig_v128" : [
"2d6f6764aa79432e99e932f9"
],
"FTBFConfig_v129" : [
"2d6f6764aa79432e99e932f9"
],
"FTBFConfig_v130" : [
"2d6f6764aa79432e99e932f9"
],
"FTBFConfig_v131" : [
"2d6f6764aa79432e99e932f9"
],
"FTBFConfig_v132" : [
"2d6f6764aa79432e99e932f9"
],
"FTBFConfig_v133" : [
"2d6f6764aa79432e99e932f9"
],
"FTBFConfig_v134" : [
"2d6f6764aa79432e99e932f9"
],
"FTBFConfig_v135" : [
"2d6f6764aa79432e99e932f9"
],
"FTBFConfig_v136" : [
"2d6f6764aa79432e99e932f9"
],
"FTBFConfig_v137" : [
"2d6f6764aa79432e99e932f9"
],
"FTBFConfig_v138" : [
"2d6f6764aa79432e99e932f9"
],
"FTBFConfig_v139" : [
"2d6f6764aa79432e99e932f9"
],
"FTBFConfig_v140" : [
"2d6f6764aa79432e99e932f9"
],
"FTBFConfig_v141" : [
"2d6f6764aa79432e99e932f9"
],
"FTBFConfig_v142" : [
"2d6f6764aa79432e99e932f9"
]
},
"entities.name" : {
"OTSROOT" : [
"2d6f6764aa79432e99e932f9",
"9b3e10a83a1147a7b04d12aa",
"e8fbdd856ddb423e90b4e1db"
]
},
"aliases.active.name" : {

},
"runs.name" : {

},
"configurations.assigned" : {
"notprovided" : [
"2017-11-08T15:56:02.365-0600",
"2017-11-15T13:13:36.984-0600",
"2017-11-15T16:26:26.385-0600"
],
"FTBFConfig_v0" : [
"2017-11-08T15:56:04.945-0600"
],
"FTBFConfig_v1" : [
"2017-11-09T09:56:29.328-0600"
],
"FTBFConfig_v2" : [
"2017-11-09T10:05:58.267-0600"
],
"FTBFConfig_v3" : [
"2017-11-09T10:37:09.834-0600"
],
"FTBFConfig_v4" : [
"2017-11-15T11:30:08.565-0600"
],
"FTBFConfig_v5" : [
"2017-11-15T11:54:55.313-0600"
],
"FTBFConfig_v6" : [
"2017-11-15T11:57:47.937-0600"
],
"FTBFConfig_v7" : [
"2017-11-15T12:42:30.332-0600"
],
"FTBFConfig_v8" : [
"2017-11-15T13:01:01.282-0600"
],
"FTBFConfig_v9" : [
"2017-11-15T13:02:54.653-0600"
],
"FTBFConfig_v10" : [
"2017-11-15T13:04:22.248-0600"
],
"FTBFConfig_v11" : [
"2017-11-15T13:07:49.720-0600"
],
"FTBFConfig_v12" : [
"2017-11-15T13:11:57.153-0600"
],
"FTBFConfig_v13" : [
"2017-11-15T13:13:51.102-0600"
],
"FTBFConfig_v14" : [
"2017-11-15T13:27:23.494-0600"
],
"FTBFConfig_v15" : [
"2017-11-15T13:35:45.051-0600"
],
"FTBFConfig_v16" : [
"2017-11-15T13:36:49.683-0600"
],
"FTBFConfig_v17" : [
"2017-11-15T15:33:28.211-0600"
],
"FTBFConfig_v18" : [
"2017-11-15T15:35:31.722-0600"
],
"FTBFConfig_v19" : [
"2017-11-15T15:38:00.631-0600"
],
"FTBFConfig_v20" : [
"2017-11-15T16:26:28.239-0600"
],
"FTBFConfig_v21" : [
"2017-11-16T09:22:29.422-0600"
],
"FTBFConfig_v22" : [
"2017-11-17T10:23:25.597-0600"
],
"FTBFConfig_v23" : [
"2017-11-17T17:26:43.112-0600"
],
"FTBFConfig_v24" : [
"2017-11-17T17:58:23.512-0600"
],
"FTBFConfig_v25" : [
"2017-11-17T18:24:43.194-0600"
],
"FTBFConfig_v26" : [
"2017-11-17T18:32:19.889-0600"
],
"FTBFConfig_v27" : [
"2017-11-17T18:43:27.006-0600"
],
"FTBFConfig_v28" : [
"2017-11-17T18:48:29.017-0600"
],
"FTBFConfig_v29" : [
"2017-11-20T14:48:28.420-0600"
],
"FTBFConfig_v30" : [
"2017-11-20T15:39:53.681-0600"
],
"FTBFConfig_v31" : [
"2017-11-20T16:40:59.645-0600"
],
"FTBFConfig_v32" : [
"2017-11-20T18:55:32.440-0600"
],
"FTBFConfig_v33" : [
"2017-11-20T18:57:27.705-0600"
],
"FTBFConfig_v34" : [
"2017-11-29T17:50:37.185-0600"
],
"FTBFConfig_v35" : [
"2017-11-29T18:00:30.060-0600"
],
"FTBFConfig_v36" : [
"2017-11-29T18:35:08.927-0600"
],
"FTBFConfig_v37" : [
"2017-12-01T09:36:15.082-0600"
],
"FTBFConfig_v38" : [
"2017-12-01T09:51:58.416-0600"
],
"FTBFConfig_v39" : [
"2017-12-01T11:51:55.661-0600"
],
"FTBFConfig_v40" : [
"2017-12-01T12:18:17.588-0600"
],
"FTBFConfig_v41" : [
"2017-12-01T12:20:59.731-0600"
],
"FTBFConfig_v42" : [
"2017-12-01T12:43:18.811-0600"
],
"FTBFConfig_v43" : [
"2017-12-01T12:57:55.612-0600"
],
"FTBFConfig_v44" : [
"2017-12-01T13:00:48.037-0600"
],
"FTBFConfig_v45" : [
"2017-12-01T13:25:45.679-0600"
],
"FTBFConfig_v46" : [
"2017-12-01T13:35:40.508-0600"
],
"FTBFConfig_v47" : [
"2017-12-01T14:00:48.939-0600"
],
"FTBFConfig_v48" : [
"2017-12-01T14:03:56.197-0600"
],
"FTBFConfig_v49" : [
"2017-12-01T15:31:56.332-0600"
],
"FTBFConfig_v50" : [
"2017-12-01T15:34:28.263-0600"
],
"FTBFConfig_v51" : [
"2017-12-01T15:36:17.781-0600"
],
"FTBFConfig_v52" : [
"2017-12-01T15:37:26.933-0600"
],
"FTBFConfig_v53" : [
"2017-12-01T15:40:55.907-0600"
],
"FTBFConfig_v54" : [
"2017-12-01T15:52:46.219-0600"
],
"FTBFConfig_v55" : [
"2017-12-01T15:54:31.337-0600"
],
"FTBFConfig_v56" : [
"2017-12-01T15:55:30.856-0600"
],
"FTBFConfig_v57" : [
"2017-12-01T15:56:36.636-0600"
],
"FTBFConfig_v58" : [
"2017-12-01T15:57:34.711-0600"
],
"FTBFConfig_v59" : [
"2017-12-01T15:58:26.592-0600"
],
"FTBFConfig_v60" : [
"2017-12-01T15:59:27.790-0600"
],
"FTBFConfig_v61" : [
"2017-12-01T16:19:37.488-0600"
],
"FTBFConfig_v62" : [
"2017-12-01T16:22:00.042-0600"
],
"FTBFConfig_v63" : [
"2017-12-01T16:31:20.637-0600"
],
"FTBFConfig_v64" : [
"2017-12-01T17:06:27.462-0600"
],
"FTBFConfig_v65" : [
"2017-12-01T17:32:39.797-0600"
],
"FTBFConfig_v66" : [
"2017-12-01T20:38:46.226-0600"
],
"FTBFConfig_v67" : [
"2017-12-01T21:24:57.694-0600"
],
"FTBFConfig_v68" : [
"2017-12-01T21:42:57.332-0600"
],
"FTBFConfig_v69" : [
"2017-12-01T21:44:55.933-0600"
],
"FTBFConfig_v70" : [
"2017-12-01T21:59:15.157-0600"
],
"FTBFConfigNim_v0" : [
"2017-12-01T22:00:01.865-0600"
],
"FTBFConfigNim_v1" : [
"2017-12-01T22:13:03.584-0600"
],
"FTBFConfigNim_v2" : [
"2017-12-01T22:15:50.800-0600"
],
"FTBFConfigNim_v3" : [
"2017-12-01T22:16:58.747-0600"
],
"FTBFConfigNim_v4" : [
"2017-12-01T22:19:01.854-0600"
],
"FTBFConfigNim_v5" : [
"2017-12-01T22:21:52.534-0600"
],
"FTBFConfigNim_v6" : [
"2017-12-01T22:23:07.878-0600"
],
"FTBFConfigNim_v7" : [
"2017-12-01T22:25:12.454-0600"
],
"FTBFConfigNim_v8" : [
"2017-12-01T22:26:59.982-0600"
],
"FTBFConfigNim_v9" : [
"2017-12-01T22:29:24.271-0600"
],
"FTBFConfigNim_v10" : [
"2017-12-01T22:52:29.367-0600"
],
"FTBFConfigNim_v11" : [
"2017-12-01T22:57:24.052-0600"
],
"FTBFConfigNim_v12" : [
"2017-12-01T23:00:02.412-0600"
],
"FTBFConfigNim_v13" : [
"2017-12-01T23:52:30.517-0600"
],
"FTBFConfigNim_v14" : [
"2017-12-01T23:58:04.896-0600"
],
"FTBFConfigNim_v15" : [
"2017-12-02T00:00:29.172-0600"
],
"FTBFConfigNim_v16" : [
"2017-12-02T00:13:04.264-0600"
],
"FTBFConfigNim_v17" : [
"2017-12-02T00:28:23.263-0600"
],
"FTBFConfigNim_v18" : [
"2017-12-02T00:29:29.291-0600"
],
"FTBFConfigNim_v19" : [
"2017-12-02T00:31:05.557-0600"
],
"FTBFConfigNim_v20" : [
"2017-12-02T00:57:22.269-0600"
],
"FTBFConfigNim_v21" : [
"2017-12-02T10:57:56.803-0600"
],
"FTBFConfigNim_v22" : [
"2017-12-02T11:08:12.965-0600"
],
"FTBFConfigNim_v23" : [
"2017-12-02T11:12:34.510-0600"
],
"FTBFConfigNim_v24" : [
"2017-12-02T11:18:37.331-0600"
],
"FTBFConfigNim_v25" : [
"2017-12-02T11:27:00.548-0600"
],
"FTBFConfigNim_v26" : [
"2017-12-02T11:38:31.587-0600"
],
"FTBFConfigNim_v27" : [
"2017-12-02T11:49:02.690-0600"
],
"FTBFConfigNim_v28" : [
"2017-12-02T11:55:04.097-0600"
],
"FTBFConfigNim_v29" : [
"2017-12-02T12:06:20.965-0600"
],
"FTBFConfig_v71" : [
"2017-12-02T12:24:09.592-0600"
],
"FTBFConfig_v72" : [
"2017-12-02T12:43:30.350-0600"
],
"FTBFConfig_v73" : [
"2017-12-02T13:55:29.908-0600"
],
"FTBFConfig_v74" : [
"2017-12-02T14:09:02.186-0600"
],
"FTBFConfig_v75" : [
"2017-12-02T14:12:13.043-0600"
],
"FTBFConfig_v76" : [
"2017-12-02T19:05:48.172-0600"
],
"FTBFConfig_v77" : [
"2017-12-02T19:12:07.954-0600"
],
"FTBFConfig_v78" : [
"2017-12-03T14:03:43.143-0600"
],
"FTBFConfig_v79" : [
"2017-12-03T14:09:01.302-0600"
],
"FTBFConfig_v80" : [
"2017-12-03T14:11:05.060-0600"
],
"FTBFConfig_v81" : [
"2017-12-03T14:22:28.090-0600"
],
"FTBFConfig_v82" : [
"2017-12-03T14:40:32.848-0600"
],
"FTBFConfig_v83" : [
"2017-12-03T14:45:00.131-0600"
],
"FTBFConfig_v84" : [
"2017-12-04T14:51:25.602-0600"
],
"FTBFConfig_v85" : [
"2017-12-04T14:55:38.725-0600"
],
"FTBFConfig_v86" : [
"2017-12-04T16:51:01.677-0600"
],
"FTBFConfig_v87" : [
"2017-12-04T16:56:42.301-0600"
],
"FTBFConfig_v88" : [
"2017-12-04T17:01:06.992-0600"
],
"FTBFConfig_v89" : [
"2017-12-04T17:03:52.052-0600"
],
"FTBFConfig_v90" : [
"2017-12-04T17:07:11.688-0600"
],
"FTBFConfig_v91" : [
"2017-12-04T17:09:20.799-0600"
],
"FTBFConfig_v92" : [
"2017-12-04T17:11:33.242-0600"
],
"FTBFConfig_v93" : [
"2017-12-04T21:05:15.868-0600"
],
"FTBFConfig_v94" : [
"2017-12-04T21:17:06.699-0600"
],
"FTBFConfig_v95" : [
"2017-12-04T21:41:12.446-0600"
],
"FTBFConfig_v96" : [
"2017-12-04T22:38:57.044-0600"
],
"FTBFConfig_v97" : [
"2017-12-04T23:01:07.531-0600"
],
"FTBFConfig_v98" : [
"2017-12-07T11:07:41.532-0600"
],
"FTBFConfig_v99" : [
"2017-12-07T11:49:54.222-0600"
],
"FTBFConfig_v100" : [
"2017-12-07T11:58:20.956-0600"
],
"FTBFConfig_v101" : [
"2017-12-08T13:30:43.024-0600"
],
"FTBFConfig_v102" : [
"2017-12-08T13:32:29.918-0600"
],
"FTBFConfig_v103" : [
"2017-12-12T11:02:59.675-0600"
],
"FTBFConfig_v104" : [
"2017-12-12T13:50:53.873-0600"
],
"FTBFConfig_v105" : [
"2017-12-12T15:24:59.897-0600"
],
"FTBFConfig_v106" : [
"2017-12-13T10:24:18.389-0600"
],
"FTBFConfig_v107" : [
"2017-12-13T10:26:57.178-0600"
],
"FTBFConfig_v108" : [
"2018-02-01T21:14:20.401-0600"
],
"FTBFConfig_v109" : [
"2018-02-01T21:20:57.478-0600"
],
"FTBFConfig_v110" : [
"2018-02-02T11:25:28.428-0600"
],
"FTBFConfig_v111" : [
"2018-02-02T11:37:07.253-0600"
],
"FTBFConfig_v112" : [
"2018-02-02T11:47:09.691-0600"
],
"FTBFConfig_v113" : [
"2018-02-02T11:53:30.936-0600"
],
"FTBFConfig_v114" : [
"2018-02-02T12:00:46.985-0600"
],
"FTBFConfig_v115" : [
"2018-02-02T12:27:08.481-0600"
],
"FTBFConfig_v116" : [
"2018-02-02T14:28:47.963-0600"
],
"FTBFConfig_v117" : [
"2018-02-02T14:30:14.311-0600"
],
"FTBFConfig_v118" : [
"2018-02-02T14:33:55.497-0600"
],
"FTBFConfig_v119" : [
"2018-02-02T14:36:22.082-0600"
],
"FTBFConfig_v120" : [
"2018-02-02T14:38:35.442-0600"
],
"FTBFConfig_v121" : [
"2018-02-02T14:41:44.773-0600"
],
"FTBFConfig_v122" : [
"2018-02-02T14:50:18.728-0600"
],
"FTBFConfig_v123" : [
"2018-02-02T14:52:51.616-0600"
],
"FTBFConfig_v124" : [
"2018-02-02T14:59:44.921-0600"
],
"FTBFConfig_v125" : [
"2018-02-02T15:04:03.012-0600"
],
"FTBFConfig_v126" : [
"2018-02-02T15:50:06.219-0600"
],
"FTBFConfig_v127" : [
"2018-02-02T15:51:25.667-0600"
],
"FTBFConfig_v128" : [
"2018-02-02T15:52:30.829-0600"
],
"FTBFConfig_v129" : [
"2018-02-02T16:02:39.718-0600"
],
"FTBFConfig_v130" : [
"2018-02-02T16:08:39.208-0600"
],
"FTBFConfig_v131" : [
"2018-02-02T16:11:24.972-0600"
],
"FTBFConfig_v132" : [
"2018-02-02T16:12:52.829-0600"
],
"FTBFConfig_v133" : [
"2018-02-02T16:14:23.388-0600"
],
"FTBFConfig_v134" : [
"2018-02-02T16:26:16.303-0600"
],
"FTBFConfig_v135" : [
"2018-02-02T16:27:03.397-0600"
],
"FTBFConfig_v136" : [
"2018-02-02T16:29:24.712-0600"
],
"FTBFConfig_v137" : [
"2018-02-02T16:31:35.207-0600"
],
"FTBFConfig_v138" : [
"2018-02-02T16:34:07.943-0600"
],
"FTBFConfig_v139" : [
"2018-02-02T17:39:23.957-0600"
],
"FTBFConfig_v140" : [
"2018-02-02T17:42:46.119-0600"
],
"FTBFConfig_v141" : [
"2018-02-02T17:47:31.271-0600"
],
"FTBFConfig_v142" : [
"2018-02-02T17:53:55.247-0600"
]
}
}