{
"ouid" : [
"f6ad4a0ab64449b394846a87"
],
"version" : {
"2" : [
"f6ad4a0ab64449b394846a87"
]
},
"configurations.name" : {
"notprovided" : [
"f6ad4a0ab64449b394846a87"
],
"DefaultContext_v2" : [
"f6ad4a0ab64449b394846a87"
],
"DefaultContext_v3" : [
"f6ad4a0ab64449b394846a87"
],
"DefaultContext_v4" : [
"f6ad4a0ab64449b394846a87"
],
"DefaultContext_v5" : [
"f6ad4a0ab64449b394846a87"
],
"DefaultContext_v6" : [
"f6ad4a0ab64449b394846a87"
],
"DefaultContext_v7" : [
"f6ad4a0ab64449b394846a87"
],
"DefaultContext_v8" : [
"f6ad4a0ab64449b394846a87"
],
"DefaultContext_v9" : [
"f6ad4a0ab64449b394846a87"
],
"DefaultContext_v10" : [
"f6ad4a0ab64449b394846a87"
],
"DefaultContext_v11" : [
"f6ad4a0ab64449b394846a87"
],
"DefaultContext_v12" : [
"f6ad4a0ab64449b394846a87"
],
"DefaultContext_v13" : [
"f6ad4a0ab64449b394846a87"
],
"DefaultContext_v14" : [
"f6ad4a0ab64449b394846a87"
],
"DefaultContext_v15" : [
"f6ad4a0ab64449b394846a87"
],
"DefaultContext_v16" : [
"f6ad4a0ab64449b394846a87"
],
"DefaultContext_v17" : [
"f6ad4a0ab64449b394846a87"
],
"DefaultContext_v18" : [
"f6ad4a0ab64449b394846a87"
]
},
"entities.name" : {
"OTSROOT" : [
"f6ad4a0ab64449b394846a87"
]
},
"aliases.active.name" : {

},
"runs.name" : {

},
"configurations.assigned" : {
"notprovided" : [
"2020-07-21T14:27:47.356-0500"
],
"DefaultContext_v2" : [
"2020-07-21T14:27:47.740-0500"
],
"DefaultContext_v3" : [
"2020-07-21T14:42:50.492-0500"
],
"DefaultContext_v4" : [
"2020-07-21T14:46:44.373-0500"
],
"DefaultContext_v5" : [
"2020-07-21T14:51:16.653-0500"
],
"DefaultContext_v6" : [
"2020-07-21T14:55:16.975-0500"
],
"DefaultContext_v7" : [
"2020-07-21T14:55:56.984-0500"
],
"DefaultContext_v8" : [
"2020-07-21T15:50:01.345-0500"
],
"DefaultContext_v9" : [
"2020-08-23T13:00:05.940-0400"
],
"DefaultContext_v10" : [
"2020-08-26T07:36:02.990-0400"
],
"DefaultContext_v11" : [
"2020-08-26T07:36:45.263-0400"
],
"DefaultContext_v12" : [
"2020-08-26T07:41:34.907-0400"
],
"DefaultContext_v13" : [
"2020-08-26T07:49:46.460-0400"
],
"DefaultContext_v14" : [
"2020-08-26T07:52:48.573-0400"
],
"DefaultContext_v15" : [
"2020-09-07T08:30:59.457-0400"
],
"DefaultContext_v16" : [
"2020-09-07T08:42:41.061-0400"
],
"DefaultContext_v17" : [
"2020-09-07T08:52:41.492-0400"
],
"DefaultContext_v18" : [
"2020-09-07T09:05:05.427-0400"
]
}
}