{
"document" : {
"data" : {
"NAME" : "RAW_DATA_SAVER_CONSUMER_CONFIGURATION",
"COMMENT" : "Records for raw data savers.",
"AUTHOR" : "rrivera",
"CREATION_TIME" : 1510242906,
"COL_TYPES" : {
"PROCESSOR_UID" : "VARCHAR2",
"FILE_PATH" : "VARCHAR2",
"RADIX_FILE_NAME" : "VARCHAR2",
"MAX_FILE_SIZE" : "NUMBER",
"COMMENT_DESCRIPTION" : "VARCHAR2",
"AUTHOR" : "VARCHAR2",
"RECORD_INSERTION_TIME" : "TIMESTAMP WITH TIMEZONE"
},
"DATA_SET" : [
{
"PROCESSOR_UID" : "FSSR0_DB0_RawDataSaver0",
"FILE_PATH" : "/data/TestBeam/2017_11_November/OtsData",
"RADIX_FILE_NAME" : "RawDataSaver0FER0",
"MAX_FILE_SIZE" : "1000",
"COMMENT_DESCRIPTION" : "",
"AUTHOR" : "rrivera",
"RECORD_INSERTION_TIME" : "1510242906"
},
{
"PROCESSOR_UID" : "FSSR1_DB0_RawDataSaver0",
"FILE_PATH" : "/data/TestBeam/2017_11_November/OtsData",
"RADIX_FILE_NAME" : "RawDataSaver0FER1",
"MAX_FILE_SIZE" : "1000",
"COMMENT_DESCRIPTION" : "",
"AUTHOR" : "rrivera",
"RECORD_INSERTION_TIME" : "1510242906"
},
{
"PROCESSOR_UID" : "FSSR2_DB0_RawDataSaver0",
"FILE_PATH" : "/data/TestBeam/2017_11_November/OtsData",
"RADIX_FILE_NAME" : "RawDataSaver0FER2",
"MAX_FILE_SIZE" : "1000",
"COMMENT_DESCRIPTION" : "",
"AUTHOR" : "rrivera",
"RECORD_INSERTION_TIME" : "1510242906"
},
{
"PROCESSOR_UID" : "FSSR3_DB0_RawDataSaver0",
"FILE_PATH" : "/data/TestBeam/2017_11_November/OtsData",
"RADIX_FILE_NAME" : "RawDataSaver0FER3",
"MAX_FILE_SIZE" : "1000",
"COMMENT_DESCRIPTION" : "",
"AUTHOR" : "rrivera",
"RECORD_INSERTION_TIME" : "1510242906"
},
{
"PROCESSOR_UID" : "NIMPlus0_DB0_RawDataSaver0",
"FILE_PATH" : "/data/TestBeam/2017_11_November/NimPlus",
"RADIX_FILE_NAME" : "RawDataSaver0NIM0",
"MAX_FILE_SIZE" : "1000",
"COMMENT_DESCRIPTION" : "No Comment",
"AUTHOR" : "rrivera",
"RECORD_INSERTION_TIME" : "1510242906"
},
{
"PROCESSOR_UID" : "CMSTiming0_DB0_RawDataSaver0",
"FILE_PATH" : "/data/TestBeam/2017_11_November/CMSTiming",
"RADIX_FILE_NAME" : "RawDataSaver0CMSTiming0",
"MAX_FILE_SIZE" : "1000",
"COMMENT_DESCRIPTION" : "",
"AUTHOR" : "rrivera",
"RECORD_INSERTION_TIME" : "1510242906"
}
]
},
"metadata" : {

},
"search" : [

]
},
"comments" : [

],
"origin" : {
"source" : "template",
"name" : "notprovided",
"format" : "json",
"created" : "2017-11-09T09:55:06.377-0600",
"rawdata" : [

]
},
"version" : "1",
"entities" : [
{
"name" : "OTSROOT",
"assigned" : "2017-11-09T09:55:06.379-0600"
}
],
"configurations" : [
{
"name" : "notprovided",
"assigned" : "2017-11-09T09:55:06.378-0600"
}
],
"changelog" : "notprovided",
"bookkeeping" : {
"isdeleted" : false,
"isreadonly" : false,
"updates" : [
{
"event" : "addConfiguration",
"timestamp" : "2017-11-09T09:55:06.378-0600",
"value" : {
"name" : "notprovided",
"assigned" : "2017-11-09T09:55:06.378-0600"
}
},
{
"event" : "setVersion",
"timestamp" : "2017-11-09T09:55:06.379-0600",
"value" : {
"name" : "1",
"assigned" : "2017-11-09T09:55:06.379-0600"
}
},
{
"event" : "setCollection",
"timestamp" : "2017-11-09T09:55:06.379-0600",
"value" : {
"name" : "RawDataSaverConsumerConfiguration",
"assigned" : "2017-11-09T09:55:06.379-0600"
}
},
{
"event" : "addEntity",
"timestamp" : "2017-11-09T09:55:06.380-0600",
"value" : {
"name" : "OTSROOT",
"assigned" : "2017-11-09T09:55:06.379-0600"
}
}
],
"created" : "2017-11-09T09:55:06.377-0600"
},
"_id" : {
"$oid" : "397603db3a77427ea10881b8"
},
"collection" : "RawDataSaverConsumerConfiguration",
"aliases" : {
"active" : [

],
"history" : [

]
},
"runs" : [

],
"attachments" : [

],
"configtype" : "notprovided"
}