{
"ouid" : [
"07e7dc2ba4774904a7a09646",
"53acc8dfa1e54bbd8cf50501",
"709013ae779345798d874a99",
"70d44f622c494dfab2cf83c3",
"b6f2c158578440d6a44a5d29",
"bc9eeacd7347461eab93f0ca",
"f7d5e5ef0e2d433796ad6bd3"
],
"version" : {
"0" : [
"709013ae779345798d874a99"
],
"1" : [
"53acc8dfa1e54bbd8cf50501"
],
"2" : [
"07e7dc2ba4774904a7a09646"
],
"3" : [
"bc9eeacd7347461eab93f0ca"
],
"4" : [
"b6f2c158578440d6a44a5d29"
],
"5" : [
"f7d5e5ef0e2d433796ad6bd3"
],
"6" : [
"70d44f622c494dfab2cf83c3"
]
},
"configurations.name" : {
"notprovided" : [
"07e7dc2ba4774904a7a09646",
"53acc8dfa1e54bbd8cf50501",
"709013ae779345798d874a99",
"70d44f622c494dfab2cf83c3",
"b6f2c158578440d6a44a5d29",
"bc9eeacd7347461eab93f0ca",
"f7d5e5ef0e2d433796ad6bd3"
],
"iterateDefaultGroup_v0" : [
"709013ae779345798d874a99"
],
"iterateDefaultGroup_v1" : [
"709013ae779345798d874a99"
],
"iterateDefaultGroup_v2" : [
"709013ae779345798d874a99"
],
"iterateDefaultGroup_v3" : [
"53acc8dfa1e54bbd8cf50501"
],
"iterateDefaultGroup_v4" : [
"53acc8dfa1e54bbd8cf50501"
],
"iterateDefaultGroup_v5" : [
"07e7dc2ba4774904a7a09646"
],
"DefaultConfig_v4" : [
"bc9eeacd7347461eab93f0ca"
],
"iterateDefaultGroup_v6" : [
"bc9eeacd7347461eab93f0ca"
],
"iterateDefaultGroup_v7" : [
"b6f2c158578440d6a44a5d29"
],
"iterateDefaultGroup_v8" : [
"b6f2c158578440d6a44a5d29"
],
"iterateDefaultGroup_v9" : [
"f7d5e5ef0e2d433796ad6bd3"
],
"iterateDefaultGroup_v10" : [
"f7d5e5ef0e2d433796ad6bd3"
],
"iterateDefaultGroup_v11" : [
"f7d5e5ef0e2d433796ad6bd3"
],
"iterateDefaultGroup_v12" : [
"70d44f622c494dfab2cf83c3"
],
"iterateDefaultGroup_v13" : [
"70d44f622c494dfab2cf83c3"
],
"iterateDefaultGroup_v14" : [
"70d44f622c494dfab2cf83c3"
],
"iterateDefaultGroup_v15" : [
"70d44f622c494dfab2cf83c3"
],
"iterateDefaultGroup_v16" : [
"70d44f622c494dfab2cf83c3"
],
"iterateDefaultGroup_v17" : [
"70d44f622c494dfab2cf83c3"
],
"iterateDefaultGroup_v18" : [
"70d44f622c494dfab2cf83c3"
],
"iterateDefaultGroup_v19" : [
"70d44f622c494dfab2cf83c3"
],
"iterateDefaultGroup_v20" : [
"70d44f622c494dfab2cf83c3"
],
"iterateDefaultGroup_v21" : [
"70d44f622c494dfab2cf83c3"
],
"iterateDefaultGroup_v22" : [
"70d44f622c494dfab2cf83c3"
],
"iterateDefaultGroup_v23" : [
"70d44f622c494dfab2cf83c3"
],
"iterateDefaultGroup_v24" : [
"70d44f622c494dfab2cf83c3"
],
"iterateDefaultGroup_v25" : [
"70d44f622c494dfab2cf83c3"
],
"iterateDefaultGroup_v26" : [
"70d44f622c494dfab2cf83c3"
],
"iterateDefaultGroup_v27" : [
"70d44f622c494dfab2cf83c3"
],
"iterateDefaultGroup_v28" : [
"70d44f622c494dfab2cf83c3"
],
"iterateDefaultGroup_v29" : [
"70d44f622c494dfab2cf83c3"
],
"iterateDefaultGroup_v30" : [
"70d44f622c494dfab2cf83c3"
],
"iterateDefaultGroup_v31" : [
"70d44f622c494dfab2cf83c3"
]
},
"entities.name" : {
"OTSROOT" : [
"07e7dc2ba4774904a7a09646",
"53acc8dfa1e54bbd8cf50501",
"709013ae779345798d874a99",
"70d44f622c494dfab2cf83c3",
"b6f2c158578440d6a44a5d29",
"bc9eeacd7347461eab93f0ca",
"f7d5e5ef0e2d433796ad6bd3"
]
},
"aliases.active.name" : {

},
"runs.name" : {

},
"configurations.assigned" : {
"notprovided" : [
"2020-07-21T14:47:39.250-0500",
"2020-07-21T15:42:19.717-0500",
"2020-07-21T15:57:33.091-0500",
"2020-07-28T10:52:33.680-0500",
"2020-07-28T13:01:36.247-0500",
"2020-07-28T13:09:35.842-0500",
"2020-07-28T13:23:58.766-0500"
],
"iterateDefaultGroup_v0" : [
"2020-07-21T14:47:39.797-0500"
],
"iterateDefaultGroup_v1" : [
"2020-07-21T15:25:08.182-0500"
],
"iterateDefaultGroup_v2" : [
"2020-07-21T15:28:04.580-0500"
],
"iterateDefaultGroup_v3" : [
"2020-07-21T15:42:20.939-0500"
],
"iterateDefaultGroup_v4" : [
"2020-07-21T15:45:03.927-0500"
],
"iterateDefaultGroup_v5" : [
"2020-07-21T15:57:33.896-0500"
],
"DefaultConfig_v4" : [
"2020-07-28T10:52:34.458-0500"
],
"iterateDefaultGroup_v6" : [
"2020-07-28T10:52:35.381-0500"
],
"iterateDefaultGroup_v7" : [
"2020-07-28T13:01:37.081-0500"
],
"iterateDefaultGroup_v8" : [
"2020-07-28T13:03:27.273-0500"
],
"iterateDefaultGroup_v9" : [
"2020-07-28T13:12:58.255-0500"
],
"iterateDefaultGroup_v10" : [
"2020-07-28T13:15:25.494-0500"
],
"iterateDefaultGroup_v11" : [
"2020-07-28T13:20:57.440-0500"
],
"iterateDefaultGroup_v12" : [
"2020-07-28T13:27:38.022-0500"
],
"iterateDefaultGroup_v13" : [
"2020-08-23T09:24:34.752-0400"
],
"iterateDefaultGroup_v14" : [
"2020-08-23T09:26:43.321-0400"
],
"iterateDefaultGroup_v15" : [
"2020-08-23T09:29:14.619-0400"
],
"iterateDefaultGroup_v16" : [
"2020-08-23T09:33:18.867-0400"
],
"iterateDefaultGroup_v17" : [
"2020-08-23T09:43:06.440-0400"
],
"iterateDefaultGroup_v18" : [
"2020-08-23T10:39:32.034-0400"
],
"iterateDefaultGroup_v19" : [
"2020-08-23T11:05:09.749-0400"
],
"iterateDefaultGroup_v20" : [
"2020-08-23T12:38:27.021-0400"
],
"iterateDefaultGroup_v21" : [
"2020-09-07T07:24:26.910-0400"
],
"iterateDefaultGroup_v22" : [
"2020-09-07T07:25:08.445-0400"
],
"iterateDefaultGroup_v23" : [
"2020-09-07T07:42:48.002-0400"
],
"iterateDefaultGroup_v24" : [
"2020-09-07T08:36:21.723-0400"
],
"iterateDefaultGroup_v25" : [
"2020-09-07T08:41:07.394-0400"
],
"iterateDefaultGroup_v26" : [
"2020-09-07T10:01:47.568-0400"
],
"iterateDefaultGroup_v27" : [
"2020-09-07T10:05:34.167-0400"
],
"iterateDefaultGroup_v28" : [
"2020-09-07T10:31:12.282-0400"
],
"iterateDefaultGroup_v29" : [
"2020-09-07T10:32:32.152-0400"
],
"iterateDefaultGroup_v30" : [
"2020-09-07T10:39:26.118-0400"
],
"iterateDefaultGroup_v31" : [
"2020-09-07T10:47:19.911-0400"
]
}
}