{
"document" : {
"data" : {
"NAME" : "ROC_BIT_MASK_CONFIGURATION",
"COMMENT" : "FSSR ROC bit mask records.",
"AUTHOR" : "uplegger",
"CREATION_TIME" : 1511225650,
"COL_TYPES" : {
"DETECTOR_UID" : "VARCHAR2",
"KILL_MASK" : "VARCHAR2",
"COMMENT_DESCRIPTION" : "VARCHAR2",
"AUTHOR" : "VARCHAR2",
"RECORD_INSERTION_TIME" : "TIMESTAMP WITH TIMEZONE"
},
"DATA_SET" : [
{
"DETECTOR_UID" : "FSSR_STA0_MOD0_ROC0",
"KILL_MASK" : "[\n\t[0,1,0,0,0,0,0,0,0,0,0,0,0,0,0,0,0,0,0,0,0,0,0,0,0,0,0,0,0,0,0,0,0,0,0,0,0,0,0,0,0,0,0,0,0,0,0,0,0,0,0,0,0,0,0,0,0,0,0,0,0,0,0,0,0,0,0,0,0,0,0,0,0,0,0,0,0,0,0,0,0,0,0,0,0,0,0,0,0,0,0,0,0,0,0,0,0,0,0,0,0,0,0,0,0,0,0,0,0,0,0,0,0,0,0,0,0,0,0,0,0,0,0,0,0,0,0,0]\n]",
"COMMENT_DESCRIPTION" : "No Comment",
"AUTHOR" : "admin",
"RECORD_INSERTION_TIME" : "1509678404"
},
{
"DETECTOR_UID" : "FSSR_STA0_MOD0_ROC1",
"KILL_MASK" : "[\n\t[0,0,0,0,0,0,0,0,0,0,0,0,0,0,0,0,0,0,0,0,0,0,0,0,0,0,0,0,0,0,0,0,0,0,0,0,0,0,0,0,0,0,0,0,0,0,0,0,0,0,0,0,0,0,0,0,0,0,0,0,0,0,0,0,0,0,0,0,0,0,0,0,0,0,0,0,0,0,0,0,0,0,0,0,0,0,0,0,0,0,0,0,0,0,0,0,0,0,0,0,0,0,0,0,0,0,0,0,0,0,0,0,0,0,0,0,0,0,0,0,0,0,0,0,0,0,0,0]\n]",
"COMMENT_DESCRIPTION" : "No Comment",
"AUTHOR" : "admin",
"RECORD_INSERTION_TIME" : "1509678404"
},
{
"DETECTOR_UID" : "FSSR_STA0_MOD0_ROC2",
"KILL_MASK" : "[\n\t[0,0,0,0,0,0,0,0,0,0,0,0,0,0,0,0,0,0,0,0,0,0,0,0,0,0,0,0,0,0,0,0,0,0,0,0,0,0,0,0,0,0,0,0,0,0,0,0,0,0,0,0,0,0,0,0,0,0,0,0,0,0,0,0,0,0,0,0,0,0,0,0,0,0,0,0,0,0,0,0,0,0,0,0,0,0,0,0,0,0,0,0,0,0,0,0,0,0,0,0,0,0,0,0,0,0,0,0,0,0,0,0,0,0,0,0,0,0,0,0,0,0,0,0,0,0,0,0]\n]",
"COMMENT_DESCRIPTION" : "No Comment",
"AUTHOR" : "admin",
"RECORD_INSERTION_TIME" : "1509678404"
},
{
"DETECTOR_UID" : "FSSR_STA0_MOD0_ROC3",
"KILL_MASK" : "[\n\t[0,0,0,0,0,0,0,0,0,0,0,0,0,0,0,0,0,0,0,0,0,0,0,0,0,0,0,0,0,0,0,0,0,0,0,0,0,0,0,0,0,0,0,0,0,0,0,0,0,0,0,0,0,0,0,0,0,0,0,0,0,0,0,0,0,0,0,0,0,0,0,0,0,0,0,0,0,0,0,0,0,0,0,0,0,0,0,0,0,0,0,0,0,0,0,0,0,0,0,0,0,0,0,0,0,0,0,0,0,0,0,0,0,0,0,0,0,0,0,0,0,0,0,0,0,0,0,0]\n]",
"COMMENT_DESCRIPTION" : "No Comment",
"AUTHOR" : "admin",
"RECORD_INSERTION_TIME" : "1509678404"
},
{
"DETECTOR_UID" : "FSSR_STA0_MOD0_ROC4",
"KILL_MASK" : "[\n\t[0,0,0,0,0,0,0,0,0,0,0,0,0,0,0,0,0,0,0,0,0,0,0,0,0,0,0,0,0,0,0,0,0,0,0,0,0,0,0,0,0,0,0,0,0,0,0,0,0,0,0,0,0,0,0,0,0,0,1,0,0,0,0,0,0,0,0,0,0,0,0,0,0,0,0,0,0,0,0,0,0,0,0,0,0,0,0,0,0,0,0,0,0,0,0,0,0,0,0,0,0,0,0,0,0,0,0,0,0,0,0,0,0,0,0,0,0,0,0,0,0,0,0,0,0,0,0,0]\n]",
"COMMENT_DESCRIPTION" : "No Comment",
"AUTHOR" : "admin",
"RECORD_INSERTION_TIME" : "1509678404"
},
{
"DETECTOR_UID" : "FSSR_STA0_MOD1_ROC0",
"KILL_MASK" : "[\n\t[0,0,0,0,0,0,0,0,0,0,0,0,0,0,0,0,0,0,0,0,0,0,0,0,0,0,0,0,0,0,1,1,0,0,0,0,0,0,0,0,0,0,0,0,0,0,0,0,0,0,0,0,0,0,0,0,0,0,0,0,0,0,0,0,0,0,0,0,0,0,0,0,0,0,0,0,0,0,0,0,0,0,0,0,0,0,0,0,0,0,0,0,0,0,0,0,0,0,0,0,0,0,0,0,0,0,0,0,0,0,0,0,0,0,0,0,0,0,0,0,0,0,0,0,0,0,0,0]\n]",
"COMMENT_DESCRIPTION" : "No Comment",
"AUTHOR" : "admin",
"RECORD_INSERTION_TIME" : "1509678404"
},
{
"DETECTOR_UID" : "FSSR_STA0_MOD1_ROC1",
"KILL_MASK" : "[\n\t[0,0,0,0,0,0,0,0,0,0,0,0,0,0,0,0,0,0,0,0,0,0,0,0,0,0,0,0,0,0,0,0,0,0,0,0,0,0,0,0,0,0,0,0,0,0,0,0,0,0,0,0,0,0,0,0,0,0,0,0,0,0,0,0,0,0,0,0,0,0,0,0,0,0,0,0,0,0,0,0,0,0,0,0,0,0,0,0,0,0,0,0,0,0,0,0,0,0,0,0,0,0,0,0,0,0,0,0,0,0,0,0,0,0,0,0,0,0,0,0,0,0,0,0,0,0,0,0]\n]",
"COMMENT_DESCRIPTION" : "No Comment",
"AUTHOR" : "admin",
"RECORD_INSERTION_TIME" : "1509678404"
},
{
"DETECTOR_UID" : "FSSR_STA0_MOD1_ROC2",
"KILL_MASK" : "[\n\t[0,0,0,0,0,0,0,0,0,0,0,0,0,0,0,0,0,0,0,0,0,0,0,0,0,0,0,0,0,0,0,0,0,0,0,0,0,0,0,0,0,0,0,0,0,0,0,0,0,0,0,0,0,0,0,0,0,0,0,0,0,0,0,0,0,0,0,0,0,0,0,0,0,0,0,0,0,0,0,0,0,0,0,0,0,0,0,0,0,0,0,0,0,0,0,0,0,0,0,0,0,0,0,0,0,0,0,0,0,0,0,0,0,0,0,0,0,0,0,0,0,0,0,0,0,0,0,0]\n]",
"COMMENT_DESCRIPTION" : "No Comment",
"AUTHOR" : "admin",
"RECORD_INSERTION_TIME" : "1509678404"
},
{
"DETECTOR_UID" : "FSSR_STA0_MOD1_ROC3",
"KILL_MASK" : "[\n\t[0,0,0,0,0,0,0,0,0,0,0,0,0,0,0,0,0,0,0,0,0,0,0,0,0,0,0,0,0,0,0,0,0,0,0,0,0,0,0,0,0,0,0,0,0,0,0,0,0,0,0,0,0,0,0,0,0,0,0,0,0,0,0,0,0,0,0,0,0,0,0,0,0,0,0,0,0,0,0,0,0,0,0,0,0,0,0,0,0,0,0,0,0,0,0,0,0,0,0,0,0,0,0,0,0,0,0,0,0,0,0,0,0,0,0,0,0,0,0,0,0,0,0,0,0,0,0,0]\n]",
"COMMENT_DESCRIPTION" : "No Comment",
"AUTHOR" : "admin",
"RECORD_INSERTION_TIME" : "1509678404"
},
{
"DETECTOR_UID" : "FSSR_STA0_MOD1_ROC4",
"KILL_MASK" : "[\n\t[0,0,0,0,0,0,0,0,0,0,0,0,0,0,0,0,0,0,0,0,0,0,0,0,0,0,0,0,0,0,0,0,0,0,0,0,0,0,0,0,0,0,0,0,0,0,0,0,0,0,0,0,0,0,0,0,0,0,1,0,0,0,0,0,0,0,0,0,0,0,0,0,0,0,0,0,0,0,0,0,0,0,0,0,0,0,0,0,0,0,0,0,0,0,0,0,0,0,0,0,0,0,0,0,0,0,0,0,0,0,0,0,0,0,0,0,0,0,0,0,0,0,0,0,0,0,0,0]\n]",
"COMMENT_DESCRIPTION" : "No Comment",
"AUTHOR" : "admin",
"RECORD_INSERTION_TIME" : "1509678404"
},
{
"DETECTOR_UID" : "FSSR_STA0_MOD2_ROC0",
"KILL_MASK" : "[\n\t[0,0,0,0,0,0,0,0,0,0,0,0,0,0,0,0,0,0,0,0,0,0,0,0,0,0,0,0,0,0,0,0,0,0,0,0,0,0,0,0,0,0,0,0,0,0,0,0,0,0,0,0,0,0,0,0,0,0,0,0,0,0,0,0,0,0,0,0,0,0,0,0,0,0,0,0,0,0,0,0,0,0,0,0,0,0,0,0,0,0,0,0,0,0,0,0,0,0,0,0,0,0,0,0,0,0,0,0,0,0,0,0,0,0,0,0,0,0,0,0,0,0,0,0,0,0,0,0]\n]",
"COMMENT_DESCRIPTION" : "No Comment",
"AUTHOR" : "admin",
"RECORD_INSERTION_TIME" : "1509678404"
},
{
"DETECTOR_UID" : "FSSR_STA0_MOD2_ROC1",
"KILL_MASK" : "[\n\t[0,0,0,0,0,0,0,0,0,0,0,0,0,0,0,0,0,0,0,0,0,0,0,0,0,0,0,0,0,0,0,0,0,0,0,0,0,0,0,0,0,0,0,0,0,0,0,0,0,0,0,0,0,0,0,0,0,0,0,0,0,0,0,0,0,0,0,0,0,0,0,0,0,0,0,0,0,0,0,0,0,0,0,0,0,0,0,0,0,0,0,0,0,0,0,0,0,0,0,0,0,0,0,0,0,0,0,0,0,0,0,0,0,0,0,0,0,0,0,0,0,0,0,0,0,0,0,0]\n]",
"COMMENT_DESCRIPTION" : "No Comment",
"AUTHOR" : "admin",
"RECORD_INSERTION_TIME" : "1509678404"
},
{
"DETECTOR_UID" : "FSSR_STA0_MOD2_ROC2",
"KILL_MASK" : "[\n\t[0,0,0,0,0,0,0,0,0,0,0,0,0,0,0,0,0,0,0,0,0,0,0,0,0,0,0,0,0,0,0,0,0,0,0,0,0,0,0,0,0,0,0,0,0,0,0,0,0,0,0,0,0,0,0,0,0,0,0,0,0,0,0,0,0,0,0,0,0,0,0,0,0,0,0,0,0,0,0,0,0,0,0,0,0,0,0,0,0,0,0,0,0,0,0,0,0,0,0,0,0,0,0,0,0,0,0,0,0,0,0,0,0,0,0,0,0,0,0,0,0,0,0,0,0,0,0,0]\n]",
"COMMENT_DESCRIPTION" : "No Comment",
"AUTHOR" : "admin",
"RECORD_INSERTION_TIME" : "1509678404"
},
{
"DETECTOR_UID" : "FSSR_STA0_MOD2_ROC3",
"KILL_MASK" : "[\n\t[0,0,0,0,0,0,0,0,0,0,0,0,0,0,0,0,0,0,0,0,0,0,0,0,0,0,0,0,0,0,0,0,0,0,0,0,0,0,0,0,0,0,0,0,0,0,0,0,0,0,0,0,0,0,0,0,0,0,0,0,0,0,0,0,0,0,0,0,0,0,0,0,0,0,0,0,0,0,0,0,0,0,0,0,0,0,0,0,0,0,0,0,0,0,0,0,0,0,0,0,0,0,0,0,0,0,0,0,0,0,0,0,0,0,0,0,0,0,0,0,0,0,0,0,0,0,0,0]\n]",
"COMMENT_DESCRIPTION" : "No Comment",
"AUTHOR" : "admin",
"RECORD_INSERTION_TIME" : "1509678404"
},
{
"DETECTOR_UID" : "FSSR_STA0_MOD2_ROC4",
"KILL_MASK" : "[\n\t[0,0,0,0,0,0,0,0,0,0,0,0,0,0,0,0,0,0,0,0,0,0,0,0,0,0,0,0,0,0,0,0,0,0,0,0,0,0,0,0,0,0,0,0,0,0,0,0,0,0,0,0,0,0,0,0,0,0,1,0,0,0,0,0,0,0,0,0,0,0,0,0,0,0,0,0,0,0,0,0,0,0,0,0,0,0,0,0,0,0,0,0,0,0,0,0,0,0,0,0,0,0,0,0,0,0,0,0,0,0,0,0,0,0,0,0,0,0,0,0,0,0,0,0,0,0,0,0]\n]",
"COMMENT_DESCRIPTION" : "No Comment",
"AUTHOR" : "admin",
"RECORD_INSERTION_TIME" : "1509678404"
},
{
"DETECTOR_UID" : "FSSR_STA0_MOD3_ROC0",
"KILL_MASK" : "[\n\t[0,0,0,0,0,0,0,0,0,0,0,0,0,0,0,0,0,0,0,0,0,0,0,0,0,0,0,0,0,0,0,0,0,0,0,0,0,0,0,0,0,0,0,0,0,0,0,0,0,0,0,0,0,0,0,0,0,0,0,0,0,0,0,0,0,0,0,0,0,0,0,0,0,0,0,0,0,0,0,0,0,0,0,0,0,0,0,0,0,0,0,0,0,0,0,0,0,0,0,0,0,0,0,0,0,0,0,0,0,0,0,0,0,0,0,0,0,0,0,0,0,0,0,0,0,0,0,0]\n]",
"COMMENT_DESCRIPTION" : "No Comment",
"AUTHOR" : "admin",
"RECORD_INSERTION_TIME" : "1509678404"
},
{
"DETECTOR_UID" : "FSSR_STA0_MOD3_ROC1",
"KILL_MASK" : "[\n\t[0,0,0,0,0,0,0,0,0,0,0,0,0,0,0,0,0,0,0,0,0,0,0,0,0,0,0,0,0,0,0,0,0,0,0,0,0,0,0,0,0,0,0,0,0,0,0,0,0,0,0,0,0,0,0,0,0,0,0,0,0,0,0,0,0,0,0,0,0,0,0,0,0,0,0,0,0,0,0,0,0,0,0,0,0,0,0,0,0,0,0,0,0,0,0,0,0,0,0,0,0,0,0,0,0,0,0,0,0,0,0,0,0,0,0,0,0,0,0,0,0,0,0,0,0,0,0,0]\n]",
"COMMENT_DESCRIPTION" : "No Comment",
"AUTHOR" : "admin",
"RECORD_INSERTION_TIME" : "1509678404"
},
{
"DETECTOR_UID" : "FSSR_STA0_MOD3_ROC2",
"KILL_MASK" : "[\n\t[0,0,0,0,0,0,0,0,0,0,0,0,0,0,0,0,0,0,0,0,0,0,0,0,0,0,0,0,0,0,0,0,0,0,0,0,0,0,0,0,0,0,0,0,0,0,0,0,0,0,0,0,0,0,0,0,0,0,0,0,0,0,0,0,0,0,0,0,0,0,0,0,0,0,0,0,0,0,0,0,0,0,0,0,0,0,0,0,0,0,0,0,0,0,0,0,0,0,0,0,0,0,0,0,0,0,0,0,0,0,0,0,0,0,0,0,0,0,0,0,0,0,0,0,0,0,0,0]\n]",
"COMMENT_DESCRIPTION" : "No Comment",
"AUTHOR" : "admin",
"RECORD_INSERTION_TIME" : "1509678404"
},
{
"DETECTOR_UID" : "FSSR_STA0_MOD3_ROC3",
"KILL_MASK" : "[\n\t[0,0,0,0,0,0,0,0,0,0,0,0,0,0,0,0,0,0,0,0,0,0,0,0,0,0,0,0,0,0,0,0,0,0,0,0,0,0,0,0,0,0,0,0,0,0,0,0,0,0,0,0,0,0,0,0,0,0,0,0,0,0,0,0,0,0,0,0,0,0,0,0,0,0,0,0,0,0,0,0,0,0,0,0,0,0,0,0,0,0,0,0,0,0,0,0,0,0,0,0,0,0,0,0,0,0,0,0,0,0,0,0,0,0,0,0,0,0,0,0,0,0,0,0,0,0,0,0]\n]",
"COMMENT_DESCRIPTION" : "No Comment",
"AUTHOR" : "admin",
"RECORD_INSERTION_TIME" : "1509678404"
},
{
"DETECTOR_UID" : "FSSR_STA0_MOD3_ROC4",
"KILL_MASK" : "[\n\t[0,0,0,0,0,0,0,0,0,0,0,0,0,0,0,0,0,0,0,0,0,0,0,0,0,0,0,0,0,0,0,0,0,0,0,0,0,0,0,0,0,0,0,0,0,0,0,0,0,0,0,0,0,0,0,0,0,0,1,0,0,0,0,0,0,0,0,0,0,0,0,0,0,0,0,0,0,0,0,0,0,0,0,0,0,0,0,0,0,0,0,0,0,0,0,0,0,0,0,0,0,0,0,0,0,0,0,0,0,0,0,0,0,0,0,0,0,0,0,0,0,0,0,0,0,0,0,0]\n]",
"COMMENT_DESCRIPTION" : "No Comment",
"AUTHOR" : "admin",
"RECORD_INSERTION_TIME" : "1509678404"
},
{
"DETECTOR_UID" : "FSSR_STA1_MOD0_ROC0",
"KILL_MASK" : "[\n\t[0,0,0,0,0,0,0,0,0,0,0,0,0,0,0,0,0,0,0,0,0,0,0,0,0,0,0,0,0,0,0,0,0,0,0,0,0,0,0,0,0,0,0,0,0,0,0,0,0,0,0,0,0,0,0,0,0,0,0,0,0,0,0,0,0,0,0,0,0,0,0,0,0,0,0,0,0,0,0,0,0,0,0,0,0,0,0,0,0,0,0,0,0,0,0,0,0,0,0,0,0,0,0,0,0,0,0,0,0,0,0,0,0,0,0,0,0,0,0,0,0,0,0,0,0,0,0,0]\n]",
"COMMENT_DESCRIPTION" : "No Comment",
"AUTHOR" : "admin",
"RECORD_INSERTION_TIME" : "1509678404"
},
{
"DETECTOR_UID" : "FSSR_STA1_MOD0_ROC1",
"KILL_MASK" : "[\n\t[0,0,0,0,0,0,0,0,0,0,0,0,0,0,0,0,0,0,0,0,0,0,0,0,0,0,0,0,0,0,0,0,0,0,0,0,0,0,0,0,0,0,0,0,0,0,0,0,0,0,0,0,0,0,0,0,0,0,0,0,0,0,0,0,0,0,0,0,0,0,0,0,0,0,0,0,0,0,0,0,0,0,0,0,0,0,0,0,0,0,0,0,0,0,0,0,0,0,0,0,0,0,0,0,0,0,0,0,0,0,0,0,0,0,0,0,0,0,0,0,0,0,0,0,0,0,0,0]\n]",
"COMMENT_DESCRIPTION" : "No Comment",
"AUTHOR" : "admin",
"RECORD_INSERTION_TIME" : "1509678404"
},
{
"DETECTOR_UID" : "FSSR_STA1_MOD0_ROC2",
"KILL_MASK" : "[\n\t[0,0,0,0,0,0,0,0,0,0,0,0,0,0,0,0,0,0,0,0,0,0,0,0,0,0,0,0,0,0,0,0,0,0,0,0,0,0,0,0,0,0,0,0,0,0,0,0,0,0,0,0,0,0,0,0,0,0,0,0,0,0,0,0,0,0,0,0,0,0,0,0,0,0,0,0,0,0,0,0,0,0,0,0,0,0,0,0,0,0,0,0,0,0,0,0,0,0,0,0,0,0,0,0,0,0,0,0,0,0,0,0,0,0,0,0,0,0,0,0,0,0,0,0,0,0,0,0]\n]",
"COMMENT_DESCRIPTION" : "No Comment",
"AUTHOR" : "admin",
"RECORD_INSERTION_TIME" : "1509678404"
},
{
"DETECTOR_UID" : "FSSR_STA1_MOD0_ROC3",
"KILL_MASK" : "[\n\t[0,0,0,0,0,0,0,0,0,0,0,0,0,0,0,0,0,0,0,0,0,0,0,0,0,0,0,0,0,0,0,0,0,0,0,0,0,0,0,0,0,0,0,0,0,0,0,0,0,0,0,0,0,0,0,0,0,0,0,0,0,0,0,0,0,0,0,0,0,0,0,0,0,0,0,0,0,0,0,0,0,0,0,0,0,0,0,0,0,0,0,0,0,0,0,0,0,0,0,0,0,0,0,0,0,0,0,0,0,0,0,0,0,0,0,0,0,0,0,0,0,0,0,0,0,0,0,0]\n]",
"COMMENT_DESCRIPTION" : "No Comment",
"AUTHOR" : "admin",
"RECORD_INSERTION_TIME" : "1509678404"
},
{
"DETECTOR_UID" : "FSSR_STA1_MOD0_ROC4",
"KILL_MASK" : "[\n\t[0,0,0,0,0,0,0,0,0,0,0,0,0,0,0,0,0,0,0,0,0,0,0,0,0,0,0,0,0,0,0,0,0,0,0,0,0,0,0,0,0,0,0,0,0,0,0,0,0,0,0,0,0,0,0,0,0,0,0,0,0,0,0,0,0,0,0,0,0,0,0,0,0,0,0,0,0,0,0,0,0,0,0,0,0,0,0,0,0,0,0,0,0,0,0,0,0,0,0,0,0,0,0,0,0,0,0,0,0,0,0,0,0,0,0,0,0,0,0,0,0,0,0,0,0,0,0,0]\n]",
"COMMENT_DESCRIPTION" : "No Comment",
"AUTHOR" : "admin",
"RECORD_INSERTION_TIME" : "1509678404"
},
{
"DETECTOR_UID" : "FSSR_STA1_MOD1_ROC0",
"KILL_MASK" : "[\n\t[0,0,0,0,0,0,0,0,0,0,0,0,0,0,0,0,0,0,0,0,0,0,0,0,0,0,0,0,0,0,0,0,0,0,0,0,0,0,0,0,0,0,0,0,0,0,0,0,0,0,0,0,0,0,0,0,0,0,0,0,0,0,0,0,0,0,0,0,0,0,0,0,0,0,0,0,0,0,0,0,0,0,0,0,0,0,0,0,0,0,0,0,0,0,0,0,0,0,0,0,0,0,0,0,0,0,0,0,0,0,0,0,0,0,0,0,0,0,0,0,0,0,0,0,0,0,0,0]\n]",
"COMMENT_DESCRIPTION" : "No Comment",
"AUTHOR" : "admin",
"RECORD_INSERTION_TIME" : "1509678404"
},
{
"DETECTOR_UID" : "FSSR_STA1_MOD1_ROC1",
"KILL_MASK" : "[\n\t[0,0,0,0,0,0,0,0,0,0,0,0,0,0,0,0,0,0,0,0,0,0,0,0,0,0,0,0,0,0,0,0,0,0,0,0,0,0,0,0,0,0,0,0,0,0,0,1,1,1,1,1,0,0,0,0,0,0,0,0,0,0,0,0,0,0,0,0,0,0,0,0,0,0,0,0,0,0,0,0,0,0,0,0,0,0,0,0,0,0,0,0,0,0,0,0,0,0,0,0,0,1,0,0,0,0,0,0,0,0,0,0,0,0,0,0,0,0,0,0,0,0,0,0,0,0,0,0]\n]",
"COMMENT_DESCRIPTION" : "No Comment",
"AUTHOR" : "admin",
"RECORD_INSERTION_TIME" : "1509678404"
},
{
"DETECTOR_UID" : "FSSR_STA1_MOD1_ROC2",
"KILL_MASK" : "[\n\t[0,0,0,0,0,0,0,0,0,0,0,0,0,0,0,0,0,0,0,0,0,0,0,0,0,0,0,0,0,0,0,0,0,0,0,0,0,0,0,0,0,0,0,0,0,0,0,0,0,0,0,0,0,0,0,0,0,0,0,0,0,0,0,0,0,0,0,0,0,0,0,0,0,0,0,0,0,0,0,0,0,0,0,0,0,0,0,0,0,0,0,0,0,0,0,0,0,0,0,0,0,0,0,0,0,0,0,0,0,0,0,0,0,0,0,0,0,0,0,0,0,0,0,0,0,0,0,0]\n]",
"COMMENT_DESCRIPTION" : "No Comment",
"AUTHOR" : "admin",
"RECORD_INSERTION_TIME" : "1509678404"
},
{
"DETECTOR_UID" : "FSSR_STA1_MOD1_ROC3",
"KILL_MASK" : "[\n\t[0,0,0,0,0,0,0,0,0,0,0,0,0,0,0,0,0,0,0,0,0,0,0,0,0,0,0,0,0,0,0,0,0,0,0,0,0,0,0,0,0,0,0,0,0,0,0,0,0,0,0,0,0,0,0,0,0,0,0,0,0,0,0,0,0,0,0,0,0,0,0,0,0,0,0,0,0,0,0,0,0,0,0,0,0,0,0,0,0,0,0,0,0,0,0,0,0,0,0,0,0,0,0,0,0,0,0,0,0,0,0,0,0,0,0,0,0,0,0,0,0,0,0,0,0,0,0,0]\n]",
"COMMENT_DESCRIPTION" : "No Comment",
"AUTHOR" : "admin",
"RECORD_INSERTION_TIME" : "1509678404"
},
{
"DETECTOR_UID" : "FSSR_STA1_MOD1_ROC4",
"KILL_MASK" : "[\n\t[0,0,0,0,0,0,0,0,0,0,0,0,0,0,0,0,0,0,0,0,0,0,0,0,0,0,0,0,0,0,0,0,0,0,0,0,0,0,0,0,0,0,0,0,0,0,0,0,0,0,0,0,0,0,0,0,0,0,0,0,0,0,0,0,0,0,0,0,0,0,0,0,0,0,0,0,0,0,0,0,0,0,0,0,0,0,0,0,0,0,0,0,0,0,0,0,0,0,0,0,0,0,0,0,0,0,0,0,0,0,0,0,0,0,0,0,0,0,0,0,0,0,0,0,0,0,0,0]\n]",
"COMMENT_DESCRIPTION" : "No Comment",
"AUTHOR" : "admin",
"RECORD_INSERTION_TIME" : "1509678404"
},
{
"DETECTOR_UID" : "FSSR_STA1_MOD2_ROC0",
"KILL_MASK" : "[\n\t[0,0,0,0,0,0,0,0,0,0,0,0,0,0,0,0,0,0,0,0,0,0,0,0,0,0,0,0,0,0,0,0,0,0,0,0,0,0,0,0,0,0,0,0,0,0,0,0,0,0,0,0,0,0,0,0,0,0,0,0,0,0,0,0,0,0,0,0,0,0,0,0,0,0,0,0,0,0,0,0,0,0,0,0,0,0,0,0,0,0,0,0,0,0,0,0,0,0,0,0,0,0,0,0,0,0,0,0,0,0,0,0,0,0,0,0,0,0,0,0,0,0,0,0,0,0,0,0]\n]",
"COMMENT_DESCRIPTION" : "No Comment",
"AUTHOR" : "admin",
"RECORD_INSERTION_TIME" : "1509678404"
},
{
"DETECTOR_UID" : "FSSR_STA1_MOD2_ROC1",
"KILL_MASK" : "[\n\t[0,0,0,0,0,0,0,0,0,0,0,0,0,0,0,0,0,0,0,0,0,0,0,0,0,0,0,0,0,0,0,0,0,0,0,0,0,0,0,0,0,0,0,0,0,0,0,0,0,0,0,0,0,0,0,0,0,0,0,0,0,0,0,0,0,0,0,0,0,0,0,0,0,0,0,0,0,0,0,0,0,0,0,0,0,0,0,0,0,0,0,0,0,0,0,0,0,0,0,0,0,0,0,0,0,0,0,0,0,0,0,0,0,0,0,0,0,0,0,0,0,0,0,0,0,0,0,0]\n]",
"COMMENT_DESCRIPTION" : "No Comment",
"AUTHOR" : "admin",
"RECORD_INSERTION_TIME" : "1509678404"
},
{
"DETECTOR_UID" : "FSSR_STA1_MOD2_ROC2",
"KILL_MASK" : "[\n\t[0,0,0,0,0,0,0,0,0,0,0,0,0,0,0,0,0,0,0,0,0,0,0,0,0,0,0,0,0,0,0,0,0,0,0,0,0,0,0,0,0,0,0,0,0,0,0,0,0,0,0,0,0,0,0,0,0,0,0,0,0,0,0,0,0,0,0,0,0,0,0,0,0,0,0,0,0,0,0,0,0,0,0,0,0,0,0,0,0,0,0,0,0,0,0,0,0,0,0,0,0,0,0,0,0,0,0,0,0,0,0,0,0,0,0,0,0,0,0,0,0,0,0,0,0,0,0,0]\n]",
"COMMENT_DESCRIPTION" : "No Comment",
"AUTHOR" : "admin",
"RECORD_INSERTION_TIME" : "1509678404"
},
{
"DETECTOR_UID" : "FSSR_STA1_MOD2_ROC3",
"KILL_MASK" : "[\n\t[0,0,0,0,0,0,0,0,0,0,0,0,0,0,0,0,0,0,0,0,0,0,0,0,0,0,0,0,0,0,0,0,0,0,0,0,0,0,0,0,0,0,0,0,0,0,0,0,0,0,0,0,0,0,0,0,0,0,0,0,0,0,0,0,0,0,0,0,0,0,0,0,0,0,0,0,0,0,0,0,0,0,0,0,0,0,0,0,0,0,0,0,0,0,0,0,0,0,0,0,0,0,0,0,0,0,0,0,0,0,0,0,0,0,0,0,0,0,0,0,0,0,0,0,0,0,0,0]\n]",
"COMMENT_DESCRIPTION" : "No Comment",
"AUTHOR" : "admin",
"RECORD_INSERTION_TIME" : "1509678404"
},
{
"DETECTOR_UID" : "FSSR_STA1_MOD2_ROC4",
"KILL_MASK" : "[\n\t[0,0,0,0,0,0,0,0,0,0,0,0,0,0,0,0,0,0,0,0,0,0,0,0,0,0,0,0,0,0,0,0,0,0,0,0,0,0,0,0,0,0,0,0,0,0,0,0,0,0,0,0,0,0,0,0,0,0,0,0,0,0,0,0,0,0,0,0,0,0,0,0,0,0,0,0,0,0,0,0,0,0,0,0,0,0,0,0,0,0,0,0,0,0,0,0,0,0,0,0,0,0,0,0,0,0,0,0,0,0,0,0,0,0,0,0,0,0,0,0,0,0,0,0,0,0,0,0]\n]",
"COMMENT_DESCRIPTION" : "No Comment",
"AUTHOR" : "admin",
"RECORD_INSERTION_TIME" : "1509678404"
},
{
"DETECTOR_UID" : "FSSR_STA1_MOD3_ROC0",
"KILL_MASK" : "[\n\t[0,0,0,0,0,0,0,0,0,0,0,0,0,0,0,0,0,0,0,0,0,0,0,0,0,0,0,0,0,0,0,0,0,0,0,0,0,0,0,0,0,0,0,0,0,0,0,0,0,0,0,0,0,0,0,0,0,0,0,0,0,0,0,0,0,0,0,0,0,0,0,0,0,0,0,0,0,0,0,0,0,0,0,0,0,0,0,0,0,0,0,0,0,0,0,0,0,0,0,0,0,0,0,0,0,0,0,0,0,0,0,0,0,0,0,0,0,0,0,0,0,0,0,0,0,0,0,0]\n]",
"COMMENT_DESCRIPTION" : "No Comment",
"AUTHOR" : "admin",
"RECORD_INSERTION_TIME" : "1509678404"
},
{
"DETECTOR_UID" : "FSSR_STA1_MOD3_ROC1",
"KILL_MASK" : "[\n\t[0,0,0,0,0,0,0,0,0,0,0,0,0,0,0,0,0,0,0,0,0,0,0,0,0,0,0,0,0,0,0,0,0,0,0,0,0,0,0,0,0,0,0,0,0,0,0,0,0,0,0,0,0,0,0,0,0,0,0,0,0,0,0,0,0,0,0,0,0,0,0,0,0,0,0,0,0,0,0,0,0,0,0,0,0,0,0,0,0,0,0,0,0,0,0,0,0,0,0,0,0,0,0,0,0,0,0,0,0,0,0,0,0,0,0,0,0,0,0,0,0,0,0,0,0,0,0,0]\n]",
"COMMENT_DESCRIPTION" : "No Comment",
"AUTHOR" : "admin",
"RECORD_INSERTION_TIME" : "1509678404"
},
{
"DETECTOR_UID" : "FSSR_STA1_MOD3_ROC2",
"KILL_MASK" : "[\n\t[0,0,0,0,0,0,0,0,0,0,0,0,0,0,0,0,0,0,0,0,0,0,0,0,0,0,0,0,0,0,0,0,0,0,0,0,0,0,0,0,0,0,0,0,0,0,0,0,0,0,0,0,0,0,0,0,0,0,0,0,0,0,0,0,0,0,0,0,0,0,0,0,0,0,0,0,0,0,0,0,0,0,0,0,0,0,0,0,0,0,0,0,0,0,0,0,0,0,0,0,0,0,0,0,0,0,0,0,0,0,0,0,0,0,0,0,0,0,0,0,0,0,0,0,0,0,0,0]\n]",
"COMMENT_DESCRIPTION" : "No Comment",
"AUTHOR" : "admin",
"RECORD_INSERTION_TIME" : "1509678404"
},
{
"DETECTOR_UID" : "FSSR_STA1_MOD3_ROC3",
"KILL_MASK" : "[\n\t[0,0,0,0,0,0,0,0,0,0,0,0,0,0,0,0,0,0,0,0,0,0,0,0,0,0,0,0,0,0,0,0,0,0,0,0,0,0,0,0,0,0,0,0,0,0,0,0,0,0,0,0,0,0,0,0,0,0,0,0,0,0,0,0,0,0,0,0,0,0,0,0,0,0,0,0,0,0,0,0,0,0,0,0,0,0,0,0,0,0,0,0,0,0,0,0,0,0,0,0,0,0,0,0,0,0,0,0,0,0,0,0,0,0,0,0,0,0,0,0,0,0,0,0,0,0,0,0]\n]",
"COMMENT_DESCRIPTION" : "No Comment",
"AUTHOR" : "admin",
"RECORD_INSERTION_TIME" : "1509678404"
},
{
"DETECTOR_UID" : "FSSR_STA1_MOD3_ROC4",
"KILL_MASK" : "[\n\t[0,0,0,0,0,0,0,0,0,0,0,0,0,0,0,0,0,0,0,0,0,0,0,0,0,0,0,0,0,0,0,0,0,0,0,0,0,0,0,0,0,0,0,0,0,0,0,0,0,0,0,0,0,0,0,0,0,0,0,0,0,0,0,0,0,0,0,0,0,0,0,0,0,0,0,0,0,0,0,0,0,0,0,0,0,0,0,0,0,0,0,0,0,0,0,0,0,0,0,0,0,0,0,0,0,0,0,0,0,0,0,0,0,0,0,0,0,0,0,0,0,0,0,0,0,0,0,0]\n]",
"COMMENT_DESCRIPTION" : "No Comment",
"AUTHOR" : "admin",
"RECORD_INSERTION_TIME" : "1509678404"
},
{
"DETECTOR_UID" : "FSSR_STA2_MOD0_ROC0",
"KILL_MASK" : "[\n\t[0,0,0,0,0,0,0,0,0,0,0,0,0,0,0,0,0,0,0,0,0,0,0,0,0,0,0,0,0,0,0,0,0,0,0,0,0,0,0,0,0,0,0,0,0,0,0,0,0,0,0,0,0,0,0,0,0,0,0,0,0,0,0,0,0,0,0,0,0,0,0,0,0,0,0,0,0,0,0,0,0,0,0,0,0,0,0,0,0,0,0,0,0,0,0,0,0,0,0,0,0,0,0,0,0,0,0,0,0,0,0,0,0,0,0,0,0,0,0,0,0,0,0,0,0,0,0,0]\n]",
"COMMENT_DESCRIPTION" : "No Comment",
"AUTHOR" : "admin",
"RECORD_INSERTION_TIME" : "1509678404"
},
{
"DETECTOR_UID" : "FSSR_STA2_MOD0_ROC1",
"KILL_MASK" : "[\n\t[0,0,0,0,0,0,0,0,0,0,0,0,0,0,0,0,0,0,0,0,0,0,0,0,0,0,0,0,0,0,0,0,0,0,0,0,0,0,0,0,0,0,0,0,0,0,0,0,0,0,0,0,0,0,0,0,0,0,0,0,0,0,0,0,0,0,0,0,0,0,0,0,0,0,0,0,0,0,0,0,0,0,0,0,0,0,0,0,0,0,0,0,0,0,0,0,0,0,0,0,0,0,0,0,0,0,0,0,0,0,0,0,0,0,0,0,0,0,0,0,0,0,0,0,0,0,0,0]\n]",
"COMMENT_DESCRIPTION" : "No Comment",
"AUTHOR" : "admin",
"RECORD_INSERTION_TIME" : "1509678404"
},
{
"DETECTOR_UID" : "FSSR_STA2_MOD0_ROC2",
"KILL_MASK" : "[\n\t[0,0,0,0,0,0,0,0,0,0,0,0,0,0,0,0,0,0,0,0,0,0,0,0,0,0,0,0,0,0,0,0,0,0,0,0,0,0,0,0,0,0,0,0,0,0,0,0,0,0,0,0,0,0,0,0,0,0,0,0,0,0,0,0,0,0,0,0,0,0,0,0,0,0,0,0,0,0,0,0,0,0,0,0,0,0,0,0,0,0,0,0,0,0,0,0,0,0,0,0,0,0,0,0,0,0,0,0,0,0,0,0,0,0,0,0,0,0,0,0,0,0,0,0,0,0,0,0]\n]",
"COMMENT_DESCRIPTION" : "No Comment",
"AUTHOR" : "admin",
"RECORD_INSERTION_TIME" : "1509678404"
},
{
"DETECTOR_UID" : "FSSR_STA2_MOD0_ROC3",
"KILL_MASK" : "[\n\t[0,0,0,0,0,0,0,0,0,0,0,0,0,0,0,0,0,0,0,0,0,0,0,0,0,0,0,0,0,0,0,0,0,0,0,0,0,0,0,0,0,0,0,0,0,0,0,0,0,0,0,0,0,0,0,0,0,0,0,0,0,0,0,0,0,0,0,0,0,0,0,0,0,0,0,0,0,0,0,0,0,0,0,0,0,0,0,0,0,0,0,0,0,0,0,0,0,0,0,0,0,0,0,0,0,0,0,0,0,0,0,0,0,0,0,0,0,0,0,0,0,0,0,0,0,0,0,0]\n]",
"COMMENT_DESCRIPTION" : "No Comment",
"AUTHOR" : "admin",
"RECORD_INSERTION_TIME" : "1509678404"
},
{
"DETECTOR_UID" : "FSSR_STA2_MOD0_ROC4",
"KILL_MASK" : "[\n\t[0,0,0,0,0,0,0,0,0,0,0,0,0,0,0,0,0,0,0,0,0,0,0,0,0,0,0,0,0,0,0,0,0,0,0,0,0,0,0,0,0,0,0,0,0,0,0,0,0,0,0,0,0,0,0,0,0,0,0,0,0,0,0,0,0,0,0,0,0,0,0,0,0,0,0,0,0,0,0,0,0,0,0,0,0,0,0,0,0,0,0,0,0,0,0,0,0,0,0,0,0,0,0,0,0,0,0,0,0,0,0,0,0,0,0,0,0,0,0,0,0,0,0,0,0,0,0,0]\n]",
"COMMENT_DESCRIPTION" : "No Comment",
"AUTHOR" : "admin",
"RECORD_INSERTION_TIME" : "1509678404"
},
{
"DETECTOR_UID" : "FSSR_STA2_MOD1_ROC0",
"KILL_MASK" : "[\n\t[0,0,0,0,0,0,0,0,0,0,0,0,0,0,0,0,0,0,0,0,0,0,0,0,0,0,0,0,0,0,0,0,0,0,0,0,0,0,0,0,0,0,0,0,0,0,0,0,0,0,0,0,0,0,0,0,0,0,0,0,0,0,0,0,0,0,0,0,0,0,0,0,0,0,0,0,0,0,0,0,0,0,0,0,0,0,0,0,0,0,0,0,0,0,0,0,0,0,0,0,0,0,0,0,0,0,0,0,0,0,0,0,0,0,0,0,0,0,0,0,0,0,0,0,0,0,0,0]\n]",
"COMMENT_DESCRIPTION" : "No Comment",
"AUTHOR" : "admin",
"RECORD_INSERTION_TIME" : "1509678404"
},
{
"DETECTOR_UID" : "FSSR_STA2_MOD1_ROC1",
"KILL_MASK" : "[\n\t[0,0,0,0,0,0,0,0,0,0,0,0,0,0,0,0,0,0,0,0,0,0,0,0,0,0,0,0,0,0,0,0,0,0,0,0,0,0,0,0,0,0,0,0,0,0,0,0,0,0,0,0,0,0,0,0,0,0,0,0,0,0,0,0,0,0,0,0,0,0,0,0,0,0,0,0,0,0,0,0,0,0,0,0,0,0,0,0,0,0,0,0,0,0,0,0,0,0,0,0,0,0,0,0,0,0,0,0,0,0,0,0,0,0,0,0,0,0,0,0,0,0,0,0,0,0,0,0]\n]",
"COMMENT_DESCRIPTION" : "No Comment",
"AUTHOR" : "admin",
"RECORD_INSERTION_TIME" : "1509678404"
},
{
"DETECTOR_UID" : "FSSR_STA2_MOD1_ROC2",
"KILL_MASK" : "[\n\t[0,0,0,0,0,0,0,0,0,0,0,0,0,0,0,0,0,0,0,0,0,0,0,0,0,0,0,0,0,0,0,0,0,0,0,0,0,0,0,0,0,0,0,0,0,0,0,0,0,0,0,0,0,0,0,0,0,0,0,0,0,0,0,0,0,0,0,0,0,0,0,0,0,0,0,0,0,0,0,0,0,0,0,0,0,0,0,0,0,0,0,0,0,0,0,0,0,0,0,0,0,0,0,0,0,0,0,0,0,0,0,0,0,0,0,0,0,0,0,0,0,0,0,0,0,0,0,0]\n]",
"COMMENT_DESCRIPTION" : "No Comment",
"AUTHOR" : "admin",
"RECORD_INSERTION_TIME" : "1509678404"
},
{
"DETECTOR_UID" : "FSSR_STA2_MOD1_ROC3",
"KILL_MASK" : "[\n\t[0,0,0,0,0,0,0,0,0,0,0,0,0,0,0,0,0,0,0,0,0,0,0,0,0,0,0,0,0,0,0,0,0,0,0,0,0,0,0,0,0,0,0,0,0,0,0,0,0,0,0,0,0,0,0,0,0,0,0,0,0,0,0,0,0,0,0,0,0,0,0,0,0,0,0,0,0,0,0,0,0,0,0,0,0,0,0,0,0,0,0,0,0,0,0,0,0,0,0,0,0,0,0,0,0,0,0,0,0,0,0,0,0,0,0,0,0,0,0,0,0,0,0,0,0,0,0,0]\n]",
"COMMENT_DESCRIPTION" : "No Comment",
"AUTHOR" : "admin",
"RECORD_INSERTION_TIME" : "1509678404"
},
{
"DETECTOR_UID" : "FSSR_STA2_MOD1_ROC4",
"KILL_MASK" : "[\n\t[0,0,0,0,0,0,0,0,0,0,0,0,0,0,0,0,0,0,0,0,0,0,0,0,0,0,0,0,0,0,0,0,0,0,0,0,0,0,0,0,0,0,0,0,0,0,0,0,0,0,0,0,0,0,0,0,0,0,0,0,0,0,0,0,0,0,0,0,0,0,0,0,0,0,0,0,0,0,0,0,0,0,0,0,0,0,0,0,0,0,0,0,0,0,0,0,0,0,0,0,0,0,0,0,0,0,0,0,0,0,0,0,0,0,0,0,0,0,0,0,0,0,0,0,0,0,0,0]\n]",
"COMMENT_DESCRIPTION" : "No Comment",
"AUTHOR" : "admin",
"RECORD_INSERTION_TIME" : "1509678404"
},
{
"DETECTOR_UID" : "FSSR_STA2_MOD2_ROC0",
"KILL_MASK" : "[\n\t[0,0,0,0,0,0,0,0,0,0,0,0,0,0,0,0,0,0,0,0,0,0,0,0,0,0,0,0,0,0,0,0,0,0,0,0,0,0,0,0,0,0,0,0,0,0,0,0,0,0,0,0,0,0,0,0,0,0,0,0,0,0,0,0,0,0,0,0,0,0,0,0,0,0,0,0,0,0,0,0,0,0,0,0,0,0,0,0,0,0,0,0,0,0,0,0,0,0,0,0,0,0,0,0,0,0,0,0,0,0,0,0,0,0,0,0,0,0,0,0,0,0,0,0,0,0,0,0]\n]",
"COMMENT_DESCRIPTION" : "No Comment",
"AUTHOR" : "admin",
"RECORD_INSERTION_TIME" : "1509678404"
},
{
"DETECTOR_UID" : "FSSR_STA2_MOD2_ROC1",
"KILL_MASK" : "[\n\t[0,0,0,0,0,0,0,0,0,0,0,0,0,0,0,0,0,0,0,0,0,0,0,0,0,0,0,0,0,0,0,0,0,0,0,0,0,0,0,0,0,0,0,0,0,0,0,0,0,0,0,0,0,0,0,0,0,0,0,0,0,0,0,0,0,0,0,0,0,0,0,0,0,0,0,0,0,0,0,0,0,0,0,0,0,0,0,0,0,0,0,0,0,0,0,0,0,0,0,0,0,0,0,0,0,0,0,0,0,0,0,0,0,0,0,0,0,0,0,0,0,0,0,0,0,0,0,0]\n]",
"COMMENT_DESCRIPTION" : "No Comment",
"AUTHOR" : "admin",
"RECORD_INSERTION_TIME" : "1509678404"
},
{
"DETECTOR_UID" : "FSSR_STA2_MOD2_ROC2",
"KILL_MASK" : "[\n\t[0,0,0,0,0,0,0,0,0,0,0,0,0,0,0,0,0,0,0,0,0,0,0,0,0,0,0,0,0,0,0,0,0,0,0,0,0,0,0,0,0,0,0,0,0,0,0,0,0,0,0,0,0,0,0,0,0,0,0,0,0,0,0,0,0,0,0,0,0,0,0,0,0,0,0,0,0,0,0,0,0,0,0,0,0,0,0,0,0,0,0,0,0,0,0,0,0,0,0,0,0,0,0,0,0,0,0,0,0,0,0,0,0,0,0,0,0,0,0,0,0,0,0,0,0,0,0,0]\n]",
"COMMENT_DESCRIPTION" : "No Comment",
"AUTHOR" : "admin",
"RECORD_INSERTION_TIME" : "1509678404"
},
{
"DETECTOR_UID" : "FSSR_STA2_MOD2_ROC3",
"KILL_MASK" : "[\n\t[0,0,0,0,0,0,0,0,0,0,0,0,0,0,0,0,0,0,0,0,0,0,0,0,0,0,0,0,0,0,0,0,0,0,0,0,0,0,0,0,0,0,0,0,0,0,0,0,0,0,0,0,0,0,0,0,0,0,0,0,0,0,0,0,0,0,0,0,0,0,0,0,0,0,0,0,0,0,0,0,0,0,0,0,0,0,0,0,0,0,0,0,0,0,0,0,0,0,0,0,0,0,0,0,0,0,0,0,0,0,0,0,0,0,0,0,0,0,0,0,0,0,0,0,0,0,0,0]\n]",
"COMMENT_DESCRIPTION" : "No Comment",
"AUTHOR" : "admin",
"RECORD_INSERTION_TIME" : "1509678404"
},
{
"DETECTOR_UID" : "FSSR_STA2_MOD2_ROC4",
"KILL_MASK" : "[\n\t[0,0,0,0,0,0,0,0,0,0,0,0,0,0,0,0,0,0,0,0,0,0,0,0,0,0,0,0,0,0,0,0,0,0,0,0,0,0,0,0,0,0,0,0,0,0,0,0,0,0,0,0,0,0,0,0,0,0,0,0,0,0,0,0,0,0,0,0,0,0,0,0,0,0,0,0,0,0,0,0,0,0,0,0,0,0,0,0,0,0,0,0,0,0,0,0,0,0,0,0,0,0,0,0,0,0,0,0,0,0,0,0,0,0,0,0,0,0,0,0,0,0,0,0,0,0,0,0]\n]",
"COMMENT_DESCRIPTION" : "No Comment",
"AUTHOR" : "admin",
"RECORD_INSERTION_TIME" : "1509678404"
},
{
"DETECTOR_UID" : "FSSR_STA2_MOD3_ROC0",
"KILL_MASK" : "[\n\t[0,0,0,0,0,0,0,0,0,0,0,0,0,0,0,0,0,0,0,0,0,0,0,0,0,0,0,0,0,0,0,0,0,0,0,0,0,0,0,0,0,0,0,0,0,0,0,0,0,0,0,0,0,0,0,0,0,0,0,0,0,0,0,0,0,0,0,0,0,0,0,0,0,0,0,0,0,0,0,0,0,0,0,0,0,0,0,0,0,0,0,0,0,0,0,0,0,0,0,0,0,0,0,0,0,0,0,0,0,0,0,0,0,0,0,0,0,0,0,0,0,0,0,0,0,0,0,0]\n]",
"COMMENT_DESCRIPTION" : "No Comment",
"AUTHOR" : "admin",
"RECORD_INSERTION_TIME" : "1509678404"
},
{
"DETECTOR_UID" : "FSSR_STA2_MOD3_ROC1",
"KILL_MASK" : "[\n\t[0,0,0,0,0,0,0,0,0,0,0,0,0,0,0,0,0,0,0,0,0,0,0,0,0,0,0,0,0,0,0,0,0,0,0,0,0,0,0,0,0,0,0,0,0,0,0,0,0,0,0,0,0,0,0,0,0,0,0,0,0,0,0,0,0,0,0,0,0,0,0,0,0,0,0,0,0,0,0,0,0,0,0,0,0,0,0,0,0,0,0,0,0,0,0,0,0,0,0,0,0,0,0,0,0,0,0,0,0,0,0,0,0,0,0,0,0,0,0,0,0,0,0,0,0,0,0,0]\n]",
"COMMENT_DESCRIPTION" : "No Comment",
"AUTHOR" : "admin",
"RECORD_INSERTION_TIME" : "1509678404"
},
{
"DETECTOR_UID" : "FSSR_STA2_MOD3_ROC2",
"KILL_MASK" : "[\n\t[0,0,0,0,0,0,0,0,0,0,0,0,0,0,0,0,0,0,0,0,0,0,0,0,0,0,0,0,0,0,0,0,0,0,0,0,0,0,0,0,0,0,0,0,0,0,0,0,0,0,0,0,0,0,0,0,0,0,0,0,0,0,0,0,0,0,0,0,0,0,0,0,0,0,0,0,0,0,0,0,0,0,0,0,0,0,0,0,0,0,0,0,0,0,0,0,0,0,0,0,0,0,0,0,0,0,0,0,0,0,0,0,0,0,0,0,0,0,0,0,0,0,0,0,0,0,0,0]\n]",
"COMMENT_DESCRIPTION" : "No Comment",
"AUTHOR" : "admin",
"RECORD_INSERTION_TIME" : "1509678404"
},
{
"DETECTOR_UID" : "FSSR_STA2_MOD3_ROC3",
"KILL_MASK" : "[\n\t[0,0,0,0,0,0,0,0,0,0,0,0,0,0,0,0,0,0,0,0,0,0,0,0,0,0,0,0,0,0,0,0,0,0,0,0,0,0,0,0,0,0,0,0,0,0,0,0,0,0,0,0,0,0,0,0,0,0,0,0,0,0,0,0,0,0,0,0,0,0,0,0,0,0,0,0,0,0,0,0,0,0,0,0,0,0,0,0,0,0,0,0,0,0,0,0,0,0,0,0,0,0,0,0,0,0,0,0,0,0,0,0,0,0,0,0,0,0,0,0,0,0,0,0,0,0,0,0]\n]",
"COMMENT_DESCRIPTION" : "No Comment",
"AUTHOR" : "admin",
"RECORD_INSERTION_TIME" : "1509678404"
},
{
"DETECTOR_UID" : "FSSR_STA2_MOD3_ROC4",
"KILL_MASK" : "[\n\t[0,0,0,0,0,0,0,0,0,0,0,0,0,0,0,0,0,0,0,0,0,0,0,0,0,0,0,0,0,0,0,0,0,0,0,0,0,0,0,0,0,0,0,0,0,0,0,0,0,0,0,0,0,0,0,0,0,0,0,0,0,0,0,0,0,0,0,0,0,0,0,0,0,0,0,0,0,0,0,0,0,0,0,0,0,0,0,0,0,0,0,0,0,0,0,0,0,0,0,0,0,0,0,0,0,0,0,0,0,0,0,0,0,0,0,0,0,0,0,0,0,0,0,0,0,0,0,0]\n]",
"COMMENT_DESCRIPTION" : "No Comment",
"AUTHOR" : "admin",
"RECORD_INSERTION_TIME" : "1509678404"
},
{
"DETECTOR_UID" : "FSSR_STA2_MOD4_ROC0",
"KILL_MASK" : "[\n\t[0,0,0,0,0,0,0,0,0,0,0,0,0,0,0,0,0,0,0,0,0,0,0,0,0,0,0,0,0,0,0,0,0,0,0,0,0,0,0,0,0,0,0,0,0,0,0,0,0,0,0,0,0,0,0,0,0,0,0,0,0,0,0,0,0,0,0,0,0,0,0,0,0,0,0,0,0,0,0,0,0,0,0,0,0,0,0,0,0,0,0,0,0,0,0,0,0,0,0,0,0,0,0,0,0,0,0,0,0,0,0,0,0,0,0,0,0,0,0,0,0,0,0,0,0,0,0,0]\n]",
"COMMENT_DESCRIPTION" : "No Comment",
"AUTHOR" : "uplegger",
"RECORD_INSERTION_TIME" : "1510964569"
},
{
"DETECTOR_UID" : "FSSR_STA2_MOD4_ROC1",
"KILL_MASK" : "[\n\t[0,0,0,0,0,0,0,0,0,0,0,0,0,0,0,0,0,0,0,0,0,0,0,0,0,0,0,0,0,0,0,0,0,0,0,0,0,0,0,0,0,0,0,0,0,0,0,0,0,0,0,0,0,0,0,0,0,0,0,0,0,0,0,0,0,0,0,0,0,0,1,1,0,0,0,0,0,0,0,0,0,0,0,0,0,0,0,0,0,0,0,0,0,0,0,0,0,0,0,0,0,0,0,0,0,0,0,0,0,0,0,0,0,0,0,0,0,0,0,0,0,0,0,0,0,0,0,0]\n]",
"COMMENT_DESCRIPTION" : "No Comment",
"AUTHOR" : "admin",
"RECORD_INSERTION_TIME" : "1509678404"
},
{
"DETECTOR_UID" : "FSSR_STA2_MOD4_ROC2",
"KILL_MASK" : "[\n\t[0,0,0,0,0,0,0,0,0,0,0,0,0,0,0,0,0,0,0,0,0,0,0,0,0,0,0,0,0,0,0,0,0,0,0,0,0,0,0,0,0,0,0,0,0,0,0,0,0,0,0,0,0,0,0,0,0,0,0,0,0,0,0,0,0,0,0,0,0,0,0,0,0,0,0,0,0,0,0,0,0,0,0,1,0,0,0,0,0,0,0,0,0,0,0,0,0,0,0,0,0,0,0,0,0,0,0,0,0,0,0,0,0,0,0,0,0,0,0,0,0,0,0,0,0,0,0,0]\n]",
"COMMENT_DESCRIPTION" : "No Comment",
"AUTHOR" : "admin",
"RECORD_INSERTION_TIME" : "1509678404"
},
{
"DETECTOR_UID" : "FSSR_STA2_MOD4_ROC3",
"KILL_MASK" : "[\n\t[0,0,0,0,0,0,0,0,0,0,0,0,0,0,0,0,0,0,0,0,0,0,0,0,0,0,0,0,0,0,0,0,0,0,0,0,0,0,0,0,0,0,0,0,0,0,0,0,0,0,0,0,0,0,0,0,0,0,0,0,0,0,0,0,0,0,0,0,0,0,0,0,0,0,0,0,0,0,0,0,0,0,0,0,0,0,0,0,0,0,0,0,0,0,0,0,0,0,0,0,0,0,0,0,0,0,0,0,0,0,0,0,0,0,0,0,0,0,0,0,0,0,0,0,0,0,0,0]\n]",
"COMMENT_DESCRIPTION" : "No Comment",
"AUTHOR" : "uplegger",
"RECORD_INSERTION_TIME" : "1510964630"
},
{
"DETECTOR_UID" : "FSSR_STA2_MOD4_ROC4",
"KILL_MASK" : "[\n\t[0,0,0,0,0,0,0,0,0,0,0,0,0,0,0,0,0,0,0,0,0,0,0,0,0,0,0,0,0,0,0,0,0,0,0,0,0,0,0,0,0,0,0,0,0,0,0,0,0,0,0,0,0,0,0,0,0,0,1,0,0,0,0,0,0,0,0,0,0,0,0,0,0,0,0,0,0,0,0,0,0,0,0,0,0,0,0,0,0,0,0,0,0,0,0,0,0,0,0,0,0,0,0,0,0,0,0,0,0,0,0,0,0,0,0,0,0,0,0,0,0,0,0,0,0,0,0,0]\n]",
"COMMENT_DESCRIPTION" : "No Comment",
"AUTHOR" : "admin",
"RECORD_INSERTION_TIME" : "1509678404"
},
{
"DETECTOR_UID" : "FSSR_STA2_MOD5_ROC0",
"KILL_MASK" : "[\n\t[0,0,0,0,0,0,0,0,0,0,0,0,0,0,0,0,0,0,0,0,0,0,0,0,0,0,0,0,0,0,0,0,0,0,0,0,0,0,0,0,0,0,0,0,0,0,0,0,0,0,0,0,0,0,0,0,0,0,0,0,0,0,0,0,0,0,0,0,0,0,0,0,0,0,0,0,0,0,0,0,0,0,0,0,0,0,0,0,0,0,0,0,0,0,0,0,0,0,0,0,0,0,0,0,0,0,0,0,0,0,0,0,0,0,0,0,0,0,0,0,0,0,0,0,0,0,0,0]\n]",
"COMMENT_DESCRIPTION" : "No Comment",
"AUTHOR" : "admin",
"RECORD_INSERTION_TIME" : "1509678404"
},
{
"DETECTOR_UID" : "FSSR_STA2_MOD5_ROC1",
"KILL_MASK" : "[\n\t[0,0,0,0,0,0,0,0,0,0,0,0,0,0,0,0,0,0,0,0,0,0,0,0,0,0,0,0,0,0,0,0,0,0,0,0,0,0,0,0,0,0,0,0,0,0,0,0,0,0,0,0,0,0,0,0,0,0,0,0,0,0,0,0,0,0,0,0,0,0,0,0,0,0,0,0,0,0,0,0,0,0,0,0,0,0,0,0,0,0,0,0,0,0,0,0,0,0,0,0,0,0,0,0,0,0,0,0,0,0,0,0,0,0,0,0,0,0,0,0,0,0,0,0,0,0,0,0]\n]",
"COMMENT_DESCRIPTION" : "No Comment",
"AUTHOR" : "admin",
"RECORD_INSERTION_TIME" : "1509678404"
},
{
"DETECTOR_UID" : "FSSR_STA2_MOD5_ROC2",
"KILL_MASK" : "[\n\t[0,0,0,0,0,0,0,0,0,0,0,0,0,0,0,0,0,0,0,0,0,0,0,0,0,0,0,0,0,0,0,0,0,0,0,0,0,0,0,0,0,0,0,0,0,0,0,0,0,0,0,0,0,0,0,0,0,0,0,0,0,0,0,0,0,0,0,0,0,0,0,0,0,0,0,0,0,0,0,0,0,0,0,0,0,0,0,0,0,0,0,0,0,0,0,0,0,0,0,0,0,0,0,0,0,0,0,0,0,0,0,0,0,0,0,0,0,0,0,0,0,0,0,0,0,0,0,0]\n]",
"COMMENT_DESCRIPTION" : "No Comment",
"AUTHOR" : "admin",
"RECORD_INSERTION_TIME" : "1509678404"
},
{
"DETECTOR_UID" : "FSSR_STA2_MOD5_ROC3",
"KILL_MASK" : "[\n\t[0,0,0,0,0,0,0,0,0,0,0,0,0,0,0,0,0,0,0,0,0,0,0,0,0,0,0,0,0,0,0,0,0,0,0,0,0,0,0,0,0,0,0,0,0,0,0,0,0,0,0,0,0,0,0,0,0,0,0,0,0,0,0,0,0,0,0,0,0,0,0,0,0,0,0,0,0,0,0,0,0,0,0,0,0,0,0,0,0,0,0,0,0,0,0,0,0,0,0,0,0,0,0,0,0,0,0,0,0,0,0,0,0,0,0,0,0,0,0,0,0,0,0,0,0,0,0,0]\n]",
"COMMENT_DESCRIPTION" : "No Comment",
"AUTHOR" : "admin",
"RECORD_INSERTION_TIME" : "1509678404"
},
{
"DETECTOR_UID" : "FSSR_STA2_MOD5_ROC4",
"KILL_MASK" : "[\n\t[0,0,0,0,0,0,0,0,0,0,0,0,0,0,0,0,0,0,0,0,0,0,0,0,0,0,0,0,0,0,0,0,0,0,0,0,0,0,0,0,0,0,0,0,0,0,0,0,0,0,0,0,0,0,0,0,1,1,1,1,1,0,0,0,0,0,0,0,0,0,0,0,0,0,0,0,0,0,0,0,0,0,0,0,0,0,0,0,0,0,0,0,0,0,0,0,0,0,0,0,0,0,0,0,0,0,0,0,0,0,0,0,0,0,0,0,0,0,0,0,0,0,0,0,0,0,0,0]\n]",
"COMMENT_DESCRIPTION" : "No Comment",
"AUTHOR" : "uplegger",
"RECORD_INSERTION_TIME" : "1511225645"
}
]
},
"metadata" : {

},
"search" : [

]
},
"comments" : [

],
"origin" : {
"source" : "template",
"name" : "notprovided",
"format" : "json",
"created" : "2017-11-20T18:54:10.205-0600",
"rawdata" : [

]
},
"version" : "4",
"entities" : [
{
"name" : "OTSROOT",
"assigned" : "2017-11-20T18:54:10.218-0600"
}
],
"configurations" : [
{
"name" : "notprovided",
"assigned" : "2017-11-20T18:54:10.210-0600"
},
{
"name" : "FTBFConfig_v32",
"assigned" : "2017-11-20T18:55:36.840-0600"
},
{
"name" : "FTBFConfig_v33",
"assigned" : "2017-11-20T18:57:32.177-0600"
},
{
"name" : "FTBFConfig_v34",
"assigned" : "2017-11-29T17:50:41.651-0600"
},
{
"name" : "FTBFConfig_v35",
"assigned" : "2017-11-29T18:00:34.686-0600"
},
{
"name" : "FTBFConfig_v36",
"assigned" : "2017-11-29T18:35:13.302-0600"
},
{
"name" : "FTBFConfig_v37",
"assigned" : "2017-12-01T09:36:20.242-0600"
},
{
"name" : "FTBFConfig_v38",
"assigned" : "2017-12-01T09:52:03.161-0600"
},
{
"name" : "FTBFConfig_v39",
"assigned" : "2017-12-01T11:52:00.432-0600"
},
{
"name" : "FTBFConfig_v40",
"assigned" : "2017-12-01T12:18:22.595-0600"
},
{
"name" : "FTBFConfig_v41",
"assigned" : "2017-12-01T12:21:04.538-0600"
},
{
"name" : "FTBFConfig_v42",
"assigned" : "2017-12-01T12:43:24.040-0600"
},
{
"name" : "FTBFConfig_v43",
"assigned" : "2017-12-01T12:58:02.044-0600"
},
{
"name" : "FTBFConfig_v44",
"assigned" : "2017-12-01T13:00:54.495-0600"
},
{
"name" : "FTBFConfig_v45",
"assigned" : "2017-12-01T13:25:51.163-0600"
},
{
"name" : "FTBFConfig_v46",
"assigned" : "2017-12-01T13:35:45.963-0600"
},
{
"name" : "FTBFConfig_v47",
"assigned" : "2017-12-01T14:00:54.057-0600"
},
{
"name" : "FTBFConfig_v48",
"assigned" : "2017-12-01T14:04:01.415-0600"
},
{
"name" : "FTBFConfig_v49",
"assigned" : "2017-12-01T15:32:01.600-0600"
},
{
"name" : "FTBFConfig_v52",
"assigned" : "2017-12-01T15:37:34.998-0600"
},
{
"name" : "FTBFConfig_v53",
"assigned" : "2017-12-01T15:41:01.134-0600"
},
{
"name" : "FTBFConfig_v54",
"assigned" : "2017-12-01T15:52:51.428-0600"
},
{
"name" : "FTBFConfig_v55",
"assigned" : "2017-12-01T15:54:36.652-0600"
},
{
"name" : "FTBFConfig_v56",
"assigned" : "2017-12-01T15:55:36.214-0600"
},
{
"name" : "FTBFConfig_v57",
"assigned" : "2017-12-01T15:56:42.059-0600"
},
{
"name" : "FTBFConfig_v58",
"assigned" : "2017-12-01T15:57:40.194-0600"
},
{
"name" : "FTBFConfig_v59",
"assigned" : "2017-12-01T15:58:32.023-0600"
},
{
"name" : "FTBFConfig_v60",
"assigned" : "2017-12-01T15:59:33.291-0600"
},
{
"name" : "FTBFConfig_v61",
"assigned" : "2017-12-01T16:19:43.155-0600"
},
{
"name" : "FTBFConfig_v62",
"assigned" : "2017-12-01T16:22:05.587-0600"
},
{
"name" : "FTBFConfig_v63",
"assigned" : "2017-12-01T16:31:26.253-0600"
},
{
"name" : "FTBFConfig_v64",
"assigned" : "2017-12-01T17:06:33.625-0600"
},
{
"name" : "FTBFConfig_v65",
"assigned" : "2017-12-01T17:32:45.808-0600"
},
{
"name" : "FTBFConfig_v66",
"assigned" : "2017-12-01T20:38:52.183-0600"
},
{
"name" : "FTBFConfig_v67",
"assigned" : "2017-12-01T21:25:03.522-0600"
},
{
"name" : "FTBFConfig_v68",
"assigned" : "2017-12-01T21:43:03.256-0600"
},
{
"name" : "FTBFConfig_v69",
"assigned" : "2017-12-01T21:45:01.840-0600"
},
{
"name" : "FTBFConfig_v70",
"assigned" : "2017-12-01T21:59:21.150-0600"
},
{
"name" : "FTBFConfigNim_v0",
"assigned" : "2017-12-01T22:00:07.876-0600"
},
{
"name" : "FTBFConfigNim_v1",
"assigned" : "2017-12-01T22:13:09.757-0600"
},
{
"name" : "FTBFConfigNim_v2",
"assigned" : "2017-12-01T22:15:56.904-0600"
},
{
"name" : "FTBFConfigNim_v3",
"assigned" : "2017-12-01T22:17:05.481-0600"
},
{
"name" : "FTBFConfigNim_v4",
"assigned" : "2017-12-01T22:19:08.010-0600"
},
{
"name" : "FTBFConfigNim_v5",
"assigned" : "2017-12-01T22:21:58.807-0600"
},
{
"name" : "FTBFConfigNim_v6",
"assigned" : "2017-12-01T22:23:17.313-0600"
},
{
"name" : "FTBFConfigNim_v7",
"assigned" : "2017-12-01T22:25:18.799-0600"
},
{
"name" : "FTBFConfigNim_v8",
"assigned" : "2017-12-01T22:27:06.495-0600"
},
{
"name" : "FTBFConfigNim_v9",
"assigned" : "2017-12-01T22:29:30.753-0600"
},
{
"name" : "FTBFConfigNim_v10",
"assigned" : "2017-12-01T22:52:36.151-0600"
},
{
"name" : "FTBFConfigNim_v11",
"assigned" : "2017-12-01T22:57:30.639-0600"
},
{
"name" : "FTBFConfigNim_v12",
"assigned" : "2017-12-01T23:00:08.842-0600"
},
{
"name" : "FTBFConfigNim_v13",
"assigned" : "2017-12-01T23:52:37.000-0600"
},
{
"name" : "FTBFConfigNim_v14",
"assigned" : "2017-12-01T23:58:11.476-0600"
},
{
"name" : "FTBFConfigNim_v15",
"assigned" : "2017-12-02T00:00:35.690-0600"
},
{
"name" : "FTBFConfigNim_v16",
"assigned" : "2017-12-02T00:13:10.933-0600"
},
{
"name" : "FTBFConfigNim_v17",
"assigned" : "2017-12-02T00:28:29.830-0600"
},
{
"name" : "FTBFConfigNim_v18",
"assigned" : "2017-12-02T00:29:35.917-0600"
},
{
"name" : "FTBFConfigNim_v19",
"assigned" : "2017-12-02T00:31:14.862-0600"
},
{
"name" : "FTBFConfigNim_v20",
"assigned" : "2017-12-02T00:57:28.971-0600"
},
{
"name" : "FTBFConfigNim_v21",
"assigned" : "2017-12-02T10:58:03.542-0600"
},
{
"name" : "FTBFConfigNim_v22",
"assigned" : "2017-12-02T11:08:19.714-0600"
},
{
"name" : "FTBFConfigNim_v23",
"assigned" : "2017-12-02T11:12:41.354-0600"
},
{
"name" : "FTBFConfigNim_v24",
"assigned" : "2017-12-02T11:18:44.239-0600"
},
{
"name" : "FTBFConfigNim_v25",
"assigned" : "2017-12-02T11:27:07.451-0600"
},
{
"name" : "FTBFConfigNim_v26",
"assigned" : "2017-12-02T11:38:38.512-0600"
},
{
"name" : "FTBFConfigNim_v27",
"assigned" : "2017-12-02T11:49:09.743-0600"
},
{
"name" : "FTBFConfigNim_v28",
"assigned" : "2017-12-02T11:55:11.288-0600"
},
{
"name" : "FTBFConfigNim_v29",
"assigned" : "2017-12-02T12:06:28.078-0600"
},
{
"name" : "FTBFConfig_v71",
"assigned" : "2017-12-02T12:24:16.706-0600"
},
{
"name" : "FTBFConfig_v72",
"assigned" : "2017-12-02T12:43:37.616-0600"
},
{
"name" : "FTBFConfig_v73",
"assigned" : "2017-12-02T13:55:37.307-0600"
},
{
"name" : "FTBFConfig_v75",
"assigned" : "2017-12-02T14:12:20.499-0600"
},
{
"name" : "FTBFConfig_v76",
"assigned" : "2017-12-02T19:05:55.507-0600"
},
{
"name" : "FTBFConfig_v77",
"assigned" : "2017-12-02T19:12:15.347-0600"
},
{
"name" : "FTBFConfig_v78",
"assigned" : "2017-12-03T14:03:50.488-0600"
},
{
"name" : "FTBFConfig_v79",
"assigned" : "2017-12-03T14:09:08.801-0600"
},
{
"name" : "FTBFConfig_v80",
"assigned" : "2017-12-03T14:11:12.580-0600"
},
{
"name" : "FTBFConfig_v81",
"assigned" : "2017-12-03T14:22:35.590-0600"
},
{
"name" : "FTBFConfig_v82",
"assigned" : "2017-12-03T14:40:40.432-0600"
},
{
"name" : "FTBFConfig_v83",
"assigned" : "2017-12-03T14:45:07.791-0600"
},
{
"name" : "FTBFConfig_v84",
"assigned" : "2017-12-04T14:51:33.025-0600"
},
{
"name" : "FTBFConfig_v85",
"assigned" : "2017-12-04T14:55:46.259-0600"
},
{
"name" : "FTBFConfig_v86",
"assigned" : "2017-12-04T16:51:09.327-0600"
},
{
"name" : "FTBFConfig_v87",
"assigned" : "2017-12-04T16:56:49.963-0600"
},
{
"name" : "FTBFConfig_v88",
"assigned" : "2017-12-04T17:01:14.744-0600"
},
{
"name" : "FTBFConfig_v89",
"assigned" : "2017-12-04T17:03:59.866-0600"
},
{
"name" : "FTBFConfig_v90",
"assigned" : "2017-12-04T17:07:19.530-0600"
},
{
"name" : "FTBFConfig_v91",
"assigned" : "2017-12-04T17:09:28.694-0600"
},
{
"name" : "FTBFConfig_v92",
"assigned" : "2017-12-04T17:11:41.207-0600"
},
{
"name" : "FTBFConfig_v93",
"assigned" : "2017-12-04T21:05:23.713-0600"
},
{
"name" : "FTBFConfig_v94",
"assigned" : "2017-12-04T21:17:14.749-0600"
},
{
"name" : "FTBFConfig_v95",
"assigned" : "2017-12-04T21:41:20.364-0600"
},
{
"name" : "FTBFConfig_v96",
"assigned" : "2017-12-04T22:39:05.031-0600"
},
{
"name" : "FTBFConfig_v97",
"assigned" : "2017-12-04T23:01:15.555-0600"
},
{
"name" : "FTBFConfig_v98",
"assigned" : "2017-12-07T11:07:49.532-0600"
},
{
"name" : "FTBFConfig_v99",
"assigned" : "2017-12-07T11:50:02.203-0600"
},
{
"name" : "FTBFConfig_v100",
"assigned" : "2017-12-07T11:58:28.946-0600"
},
{
"name" : "FTBFConfig_v101",
"assigned" : "2017-12-08T13:30:51.130-0600"
},
{
"name" : "FTBFConfig_v102",
"assigned" : "2017-12-08T13:32:38.029-0600"
},
{
"name" : "FTBFConfig_v103",
"assigned" : "2017-12-12T11:03:07.850-0600"
},
{
"name" : "FTBFConfig_v104",
"assigned" : "2017-12-12T13:51:02.451-0600"
},
{
"name" : "FTBFConfig_v105",
"assigned" : "2017-12-12T15:25:08.413-0600"
},
{
"name" : "FTBFConfig_v106",
"assigned" : "2017-12-13T10:24:26.719-0600"
},
{
"name" : "FTBFConfig_v107",
"assigned" : "2017-12-13T10:27:05.389-0600"
},
{
"name" : "FTBFConfig_v108",
"assigned" : "2018-02-01T21:14:29.186-0600"
},
{
"name" : "FTBFConfig_v109",
"assigned" : "2018-02-01T21:21:06.320-0600"
},
{
"name" : "FTBFConfig_v110",
"assigned" : "2018-02-02T11:25:37.351-0600"
},
{
"name" : "FTBFConfig_v111",
"assigned" : "2018-02-02T11:37:16.155-0600"
},
{
"name" : "FTBFConfig_v112",
"assigned" : "2018-02-02T11:47:18.671-0600"
},
{
"name" : "FTBFConfig_v113",
"assigned" : "2018-02-02T11:53:39.920-0600"
},
{
"name" : "FTBFConfig_v114",
"assigned" : "2018-02-02T12:00:56.061-0600"
},
{
"name" : "FTBFConfig_v115",
"assigned" : "2018-02-02T12:27:17.517-0600"
},
{
"name" : "FTBFConfig_v116",
"assigned" : "2018-02-02T14:28:57.055-0600"
},
{
"name" : "FTBFConfig_v117",
"assigned" : "2018-02-02T14:30:23.422-0600"
},
{
"name" : "FTBFConfig_v118",
"assigned" : "2018-02-02T14:34:04.672-0600"
},
{
"name" : "FTBFConfig_v119",
"assigned" : "2018-02-02T14:36:31.277-0600"
},
{
"name" : "FTBFConfig_v120",
"assigned" : "2018-02-02T14:38:44.697-0600"
},
{
"name" : "FTBFConfig_v121",
"assigned" : "2018-02-02T14:41:53.984-0600"
},
{
"name" : "FTBFConfig_v122",
"assigned" : "2018-02-02T14:50:28.059-0600"
},
{
"name" : "FTBFConfig_v123",
"assigned" : "2018-02-02T14:53:00.952-0600"
},
{
"name" : "FTBFConfig_v124",
"assigned" : "2018-02-02T14:59:54.263-0600"
},
{
"name" : "FTBFConfig_v125",
"assigned" : "2018-02-02T15:04:12.393-0600"
},
{
"name" : "FTBFConfig_v126",
"assigned" : "2018-02-02T15:50:15.724-0600"
},
{
"name" : "FTBFConfig_v127",
"assigned" : "2018-02-02T15:51:35.165-0600"
},
{
"name" : "FTBFConfig_v128",
"assigned" : "2018-02-02T15:52:40.291-0600"
},
{
"name" : "FTBFConfig_v129",
"assigned" : "2018-02-02T16:02:49.235-0600"
},
{
"name" : "FTBFConfig_v130",
"assigned" : "2018-02-02T16:08:48.788-0600"
},
{
"name" : "FTBFConfig_v131",
"assigned" : "2018-02-02T16:11:34.642-0600"
},
{
"name" : "FTBFConfig_v132",
"assigned" : "2018-02-02T16:13:02.532-0600"
},
{
"name" : "FTBFConfig_v133",
"assigned" : "2018-02-02T16:14:33.184-0600"
},
{
"name" : "FTBFConfig_v134",
"assigned" : "2018-02-02T16:26:26.067-0600"
},
{
"name" : "FTBFConfig_v135",
"assigned" : "2018-02-02T16:27:13.181-0600"
},
{
"name" : "FTBFConfig_v136",
"assigned" : "2018-02-02T16:29:34.541-0600"
},
{
"name" : "FTBFConfig_v137",
"assigned" : "2018-02-02T16:31:45.200-0600"
},
{
"name" : "FTBFConfig_v138",
"assigned" : "2018-02-02T16:34:17.858-0600"
},
{
"name" : "FTBFConfig_v139",
"assigned" : "2018-02-02T17:39:33.919-0600"
},
{
"name" : "FTBFConfig_v140",
"assigned" : "2018-02-02T17:42:56.122-0600"
},
{
"name" : "FTBFConfig_v141",
"assigned" : "2018-02-02T17:47:41.342-0600"
},
{
"name" : "FTBFConfig_v142",
"assigned" : "2018-02-02T17:54:05.354-0600"
}
],
"changelog" : "notprovided",
"bookkeeping" : {
"isdeleted" : false,
"isreadonly" : false,
"updates" : [
{
"event" : "addConfiguration",
"timestamp" : "2017-11-20T18:54:10.210-0600",
"value" : {
"name" : "notprovided",
"assigned" : "2017-11-20T18:54:10.210-0600"
}
},
{
"event" : "setVersion",
"timestamp" : "2017-11-20T18:54:10.213-0600",
"value" : {
"name" : "4",
"assigned" : "2017-11-20T18:54:10.213-0600"
}
},
{
"event" : "setCollection",
"timestamp" : "2017-11-20T18:54:10.215-0600",
"value" : {
"name" : "ROCBitMaskConfiguration",
"assigned" : "2017-11-20T18:54:10.215-0600"
}
},
{
"event" : "addEntity",
"timestamp" : "2017-11-20T18:54:10.218-0600",
"value" : {
"name" : "OTSROOT",
"assigned" : "2017-11-20T18:54:10.218-0600"
}
},
{
"event" : "addConfiguration",
"timestamp" : "2017-11-20T18:55:36.840-0600",
"value" : {
"name" : "FTBFConfig_v32",
"assigned" : "2017-11-20T18:55:36.840-0600"
}
},
{
"event" : "addConfiguration",
"timestamp" : "2017-11-20T18:57:32.177-0600",
"value" : {
"name" : "FTBFConfig_v33",
"assigned" : "2017-11-20T18:57:32.177-0600"
}
},
{
"event" : "addConfiguration",
"timestamp" : "2017-11-29T17:50:41.651-0600",
"value" : {
"name" : "FTBFConfig_v34",
"assigned" : "2017-11-29T17:50:41.651-0600"
}
},
{
"event" : "addConfiguration",
"timestamp" : "2017-11-29T18:00:34.686-0600",
"value" : {
"name" : "FTBFConfig_v35",
"assigned" : "2017-11-29T18:00:34.686-0600"
}
},
{
"event" : "addConfiguration",
"timestamp" : "2017-11-29T18:35:13.302-0600",
"value" : {
"name" : "FTBFConfig_v36",
"assigned" : "2017-11-29T18:35:13.302-0600"
}
},
{
"event" : "addConfiguration",
"timestamp" : "2017-12-01T09:36:20.243-0600",
"value" : {
"name" : "FTBFConfig_v37",
"assigned" : "2017-12-01T09:36:20.242-0600"
}
},
{
"event" : "addConfiguration",
"timestamp" : "2017-12-01T09:52:03.161-0600",
"value" : {
"name" : "FTBFConfig_v38",
"assigned" : "2017-12-01T09:52:03.161-0600"
}
},
{
"event" : "addConfiguration",
"timestamp" : "2017-12-01T11:52:00.432-0600",
"value" : {
"name" : "FTBFConfig_v39",
"assigned" : "2017-12-01T11:52:00.432-0600"
}
},
{
"event" : "addConfiguration",
"timestamp" : "2017-12-01T12:18:22.595-0600",
"value" : {
"name" : "FTBFConfig_v40",
"assigned" : "2017-12-01T12:18:22.595-0600"
}
},
{
"event" : "addConfiguration",
"timestamp" : "2017-12-01T12:21:04.538-0600",
"value" : {
"name" : "FTBFConfig_v41",
"assigned" : "2017-12-01T12:21:04.538-0600"
}
},
{
"event" : "addConfiguration",
"timestamp" : "2017-12-01T12:43:24.040-0600",
"value" : {
"name" : "FTBFConfig_v42",
"assigned" : "2017-12-01T12:43:24.040-0600"
}
},
{
"event" : "addConfiguration",
"timestamp" : "2017-12-01T12:58:02.044-0600",
"value" : {
"name" : "FTBFConfig_v43",
"assigned" : "2017-12-01T12:58:02.044-0600"
}
},
{
"event" : "addConfiguration",
"timestamp" : "2017-12-01T13:00:54.495-0600",
"value" : {
"name" : "FTBFConfig_v44",
"assigned" : "2017-12-01T13:00:54.495-0600"
}
},
{
"event" : "addConfiguration",
"timestamp" : "2017-12-01T13:25:51.163-0600",
"value" : {
"name" : "FTBFConfig_v45",
"assigned" : "2017-12-01T13:25:51.163-0600"
}
},
{
"event" : "addConfiguration",
"timestamp" : "2017-12-01T13:35:45.963-0600",
"value" : {
"name" : "FTBFConfig_v46",
"assigned" : "2017-12-01T13:35:45.963-0600"
}
},
{
"event" : "addConfiguration",
"timestamp" : "2017-12-01T14:00:54.058-0600",
"value" : {
"name" : "FTBFConfig_v47",
"assigned" : "2017-12-01T14:00:54.057-0600"
}
},
{
"event" : "addConfiguration",
"timestamp" : "2017-12-01T14:04:01.415-0600",
"value" : {
"name" : "FTBFConfig_v48",
"assigned" : "2017-12-01T14:04:01.415-0600"
}
},
{
"event" : "addConfiguration",
"timestamp" : "2017-12-01T15:32:01.600-0600",
"value" : {
"name" : "FTBFConfig_v49",
"assigned" : "2017-12-01T15:32:01.600-0600"
}
},
{
"event" : "addConfiguration",
"timestamp" : "2017-12-01T15:37:34.999-0600",
"value" : {
"name" : "FTBFConfig_v52",
"assigned" : "2017-12-01T15:37:34.998-0600"
}
},
{
"event" : "addConfiguration",
"timestamp" : "2017-12-01T15:41:01.134-0600",
"value" : {
"name" : "FTBFConfig_v53",
"assigned" : "2017-12-01T15:41:01.134-0600"
}
},
{
"event" : "addConfiguration",
"timestamp" : "2017-12-01T15:52:51.428-0600",
"value" : {
"name" : "FTBFConfig_v54",
"assigned" : "2017-12-01T15:52:51.428-0600"
}
},
{
"event" : "addConfiguration",
"timestamp" : "2017-12-01T15:54:36.652-0600",
"value" : {
"name" : "FTBFConfig_v55",
"assigned" : "2017-12-01T15:54:36.652-0600"
}
},
{
"event" : "addConfiguration",
"timestamp" : "2017-12-01T15:55:36.214-0600",
"value" : {
"name" : "FTBFConfig_v56",
"assigned" : "2017-12-01T15:55:36.214-0600"
}
},
{
"event" : "addConfiguration",
"timestamp" : "2017-12-01T15:56:42.059-0600",
"value" : {
"name" : "FTBFConfig_v57",
"assigned" : "2017-12-01T15:56:42.059-0600"
}
},
{
"event" : "addConfiguration",
"timestamp" : "2017-12-01T15:57:40.194-0600",
"value" : {
"name" : "FTBFConfig_v58",
"assigned" : "2017-12-01T15:57:40.194-0600"
}
},
{
"event" : "addConfiguration",
"timestamp" : "2017-12-01T15:58:32.023-0600",
"value" : {
"name" : "FTBFConfig_v59",
"assigned" : "2017-12-01T15:58:32.023-0600"
}
},
{
"event" : "addConfiguration",
"timestamp" : "2017-12-01T15:59:33.291-0600",
"value" : {
"name" : "FTBFConfig_v60",
"assigned" : "2017-12-01T15:59:33.291-0600"
}
},
{
"event" : "addConfiguration",
"timestamp" : "2017-12-01T16:19:43.155-0600",
"value" : {
"name" : "FTBFConfig_v61",
"assigned" : "2017-12-01T16:19:43.155-0600"
}
},
{
"event" : "addConfiguration",
"timestamp" : "2017-12-01T16:22:05.587-0600",
"value" : {
"name" : "FTBFConfig_v62",
"assigned" : "2017-12-01T16:22:05.587-0600"
}
},
{
"event" : "addConfiguration",
"timestamp" : "2017-12-01T16:31:26.253-0600",
"value" : {
"name" : "FTBFConfig_v63",
"assigned" : "2017-12-01T16:31:26.253-0600"
}
},
{
"event" : "addConfiguration",
"timestamp" : "2017-12-01T17:06:33.625-0600",
"value" : {
"name" : "FTBFConfig_v64",
"assigned" : "2017-12-01T17:06:33.625-0600"
}
},
{
"event" : "addConfiguration",
"timestamp" : "2017-12-01T17:32:45.808-0600",
"value" : {
"name" : "FTBFConfig_v65",
"assigned" : "2017-12-01T17:32:45.808-0600"
}
},
{
"event" : "addConfiguration",
"timestamp" : "2017-12-01T20:38:52.183-0600",
"value" : {
"name" : "FTBFConfig_v66",
"assigned" : "2017-12-01T20:38:52.183-0600"
}
},
{
"event" : "addConfiguration",
"timestamp" : "2017-12-01T21:25:03.523-0600",
"value" : {
"name" : "FTBFConfig_v67",
"assigned" : "2017-12-01T21:25:03.522-0600"
}
},
{
"event" : "addConfiguration",
"timestamp" : "2017-12-01T21:43:03.256-0600",
"value" : {
"name" : "FTBFConfig_v68",
"assigned" : "2017-12-01T21:43:03.256-0600"
}
},
{
"event" : "addConfiguration",
"timestamp" : "2017-12-01T21:45:01.840-0600",
"value" : {
"name" : "FTBFConfig_v69",
"assigned" : "2017-12-01T21:45:01.840-0600"
}
},
{
"event" : "addConfiguration",
"timestamp" : "2017-12-01T21:59:21.150-0600",
"value" : {
"name" : "FTBFConfig_v70",
"assigned" : "2017-12-01T21:59:21.150-0600"
}
},
{
"event" : "addConfiguration",
"timestamp" : "2017-12-01T22:00:07.876-0600",
"value" : {
"name" : "FTBFConfigNim_v0",
"assigned" : "2017-12-01T22:00:07.876-0600"
}
},
{
"event" : "addConfiguration",
"timestamp" : "2017-12-01T22:13:09.757-0600",
"value" : {
"name" : "FTBFConfigNim_v1",
"assigned" : "2017-12-01T22:13:09.757-0600"
}
},
{
"event" : "addConfiguration",
"timestamp" : "2017-12-01T22:15:56.904-0600",
"value" : {
"name" : "FTBFConfigNim_v2",
"assigned" : "2017-12-01T22:15:56.904-0600"
}
},
{
"event" : "addConfiguration",
"timestamp" : "2017-12-01T22:17:05.481-0600",
"value" : {
"name" : "FTBFConfigNim_v3",
"assigned" : "2017-12-01T22:17:05.481-0600"
}
},
{
"event" : "addConfiguration",
"timestamp" : "2017-12-01T22:19:08.010-0600",
"value" : {
"name" : "FTBFConfigNim_v4",
"assigned" : "2017-12-01T22:19:08.010-0600"
}
},
{
"event" : "addConfiguration",
"timestamp" : "2017-12-01T22:21:58.807-0600",
"value" : {
"name" : "FTBFConfigNim_v5",
"assigned" : "2017-12-01T22:21:58.807-0600"
}
},
{
"event" : "addConfiguration",
"timestamp" : "2017-12-01T22:23:17.313-0600",
"value" : {
"name" : "FTBFConfigNim_v6",
"assigned" : "2017-12-01T22:23:17.313-0600"
}
},
{
"event" : "addConfiguration",
"timestamp" : "2017-12-01T22:25:18.799-0600",
"value" : {
"name" : "FTBFConfigNim_v7",
"assigned" : "2017-12-01T22:25:18.799-0600"
}
},
{
"event" : "addConfiguration",
"timestamp" : "2017-12-01T22:27:06.495-0600",
"value" : {
"name" : "FTBFConfigNim_v8",
"assigned" : "2017-12-01T22:27:06.495-0600"
}
},
{
"event" : "addConfiguration",
"timestamp" : "2017-12-01T22:29:30.753-0600",
"value" : {
"name" : "FTBFConfigNim_v9",
"assigned" : "2017-12-01T22:29:30.753-0600"
}
},
{
"event" : "addConfiguration",
"timestamp" : "2017-12-01T22:52:36.151-0600",
"value" : {
"name" : "FTBFConfigNim_v10",
"assigned" : "2017-12-01T22:52:36.151-0600"
}
},
{
"event" : "addConfiguration",
"timestamp" : "2017-12-01T22:57:30.640-0600",
"value" : {
"name" : "FTBFConfigNim_v11",
"assigned" : "2017-12-01T22:57:30.639-0600"
}
},
{
"event" : "addConfiguration",
"timestamp" : "2017-12-01T23:00:08.842-0600",
"value" : {
"name" : "FTBFConfigNim_v12",
"assigned" : "2017-12-01T23:00:08.842-0600"
}
},
{
"event" : "addConfiguration",
"timestamp" : "2017-12-01T23:52:37.000-0600",
"value" : {
"name" : "FTBFConfigNim_v13",
"assigned" : "2017-12-01T23:52:37.000-0600"
}
},
{
"event" : "addConfiguration",
"timestamp" : "2017-12-01T23:58:11.477-0600",
"value" : {
"name" : "FTBFConfigNim_v14",
"assigned" : "2017-12-01T23:58:11.476-0600"
}
},
{
"event" : "addConfiguration",
"timestamp" : "2017-12-02T00:00:35.690-0600",
"value" : {
"name" : "FTBFConfigNim_v15",
"assigned" : "2017-12-02T00:00:35.690-0600"
}
},
{
"event" : "addConfiguration",
"timestamp" : "2017-12-02T00:13:10.933-0600",
"value" : {
"name" : "FTBFConfigNim_v16",
"assigned" : "2017-12-02T00:13:10.933-0600"
}
},
{
"event" : "addConfiguration",
"timestamp" : "2017-12-02T00:28:29.830-0600",
"value" : {
"name" : "FTBFConfigNim_v17",
"assigned" : "2017-12-02T00:28:29.830-0600"
}
},
{
"event" : "addConfiguration",
"timestamp" : "2017-12-02T00:29:35.918-0600",
"value" : {
"name" : "FTBFConfigNim_v18",
"assigned" : "2017-12-02T00:29:35.917-0600"
}
},
{
"event" : "addConfiguration",
"timestamp" : "2017-12-02T00:31:14.862-0600",
"value" : {
"name" : "FTBFConfigNim_v19",
"assigned" : "2017-12-02T00:31:14.862-0600"
}
},
{
"event" : "addConfiguration",
"timestamp" : "2017-12-02T00:57:28.971-0600",
"value" : {
"name" : "FTBFConfigNim_v20",
"assigned" : "2017-12-02T00:57:28.971-0600"
}
},
{
"event" : "addConfiguration",
"timestamp" : "2017-12-02T10:58:03.542-0600",
"value" : {
"name" : "FTBFConfigNim_v21",
"assigned" : "2017-12-02T10:58:03.542-0600"
}
},
{
"event" : "addConfiguration",
"timestamp" : "2017-12-02T11:08:19.714-0600",
"value" : {
"name" : "FTBFConfigNim_v22",
"assigned" : "2017-12-02T11:08:19.714-0600"
}
},
{
"event" : "addConfiguration",
"timestamp" : "2017-12-02T11:12:41.354-0600",
"value" : {
"name" : "FTBFConfigNim_v23",
"assigned" : "2017-12-02T11:12:41.354-0600"
}
},
{
"event" : "addConfiguration",
"timestamp" : "2017-12-02T11:18:44.239-0600",
"value" : {
"name" : "FTBFConfigNim_v24",
"assigned" : "2017-12-02T11:18:44.239-0600"
}
},
{
"event" : "addConfiguration",
"timestamp" : "2017-12-02T11:27:07.451-0600",
"value" : {
"name" : "FTBFConfigNim_v25",
"assigned" : "2017-12-02T11:27:07.451-0600"
}
},
{
"event" : "addConfiguration",
"timestamp" : "2017-12-02T11:38:38.512-0600",
"value" : {
"name" : "FTBFConfigNim_v26",
"assigned" : "2017-12-02T11:38:38.512-0600"
}
},
{
"event" : "addConfiguration",
"timestamp" : "2017-12-02T11:49:09.743-0600",
"value" : {
"name" : "FTBFConfigNim_v27",
"assigned" : "2017-12-02T11:49:09.743-0600"
}
},
{
"event" : "addConfiguration",
"timestamp" : "2017-12-02T11:55:11.288-0600",
"value" : {
"name" : "FTBFConfigNim_v28",
"assigned" : "2017-12-02T11:55:11.288-0600"
}
},
{
"event" : "addConfiguration",
"timestamp" : "2017-12-02T12:06:28.078-0600",
"value" : {
"name" : "FTBFConfigNim_v29",
"assigned" : "2017-12-02T12:06:28.078-0600"
}
},
{
"event" : "addConfiguration",
"timestamp" : "2017-12-02T12:24:16.706-0600",
"value" : {
"name" : "FTBFConfig_v71",
"assigned" : "2017-12-02T12:24:16.706-0600"
}
},
{
"event" : "addConfiguration",
"timestamp" : "2017-12-02T12:43:37.616-0600",
"value" : {
"name" : "FTBFConfig_v72",
"assigned" : "2017-12-02T12:43:37.616-0600"
}
},
{
"event" : "addConfiguration",
"timestamp" : "2017-12-02T13:55:37.307-0600",
"value" : {
"name" : "FTBFConfig_v73",
"assigned" : "2017-12-02T13:55:37.307-0600"
}
},
{
"event" : "addConfiguration",
"timestamp" : "2017-12-02T14:12:20.499-0600",
"value" : {
"name" : "FTBFConfig_v75",
"assigned" : "2017-12-02T14:12:20.499-0600"
}
},
{
"event" : "addConfiguration",
"timestamp" : "2017-12-02T19:05:55.507-0600",
"value" : {
"name" : "FTBFConfig_v76",
"assigned" : "2017-12-02T19:05:55.507-0600"
}
},
{
"event" : "addConfiguration",
"timestamp" : "2017-12-02T19:12:15.348-0600",
"value" : {
"name" : "FTBFConfig_v77",
"assigned" : "2017-12-02T19:12:15.347-0600"
}
},
{
"event" : "addConfiguration",
"timestamp" : "2017-12-03T14:03:50.489-0600",
"value" : {
"name" : "FTBFConfig_v78",
"assigned" : "2017-12-03T14:03:50.488-0600"
}
},
{
"event" : "addConfiguration",
"timestamp" : "2017-12-03T14:09:08.801-0600",
"value" : {
"name" : "FTBFConfig_v79",
"assigned" : "2017-12-03T14:09:08.801-0600"
}
},
{
"event" : "addConfiguration",
"timestamp" : "2017-12-03T14:11:12.580-0600",
"value" : {
"name" : "FTBFConfig_v80",
"assigned" : "2017-12-03T14:11:12.580-0600"
}
},
{
"event" : "addConfiguration",
"timestamp" : "2017-12-03T14:22:35.590-0600",
"value" : {
"name" : "FTBFConfig_v81",
"assigned" : "2017-12-03T14:22:35.590-0600"
}
},
{
"event" : "addConfiguration",
"timestamp" : "2017-12-03T14:40:40.432-0600",
"value" : {
"name" : "FTBFConfig_v82",
"assigned" : "2017-12-03T14:40:40.432-0600"
}
},
{
"event" : "addConfiguration",
"timestamp" : "2017-12-03T14:45:07.791-0600",
"value" : {
"name" : "FTBFConfig_v83",
"assigned" : "2017-12-03T14:45:07.791-0600"
}
},
{
"event" : "addConfiguration",
"timestamp" : "2017-12-04T14:51:33.026-0600",
"value" : {
"name" : "FTBFConfig_v84",
"assigned" : "2017-12-04T14:51:33.025-0600"
}
},
{
"event" : "addConfiguration",
"timestamp" : "2017-12-04T14:55:46.259-0600",
"value" : {
"name" : "FTBFConfig_v85",
"assigned" : "2017-12-04T14:55:46.259-0600"
}
},
{
"event" : "addConfiguration",
"timestamp" : "2017-12-04T16:51:09.327-0600",
"value" : {
"name" : "FTBFConfig_v86",
"assigned" : "2017-12-04T16:51:09.327-0600"
}
},
{
"event" : "addConfiguration",
"timestamp" : "2017-12-04T16:56:49.963-0600",
"value" : {
"name" : "FTBFConfig_v87",
"assigned" : "2017-12-04T16:56:49.963-0600"
}
},
{
"event" : "addConfiguration",
"timestamp" : "2017-12-04T17:01:14.744-0600",
"value" : {
"name" : "FTBFConfig_v88",
"assigned" : "2017-12-04T17:01:14.744-0600"
}
},
{
"event" : "addConfiguration",
"timestamp" : "2017-12-04T17:03:59.866-0600",
"value" : {
"name" : "FTBFConfig_v89",
"assigned" : "2017-12-04T17:03:59.866-0600"
}
},
{
"event" : "addConfiguration",
"timestamp" : "2017-12-04T17:07:19.531-0600",
"value" : {
"name" : "FTBFConfig_v90",
"assigned" : "2017-12-04T17:07:19.530-0600"
}
},
{
"event" : "addConfiguration",
"timestamp" : "2017-12-04T17:09:28.694-0600",
"value" : {
"name" : "FTBFConfig_v91",
"assigned" : "2017-12-04T17:09:28.694-0600"
}
},
{
"event" : "addConfiguration",
"timestamp" : "2017-12-04T17:11:41.207-0600",
"value" : {
"name" : "FTBFConfig_v92",
"assigned" : "2017-12-04T17:11:41.207-0600"
}
},
{
"event" : "addConfiguration",
"timestamp" : "2017-12-04T21:05:23.713-0600",
"value" : {
"name" : "FTBFConfig_v93",
"assigned" : "2017-12-04T21:05:23.713-0600"
}
},
{
"event" : "addConfiguration",
"timestamp" : "2017-12-04T21:17:14.749-0600",
"value" : {
"name" : "FTBFConfig_v94",
"assigned" : "2017-12-04T21:17:14.749-0600"
}
},
{
"event" : "addConfiguration",
"timestamp" : "2017-12-04T21:41:20.364-0600",
"value" : {
"name" : "FTBFConfig_v95",
"assigned" : "2017-12-04T21:41:20.364-0600"
}
},
{
"event" : "addConfiguration",
"timestamp" : "2017-12-04T22:39:05.031-0600",
"value" : {
"name" : "FTBFConfig_v96",
"assigned" : "2017-12-04T22:39:05.031-0600"
}
},
{
"event" : "addConfiguration",
"timestamp" : "2017-12-04T23:01:15.556-0600",
"value" : {
"name" : "FTBFConfig_v97",
"assigned" : "2017-12-04T23:01:15.555-0600"
}
},
{
"event" : "addConfiguration",
"timestamp" : "2017-12-07T11:07:49.532-0600",
"value" : {
"name" : "FTBFConfig_v98",
"assigned" : "2017-12-07T11:07:49.532-0600"
}
},
{
"event" : "addConfiguration",
"timestamp" : "2017-12-07T11:50:02.203-0600",
"value" : {
"name" : "FTBFConfig_v99",
"assigned" : "2017-12-07T11:50:02.203-0600"
}
},
{
"event" : "addConfiguration",
"timestamp" : "2017-12-07T11:58:28.946-0600",
"value" : {
"name" : "FTBFConfig_v100",
"assigned" : "2017-12-07T11:58:28.946-0600"
}
},
{
"event" : "addConfiguration",
"timestamp" : "2017-12-08T13:30:51.131-0600",
"value" : {
"name" : "FTBFConfig_v101",
"assigned" : "2017-12-08T13:30:51.130-0600"
}
},
{
"event" : "addConfiguration",
"timestamp" : "2017-12-08T13:32:38.029-0600",
"value" : {
"name" : "FTBFConfig_v102",
"assigned" : "2017-12-08T13:32:38.029-0600"
}
},
{
"event" : "addConfiguration",
"timestamp" : "2017-12-12T11:03:07.851-0600",
"value" : {
"name" : "FTBFConfig_v103",
"assigned" : "2017-12-12T11:03:07.850-0600"
}
},
{
"event" : "addConfiguration",
"timestamp" : "2017-12-12T13:51:02.451-0600",
"value" : {
"name" : "FTBFConfig_v104",
"assigned" : "2017-12-12T13:51:02.451-0600"
}
},
{
"event" : "addConfiguration",
"timestamp" : "2017-12-12T15:25:08.413-0600",
"value" : {
"name" : "FTBFConfig_v105",
"assigned" : "2017-12-12T15:25:08.413-0600"
}
},
{
"event" : "addConfiguration",
"timestamp" : "2017-12-13T10:24:26.719-0600",
"value" : {
"name" : "FTBFConfig_v106",
"assigned" : "2017-12-13T10:24:26.719-0600"
}
},
{
"event" : "addConfiguration",
"timestamp" : "2017-12-13T10:27:05.390-0600",
"value" : {
"name" : "FTBFConfig_v107",
"assigned" : "2017-12-13T10:27:05.389-0600"
}
},
{
"event" : "addConfiguration",
"timestamp" : "2018-02-01T21:14:29.186-0600",
"value" : {
"name" : "FTBFConfig_v108",
"assigned" : "2018-02-01T21:14:29.186-0600"
}
},
{
"event" : "addConfiguration",
"timestamp" : "2018-02-01T21:21:06.320-0600",
"value" : {
"name" : "FTBFConfig_v109",
"assigned" : "2018-02-01T21:21:06.320-0600"
}
},
{
"event" : "addConfiguration",
"timestamp" : "2018-02-02T11:25:37.352-0600",
"value" : {
"name" : "FTBFConfig_v110",
"assigned" : "2018-02-02T11:25:37.351-0600"
}
},
{
"event" : "addConfiguration",
"timestamp" : "2018-02-02T11:37:16.155-0600",
"value" : {
"name" : "FTBFConfig_v111",
"assigned" : "2018-02-02T11:37:16.155-0600"
}
},
{
"event" : "addConfiguration",
"timestamp" : "2018-02-02T11:47:18.671-0600",
"value" : {
"name" : "FTBFConfig_v112",
"assigned" : "2018-02-02T11:47:18.671-0600"
}
},
{
"event" : "addConfiguration",
"timestamp" : "2018-02-02T11:53:39.920-0600",
"value" : {
"name" : "FTBFConfig_v113",
"assigned" : "2018-02-02T11:53:39.920-0600"
}
},
{
"event" : "addConfiguration",
"timestamp" : "2018-02-02T12:00:56.061-0600",
"value" : {
"name" : "FTBFConfig_v114",
"assigned" : "2018-02-02T12:00:56.061-0600"
}
},
{
"event" : "addConfiguration",
"timestamp" : "2018-02-02T12:27:17.518-0600",
"value" : {
"name" : "FTBFConfig_v115",
"assigned" : "2018-02-02T12:27:17.517-0600"
}
},
{
"event" : "addConfiguration",
"timestamp" : "2018-02-02T14:28:57.055-0600",
"value" : {
"name" : "FTBFConfig_v116",
"assigned" : "2018-02-02T14:28:57.055-0600"
}
},
{
"event" : "addConfiguration",
"timestamp" : "2018-02-02T14:30:23.422-0600",
"value" : {
"name" : "FTBFConfig_v117",
"assigned" : "2018-02-02T14:30:23.422-0600"
}
},
{
"event" : "addConfiguration",
"timestamp" : "2018-02-02T14:34:04.672-0600",
"value" : {
"name" : "FTBFConfig_v118",
"assigned" : "2018-02-02T14:34:04.672-0600"
}
},
{
"event" : "addConfiguration",
"timestamp" : "2018-02-02T14:36:31.277-0600",
"value" : {
"name" : "FTBFConfig_v119",
"assigned" : "2018-02-02T14:36:31.277-0600"
}
},
{
"event" : "addConfiguration",
"timestamp" : "2018-02-02T14:38:44.697-0600",
"value" : {
"name" : "FTBFConfig_v120",
"assigned" : "2018-02-02T14:38:44.697-0600"
}
},
{
"event" : "addConfiguration",
"timestamp" : "2018-02-02T14:41:53.984-0600",
"value" : {
"name" : "FTBFConfig_v121",
"assigned" : "2018-02-02T14:41:53.984-0600"
}
},
{
"event" : "addConfiguration",
"timestamp" : "2018-02-02T14:50:28.060-0600",
"value" : {
"name" : "FTBFConfig_v122",
"assigned" : "2018-02-02T14:50:28.059-0600"
}
},
{
"event" : "addConfiguration",
"timestamp" : "2018-02-02T14:53:00.953-0600",
"value" : {
"name" : "FTBFConfig_v123",
"assigned" : "2018-02-02T14:53:00.952-0600"
}
},
{
"event" : "addConfiguration",
"timestamp" : "2018-02-02T14:59:54.263-0600",
"value" : {
"name" : "FTBFConfig_v124",
"assigned" : "2018-02-02T14:59:54.263-0600"
}
},
{
"event" : "addConfiguration",
"timestamp" : "2018-02-02T15:04:12.393-0600",
"value" : {
"name" : "FTBFConfig_v125",
"assigned" : "2018-02-02T15:04:12.393-0600"
}
},
{
"event" : "addConfiguration",
"timestamp" : "2018-02-02T15:50:15.724-0600",
"value" : {
"name" : "FTBFConfig_v126",
"assigned" : "2018-02-02T15:50:15.724-0600"
}
},
{
"event" : "addConfiguration",
"timestamp" : "2018-02-02T15:51:35.165-0600",
"value" : {
"name" : "FTBFConfig_v127",
"assigned" : "2018-02-02T15:51:35.165-0600"
}
},
{
"event" : "addConfiguration",
"timestamp" : "2018-02-02T15:52:40.291-0600",
"value" : {
"name" : "FTBFConfig_v128",
"assigned" : "2018-02-02T15:52:40.291-0600"
}
},
{
"event" : "addConfiguration",
"timestamp" : "2018-02-02T16:02:49.235-0600",
"value" : {
"name" : "FTBFConfig_v129",
"assigned" : "2018-02-02T16:02:49.235-0600"
}
},
{
"event" : "addConfiguration",
"timestamp" : "2018-02-02T16:08:48.789-0600",
"value" : {
"name" : "FTBFConfig_v130",
"assigned" : "2018-02-02T16:08:48.788-0600"
}
},
{
"event" : "addConfiguration",
"timestamp" : "2018-02-02T16:11:34.642-0600",
"value" : {
"name" : "FTBFConfig_v131",
"assigned" : "2018-02-02T16:11:34.642-0600"
}
},
{
"event" : "addConfiguration",
"timestamp" : "2018-02-02T16:13:02.532-0600",
"value" : {
"name" : "FTBFConfig_v132",
"assigned" : "2018-02-02T16:13:02.532-0600"
}
},
{
"event" : "addConfiguration",
"timestamp" : "2018-02-02T16:14:33.184-0600",
"value" : {
"name" : "FTBFConfig_v133",
"assigned" : "2018-02-02T16:14:33.184-0600"
}
},
{
"event" : "addConfiguration",
"timestamp" : "2018-02-02T16:26:26.068-0600",
"value" : {
"name" : "FTBFConfig_v134",
"assigned" : "2018-02-02T16:26:26.067-0600"
}
},
{
"event" : "addConfiguration",
"timestamp" : "2018-02-02T16:27:13.181-0600",
"value" : {
"name" : "FTBFConfig_v135",
"assigned" : "2018-02-02T16:27:13.181-0600"
}
},
{
"event" : "addConfiguration",
"timestamp" : "2018-02-02T16:29:34.542-0600",
"value" : {
"name" : "FTBFConfig_v136",
"assigned" : "2018-02-02T16:29:34.541-0600"
}
},
{
"event" : "addConfiguration",
"timestamp" : "2018-02-02T16:31:45.200-0600",
"value" : {
"name" : "FTBFConfig_v137",
"assigned" : "2018-02-02T16:31:45.200-0600"
}
},
{
"event" : "addConfiguration",
"timestamp" : "2018-02-02T16:34:17.858-0600",
"value" : {
"name" : "FTBFConfig_v138",
"assigned" : "2018-02-02T16:34:17.858-0600"
}
},
{
"event" : "addConfiguration",
"timestamp" : "2018-02-02T17:39:33.919-0600",
"value" : {
"name" : "FTBFConfig_v139",
"assigned" : "2018-02-02T17:39:33.919-0600"
}
},
{
"event" : "addConfiguration",
"timestamp" : "2018-02-02T17:42:56.123-0600",
"value" : {
"name" : "FTBFConfig_v140",
"assigned" : "2018-02-02T17:42:56.122-0600"
}
},
{
"event" : "addConfiguration",
"timestamp" : "2018-02-02T17:47:41.342-0600",
"value" : {
"name" : "FTBFConfig_v141",
"assigned" : "2018-02-02T17:47:41.342-0600"
}
},
{
"event" : "addConfiguration",
"timestamp" : "2018-02-02T17:54:05.354-0600",
"value" : {
"name" : "FTBFConfig_v142",
"assigned" : "2018-02-02T17:54:05.354-0600"
}
}
],
"created" : "2017-11-20T18:54:10.205-0600"
},
"_id" : {
"$oid" : "8a41d10374be4f6a8393d9f5"
},
"collection" : "ROCBitMaskConfiguration",
"aliases" : {
"active" : [

],
"history" : [

]
},
"runs" : [

],
"attachments" : [

],
"configtype" : "notprovided"
}