{
"document" : {
"data" : {
"NAME" : "GROUP_ALIASES_TABLE",
"COMMENT" : "Default Backbone.",
"AUTHOR" : "admin",
"CREATION_TIME" : 1598442770,
"COL_TYPES" : {
"GROUP_KEY_ALIAS" : "STRING",
"GROUP_NAME" : "STRING",
"GROUP_KEY" : "STRING",
"COMMENT_DESCRIPTION" : "STRING",
"AUTHOR" : "STRING",
"RECORD_INSERTION_TIME" : "TIMESTAMP WITH TIMEZONE"
},
"DATA_SET" : [
{
"GROUP_KEY_ALIAS" : "OuterTrackerContext",
"GROUP_NAME" : "DefaultContext",
"GROUP_KEY" : "10",
"COMMENT_DESCRIPTION" : "This Group Alias was automatically setup by the server.",
"AUTHOR" : "admin",
"RECORD_INSERTION_TIME" : "1598441763"
},
{
"GROUP_KEY_ALIAS" : "OuterTrackerTable",
"GROUP_NAME" : "DefaultConfig",
"GROUP_KEY" : "10",
"COMMENT_DESCRIPTION" : "This Group Alias was automatically setup by the server.",
"AUTHOR" : "admin",
"RECORD_INSERTION_TIME" : "1598441949"
},
{
"GROUP_KEY_ALIAS" : "InnerTrackerContext",
"GROUP_NAME" : "DefaultConfig",
"GROUP_KEY" : "14",
"COMMENT_DESCRIPTION" : "This Group Alias was automatically setup by the server.",
"AUTHOR" : "admin",
"RECORD_INSERTION_TIME" : "1598442770"
}
]
},
"metadata" : {

},
"search" : [

]
},
"comments" : [

],
"origin" : {
"source" : "template",
"name" : "notprovided",
"format" : "json",
"created" : "2020-08-26T07:52:50.465-0400",
"rawdata" : [

]
},
"version" : "24",
"entities" : [
{
"name" : "OTSROOT",
"assigned" : "2020-08-26T07:52:50.465-0400"
}
],
"configurations" : [
{
"name" : "notprovided",
"assigned" : "2020-08-26T07:52:50.465-0400"
},
{
"name" : "GroupAliasTreeEditWizBackbone_v18",
"assigned" : "2020-08-26T07:52:51.154-0400"
}
],
"changelog" : "notprovided",
"bookkeeping" : {
"isdeleted" : false,
"isreadonly" : false,
"updates" : [
{
"event" : "addConfiguration",
"timestamp" : "2020-08-26T07:52:50.465-0400",
"value" : {
"name" : "notprovided",
"assigned" : "2020-08-26T07:52:50.465-0400"
}
},
{
"event" : "setVersion",
"timestamp" : "2020-08-26T07:52:50.465-0400",
"value" : {
"name" : "24",
"assigned" : "2020-08-26T07:52:50.465-0400"
}
},
{
"event" : "setCollection",
"timestamp" : "2020-08-26T07:52:50.465-0400",
"value" : {
"name" : "GroupAliasesTable",
"assigned" : "2020-08-26T07:52:50.465-0400"
}
},
{
"event" : "addEntity",
"timestamp" : "2020-08-26T07:52:50.465-0400",
"value" : {
"name" : "OTSROOT",
"assigned" : "2020-08-26T07:52:50.465-0400"
}
},
{
"event" : "addConfiguration",
"timestamp" : "2020-08-26T07:52:51.154-0400",
"value" : {
"name" : "GroupAliasTreeEditWizBackbone_v18",
"assigned" : "2020-08-26T07:52:51.154-0400"
}
}
],
"created" : "2020-08-26T07:52:50.465-0400"
},
"_id" : {
"$oid" : "1c175746f0fc4acaa1f67d2f"
},
"collection" : "GroupAliasesTable",
"aliases" : {
"active" : [

],
"history" : [

]
},
"runs" : [

],
"attachments" : [

],
"configtype" : "notprovided"
}