{
"document" : {
"data" : {
"NAME" : "GROUP_ALIASES_TABLE",
"COMMENT" : "Default Backbone.",
"AUTHOR" : "admin",
"CREATION_TIME" : 1598188608,
"COL_TYPES" : {
"GROUP_KEY_ALIAS" : "STRING",
"GROUP_NAME" : "STRING",
"GROUP_KEY" : "STRING",
"COMMENT_DESCRIPTION" : "STRING",
"AUTHOR" : "STRING",
"RECORD_INSERTION_TIME" : "TIMESTAMP WITH TIMEZONE"
},
"DATA_SET" : [
{
"GROUP_KEY_ALIAS" : "OuterTrackerContext",
"GROUP_NAME" : "DefaultContext",
"GROUP_KEY" : "8",
"COMMENT_DESCRIPTION" : "This Group Alias was automatically setup by the server.",
"AUTHOR" : "admin",
"RECORD_INSERTION_TIME" : "1595364601"
},
{
"GROUP_KEY_ALIAS" : "OuterTrackerTable",
"GROUP_NAME" : "DefaultConfig",
"GROUP_KEY" : "8",
"COMMENT_DESCRIPTION" : "This Group Alias was automatically setup by the server.",
"AUTHOR" : "admin",
"RECORD_INSERTION_TIME" : "1598188608"
}
]
},
"metadata" : {

},
"search" : [

]
},
"comments" : [

],
"origin" : {
"source" : "template",
"name" : "notprovided",
"format" : "json",
"created" : "2020-08-23T09:16:48.950-0400",
"rawdata" : [

]
},
"version" : "16",
"entities" : [
{
"name" : "OTSROOT",
"assigned" : "2020-08-23T09:16:48.950-0400"
}
],
"configurations" : [
{
"name" : "notprovided",
"assigned" : "2020-08-23T09:16:48.950-0400"
},
{
"name" : "GroupAliasTreeEditWizBackbone_v10",
"assigned" : "2020-08-23T09:16:49.528-0400"
}
],
"changelog" : "notprovided",
"bookkeeping" : {
"isdeleted" : false,
"isreadonly" : false,
"updates" : [
{
"event" : "addConfiguration",
"timestamp" : "2020-08-23T09:16:48.950-0400",
"value" : {
"name" : "notprovided",
"assigned" : "2020-08-23T09:16:48.950-0400"
}
},
{
"event" : "setVersion",
"timestamp" : "2020-08-23T09:16:48.950-0400",
"value" : {
"name" : "16",
"assigned" : "2020-08-23T09:16:48.950-0400"
}
},
{
"event" : "setCollection",
"timestamp" : "2020-08-23T09:16:48.950-0400",
"value" : {
"name" : "GroupAliasesTable",
"assigned" : "2020-08-23T09:16:48.950-0400"
}
},
{
"event" : "addEntity",
"timestamp" : "2020-08-23T09:16:48.950-0400",
"value" : {
"name" : "OTSROOT",
"assigned" : "2020-08-23T09:16:48.950-0400"
}
},
{
"event" : "addConfiguration",
"timestamp" : "2020-08-23T09:16:49.528-0400",
"value" : {
"name" : "GroupAliasTreeEditWizBackbone_v10",
"assigned" : "2020-08-23T09:16:49.528-0400"
}
}
],
"created" : "2020-08-23T09:16:48.950-0400"
},
"_id" : {
"$oid" : "2a29e8c8ce3c4e79ac2005eb"
},
"collection" : "GroupAliasesTable",
"aliases" : {
"active" : [

],
"history" : [

]
},
"runs" : [

],
"attachments" : [

],
"configtype" : "notprovided"
}