{
"document" : {
"data" : {
"NAME" : "GROUP_ALIASES_TABLE",
"COMMENT" : "Adding InnerTracker Contect/Table",
"AUTHOR" : "admin",
"CREATION_TIME" : 1599481613,
"COL_TYPES" : {
"GROUP_KEY_ALIAS" : "STRING",
"GROUP_NAME" : "STRING",
"GROUP_KEY" : "STRING",
"COMMENT_DESCRIPTION" : "STRING",
"AUTHOR" : "STRING",
"RECORD_INSERTION_TIME" : "TIMESTAMP WITH TIMEZONE"
},
"DATA_SET" : [
{
"GROUP_KEY_ALIAS" : "OuterTrackerContext",
"GROUP_NAME" : "DefaultContext",
"GROUP_KEY" : "10",
"COMMENT_DESCRIPTION" : "This Group Alias was automatically setup by the server.",
"AUTHOR" : "admin",
"RECORD_INSERTION_TIME" : "1598441763"
},
{
"GROUP_KEY_ALIAS" : "OuterTrackerTable",
"GROUP_NAME" : "DefaultConfig",
"GROUP_KEY" : "9",
"COMMENT_DESCRIPTION" : "This Group Alias was automatically setup by the server.",
"AUTHOR" : "admin",
"RECORD_INSERTION_TIME" : "1598445330"
},
{
"GROUP_KEY_ALIAS" : "InnerTrackerTable",
"GROUP_NAME" : "DefaultConfig",
"GROUP_KEY" : "23",
"COMMENT_DESCRIPTION" : "This Group Alias was automatically setup by the server.",
"AUTHOR" : "admin",
"RECORD_INSERTION_TIME" : "1599481613"
},
{
"GROUP_KEY_ALIAS" : "InnerTrackerContext",
"GROUP_NAME" : "DefaultContext",
"GROUP_KEY" : "14",
"COMMENT_DESCRIPTION" : "This Group Alias was automatically setup by the server",
"AUTHOR" : "admin",
"RECORD_INSERTION_TIME" : "1598445740"
}
]
},
"metadata" : {

},
"search" : [

]
},
"comments" : [

],
"origin" : {
"source" : "template",
"name" : "notprovided",
"format" : "json",
"created" : "2020-09-07T08:26:53.439-0400",
"rawdata" : [

]
},
"version" : "38",
"entities" : [
{
"name" : "OTSROOT",
"assigned" : "2020-09-07T08:26:53.439-0400"
}
],
"configurations" : [
{
"name" : "notprovided",
"assigned" : "2020-09-07T08:26:53.439-0400"
},
{
"name" : "GroupAliasTreeEditWizBackbone_v32",
"assigned" : "2020-09-07T08:26:54.311-0400"
}
],
"changelog" : "notprovided",
"bookkeeping" : {
"isdeleted" : false,
"isreadonly" : false,
"updates" : [
{
"event" : "addConfiguration",
"timestamp" : "2020-09-07T08:26:53.439-0400",
"value" : {
"name" : "notprovided",
"assigned" : "2020-09-07T08:26:53.439-0400"
}
},
{
"event" : "setVersion",
"timestamp" : "2020-09-07T08:26:53.439-0400",
"value" : {
"name" : "38",
"assigned" : "2020-09-07T08:26:53.439-0400"
}
},
{
"event" : "setCollection",
"timestamp" : "2020-09-07T08:26:53.439-0400",
"value" : {
"name" : "GroupAliasesTable",
"assigned" : "2020-09-07T08:26:53.439-0400"
}
},
{
"event" : "addEntity",
"timestamp" : "2020-09-07T08:26:53.439-0400",
"value" : {
"name" : "OTSROOT",
"assigned" : "2020-09-07T08:26:53.439-0400"
}
},
{
"event" : "addConfiguration",
"timestamp" : "2020-09-07T08:26:54.311-0400",
"value" : {
"name" : "GroupAliasTreeEditWizBackbone_v32",
"assigned" : "2020-09-07T08:26:54.311-0400"
}
}
],
"created" : "2020-09-07T08:26:53.439-0400"
},
"_id" : {
"$oid" : "39348e0b224a4ea3bf9ca0f5"
},
"collection" : "GroupAliasesTable",
"aliases" : {
"active" : [

],
"history" : [

]
},
"runs" : [

],
"attachments" : [

],
"configtype" : "notprovided"
}