{
"document" : {
"data" : {
"NAME" : "GROUP_ALIASES_TABLE",
"COMMENT" : "Adding InnerTracker Contect/Table",
"AUTHOR" : "admin",
"CREATION_TIME" : 1599506133,
"COL_TYPES" : {
"GROUP_KEY_ALIAS" : "STRING",
"GROUP_NAME" : "STRING",
"GROUP_KEY" : "STRING",
"COMMENT_DESCRIPTION" : "STRING",
"AUTHOR" : "STRING",
"RECORD_INSERTION_TIME" : "TIMESTAMP WITH TIMEZONE"
},
"DATA_SET" : [
{
"GROUP_KEY_ALIAS" : "OuterTrackerContext",
"GROUP_NAME" : "DefaultContext",
"GROUP_KEY" : "10",
"COMMENT_DESCRIPTION" : "This Group Alias was automatically setup by the server.",
"AUTHOR" : "admin",
"RECORD_INSERTION_TIME" : "1598441763"
},
{
"GROUP_KEY_ALIAS" : "OuterTrackerTable",
"GROUP_NAME" : "DefaultConfig",
"GROUP_KEY" : "9",
"COMMENT_DESCRIPTION" : "This Group Alias was automatically setup by the server.",
"AUTHOR" : "admin",
"RECORD_INSERTION_TIME" : "1598445330"
},
{
"GROUP_KEY_ALIAS" : "InnerTrackerTable",
"GROUP_NAME" : "DefaultConfig",
"GROUP_KEY" : "30",
"COMMENT_DESCRIPTION" : "This Group Alias was automatically setup by the server.",
"AUTHOR" : "admin",
"RECORD_INSERTION_TIME" : "1599494047"
},
{
"GROUP_KEY_ALIAS" : "InnerTrackerContext",
"GROUP_NAME" : "DefaultContext",
"GROUP_KEY" : "17",
"COMMENT_DESCRIPTION" : "This Group Alias was automatically setup by the server",
"AUTHOR" : "admin",
"RECORD_INSERTION_TIME" : "1599483162"
},
{
"GROUP_KEY_ALIAS" : "PixelAliveTable",
"GROUP_NAME" : "DefaultConfig",
"GROUP_KEY" : "30",
"COMMENT_DESCRIPTION" : "For pixelalive calibration",
"AUTHOR" : "admin",
"RECORD_INSERTION_TIME" : "1599494951"
},
{
"GROUP_KEY_ALIAS" : "NoiseTable",
"GROUP_NAME" : "DefaultConfig",
"GROUP_KEY" : "31",
"COMMENT_DESCRIPTION" : "For noise calibration",
"AUTHOR" : "admin",
"RECORD_INSERTION_TIME" : "1599506082"
},
{
"GROUP_KEY_ALIAS" : "SCurveTable",
"GROUP_NAME" : "DefaultConfig",
"GROUP_KEY" : "32",
"COMMENT_DESCRIPTION" : "For scurve calibration",
"AUTHOR" : "admin",
"RECORD_INSERTION_TIME" : "1599506133"
},
{
"GROUP_KEY_ALIAS" : "GainTable",
"GROUP_NAME" : "DefaultConfig",
"GROUP_KEY" : "30",
"COMMENT_DESCRIPTION" : "For gain calibration",
"AUTHOR" : "admin",
"RECORD_INSERTION_TIME" : "1599494951"
},
{
"GROUP_KEY_ALIAS" : "GainOptTable",
"GROUP_NAME" : "DefaultConfig",
"GROUP_KEY" : "30",
"COMMENT_DESCRIPTION" : "For gainopt calibration",
"AUTHOR" : "admin",
"RECORD_INSERTION_TIME" : "1599506003"
},
{
"GROUP_KEY_ALIAS" : "ThrEquTable",
"GROUP_NAME" : "DefaultConfig",
"GROUP_KEY" : "30",
"COMMENT_DESCRIPTION" : "For thresholds equalization calibration",
"AUTHOR" : "admin",
"RECORD_INSERTION_TIME" : "1599506003"
},
{
"GROUP_KEY_ALIAS" : "ThrMinTable",
"GROUP_NAME" : "DefaultConfig",
"GROUP_KEY" : "30",
"COMMENT_DESCRIPTION" : "For thresholds minimalization calibration",
"AUTHOR" : "admin",
"RECORD_INSERTION_TIME" : "1599506003"
},
{
"GROUP_KEY_ALIAS" : "ThrAdjTable",
"GROUP_NAME" : "DefaultConfig",
"GROUP_KEY" : "30",
"COMMENT_DESCRIPTION" : "For thradj calibration",
"AUTHOR" : "admin",
"RECORD_INSERTION_TIME" : "1599506003"
},
{
"GROUP_KEY_ALIAS" : "LatencyTable",
"GROUP_NAME" : "DefaultConfig",
"GROUP_KEY" : "30",
"COMMENT_DESCRIPTION" : "For latency calibration",
"AUTHOR" : "admin",
"RECORD_INSERTION_TIME" : "1599506003"
},
{
"GROUP_KEY_ALIAS" : "InjDelayTable",
"GROUP_NAME" : "DefaultConfig",
"GROUP_KEY" : "30",
"COMMENT_DESCRIPTION" : "For injdelay calibration",
"AUTHOR" : "admin",
"RECORD_INSERTION_TIME" : "1599506003"
},
{
"GROUP_KEY_ALIAS" : "ClockDelayTable",
"GROUP_NAME" : "DefaultConfig",
"GROUP_KEY" : "30",
"COMMENT_DESCRIPTION" : "For clockdelay calibration",
"AUTHOR" : "admin",
"RECORD_INSERTION_TIME" : "1599506003"
},
{
"GROUP_KEY_ALIAS" : "PhysicsTable",
"GROUP_NAME" : "DefaultConfig",
"GROUP_KEY" : "30",
"COMMENT_DESCRIPTION" : "For physics calibration",
"AUTHOR" : "admin",
"RECORD_INSERTION_TIME" : "1599506003"
}
]
},
"metadata" : {

},
"search" : [

]
},
"comments" : [

],
"origin" : {
"source" : "template",
"name" : "notprovided",
"format" : "json",
"created" : "2020-09-07T15:15:33.241-0400",
"rawdata" : [

]
},
"version" : "59",
"entities" : [
{
"name" : "OTSROOT",
"assigned" : "2020-09-07T15:15:33.241-0400"
}
],
"configurations" : [
{
"name" : "notprovided",
"assigned" : "2020-09-07T15:15:33.241-0400"
},
{
"name" : "GroupAliasTreeEditWizBackbone_v53",
"assigned" : "2020-09-07T15:15:34.197-0400"
}
],
"changelog" : "notprovided",
"bookkeeping" : {
"isdeleted" : false,
"isreadonly" : false,
"updates" : [
{
"event" : "addConfiguration",
"timestamp" : "2020-09-07T15:15:33.241-0400",
"value" : {
"name" : "notprovided",
"assigned" : "2020-09-07T15:15:33.241-0400"
}
},
{
"event" : "setVersion",
"timestamp" : "2020-09-07T15:15:33.241-0400",
"value" : {
"name" : "59",
"assigned" : "2020-09-07T15:15:33.241-0400"
}
},
{
"event" : "setCollection",
"timestamp" : "2020-09-07T15:15:33.241-0400",
"value" : {
"name" : "GroupAliasesTable",
"assigned" : "2020-09-07T15:15:33.241-0400"
}
},
{
"event" : "addEntity",
"timestamp" : "2020-09-07T15:15:33.241-0400",
"value" : {
"name" : "OTSROOT",
"assigned" : "2020-09-07T15:15:33.241-0400"
}
},
{
"event" : "addConfiguration",
"timestamp" : "2020-09-07T15:15:34.197-0400",
"value" : {
"name" : "GroupAliasTreeEditWizBackbone_v53",
"assigned" : "2020-09-07T15:15:34.197-0400"
}
}
],
"created" : "2020-09-07T15:15:33.241-0400"
},
"_id" : {
"$oid" : "4cccd6e19e6b4bbeb4bcfce8"
},
"collection" : "GroupAliasesTable",
"aliases" : {
"active" : [

],
"history" : [

]
},
"runs" : [

],
"attachments" : [

],
"configtype" : "notprovided"
}