{
"document" : {
"data" : {
"NAME" : "GROUP_ALIASES_TABLE",
"COMMENT" : "Adding InnerTracker Contect/Table",
"AUTHOR" : "admin",
"CREATION_TIME" : 1599488630,
"COL_TYPES" : {
"GROUP_KEY_ALIAS" : "STRING",
"GROUP_NAME" : "STRING",
"GROUP_KEY" : "STRING",
"COMMENT_DESCRIPTION" : "STRING",
"AUTHOR" : "STRING",
"RECORD_INSERTION_TIME" : "TIMESTAMP WITH TIMEZONE"
},
"DATA_SET" : [
{
"GROUP_KEY_ALIAS" : "OuterTrackerContext",
"GROUP_NAME" : "DefaultContext",
"GROUP_KEY" : "10",
"COMMENT_DESCRIPTION" : "This Group Alias was automatically setup by the server.",
"AUTHOR" : "admin",
"RECORD_INSERTION_TIME" : "1598441763"
},
{
"GROUP_KEY_ALIAS" : "OuterTrackerTable",
"GROUP_NAME" : "DefaultConfig",
"GROUP_KEY" : "9",
"COMMENT_DESCRIPTION" : "This Group Alias was automatically setup by the server.",
"AUTHOR" : "admin",
"RECORD_INSERTION_TIME" : "1598445330"
},
{
"GROUP_KEY_ALIAS" : "InnerTrackerTable",
"GROUP_NAME" : "DefaultConfig",
"GROUP_KEY" : "24",
"COMMENT_DESCRIPTION" : "This Group Alias was automatically setup by the server.",
"AUTHOR" : "admin",
"RECORD_INSERTION_TIME" : "1599481771"
},
{
"GROUP_KEY_ALIAS" : "InnerTrackerContext",
"GROUP_NAME" : "DefaultContext",
"GROUP_KEY" : "17",
"COMMENT_DESCRIPTION" : "This Group Alias was automatically setup by the server",
"AUTHOR" : "admin",
"RECORD_INSERTION_TIME" : "1599483162"
},
{
"GROUP_KEY_ALIAS" : "InnerTrackerSCurveTable",
"GROUP_NAME" : "InnerTrackerConfig",
"GROUP_KEY" : "1",
"COMMENT_DESCRIPTION" : "New Table for test",
"AUTHOR" : "admin",
"RECORD_INSERTION_TIME" : "1599488630"
}
]
},
"metadata" : {

},
"search" : [

]
},
"comments" : [

],
"origin" : {
"source" : "template",
"name" : "notprovided",
"format" : "json",
"created" : "2020-09-07T10:23:50.281-0400",
"rawdata" : [

]
},
"version" : "47",
"entities" : [
{
"name" : "OTSROOT",
"assigned" : "2020-09-07T10:23:50.281-0400"
}
],
"configurations" : [
{
"name" : "notprovided",
"assigned" : "2020-09-07T10:23:50.281-0400"
},
{
"name" : "GroupAliasTreeEditWizBackbone_v41",
"assigned" : "2020-09-07T10:23:51.168-0400"
}
],
"changelog" : "notprovided",
"bookkeeping" : {
"isdeleted" : false,
"isreadonly" : false,
"updates" : [
{
"event" : "addConfiguration",
"timestamp" : "2020-09-07T10:23:50.281-0400",
"value" : {
"name" : "notprovided",
"assigned" : "2020-09-07T10:23:50.281-0400"
}
},
{
"event" : "setVersion",
"timestamp" : "2020-09-07T10:23:50.281-0400",
"value" : {
"name" : "47",
"assigned" : "2020-09-07T10:23:50.281-0400"
}
},
{
"event" : "setCollection",
"timestamp" : "2020-09-07T10:23:50.281-0400",
"value" : {
"name" : "GroupAliasesTable",
"assigned" : "2020-09-07T10:23:50.281-0400"
}
},
{
"event" : "addEntity",
"timestamp" : "2020-09-07T10:23:50.281-0400",
"value" : {
"name" : "OTSROOT",
"assigned" : "2020-09-07T10:23:50.281-0400"
}
},
{
"event" : "addConfiguration",
"timestamp" : "2020-09-07T10:23:51.168-0400",
"value" : {
"name" : "GroupAliasTreeEditWizBackbone_v41",
"assigned" : "2020-09-07T10:23:51.168-0400"
}
}
],
"created" : "2020-09-07T10:23:50.281-0400"
},
"_id" : {
"$oid" : "d483ca68078a42c48ab46302"
},
"collection" : "GroupAliasesTable",
"aliases" : {
"active" : [

],
"history" : [

]
},
"runs" : [

],
"attachments" : [

],
"configtype" : "notprovided"
}