{
"document" : {
"data" : {
"NAME" : "ARTDAQ_DAQ_SOURCE_CONFIGURATION",
"COMMENT" : "No comment.",
"AUTHOR" : "admin",
"CREATION_TIME" : 1510772660,
"COL_TYPES" : {
"SOURCE_GROUP_ID" : "VARCHAR2",
"SOURCE_UID" : "VARCHAR2",
"SOURCE_KEY" : "VARCHAR2",
"TRANSFER_PLUGIN_TYPE" : "VARCHAR2",
"SOURCE_ARTDAQ_CONTEXT_LINK" : "VARCHAR2",
"SOURCE_ARTDAQ_CONTEXT_LINK_UID" : "VARCHAR2",
"ARTDAQ_GLOBAL_CONFIGURATION_LINK" : "VARCHAR2",
"ARTDAQ_GLOBAL_CONFIGURATION_LINK_UID" : "VARCHAR2",
"COMMENT_DESCRIPTION" : "VARCHAR2",
"AUTHOR" : "VARCHAR2",
"RECORD_INSERTION_TIME" : "TIMESTAMP WITH TIMEZONE"
},
"DATA_SET" : [
{
"SOURCE_GROUP_ID" : "reader0sources",
"SOURCE_UID" : "builder0source0",
"SOURCE_KEY" : "s1",
"TRANSFER_PLUGIN_TYPE" : "MPI",
"SOURCE_ARTDAQ_CONTEXT_LINK" : "XDAQContextConfiguration",
"SOURCE_ARTDAQ_CONTEXT_LINK_UID" : "ARTDAQBoardReader0",
"ARTDAQ_GLOBAL_CONFIGURATION_LINK" : "ARTDAQGlobalConfiguration",
"ARTDAQ_GLOBAL_CONFIGURATION_LINK_UID" : "artdaq0",
"COMMENT_DESCRIPTION" : "No Comment",
"AUTHOR" : "DEFAULT",
"RECORD_INSERTION_TIME" : "0"
},
{
"SOURCE_GROUP_ID" : "aggregator0sources",
"SOURCE_UID" : "aggregator0source0",
"SOURCE_KEY" : "s4",
"TRANSFER_PLUGIN_TYPE" : "MPI",
"SOURCE_ARTDAQ_CONTEXT_LINK" : "XDAQContextConfiguration",
"SOURCE_ARTDAQ_CONTEXT_LINK_UID" : "ARTDAQEventBuilder0",
"ARTDAQ_GLOBAL_CONFIGURATION_LINK" : "ARTDAQGlobalConfiguration",
"ARTDAQ_GLOBAL_CONFIGURATION_LINK_UID" : "artdaq0",
"COMMENT_DESCRIPTION" : "No Comment",
"AUTHOR" : "DEFAULT",
"RECORD_INSERTION_TIME" : "0"
},
{
"SOURCE_GROUP_ID" : "aggregatorStripsOnly0sources",
"SOURCE_UID" : "aggregatorStripsOnly0source0",
"SOURCE_KEY" : "s5",
"TRANSFER_PLUGIN_TYPE" : "MPI",
"SOURCE_ARTDAQ_CONTEXT_LINK" : "XDAQContextConfiguration",
"SOURCE_ARTDAQ_CONTEXT_LINK_UID" : "ARTDAQEventBuilderStripsOnly0",
"ARTDAQ_GLOBAL_CONFIGURATION_LINK" : "ARTDAQGlobalConfiguration",
"ARTDAQ_GLOBAL_CONFIGURATION_LINK_UID" : "artdaq0",
"COMMENT_DESCRIPTION" : "No Comment",
"AUTHOR" : "admin",
"RECORD_INSERTION_TIME" : "1510772660"
}
]
},
"metadata" : {

},
"search" : [

]
},
"comments" : [

],
"origin" : {
"source" : "template",
"name" : "notprovided",
"format" : "json",
"created" : "2017-11-15T13:04:20.980-0600",
"rawdata" : [

]
},
"version" : "1",
"entities" : [
{
"name" : "OTSROOT",
"assigned" : "2017-11-15T13:04:20.982-0600"
}
],
"configurations" : [
{
"name" : "notprovided",
"assigned" : "2017-11-15T13:04:20.980-0600"
},
{
"name" : "FTBFConfig_v10",
"assigned" : "2017-11-15T13:04:23.115-0600"
},
{
"name" : "FTBFConfig_v11",
"assigned" : "2017-11-15T13:07:50.602-0600"
},
{
"name" : "FTBFConfig_v12",
"assigned" : "2017-11-15T13:11:58.024-0600"
},
{
"name" : "FTBFConfig_v13",
"assigned" : "2017-11-15T13:13:51.981-0600"
}
],
"changelog" : "notprovided",
"bookkeeping" : {
"isdeleted" : false,
"isreadonly" : false,
"updates" : [
{
"event" : "addConfiguration",
"timestamp" : "2017-11-15T13:04:20.980-0600",
"value" : {
"name" : "notprovided",
"assigned" : "2017-11-15T13:04:20.980-0600"
}
},
{
"event" : "setVersion",
"timestamp" : "2017-11-15T13:04:20.981-0600",
"value" : {
"name" : "1",
"assigned" : "2017-11-15T13:04:20.981-0600"
}
},
{
"event" : "setCollection",
"timestamp" : "2017-11-15T13:04:20.981-0600",
"value" : {
"name" : "ARTDAQDaqSourceConfiguration",
"assigned" : "2017-11-15T13:04:20.981-0600"
}
},
{
"event" : "addEntity",
"timestamp" : "2017-11-15T13:04:20.982-0600",
"value" : {
"name" : "OTSROOT",
"assigned" : "2017-11-15T13:04:20.982-0600"
}
},
{
"event" : "addConfiguration",
"timestamp" : "2017-11-15T13:04:23.115-0600",
"value" : {
"name" : "FTBFConfig_v10",
"assigned" : "2017-11-15T13:04:23.115-0600"
}
},
{
"event" : "addConfiguration",
"timestamp" : "2017-11-15T13:07:50.602-0600",
"value" : {
"name" : "FTBFConfig_v11",
"assigned" : "2017-11-15T13:07:50.602-0600"
}
},
{
"event" : "addConfiguration",
"timestamp" : "2017-11-15T13:11:58.024-0600",
"value" : {
"name" : "FTBFConfig_v12",
"assigned" : "2017-11-15T13:11:58.024-0600"
}
},
{
"event" : "addConfiguration",
"timestamp" : "2017-11-15T13:13:51.981-0600",
"value" : {
"name" : "FTBFConfig_v13",
"assigned" : "2017-11-15T13:13:51.981-0600"
}
}
],
"created" : "2017-11-15T13:04:20.980-0600"
},
"_id" : {
"$oid" : "c670f8c72d82440fbbf330b6"
},
"collection" : "ARTDAQDaqSourceConfiguration",
"aliases" : {
"active" : [

],
"history" : [

]
},
"runs" : [

],
"attachments" : [

],
"configtype" : "notprovided"
}