{
"document" : {
"data" : {
"NAME" : "DATA_MANAGER_CONFIGURATION",
"COMMENT" : "Data Buffer top-level records.",
"AUTHOR" : "admin",
"CREATION_TIME" : 1510771559,
"COL_TYPES" : {
"DATA_MANAGER_GROUP_ID" : "VARCHAR2",
"DATA_BUFFER_UID" : "VARCHAR2",
"LINK_TO_DATA_BUFFER_CONFIGURATION" : "VARCHAR2",
"LINK_TO_DATA_BUFFER_GROUP_ID" : "VARCHAR2",
"STATUS" : "VARCHAR2",
"COMMENT_DESCRIPTION" : "VARCHAR2",
"AUTHOR" : "VARCHAR2",
"RECORD_INSERTION_TIME" : "TIMESTAMP WITH TIMEZONE"
},
"DATA_SET" : [
{
"DATA_MANAGER_GROUP_ID" : "DMVisualizerGroup0",
"DATA_BUFFER_UID" : "DB1",
"LINK_TO_DATA_BUFFER_CONFIGURATION" : "DataBufferConfiguration",
"LINK_TO_DATA_BUFFER_GROUP_ID" : "DBGroup1",
"STATUS" : "On",
"COMMENT_DESCRIPTION" : "No Comment",
"AUTHOR" : "admin",
"RECORD_INSERTION_TIME" : "1509718136"
},
{
"DATA_MANAGER_GROUP_ID" : "DMGroup0 | ARTDAQDMGroup0",
"DATA_BUFFER_UID" : "readerDB0",
"LINK_TO_DATA_BUFFER_CONFIGURATION" : "DataBufferConfiguration",
"LINK_TO_DATA_BUFFER_GROUP_ID" : "reader0DBGroup",
"STATUS" : "On",
"COMMENT_DESCRIPTION" : "No Comment",
"AUTHOR" : "admin",
"RECORD_INSERTION_TIME" : "1509718136"
},
{
"DATA_MANAGER_GROUP_ID" : "DataManagerSupervisorFSSR0",
"DATA_BUFFER_UID" : "FSSR0_DataBuffer0",
"LINK_TO_DATA_BUFFER_CONFIGURATION" : "DataBufferConfiguration",
"LINK_TO_DATA_BUFFER_GROUP_ID" : "FSSR0_DataBuffer0",
"STATUS" : "On",
"COMMENT_DESCRIPTION" : "DEFAULT",
"AUTHOR" : "admin",
"RECORD_INSERTION_TIME" : "1509718136"
},
{
"DATA_MANAGER_GROUP_ID" : "DataManagerSupervisorFSSR1",
"DATA_BUFFER_UID" : "FSSR1_DataBuffer0",
"LINK_TO_DATA_BUFFER_CONFIGURATION" : "DataBufferConfiguration",
"LINK_TO_DATA_BUFFER_GROUP_ID" : "FSSR1_DataBuffer0",
"STATUS" : "On",
"COMMENT_DESCRIPTION" : "DEFAULT",
"AUTHOR" : "admin",
"RECORD_INSERTION_TIME" : "1509718136"
},
{
"DATA_MANAGER_GROUP_ID" : "DataManagerSupervisorFSSR2",
"DATA_BUFFER_UID" : "FSSR2_DataBuffer0",
"LINK_TO_DATA_BUFFER_CONFIGURATION" : "DataBufferConfiguration",
"LINK_TO_DATA_BUFFER_GROUP_ID" : "FSSR2_DataBuffer0",
"STATUS" : "On",
"COMMENT_DESCRIPTION" : "DEFAULT",
"AUTHOR" : "admin",
"RECORD_INSERTION_TIME" : "1509718136"
},
{
"DATA_MANAGER_GROUP_ID" : "DataManagerSupervisorFSSR3",
"DATA_BUFFER_UID" : "FSSR3_DataBuffer0",
"LINK_TO_DATA_BUFFER_CONFIGURATION" : "DataBufferConfiguration",
"LINK_TO_DATA_BUFFER_GROUP_ID" : "FSSR3_DataBuffer0",
"STATUS" : "On",
"COMMENT_DESCRIPTION" : "DEFAULT",
"AUTHOR" : "admin",
"RECORD_INSERTION_TIME" : "1509718136"
},
{
"DATA_MANAGER_GROUP_ID" : "DataManagerSupervisorNIMPlus0",
"DATA_BUFFER_UID" : "NIMPlus0_DataBuffer0",
"LINK_TO_DATA_BUFFER_CONFIGURATION" : "DataBufferConfiguration",
"LINK_TO_DATA_BUFFER_GROUP_ID" : "NIMPlus0_DataBuffer0",
"STATUS" : "On",
"COMMENT_DESCRIPTION" : "No Comment",
"AUTHOR" : "admin",
"RECORD_INSERTION_TIME" : "1509718136"
},
{
"DATA_MANAGER_GROUP_ID" : "VisualDataManager",
"DATA_BUFFER_UID" : "VisualBuffer",
"LINK_TO_DATA_BUFFER_CONFIGURATION" : "DataBufferConfiguration",
"LINK_TO_DATA_BUFFER_GROUP_ID" : "VisualBuffer",
"STATUS" : "On",
"COMMENT_DESCRIPTION" : "DEFAULT",
"AUTHOR" : "admin",
"RECORD_INSERTION_TIME" : "1509718136"
},
{
"DATA_MANAGER_GROUP_ID" : "ARTDAQDataManagerStripsSupervisor2",
"DATA_BUFFER_UID" : "ARTDAQreaderStrips2",
"LINK_TO_DATA_BUFFER_CONFIGURATION" : "DataBufferConfiguration",
"LINK_TO_DATA_BUFFER_GROUP_ID" : "ARTDAQreaderStrips2",
"STATUS" : "On",
"COMMENT_DESCRIPTION" : "No Comment",
"AUTHOR" : "admin",
"RECORD_INSERTION_TIME" : "1510771559"
}
]
},
"metadata" : {

},
"search" : [

]
},
"comments" : [

],
"origin" : {
"source" : "template",
"name" : "notprovided",
"format" : "json",
"created" : "2017-11-15T12:45:59.367-0600",
"rawdata" : [

]
},
"version" : "1",
"entities" : [
{
"name" : "OTSROOT",
"assigned" : "2017-11-15T12:45:59.369-0600"
}
],
"configurations" : [
{
"name" : "notprovided",
"assigned" : "2017-11-15T12:45:59.368-0600"
},
{
"name" : "FTBFConfig_v18",
"assigned" : "2017-11-15T15:35:33.888-0600"
},
{
"name" : "FTBFConfig_v19",
"assigned" : "2017-11-15T15:38:02.745-0600"
},
{
"name" : "FTBFConfig_v20",
"assigned" : "2017-11-15T16:26:30.620-0600"
},
{
"name" : "FTBFConfig_v21",
"assigned" : "2017-11-16T09:22:31.550-0600"
},
{
"name" : "FTBFConfig_v22",
"assigned" : "2017-11-17T10:23:27.774-0600"
},
{
"name" : "FTBFConfig_v23",
"assigned" : "2017-11-17T17:26:45.329-0600"
},
{
"name" : "FTBFConfig_v24",
"assigned" : "2017-11-17T17:58:25.848-0600"
},
{
"name" : "FTBFConfig_v25",
"assigned" : "2017-11-17T18:24:45.514-0600"
},
{
"name" : "FTBFConfig_v26",
"assigned" : "2017-11-17T18:32:23.027-0600"
},
{
"name" : "FTBFConfig_v27",
"assigned" : "2017-11-17T18:43:30.192-0600"
},
{
"name" : "FTBFConfig_v28",
"assigned" : "2017-11-17T18:48:32.245-0600"
},
{
"name" : "FTBFConfig_v29",
"assigned" : "2017-11-20T14:48:30.905-0600"
},
{
"name" : "FTBFConfig_v30",
"assigned" : "2017-11-20T15:39:56.045-0600"
},
{
"name" : "FTBFConfig_v31",
"assigned" : "2017-11-20T16:41:02.039-0600"
},
{
"name" : "FTBFConfig_v32",
"assigned" : "2017-11-20T18:55:34.978-0600"
},
{
"name" : "FTBFConfig_v33",
"assigned" : "2017-11-20T18:57:30.258-0600"
},
{
"name" : "FTBFConfig_v34",
"assigned" : "2017-11-29T17:50:39.747-0600"
},
{
"name" : "FTBFConfig_v35",
"assigned" : "2017-11-29T18:00:32.697-0600"
},
{
"name" : "FTBFConfig_v36",
"assigned" : "2017-11-29T18:35:11.415-0600"
},
{
"name" : "FTBFConfig_v37",
"assigned" : "2017-12-01T09:36:17.783-0600"
},
{
"name" : "FTBFConfig_v38",
"assigned" : "2017-12-01T09:52:01.126-0600"
},
{
"name" : "FTBFConfig_v39",
"assigned" : "2017-12-01T11:51:58.378-0600"
},
{
"name" : "FTBFConfig_v40",
"assigned" : "2017-12-01T12:18:20.427-0600"
},
{
"name" : "FTBFConfig_v41",
"assigned" : "2017-12-01T12:21:02.484-0600"
},
{
"name" : "FTBFConfig_v42",
"assigned" : "2017-12-01T12:43:21.783-0600"
},
{
"name" : "FTBFConfig_v43",
"assigned" : "2017-12-01T12:57:59.539-0600"
},
{
"name" : "FTBFConfig_v44",
"assigned" : "2017-12-01T13:00:52.130-0600"
},
{
"name" : "FTBFConfig_v45",
"assigned" : "2017-12-01T13:25:48.825-0600"
},
{
"name" : "FTBFConfig_v46",
"assigned" : "2017-12-01T13:35:43.564-0600"
},
{
"name" : "FTBFConfig_v47",
"assigned" : "2017-12-01T14:00:51.874-0600"
},
{
"name" : "FTBFConfig_v48",
"assigned" : "2017-12-01T14:03:59.221-0600"
},
{
"name" : "FTBFConfig_v49",
"assigned" : "2017-12-01T15:31:59.370-0600"
},
{
"name" : "FTBFConfig_v52",
"assigned" : "2017-12-01T15:37:31.553-0600"
},
{
"name" : "FTBFConfig_v53",
"assigned" : "2017-12-01T15:40:58.885-0600"
},
{
"name" : "FTBFConfig_v54",
"assigned" : "2017-12-01T15:52:49.203-0600"
},
{
"name" : "FTBFConfig_v55",
"assigned" : "2017-12-01T15:54:34.349-0600"
},
{
"name" : "FTBFConfig_v56",
"assigned" : "2017-12-01T15:55:33.920-0600"
},
{
"name" : "FTBFConfig_v57",
"assigned" : "2017-12-01T15:56:39.750-0600"
},
{
"name" : "FTBFConfig_v58",
"assigned" : "2017-12-01T15:57:37.806-0600"
},
{
"name" : "FTBFConfig_v59",
"assigned" : "2017-12-01T15:58:29.725-0600"
},
{
"name" : "FTBFConfig_v60",
"assigned" : "2017-12-01T15:59:30.933-0600"
},
{
"name" : "FTBFConfig_v61",
"assigned" : "2017-12-01T16:19:40.760-0600"
},
{
"name" : "FTBFConfig_v62",
"assigned" : "2017-12-01T16:22:03.243-0600"
},
{
"name" : "FTBFConfig_v63",
"assigned" : "2017-12-01T16:31:23.868-0600"
},
{
"name" : "FTBFConfig_v64",
"assigned" : "2017-12-01T17:06:31.091-0600"
},
{
"name" : "FTBFConfig_v65",
"assigned" : "2017-12-01T17:32:43.215-0600"
},
{
"name" : "FTBFConfig_v66",
"assigned" : "2017-12-01T20:38:49.719-0600"
},
{
"name" : "FTBFConfig_v67",
"assigned" : "2017-12-01T21:25:01.061-0600"
},
{
"name" : "FTBFConfig_v68",
"assigned" : "2017-12-01T21:43:00.750-0600"
},
{
"name" : "FTBFConfig_v69",
"assigned" : "2017-12-01T21:44:59.351-0600"
},
{
"name" : "FTBFConfig_v70",
"assigned" : "2017-12-01T21:59:18.602-0600"
},
{
"name" : "FTBFConfigNim_v0",
"assigned" : "2017-12-01T22:00:05.332-0600"
},
{
"name" : "FTBFConfigNim_v1",
"assigned" : "2017-12-01T22:13:07.089-0600"
},
{
"name" : "FTBFConfigNim_v2",
"assigned" : "2017-12-01T22:15:54.341-0600"
},
{
"name" : "FTBFConfigNim_v3",
"assigned" : "2017-12-01T22:17:02.679-0600"
},
{
"name" : "FTBFConfigNim_v4",
"assigned" : "2017-12-01T22:19:05.412-0600"
},
{
"name" : "FTBFConfigNim_v5",
"assigned" : "2017-12-01T22:21:56.164-0600"
},
{
"name" : "FTBFConfigNim_v6",
"assigned" : "2017-12-01T22:23:12.299-0600"
},
{
"name" : "FTBFConfigNim_v7",
"assigned" : "2017-12-01T22:25:16.139-0600"
},
{
"name" : "FTBFConfigNim_v8",
"assigned" : "2017-12-01T22:27:03.818-0600"
},
{
"name" : "FTBFConfigNim_v9",
"assigned" : "2017-12-01T22:29:27.941-0600"
},
{
"name" : "FTBFConfigNim_v10",
"assigned" : "2017-12-01T22:52:33.124-0600"
},
{
"name" : "FTBFConfigNim_v11",
"assigned" : "2017-12-01T22:57:27.927-0600"
},
{
"name" : "FTBFConfigNim_v12",
"assigned" : "2017-12-01T23:00:06.127-0600"
},
{
"name" : "FTBFConfigNim_v13",
"assigned" : "2017-12-01T23:52:34.256-0600"
},
{
"name" : "FTBFConfigNim_v14",
"assigned" : "2017-12-01T23:58:08.686-0600"
},
{
"name" : "FTBFConfigNim_v15",
"assigned" : "2017-12-02T00:00:32.937-0600"
},
{
"name" : "FTBFConfigNim_v16",
"assigned" : "2017-12-02T00:13:08.088-0600"
},
{
"name" : "FTBFConfigNim_v17",
"assigned" : "2017-12-02T00:28:27.055-0600"
},
{
"name" : "FTBFConfigNim_v18",
"assigned" : "2017-12-02T00:29:33.111-0600"
},
{
"name" : "FTBFConfigNim_v19",
"assigned" : "2017-12-02T00:31:11.175-0600"
},
{
"name" : "FTBFConfigNim_v20",
"assigned" : "2017-12-02T00:57:26.145-0600"
},
{
"name" : "FTBFConfigNim_v21",
"assigned" : "2017-12-02T10:58:00.688-0600"
},
{
"name" : "FTBFConfigNim_v22",
"assigned" : "2017-12-02T11:08:16.888-0600"
},
{
"name" : "FTBFConfigNim_v23",
"assigned" : "2017-12-02T11:12:38.443-0600"
},
{
"name" : "FTBFConfigNim_v24",
"assigned" : "2017-12-02T11:18:41.341-0600"
},
{
"name" : "FTBFConfigNim_v25",
"assigned" : "2017-12-02T11:27:04.527-0600"
},
{
"name" : "FTBFConfigNim_v26",
"assigned" : "2017-12-02T11:38:35.577-0600"
},
{
"name" : "FTBFConfigNim_v27",
"assigned" : "2017-12-02T11:49:06.768-0600"
},
{
"name" : "FTBFConfigNim_v28",
"assigned" : "2017-12-02T11:55:08.226-0600"
},
{
"name" : "FTBFConfigNim_v29",
"assigned" : "2017-12-02T12:06:25.063-0600"
},
{
"name" : "FTBFConfig_v71",
"assigned" : "2017-12-02T12:24:13.713-0600"
},
{
"name" : "FTBFConfig_v72",
"assigned" : "2017-12-02T12:43:34.564-0600"
},
{
"name" : "FTBFConfig_v73",
"assigned" : "2017-12-02T13:55:34.224-0600"
},
{
"name" : "FTBFConfig_v74",
"assigned" : "2017-12-02T14:09:06.576-0600"
},
{
"name" : "FTBFConfig_v75",
"assigned" : "2017-12-02T14:12:17.353-0600"
},
{
"name" : "FTBFConfig_v76",
"assigned" : "2017-12-02T19:05:52.437-0600"
},
{
"name" : "FTBFConfig_v77",
"assigned" : "2017-12-02T19:12:12.304-0600"
},
{
"name" : "FTBFConfig_v78",
"assigned" : "2017-12-03T14:03:47.444-0600"
},
{
"name" : "FTBFConfig_v79",
"assigned" : "2017-12-03T14:09:05.694-0600"
},
{
"name" : "FTBFConfig_v80",
"assigned" : "2017-12-03T14:11:09.442-0600"
},
{
"name" : "FTBFConfig_v81",
"assigned" : "2017-12-03T14:22:32.479-0600"
},
{
"name" : "FTBFConfig_v82",
"assigned" : "2017-12-03T14:40:37.264-0600"
},
{
"name" : "FTBFConfig_v83",
"assigned" : "2017-12-03T14:45:04.632-0600"
},
{
"name" : "FTBFConfig_v84",
"assigned" : "2017-12-04T14:51:29.966-0600"
},
{
"name" : "FTBFConfig_v85",
"assigned" : "2017-12-04T14:55:43.140-0600"
},
{
"name" : "FTBFConfig_v86",
"assigned" : "2017-12-04T16:51:06.160-0600"
},
{
"name" : "FTBFConfig_v87",
"assigned" : "2017-12-04T16:56:46.803-0600"
},
{
"name" : "FTBFConfig_v88",
"assigned" : "2017-12-04T17:01:11.525-0600"
},
{
"name" : "FTBFConfig_v89",
"assigned" : "2017-12-04T17:03:56.637-0600"
},
{
"name" : "FTBFConfig_v90",
"assigned" : "2017-12-04T17:07:16.269-0600"
},
{
"name" : "FTBFConfig_v91",
"assigned" : "2017-12-04T17:09:25.396-0600"
},
{
"name" : "FTBFConfig_v92",
"assigned" : "2017-12-04T17:11:37.882-0600"
},
{
"name" : "FTBFConfig_v93",
"assigned" : "2017-12-04T21:05:20.472-0600"
},
{
"name" : "FTBFConfig_v94",
"assigned" : "2017-12-04T21:17:11.409-0600"
},
{
"name" : "FTBFConfig_v95",
"assigned" : "2017-12-04T21:41:17.077-0600"
},
{
"name" : "FTBFConfig_v96",
"assigned" : "2017-12-04T22:39:01.715-0600"
},
{
"name" : "FTBFConfig_v97",
"assigned" : "2017-12-04T23:01:12.218-0600"
},
{
"name" : "FTBFConfig_v98",
"assigned" : "2017-12-07T11:07:46.229-0600"
},
{
"name" : "FTBFConfig_v99",
"assigned" : "2017-12-07T11:49:58.914-0600"
},
{
"name" : "FTBFConfig_v100",
"assigned" : "2017-12-07T11:58:25.642-0600"
},
{
"name" : "FTBFConfig_v101",
"assigned" : "2017-12-08T13:30:47.807-0600"
},
{
"name" : "FTBFConfig_v102",
"assigned" : "2017-12-08T13:32:34.672-0600"
},
{
"name" : "FTBFConfig_v103",
"assigned" : "2017-12-12T11:03:04.474-0600"
},
{
"name" : "FTBFConfig_v104",
"assigned" : "2017-12-12T13:50:58.895-0600"
},
{
"name" : "FTBFConfig_v105",
"assigned" : "2017-12-12T15:25:04.915-0600"
},
{
"name" : "FTBFConfig_v106",
"assigned" : "2017-12-13T10:24:23.262-0600"
},
{
"name" : "FTBFConfig_v107",
"assigned" : "2017-12-13T10:27:02.003-0600"
},
{
"name" : "FTBFConfig_v108",
"assigned" : "2018-02-01T21:14:25.551-0600"
},
{
"name" : "FTBFConfig_v109",
"assigned" : "2018-02-01T21:21:02.683-0600"
},
{
"name" : "FTBFConfig_v110",
"assigned" : "2018-02-02T11:25:33.647-0600"
},
{
"name" : "FTBFConfig_v111",
"assigned" : "2018-02-02T11:37:12.464-0600"
},
{
"name" : "FTBFConfig_v112",
"assigned" : "2018-02-02T11:47:14.969-0600"
},
{
"name" : "FTBFConfig_v113",
"assigned" : "2018-02-02T11:53:36.218-0600"
},
{
"name" : "FTBFConfig_v114",
"assigned" : "2018-02-02T12:00:52.318-0600"
},
{
"name" : "FTBFConfig_v115",
"assigned" : "2018-02-02T12:27:13.792-0600"
},
{
"name" : "FTBFConfig_v116",
"assigned" : "2018-02-02T14:28:53.315-0600"
},
{
"name" : "FTBFConfig_v117",
"assigned" : "2018-02-02T14:30:19.652-0600"
},
{
"name" : "FTBFConfig_v118",
"assigned" : "2018-02-02T14:34:00.918-0600"
},
{
"name" : "FTBFConfig_v119",
"assigned" : "2018-02-02T14:36:27.515-0600"
},
{
"name" : "FTBFConfig_v120",
"assigned" : "2018-02-02T14:38:40.852-0600"
},
{
"name" : "FTBFConfig_v121",
"assigned" : "2018-02-02T14:41:50.166-0600"
},
{
"name" : "FTBFConfig_v122",
"assigned" : "2018-02-02T14:50:24.249-0600"
},
{
"name" : "FTBFConfig_v123",
"assigned" : "2018-02-02T14:52:57.100-0600"
},
{
"name" : "FTBFConfig_v124",
"assigned" : "2018-02-02T14:59:50.419-0600"
},
{
"name" : "FTBFConfig_v125",
"assigned" : "2018-02-02T15:04:08.529-0600"
},
{
"name" : "FTBFConfig_v126",
"assigned" : "2018-02-02T15:50:11.749-0600"
},
{
"name" : "FTBFConfig_v127",
"assigned" : "2018-02-02T15:51:31.226-0600"
},
{
"name" : "FTBFConfig_v128",
"assigned" : "2018-02-02T15:52:36.385-0600"
},
{
"name" : "FTBFConfig_v129",
"assigned" : "2018-02-02T16:02:45.288-0600"
},
{
"name" : "FTBFConfig_v130",
"assigned" : "2018-02-02T16:08:44.828-0600"
},
{
"name" : "FTBFConfig_v131",
"assigned" : "2018-02-02T16:11:30.678-0600"
},
{
"name" : "FTBFConfig_v132",
"assigned" : "2018-02-02T16:12:58.539-0600"
},
{
"name" : "FTBFConfig_v133",
"assigned" : "2018-02-02T16:14:29.129-0600"
},
{
"name" : "FTBFConfig_v134",
"assigned" : "2018-02-02T16:26:22.035-0600"
},
{
"name" : "FTBFConfig_v135",
"assigned" : "2018-02-02T16:27:09.145-0600"
},
{
"name" : "FTBFConfig_v136",
"assigned" : "2018-02-02T16:29:30.503-0600"
},
{
"name" : "FTBFConfig_v137",
"assigned" : "2018-02-02T16:31:41.106-0600"
},
{
"name" : "FTBFConfig_v138",
"assigned" : "2018-02-02T16:34:13.776-0600"
},
{
"name" : "FTBFConfig_v139",
"assigned" : "2018-02-02T17:39:29.824-0600"
},
{
"name" : "FTBFConfig_v140",
"assigned" : "2018-02-02T17:42:52.006-0600"
},
{
"name" : "FTBFConfig_v141",
"assigned" : "2018-02-02T17:47:37.185-0600"
},
{
"name" : "FTBFConfig_v142",
"assigned" : "2018-02-02T17:54:01.208-0600"
}
],
"changelog" : "notprovided",
"bookkeeping" : {
"isdeleted" : false,
"isreadonly" : false,
"updates" : [
{
"event" : "addConfiguration",
"timestamp" : "2017-11-15T12:45:59.368-0600",
"value" : {
"name" : "notprovided",
"assigned" : "2017-11-15T12:45:59.368-0600"
}
},
{
"event" : "setVersion",
"timestamp" : "2017-11-15T12:45:59.368-0600",
"value" : {
"name" : "1",
"assigned" : "2017-11-15T12:45:59.368-0600"
}
},
{
"event" : "setCollection",
"timestamp" : "2017-11-15T12:45:59.369-0600",
"value" : {
"name" : "DataManagerConfiguration",
"assigned" : "2017-11-15T12:45:59.369-0600"
}
},
{
"event" : "addEntity",
"timestamp" : "2017-11-15T12:45:59.369-0600",
"value" : {
"name" : "OTSROOT",
"assigned" : "2017-11-15T12:45:59.369-0600"
}
},
{
"event" : "addConfiguration",
"timestamp" : "2017-11-15T15:35:33.888-0600",
"value" : {
"name" : "FTBFConfig_v18",
"assigned" : "2017-11-15T15:35:33.888-0600"
}
},
{
"event" : "addConfiguration",
"timestamp" : "2017-11-15T15:38:02.745-0600",
"value" : {
"name" : "FTBFConfig_v19",
"assigned" : "2017-11-15T15:38:02.745-0600"
}
},
{
"event" : "addConfiguration",
"timestamp" : "2017-11-15T16:26:30.620-0600",
"value" : {
"name" : "FTBFConfig_v20",
"assigned" : "2017-11-15T16:26:30.620-0600"
}
},
{
"event" : "addConfiguration",
"timestamp" : "2017-11-16T09:22:31.550-0600",
"value" : {
"name" : "FTBFConfig_v21",
"assigned" : "2017-11-16T09:22:31.550-0600"
}
},
{
"event" : "addConfiguration",
"timestamp" : "2017-11-17T10:23:27.774-0600",
"value" : {
"name" : "FTBFConfig_v22",
"assigned" : "2017-11-17T10:23:27.774-0600"
}
},
{
"event" : "addConfiguration",
"timestamp" : "2017-11-17T17:26:45.329-0600",
"value" : {
"name" : "FTBFConfig_v23",
"assigned" : "2017-11-17T17:26:45.329-0600"
}
},
{
"event" : "addConfiguration",
"timestamp" : "2017-11-17T17:58:25.848-0600",
"value" : {
"name" : "FTBFConfig_v24",
"assigned" : "2017-11-17T17:58:25.848-0600"
}
},
{
"event" : "addConfiguration",
"timestamp" : "2017-11-17T18:24:45.514-0600",
"value" : {
"name" : "FTBFConfig_v25",
"assigned" : "2017-11-17T18:24:45.514-0600"
}
},
{
"event" : "addConfiguration",
"timestamp" : "2017-11-17T18:32:23.027-0600",
"value" : {
"name" : "FTBFConfig_v26",
"assigned" : "2017-11-17T18:32:23.027-0600"
}
},
{
"event" : "addConfiguration",
"timestamp" : "2017-11-17T18:43:30.192-0600",
"value" : {
"name" : "FTBFConfig_v27",
"assigned" : "2017-11-17T18:43:30.192-0600"
}
},
{
"event" : "addConfiguration",
"timestamp" : "2017-11-17T18:48:32.245-0600",
"value" : {
"name" : "FTBFConfig_v28",
"assigned" : "2017-11-17T18:48:32.245-0600"
}
},
{
"event" : "addConfiguration",
"timestamp" : "2017-11-20T14:48:30.905-0600",
"value" : {
"name" : "FTBFConfig_v29",
"assigned" : "2017-11-20T14:48:30.905-0600"
}
},
{
"event" : "addConfiguration",
"timestamp" : "2017-11-20T15:39:56.045-0600",
"value" : {
"name" : "FTBFConfig_v30",
"assigned" : "2017-11-20T15:39:56.045-0600"
}
},
{
"event" : "addConfiguration",
"timestamp" : "2017-11-20T16:41:02.039-0600",
"value" : {
"name" : "FTBFConfig_v31",
"assigned" : "2017-11-20T16:41:02.039-0600"
}
},
{
"event" : "addConfiguration",
"timestamp" : "2017-11-20T18:55:34.978-0600",
"value" : {
"name" : "FTBFConfig_v32",
"assigned" : "2017-11-20T18:55:34.978-0600"
}
},
{
"event" : "addConfiguration",
"timestamp" : "2017-11-20T18:57:30.258-0600",
"value" : {
"name" : "FTBFConfig_v33",
"assigned" : "2017-11-20T18:57:30.258-0600"
}
},
{
"event" : "addConfiguration",
"timestamp" : "2017-11-29T17:50:39.747-0600",
"value" : {
"name" : "FTBFConfig_v34",
"assigned" : "2017-11-29T17:50:39.747-0600"
}
},
{
"event" : "addConfiguration",
"timestamp" : "2017-11-29T18:00:32.698-0600",
"value" : {
"name" : "FTBFConfig_v35",
"assigned" : "2017-11-29T18:00:32.697-0600"
}
},
{
"event" : "addConfiguration",
"timestamp" : "2017-11-29T18:35:11.415-0600",
"value" : {
"name" : "FTBFConfig_v36",
"assigned" : "2017-11-29T18:35:11.415-0600"
}
},
{
"event" : "addConfiguration",
"timestamp" : "2017-12-01T09:36:17.783-0600",
"value" : {
"name" : "FTBFConfig_v37",
"assigned" : "2017-12-01T09:36:17.783-0600"
}
},
{
"event" : "addConfiguration",
"timestamp" : "2017-12-01T09:52:01.126-0600",
"value" : {
"name" : "FTBFConfig_v38",
"assigned" : "2017-12-01T09:52:01.126-0600"
}
},
{
"event" : "addConfiguration",
"timestamp" : "2017-12-01T11:51:58.378-0600",
"value" : {
"name" : "FTBFConfig_v39",
"assigned" : "2017-12-01T11:51:58.378-0600"
}
},
{
"event" : "addConfiguration",
"timestamp" : "2017-12-01T12:18:20.428-0600",
"value" : {
"name" : "FTBFConfig_v40",
"assigned" : "2017-12-01T12:18:20.427-0600"
}
},
{
"event" : "addConfiguration",
"timestamp" : "2017-12-01T12:21:02.484-0600",
"value" : {
"name" : "FTBFConfig_v41",
"assigned" : "2017-12-01T12:21:02.484-0600"
}
},
{
"event" : "addConfiguration",
"timestamp" : "2017-12-01T12:43:21.783-0600",
"value" : {
"name" : "FTBFConfig_v42",
"assigned" : "2017-12-01T12:43:21.783-0600"
}
},
{
"event" : "addConfiguration",
"timestamp" : "2017-12-01T12:57:59.539-0600",
"value" : {
"name" : "FTBFConfig_v43",
"assigned" : "2017-12-01T12:57:59.539-0600"
}
},
{
"event" : "addConfiguration",
"timestamp" : "2017-12-01T13:00:52.130-0600",
"value" : {
"name" : "FTBFConfig_v44",
"assigned" : "2017-12-01T13:00:52.130-0600"
}
},
{
"event" : "addConfiguration",
"timestamp" : "2017-12-01T13:25:48.825-0600",
"value" : {
"name" : "FTBFConfig_v45",
"assigned" : "2017-12-01T13:25:48.825-0600"
}
},
{
"event" : "addConfiguration",
"timestamp" : "2017-12-01T13:35:43.564-0600",
"value" : {
"name" : "FTBFConfig_v46",
"assigned" : "2017-12-01T13:35:43.564-0600"
}
},
{
"event" : "addConfiguration",
"timestamp" : "2017-12-01T14:00:51.874-0600",
"value" : {
"name" : "FTBFConfig_v47",
"assigned" : "2017-12-01T14:00:51.874-0600"
}
},
{
"event" : "addConfiguration",
"timestamp" : "2017-12-01T14:03:59.221-0600",
"value" : {
"name" : "FTBFConfig_v48",
"assigned" : "2017-12-01T14:03:59.221-0600"
}
},
{
"event" : "addConfiguration",
"timestamp" : "2017-12-01T15:31:59.370-0600",
"value" : {
"name" : "FTBFConfig_v49",
"assigned" : "2017-12-01T15:31:59.370-0600"
}
},
{
"event" : "addConfiguration",
"timestamp" : "2017-12-01T15:37:31.553-0600",
"value" : {
"name" : "FTBFConfig_v52",
"assigned" : "2017-12-01T15:37:31.553-0600"
}
},
{
"event" : "addConfiguration",
"timestamp" : "2017-12-01T15:40:58.885-0600",
"value" : {
"name" : "FTBFConfig_v53",
"assigned" : "2017-12-01T15:40:58.885-0600"
}
},
{
"event" : "addConfiguration",
"timestamp" : "2017-12-01T15:52:49.203-0600",
"value" : {
"name" : "FTBFConfig_v54",
"assigned" : "2017-12-01T15:52:49.203-0600"
}
},
{
"event" : "addConfiguration",
"timestamp" : "2017-12-01T15:54:34.349-0600",
"value" : {
"name" : "FTBFConfig_v55",
"assigned" : "2017-12-01T15:54:34.349-0600"
}
},
{
"event" : "addConfiguration",
"timestamp" : "2017-12-01T15:55:33.920-0600",
"value" : {
"name" : "FTBFConfig_v56",
"assigned" : "2017-12-01T15:55:33.920-0600"
}
},
{
"event" : "addConfiguration",
"timestamp" : "2017-12-01T15:56:39.750-0600",
"value" : {
"name" : "FTBFConfig_v57",
"assigned" : "2017-12-01T15:56:39.750-0600"
}
},
{
"event" : "addConfiguration",
"timestamp" : "2017-12-01T15:57:37.806-0600",
"value" : {
"name" : "FTBFConfig_v58",
"assigned" : "2017-12-01T15:57:37.806-0600"
}
},
{
"event" : "addConfiguration",
"timestamp" : "2017-12-01T15:58:29.725-0600",
"value" : {
"name" : "FTBFConfig_v59",
"assigned" : "2017-12-01T15:58:29.725-0600"
}
},
{
"event" : "addConfiguration",
"timestamp" : "2017-12-01T15:59:30.933-0600",
"value" : {
"name" : "FTBFConfig_v60",
"assigned" : "2017-12-01T15:59:30.933-0600"
}
},
{
"event" : "addConfiguration",
"timestamp" : "2017-12-01T16:19:40.760-0600",
"value" : {
"name" : "FTBFConfig_v61",
"assigned" : "2017-12-01T16:19:40.760-0600"
}
},
{
"event" : "addConfiguration",
"timestamp" : "2017-12-01T16:22:03.243-0600",
"value" : {
"name" : "FTBFConfig_v62",
"assigned" : "2017-12-01T16:22:03.243-0600"
}
},
{
"event" : "addConfiguration",
"timestamp" : "2017-12-01T16:31:23.868-0600",
"value" : {
"name" : "FTBFConfig_v63",
"assigned" : "2017-12-01T16:31:23.868-0600"
}
},
{
"event" : "addConfiguration",
"timestamp" : "2017-12-01T17:06:31.091-0600",
"value" : {
"name" : "FTBFConfig_v64",
"assigned" : "2017-12-01T17:06:31.091-0600"
}
},
{
"event" : "addConfiguration",
"timestamp" : "2017-12-01T17:32:43.215-0600",
"value" : {
"name" : "FTBFConfig_v65",
"assigned" : "2017-12-01T17:32:43.215-0600"
}
},
{
"event" : "addConfiguration",
"timestamp" : "2017-12-01T20:38:49.719-0600",
"value" : {
"name" : "FTBFConfig_v66",
"assigned" : "2017-12-01T20:38:49.719-0600"
}
},
{
"event" : "addConfiguration",
"timestamp" : "2017-12-01T21:25:01.061-0600",
"value" : {
"name" : "FTBFConfig_v67",
"assigned" : "2017-12-01T21:25:01.061-0600"
}
},
{
"event" : "addConfiguration",
"timestamp" : "2017-12-01T21:43:00.751-0600",
"value" : {
"name" : "FTBFConfig_v68",
"assigned" : "2017-12-01T21:43:00.750-0600"
}
},
{
"event" : "addConfiguration",
"timestamp" : "2017-12-01T21:44:59.351-0600",
"value" : {
"name" : "FTBFConfig_v69",
"assigned" : "2017-12-01T21:44:59.351-0600"
}
},
{
"event" : "addConfiguration",
"timestamp" : "2017-12-01T21:59:18.603-0600",
"value" : {
"name" : "FTBFConfig_v70",
"assigned" : "2017-12-01T21:59:18.602-0600"
}
},
{
"event" : "addConfiguration",
"timestamp" : "2017-12-01T22:00:05.332-0600",
"value" : {
"name" : "FTBFConfigNim_v0",
"assigned" : "2017-12-01T22:00:05.332-0600"
}
},
{
"event" : "addConfiguration",
"timestamp" : "2017-12-01T22:13:07.089-0600",
"value" : {
"name" : "FTBFConfigNim_v1",
"assigned" : "2017-12-01T22:13:07.089-0600"
}
},
{
"event" : "addConfiguration",
"timestamp" : "2017-12-01T22:15:54.341-0600",
"value" : {
"name" : "FTBFConfigNim_v2",
"assigned" : "2017-12-01T22:15:54.341-0600"
}
},
{
"event" : "addConfiguration",
"timestamp" : "2017-12-01T22:17:02.679-0600",
"value" : {
"name" : "FTBFConfigNim_v3",
"assigned" : "2017-12-01T22:17:02.679-0600"
}
},
{
"event" : "addConfiguration",
"timestamp" : "2017-12-01T22:19:05.412-0600",
"value" : {
"name" : "FTBFConfigNim_v4",
"assigned" : "2017-12-01T22:19:05.412-0600"
}
},
{
"event" : "addConfiguration",
"timestamp" : "2017-12-01T22:21:56.164-0600",
"value" : {
"name" : "FTBFConfigNim_v5",
"assigned" : "2017-12-01T22:21:56.164-0600"
}
},
{
"event" : "addConfiguration",
"timestamp" : "2017-12-01T22:23:12.299-0600",
"value" : {
"name" : "FTBFConfigNim_v6",
"assigned" : "2017-12-01T22:23:12.299-0600"
}
},
{
"event" : "addConfiguration",
"timestamp" : "2017-12-01T22:25:16.139-0600",
"value" : {
"name" : "FTBFConfigNim_v7",
"assigned" : "2017-12-01T22:25:16.139-0600"
}
},
{
"event" : "addConfiguration",
"timestamp" : "2017-12-01T22:27:03.818-0600",
"value" : {
"name" : "FTBFConfigNim_v8",
"assigned" : "2017-12-01T22:27:03.818-0600"
}
},
{
"event" : "addConfiguration",
"timestamp" : "2017-12-01T22:29:27.941-0600",
"value" : {
"name" : "FTBFConfigNim_v9",
"assigned" : "2017-12-01T22:29:27.941-0600"
}
},
{
"event" : "addConfiguration",
"timestamp" : "2017-12-01T22:52:33.124-0600",
"value" : {
"name" : "FTBFConfigNim_v10",
"assigned" : "2017-12-01T22:52:33.124-0600"
}
},
{
"event" : "addConfiguration",
"timestamp" : "2017-12-01T22:57:27.927-0600",
"value" : {
"name" : "FTBFConfigNim_v11",
"assigned" : "2017-12-01T22:57:27.927-0600"
}
},
{
"event" : "addConfiguration",
"timestamp" : "2017-12-01T23:00:06.127-0600",
"value" : {
"name" : "FTBFConfigNim_v12",
"assigned" : "2017-12-01T23:00:06.127-0600"
}
},
{
"event" : "addConfiguration",
"timestamp" : "2017-12-01T23:52:34.256-0600",
"value" : {
"name" : "FTBFConfigNim_v13",
"assigned" : "2017-12-01T23:52:34.256-0600"
}
},
{
"event" : "addConfiguration",
"timestamp" : "2017-12-01T23:58:08.687-0600",
"value" : {
"name" : "FTBFConfigNim_v14",
"assigned" : "2017-12-01T23:58:08.686-0600"
}
},
{
"event" : "addConfiguration",
"timestamp" : "2017-12-02T00:00:32.937-0600",
"value" : {
"name" : "FTBFConfigNim_v15",
"assigned" : "2017-12-02T00:00:32.937-0600"
}
},
{
"event" : "addConfiguration",
"timestamp" : "2017-12-02T00:13:08.088-0600",
"value" : {
"name" : "FTBFConfigNim_v16",
"assigned" : "2017-12-02T00:13:08.088-0600"
}
},
{
"event" : "addConfiguration",
"timestamp" : "2017-12-02T00:28:27.055-0600",
"value" : {
"name" : "FTBFConfigNim_v17",
"assigned" : "2017-12-02T00:28:27.055-0600"
}
},
{
"event" : "addConfiguration",
"timestamp" : "2017-12-02T00:29:33.111-0600",
"value" : {
"name" : "FTBFConfigNim_v18",
"assigned" : "2017-12-02T00:29:33.111-0600"
}
},
{
"event" : "addConfiguration",
"timestamp" : "2017-12-02T00:31:11.175-0600",
"value" : {
"name" : "FTBFConfigNim_v19",
"assigned" : "2017-12-02T00:31:11.175-0600"
}
},
{
"event" : "addConfiguration",
"timestamp" : "2017-12-02T00:57:26.145-0600",
"value" : {
"name" : "FTBFConfigNim_v20",
"assigned" : "2017-12-02T00:57:26.145-0600"
}
},
{
"event" : "addConfiguration",
"timestamp" : "2017-12-02T10:58:00.688-0600",
"value" : {
"name" : "FTBFConfigNim_v21",
"assigned" : "2017-12-02T10:58:00.688-0600"
}
},
{
"event" : "addConfiguration",
"timestamp" : "2017-12-02T11:08:16.888-0600",
"value" : {
"name" : "FTBFConfigNim_v22",
"assigned" : "2017-12-02T11:08:16.888-0600"
}
},
{
"event" : "addConfiguration",
"timestamp" : "2017-12-02T11:12:38.443-0600",
"value" : {
"name" : "FTBFConfigNim_v23",
"assigned" : "2017-12-02T11:12:38.443-0600"
}
},
{
"event" : "addConfiguration",
"timestamp" : "2017-12-02T11:18:41.342-0600",
"value" : {
"name" : "FTBFConfigNim_v24",
"assigned" : "2017-12-02T11:18:41.341-0600"
}
},
{
"event" : "addConfiguration",
"timestamp" : "2017-12-02T11:27:04.528-0600",
"value" : {
"name" : "FTBFConfigNim_v25",
"assigned" : "2017-12-02T11:27:04.527-0600"
}
},
{
"event" : "addConfiguration",
"timestamp" : "2017-12-02T11:38:35.577-0600",
"value" : {
"name" : "FTBFConfigNim_v26",
"assigned" : "2017-12-02T11:38:35.577-0600"
}
},
{
"event" : "addConfiguration",
"timestamp" : "2017-12-02T11:49:06.768-0600",
"value" : {
"name" : "FTBFConfigNim_v27",
"assigned" : "2017-12-02T11:49:06.768-0600"
}
},
{
"event" : "addConfiguration",
"timestamp" : "2017-12-02T11:55:08.226-0600",
"value" : {
"name" : "FTBFConfigNim_v28",
"assigned" : "2017-12-02T11:55:08.226-0600"
}
},
{
"event" : "addConfiguration",
"timestamp" : "2017-12-02T12:06:25.063-0600",
"value" : {
"name" : "FTBFConfigNim_v29",
"assigned" : "2017-12-02T12:06:25.063-0600"
}
},
{
"event" : "addConfiguration",
"timestamp" : "2017-12-02T12:24:13.713-0600",
"value" : {
"name" : "FTBFConfig_v71",
"assigned" : "2017-12-02T12:24:13.713-0600"
}
},
{
"event" : "addConfiguration",
"timestamp" : "2017-12-02T12:43:34.564-0600",
"value" : {
"name" : "FTBFConfig_v72",
"assigned" : "2017-12-02T12:43:34.564-0600"
}
},
{
"event" : "addConfiguration",
"timestamp" : "2017-12-02T13:55:34.224-0600",
"value" : {
"name" : "FTBFConfig_v73",
"assigned" : "2017-12-02T13:55:34.224-0600"
}
},
{
"event" : "addConfiguration",
"timestamp" : "2017-12-02T14:09:06.576-0600",
"value" : {
"name" : "FTBFConfig_v74",
"assigned" : "2017-12-02T14:09:06.576-0600"
}
},
{
"event" : "addConfiguration",
"timestamp" : "2017-12-02T14:12:17.353-0600",
"value" : {
"name" : "FTBFConfig_v75",
"assigned" : "2017-12-02T14:12:17.353-0600"
}
},
{
"event" : "addConfiguration",
"timestamp" : "2017-12-02T19:05:52.437-0600",
"value" : {
"name" : "FTBFConfig_v76",
"assigned" : "2017-12-02T19:05:52.437-0600"
}
},
{
"event" : "addConfiguration",
"timestamp" : "2017-12-02T19:12:12.304-0600",
"value" : {
"name" : "FTBFConfig_v77",
"assigned" : "2017-12-02T19:12:12.304-0600"
}
},
{
"event" : "addConfiguration",
"timestamp" : "2017-12-03T14:03:47.444-0600",
"value" : {
"name" : "FTBFConfig_v78",
"assigned" : "2017-12-03T14:03:47.444-0600"
}
},
{
"event" : "addConfiguration",
"timestamp" : "2017-12-03T14:09:05.694-0600",
"value" : {
"name" : "FTBFConfig_v79",
"assigned" : "2017-12-03T14:09:05.694-0600"
}
},
{
"event" : "addConfiguration",
"timestamp" : "2017-12-03T14:11:09.442-0600",
"value" : {
"name" : "FTBFConfig_v80",
"assigned" : "2017-12-03T14:11:09.442-0600"
}
},
{
"event" : "addConfiguration",
"timestamp" : "2017-12-03T14:22:32.479-0600",
"value" : {
"name" : "FTBFConfig_v81",
"assigned" : "2017-12-03T14:22:32.479-0600"
}
},
{
"event" : "addConfiguration",
"timestamp" : "2017-12-03T14:40:37.264-0600",
"value" : {
"name" : "FTBFConfig_v82",
"assigned" : "2017-12-03T14:40:37.264-0600"
}
},
{
"event" : "addConfiguration",
"timestamp" : "2017-12-03T14:45:04.632-0600",
"value" : {
"name" : "FTBFConfig_v83",
"assigned" : "2017-12-03T14:45:04.632-0600"
}
},
{
"event" : "addConfiguration",
"timestamp" : "2017-12-04T14:51:29.966-0600",
"value" : {
"name" : "FTBFConfig_v84",
"assigned" : "2017-12-04T14:51:29.966-0600"
}
},
{
"event" : "addConfiguration",
"timestamp" : "2017-12-04T14:55:43.141-0600",
"value" : {
"name" : "FTBFConfig_v85",
"assigned" : "2017-12-04T14:55:43.140-0600"
}
},
{
"event" : "addConfiguration",
"timestamp" : "2017-12-04T16:51:06.160-0600",
"value" : {
"name" : "FTBFConfig_v86",
"assigned" : "2017-12-04T16:51:06.160-0600"
}
},
{
"event" : "addConfiguration",
"timestamp" : "2017-12-04T16:56:46.803-0600",
"value" : {
"name" : "FTBFConfig_v87",
"assigned" : "2017-12-04T16:56:46.803-0600"
}
},
{
"event" : "addConfiguration",
"timestamp" : "2017-12-04T17:01:11.525-0600",
"value" : {
"name" : "FTBFConfig_v88",
"assigned" : "2017-12-04T17:01:11.525-0600"
}
},
{
"event" : "addConfiguration",
"timestamp" : "2017-12-04T17:03:56.637-0600",
"value" : {
"name" : "FTBFConfig_v89",
"assigned" : "2017-12-04T17:03:56.637-0600"
}
},
{
"event" : "addConfiguration",
"timestamp" : "2017-12-04T17:07:16.269-0600",
"value" : {
"name" : "FTBFConfig_v90",
"assigned" : "2017-12-04T17:07:16.269-0600"
}
},
{
"event" : "addConfiguration",
"timestamp" : "2017-12-04T17:09:25.396-0600",
"value" : {
"name" : "FTBFConfig_v91",
"assigned" : "2017-12-04T17:09:25.396-0600"
}
},
{
"event" : "addConfiguration",
"timestamp" : "2017-12-04T17:11:37.882-0600",
"value" : {
"name" : "FTBFConfig_v92",
"assigned" : "2017-12-04T17:11:37.882-0600"
}
},
{
"event" : "addConfiguration",
"timestamp" : "2017-12-04T21:05:20.472-0600",
"value" : {
"name" : "FTBFConfig_v93",
"assigned" : "2017-12-04T21:05:20.472-0600"
}
},
{
"event" : "addConfiguration",
"timestamp" : "2017-12-04T21:17:11.409-0600",
"value" : {
"name" : "FTBFConfig_v94",
"assigned" : "2017-12-04T21:17:11.409-0600"
}
},
{
"event" : "addConfiguration",
"timestamp" : "2017-12-04T21:41:17.077-0600",
"value" : {
"name" : "FTBFConfig_v95",
"assigned" : "2017-12-04T21:41:17.077-0600"
}
},
{
"event" : "addConfiguration",
"timestamp" : "2017-12-04T22:39:01.715-0600",
"value" : {
"name" : "FTBFConfig_v96",
"assigned" : "2017-12-04T22:39:01.715-0600"
}
},
{
"event" : "addConfiguration",
"timestamp" : "2017-12-04T23:01:12.218-0600",
"value" : {
"name" : "FTBFConfig_v97",
"assigned" : "2017-12-04T23:01:12.218-0600"
}
},
{
"event" : "addConfiguration",
"timestamp" : "2017-12-07T11:07:46.230-0600",
"value" : {
"name" : "FTBFConfig_v98",
"assigned" : "2017-12-07T11:07:46.229-0600"
}
},
{
"event" : "addConfiguration",
"timestamp" : "2017-12-07T11:49:58.914-0600",
"value" : {
"name" : "FTBFConfig_v99",
"assigned" : "2017-12-07T11:49:58.914-0600"
}
},
{
"event" : "addConfiguration",
"timestamp" : "2017-12-07T11:58:25.642-0600",
"value" : {
"name" : "FTBFConfig_v100",
"assigned" : "2017-12-07T11:58:25.642-0600"
}
},
{
"event" : "addConfiguration",
"timestamp" : "2017-12-08T13:30:47.807-0600",
"value" : {
"name" : "FTBFConfig_v101",
"assigned" : "2017-12-08T13:30:47.807-0600"
}
},
{
"event" : "addConfiguration",
"timestamp" : "2017-12-08T13:32:34.672-0600",
"value" : {
"name" : "FTBFConfig_v102",
"assigned" : "2017-12-08T13:32:34.672-0600"
}
},
{
"event" : "addConfiguration",
"timestamp" : "2017-12-12T11:03:04.474-0600",
"value" : {
"name" : "FTBFConfig_v103",
"assigned" : "2017-12-12T11:03:04.474-0600"
}
},
{
"event" : "addConfiguration",
"timestamp" : "2017-12-12T13:50:58.895-0600",
"value" : {
"name" : "FTBFConfig_v104",
"assigned" : "2017-12-12T13:50:58.895-0600"
}
},
{
"event" : "addConfiguration",
"timestamp" : "2017-12-12T15:25:04.915-0600",
"value" : {
"name" : "FTBFConfig_v105",
"assigned" : "2017-12-12T15:25:04.915-0600"
}
},
{
"event" : "addConfiguration",
"timestamp" : "2017-12-13T10:24:23.262-0600",
"value" : {
"name" : "FTBFConfig_v106",
"assigned" : "2017-12-13T10:24:23.262-0600"
}
},
{
"event" : "addConfiguration",
"timestamp" : "2017-12-13T10:27:02.003-0600",
"value" : {
"name" : "FTBFConfig_v107",
"assigned" : "2017-12-13T10:27:02.003-0600"
}
},
{
"event" : "addConfiguration",
"timestamp" : "2018-02-01T21:14:25.551-0600",
"value" : {
"name" : "FTBFConfig_v108",
"assigned" : "2018-02-01T21:14:25.551-0600"
}
},
{
"event" : "addConfiguration",
"timestamp" : "2018-02-01T21:21:02.683-0600",
"value" : {
"name" : "FTBFConfig_v109",
"assigned" : "2018-02-01T21:21:02.683-0600"
}
},
{
"event" : "addConfiguration",
"timestamp" : "2018-02-02T11:25:33.647-0600",
"value" : {
"name" : "FTBFConfig_v110",
"assigned" : "2018-02-02T11:25:33.647-0600"
}
},
{
"event" : "addConfiguration",
"timestamp" : "2018-02-02T11:37:12.464-0600",
"value" : {
"name" : "FTBFConfig_v111",
"assigned" : "2018-02-02T11:37:12.464-0600"
}
},
{
"event" : "addConfiguration",
"timestamp" : "2018-02-02T11:47:14.969-0600",
"value" : {
"name" : "FTBFConfig_v112",
"assigned" : "2018-02-02T11:47:14.969-0600"
}
},
{
"event" : "addConfiguration",
"timestamp" : "2018-02-02T11:53:36.219-0600",
"value" : {
"name" : "FTBFConfig_v113",
"assigned" : "2018-02-02T11:53:36.218-0600"
}
},
{
"event" : "addConfiguration",
"timestamp" : "2018-02-02T12:00:52.318-0600",
"value" : {
"name" : "FTBFConfig_v114",
"assigned" : "2018-02-02T12:00:52.318-0600"
}
},
{
"event" : "addConfiguration",
"timestamp" : "2018-02-02T12:27:13.792-0600",
"value" : {
"name" : "FTBFConfig_v115",
"assigned" : "2018-02-02T12:27:13.792-0600"
}
},
{
"event" : "addConfiguration",
"timestamp" : "2018-02-02T14:28:53.315-0600",
"value" : {
"name" : "FTBFConfig_v116",
"assigned" : "2018-02-02T14:28:53.315-0600"
}
},
{
"event" : "addConfiguration",
"timestamp" : "2018-02-02T14:30:19.653-0600",
"value" : {
"name" : "FTBFConfig_v117",
"assigned" : "2018-02-02T14:30:19.652-0600"
}
},
{
"event" : "addConfiguration",
"timestamp" : "2018-02-02T14:34:00.918-0600",
"value" : {
"name" : "FTBFConfig_v118",
"assigned" : "2018-02-02T14:34:00.918-0600"
}
},
{
"event" : "addConfiguration",
"timestamp" : "2018-02-02T14:36:27.515-0600",
"value" : {
"name" : "FTBFConfig_v119",
"assigned" : "2018-02-02T14:36:27.515-0600"
}
},
{
"event" : "addConfiguration",
"timestamp" : "2018-02-02T14:38:40.852-0600",
"value" : {
"name" : "FTBFConfig_v120",
"assigned" : "2018-02-02T14:38:40.852-0600"
}
},
{
"event" : "addConfiguration",
"timestamp" : "2018-02-02T14:41:50.166-0600",
"value" : {
"name" : "FTBFConfig_v121",
"assigned" : "2018-02-02T14:41:50.166-0600"
}
},
{
"event" : "addConfiguration",
"timestamp" : "2018-02-02T14:50:24.249-0600",
"value" : {
"name" : "FTBFConfig_v122",
"assigned" : "2018-02-02T14:50:24.249-0600"
}
},
{
"event" : "addConfiguration",
"timestamp" : "2018-02-02T14:52:57.101-0600",
"value" : {
"name" : "FTBFConfig_v123",
"assigned" : "2018-02-02T14:52:57.100-0600"
}
},
{
"event" : "addConfiguration",
"timestamp" : "2018-02-02T14:59:50.419-0600",
"value" : {
"name" : "FTBFConfig_v124",
"assigned" : "2018-02-02T14:59:50.419-0600"
}
},
{
"event" : "addConfiguration",
"timestamp" : "2018-02-02T15:04:08.530-0600",
"value" : {
"name" : "FTBFConfig_v125",
"assigned" : "2018-02-02T15:04:08.529-0600"
}
},
{
"event" : "addConfiguration",
"timestamp" : "2018-02-02T15:50:11.749-0600",
"value" : {
"name" : "FTBFConfig_v126",
"assigned" : "2018-02-02T15:50:11.749-0600"
}
},
{
"event" : "addConfiguration",
"timestamp" : "2018-02-02T15:51:31.226-0600",
"value" : {
"name" : "FTBFConfig_v127",
"assigned" : "2018-02-02T15:51:31.226-0600"
}
},
{
"event" : "addConfiguration",
"timestamp" : "2018-02-02T15:52:36.385-0600",
"value" : {
"name" : "FTBFConfig_v128",
"assigned" : "2018-02-02T15:52:36.385-0600"
}
},
{
"event" : "addConfiguration",
"timestamp" : "2018-02-02T16:02:45.289-0600",
"value" : {
"name" : "FTBFConfig_v129",
"assigned" : "2018-02-02T16:02:45.288-0600"
}
},
{
"event" : "addConfiguration",
"timestamp" : "2018-02-02T16:08:44.828-0600",
"value" : {
"name" : "FTBFConfig_v130",
"assigned" : "2018-02-02T16:08:44.828-0600"
}
},
{
"event" : "addConfiguration",
"timestamp" : "2018-02-02T16:11:30.679-0600",
"value" : {
"name" : "FTBFConfig_v131",
"assigned" : "2018-02-02T16:11:30.678-0600"
}
},
{
"event" : "addConfiguration",
"timestamp" : "2018-02-02T16:12:58.539-0600",
"value" : {
"name" : "FTBFConfig_v132",
"assigned" : "2018-02-02T16:12:58.539-0600"
}
},
{
"event" : "addConfiguration",
"timestamp" : "2018-02-02T16:14:29.129-0600",
"value" : {
"name" : "FTBFConfig_v133",
"assigned" : "2018-02-02T16:14:29.129-0600"
}
},
{
"event" : "addConfiguration",
"timestamp" : "2018-02-02T16:26:22.035-0600",
"value" : {
"name" : "FTBFConfig_v134",
"assigned" : "2018-02-02T16:26:22.035-0600"
}
},
{
"event" : "addConfiguration",
"timestamp" : "2018-02-02T16:27:09.145-0600",
"value" : {
"name" : "FTBFConfig_v135",
"assigned" : "2018-02-02T16:27:09.145-0600"
}
},
{
"event" : "addConfiguration",
"timestamp" : "2018-02-02T16:29:30.504-0600",
"value" : {
"name" : "FTBFConfig_v136",
"assigned" : "2018-02-02T16:29:30.503-0600"
}
},
{
"event" : "addConfiguration",
"timestamp" : "2018-02-02T16:31:41.106-0600",
"value" : {
"name" : "FTBFConfig_v137",
"assigned" : "2018-02-02T16:31:41.106-0600"
}
},
{
"event" : "addConfiguration",
"timestamp" : "2018-02-02T16:34:13.776-0600",
"value" : {
"name" : "FTBFConfig_v138",
"assigned" : "2018-02-02T16:34:13.776-0600"
}
},
{
"event" : "addConfiguration",
"timestamp" : "2018-02-02T17:39:29.824-0600",
"value" : {
"name" : "FTBFConfig_v139",
"assigned" : "2018-02-02T17:39:29.824-0600"
}
},
{
"event" : "addConfiguration",
"timestamp" : "2018-02-02T17:42:52.006-0600",
"value" : {
"name" : "FTBFConfig_v140",
"assigned" : "2018-02-02T17:42:52.006-0600"
}
},
{
"event" : "addConfiguration",
"timestamp" : "2018-02-02T17:47:37.185-0600",
"value" : {
"name" : "FTBFConfig_v141",
"assigned" : "2018-02-02T17:47:37.185-0600"
}
},
{
"event" : "addConfiguration",
"timestamp" : "2018-02-02T17:54:01.208-0600",
"value" : {
"name" : "FTBFConfig_v142",
"assigned" : "2018-02-02T17:54:01.208-0600"
}
}
],
"created" : "2017-11-15T12:45:59.367-0600"
},
"_id" : {
"$oid" : "b1709338ba384902ac60b161"
},
"collection" : "DataManagerConfiguration",
"aliases" : {
"active" : [

],
"history" : [

]
},
"runs" : [

],
"attachments" : [

],
"configtype" : "notprovided"
}