{
"document" : {
"data" : {
"NAME" : "DATA_MANAGER_CONFIGURATION",
"COMMENT" : "Data Buffer top-level records.",
"AUTHOR" : "admin",
"CREATION_TIME" : 1509718136,
"COL_TYPES" : {
"DATA_MANAGER_GROUP_ID" : "VARCHAR2",
"DATA_BUFFER_UID" : "VARCHAR2",
"LINK_TO_DATA_BUFFER_CONFIGURATION" : "VARCHAR2",
"LINK_TO_DATA_BUFFER_GROUP_ID" : "VARCHAR2",
"STATUS" : "VARCHAR2",
"COMMENT_DESCRIPTION" : "VARCHAR2",
"AUTHOR" : "VARCHAR2",
"RECORD_INSERTION_TIME" : "TIMESTAMP WITH TIMEZONE"
},
"DATA_SET" : [
{
"DATA_MANAGER_GROUP_ID" : "DMVisualizerGroup0",
"DATA_BUFFER_UID" : "DB1",
"LINK_TO_DATA_BUFFER_CONFIGURATION" : "DataBufferConfiguration",
"LINK_TO_DATA_BUFFER_GROUP_ID" : "DBGroup1",
"STATUS" : "On",
"COMMENT_DESCRIPTION" : "No Comment",
"AUTHOR" : "admin",
"RECORD_INSERTION_TIME" : "1509718136"
},
{
"DATA_MANAGER_GROUP_ID" : "DMGroup0 | ARTDAQDMGroup0",
"DATA_BUFFER_UID" : "readerDB0",
"LINK_TO_DATA_BUFFER_CONFIGURATION" : "DataBufferConfiguration",
"LINK_TO_DATA_BUFFER_GROUP_ID" : "reader0DBGroup",
"STATUS" : "On",
"COMMENT_DESCRIPTION" : "No Comment",
"AUTHOR" : "admin",
"RECORD_INSERTION_TIME" : "1509718136"
},
{
"DATA_MANAGER_GROUP_ID" : "DataManagerSupervisorFSSR0",
"DATA_BUFFER_UID" : "FSSR0_DataBuffer0",
"LINK_TO_DATA_BUFFER_CONFIGURATION" : "DataBufferConfiguration",
"LINK_TO_DATA_BUFFER_GROUP_ID" : "FSSR0_DataBuffer0",
"STATUS" : "On",
"COMMENT_DESCRIPTION" : "DEFAULT",
"AUTHOR" : "admin",
"RECORD_INSERTION_TIME" : "1509718136"
},
{
"DATA_MANAGER_GROUP_ID" : "DataManagerSupervisorFSSR1",
"DATA_BUFFER_UID" : "FSSR1_DataBuffer0",
"LINK_TO_DATA_BUFFER_CONFIGURATION" : "DataBufferConfiguration",
"LINK_TO_DATA_BUFFER_GROUP_ID" : "FSSR1_DataBuffer0",
"STATUS" : "On",
"COMMENT_DESCRIPTION" : "DEFAULT",
"AUTHOR" : "admin",
"RECORD_INSERTION_TIME" : "1509718136"
},
{
"DATA_MANAGER_GROUP_ID" : "DataManagerSupervisorFSSR2",
"DATA_BUFFER_UID" : "FSSR2_DataBuffer0",
"LINK_TO_DATA_BUFFER_CONFIGURATION" : "DataBufferConfiguration",
"LINK_TO_DATA_BUFFER_GROUP_ID" : "FSSR2_DataBuffer0",
"STATUS" : "On",
"COMMENT_DESCRIPTION" : "DEFAULT",
"AUTHOR" : "admin",
"RECORD_INSERTION_TIME" : "1509718136"
},
{
"DATA_MANAGER_GROUP_ID" : "DataManagerSupervisorFSSR3",
"DATA_BUFFER_UID" : "FSSR3_DataBuffer0",
"LINK_TO_DATA_BUFFER_CONFIGURATION" : "DataBufferConfiguration",
"LINK_TO_DATA_BUFFER_GROUP_ID" : "FSSR3_DataBuffer0",
"STATUS" : "On",
"COMMENT_DESCRIPTION" : "DEFAULT",
"AUTHOR" : "admin",
"RECORD_INSERTION_TIME" : "1509718136"
},
{
"DATA_MANAGER_GROUP_ID" : "DataManagerSupervisorNIMPlus0",
"DATA_BUFFER_UID" : "NIMPlus0_DataBuffer0",
"LINK_TO_DATA_BUFFER_CONFIGURATION" : "DataBufferConfiguration",
"LINK_TO_DATA_BUFFER_GROUP_ID" : "NIMPlus0_DataBuffer0",
"STATUS" : "On",
"COMMENT_DESCRIPTION" : "No Comment",
"AUTHOR" : "admin",
"RECORD_INSERTION_TIME" : "1509718136"
},
{
"DATA_MANAGER_GROUP_ID" : "VisualDataManager",
"DATA_BUFFER_UID" : "VisualBuffer",
"LINK_TO_DATA_BUFFER_CONFIGURATION" : "DataBufferConfiguration",
"LINK_TO_DATA_BUFFER_GROUP_ID" : "VisualBuffer",
"STATUS" : "On",
"COMMENT_DESCRIPTION" : "DEFAULT",
"AUTHOR" : "admin",
"RECORD_INSERTION_TIME" : "1509718136"
}
]
},
"metadata" : {

},
"search" : [

]
},
"comments" : [

],
"origin" : {
"source" : "template",
"name" : "notprovided",
"format" : "json",
"created" : "2017-11-08T15:56:03.443-0600",
"rawdata" : [

]
},
"version" : "0",
"entities" : [
{
"name" : "OTSROOT",
"assigned" : "2017-11-08T15:56:03.445-0600"
}
],
"configurations" : [
{
"name" : "notprovided",
"assigned" : "2017-11-08T15:56:03.444-0600"
},
{
"name" : "FTBFConfig_v0",
"assigned" : "2017-11-08T15:56:06.224-0600"
},
{
"name" : "FTBFConfig_v1",
"assigned" : "2017-11-09T09:56:30.996-0600"
},
{
"name" : "FTBFConfig_v2",
"assigned" : "2017-11-09T10:05:59.969-0600"
},
{
"name" : "FTBFConfig_v3",
"assigned" : "2017-11-09T10:37:11.537-0600"
},
{
"name" : "FTBFConfig_v4",
"assigned" : "2017-11-15T11:30:10.352-0600"
},
{
"name" : "FTBFConfig_v5",
"assigned" : "2017-11-15T11:54:57.174-0600"
},
{
"name" : "FTBFConfig_v6",
"assigned" : "2017-11-15T11:57:49.795-0600"
},
{
"name" : "FTBFConfig_v7",
"assigned" : "2017-11-15T12:42:32.204-0600"
},
{
"name" : "FTBFConfig_v8",
"assigned" : "2017-11-15T13:01:03.285-0600"
},
{
"name" : "FTBFConfig_v9",
"assigned" : "2017-11-15T13:02:56.619-0600"
},
{
"name" : "FTBFConfig_v10",
"assigned" : "2017-11-15T13:04:24.198-0600"
},
{
"name" : "FTBFConfig_v11",
"assigned" : "2017-11-15T13:07:51.704-0600"
},
{
"name" : "FTBFConfig_v12",
"assigned" : "2017-11-15T13:11:59.164-0600"
},
{
"name" : "FTBFConfig_v13",
"assigned" : "2017-11-15T13:13:53.104-0600"
},
{
"name" : "FTBFConfig_v14",
"assigned" : "2017-11-15T13:27:29.760-0600"
},
{
"name" : "FTBFConfig_v15",
"assigned" : "2017-11-15T13:35:47.113-0600"
},
{
"name" : "FTBFConfig_v16",
"assigned" : "2017-11-15T13:36:51.725-0600"
},
{
"name" : "FTBFConfig_v17",
"assigned" : "2017-11-15T15:33:30.268-0600"
}
],
"changelog" : "notprovided",
"bookkeeping" : {
"isdeleted" : false,
"isreadonly" : false,
"updates" : [
{
"event" : "addConfiguration",
"timestamp" : "2017-11-08T15:56:03.444-0600",
"value" : {
"name" : "notprovided",
"assigned" : "2017-11-08T15:56:03.444-0600"
}
},
{
"event" : "setVersion",
"timestamp" : "2017-11-08T15:56:03.445-0600",
"value" : {
"name" : "0",
"assigned" : "2017-11-08T15:56:03.445-0600"
}
},
{
"event" : "setCollection",
"timestamp" : "2017-11-08T15:56:03.445-0600",
"value" : {
"name" : "DataManagerConfiguration",
"assigned" : "2017-11-08T15:56:03.445-0600"
}
},
{
"event" : "addEntity",
"timestamp" : "2017-11-08T15:56:03.446-0600",
"value" : {
"name" : "OTSROOT",
"assigned" : "2017-11-08T15:56:03.445-0600"
}
},
{
"event" : "addConfiguration",
"timestamp" : "2017-11-08T15:56:06.224-0600",
"value" : {
"name" : "FTBFConfig_v0",
"assigned" : "2017-11-08T15:56:06.224-0600"
}
},
{
"event" : "addConfiguration",
"timestamp" : "2017-11-09T09:56:30.996-0600",
"value" : {
"name" : "FTBFConfig_v1",
"assigned" : "2017-11-09T09:56:30.996-0600"
}
},
{
"event" : "addConfiguration",
"timestamp" : "2017-11-09T10:05:59.969-0600",
"value" : {
"name" : "FTBFConfig_v2",
"assigned" : "2017-11-09T10:05:59.969-0600"
}
},
{
"event" : "addConfiguration",
"timestamp" : "2017-11-09T10:37:11.537-0600",
"value" : {
"name" : "FTBFConfig_v3",
"assigned" : "2017-11-09T10:37:11.537-0600"
}
},
{
"event" : "addConfiguration",
"timestamp" : "2017-11-15T11:30:10.352-0600",
"value" : {
"name" : "FTBFConfig_v4",
"assigned" : "2017-11-15T11:30:10.352-0600"
}
},
{
"event" : "addConfiguration",
"timestamp" : "2017-11-15T11:54:57.174-0600",
"value" : {
"name" : "FTBFConfig_v5",
"assigned" : "2017-11-15T11:54:57.174-0600"
}
},
{
"event" : "addConfiguration",
"timestamp" : "2017-11-15T11:57:49.795-0600",
"value" : {
"name" : "FTBFConfig_v6",
"assigned" : "2017-11-15T11:57:49.795-0600"
}
},
{
"event" : "addConfiguration",
"timestamp" : "2017-11-15T12:42:32.204-0600",
"value" : {
"name" : "FTBFConfig_v7",
"assigned" : "2017-11-15T12:42:32.204-0600"
}
},
{
"event" : "addConfiguration",
"timestamp" : "2017-11-15T13:01:03.285-0600",
"value" : {
"name" : "FTBFConfig_v8",
"assigned" : "2017-11-15T13:01:03.285-0600"
}
},
{
"event" : "addConfiguration",
"timestamp" : "2017-11-15T13:02:56.619-0600",
"value" : {
"name" : "FTBFConfig_v9",
"assigned" : "2017-11-15T13:02:56.619-0600"
}
},
{
"event" : "addConfiguration",
"timestamp" : "2017-11-15T13:04:24.198-0600",
"value" : {
"name" : "FTBFConfig_v10",
"assigned" : "2017-11-15T13:04:24.198-0600"
}
},
{
"event" : "addConfiguration",
"timestamp" : "2017-11-15T13:07:51.704-0600",
"value" : {
"name" : "FTBFConfig_v11",
"assigned" : "2017-11-15T13:07:51.704-0600"
}
},
{
"event" : "addConfiguration",
"timestamp" : "2017-11-15T13:11:59.164-0600",
"value" : {
"name" : "FTBFConfig_v12",
"assigned" : "2017-11-15T13:11:59.164-0600"
}
},
{
"event" : "addConfiguration",
"timestamp" : "2017-11-15T13:13:53.105-0600",
"value" : {
"name" : "FTBFConfig_v13",
"assigned" : "2017-11-15T13:13:53.104-0600"
}
},
{
"event" : "addConfiguration",
"timestamp" : "2017-11-15T13:27:29.760-0600",
"value" : {
"name" : "FTBFConfig_v14",
"assigned" : "2017-11-15T13:27:29.760-0600"
}
},
{
"event" : "addConfiguration",
"timestamp" : "2017-11-15T13:35:47.113-0600",
"value" : {
"name" : "FTBFConfig_v15",
"assigned" : "2017-11-15T13:35:47.113-0600"
}
},
{
"event" : "addConfiguration",
"timestamp" : "2017-11-15T13:36:51.726-0600",
"value" : {
"name" : "FTBFConfig_v16",
"assigned" : "2017-11-15T13:36:51.725-0600"
}
},
{
"event" : "addConfiguration",
"timestamp" : "2017-11-15T15:33:30.268-0600",
"value" : {
"name" : "FTBFConfig_v17",
"assigned" : "2017-11-15T15:33:30.268-0600"
}
}
],
"created" : "2017-11-08T15:56:03.443-0600"
},
"_id" : {
"$oid" : "d6fbd5b873cc4883950df7f4"
},
"collection" : "DataManagerConfiguration",
"aliases" : {
"active" : [

],
"history" : [

]
},
"runs" : [

],
"attachments" : [

],
"configtype" : "notprovided"
}