{
"ouid" : [
"2558374dc67e43ee9378cd43",
"29c1808ad3104d4bb664b7e2",
"2dba22522f0f40a286826f6c",
"36792b54d1094c198c5abcd4",
"42bf946f87ed4857a4382c46",
"44c2161f408348e79890e86b",
"6319fb5dfe8d46fba0160733",
"7bf042d4b92f402ca2b5935e",
"882cc7e03cb842c2a507b589",
"8a57171e7e914c338ce008cc",
"906c23a6931244e08657169d",
"986aba66b09342beb0067825",
"bd57d5bfe8ea44a28804dd63",
"d04bad4a2a3b42049f13ba19",
"e527dc0623c54cd1a8785180",
"f53eb0667f8b40b3877d3b79",
"fbc1683730a5496d950da890"
],
"version" : {
"0" : [
"986aba66b09342beb0067825"
],
"1" : [
"44c2161f408348e79890e86b"
],
"2" : [
"7bf042d4b92f402ca2b5935e"
],
"3" : [
"29c1808ad3104d4bb664b7e2"
],
"4" : [
"906c23a6931244e08657169d"
],
"5" : [
"f53eb0667f8b40b3877d3b79"
],
"6" : [
"42bf946f87ed4857a4382c46"
],
"7" : [
"2dba22522f0f40a286826f6c"
],
"8" : [
"bd57d5bfe8ea44a28804dd63"
],
"9" : [
"d04bad4a2a3b42049f13ba19"
],
"10" : [
"2558374dc67e43ee9378cd43"
],
"11" : [
"fbc1683730a5496d950da890"
],
"12" : [
"8a57171e7e914c338ce008cc"
],
"13" : [
"e527dc0623c54cd1a8785180"
],
"14" : [
"882cc7e03cb842c2a507b589"
],
"15" : [
"6319fb5dfe8d46fba0160733"
],
"16" : [
"36792b54d1094c198c5abcd4"
]
},
"configurations.name" : {
"notprovided" : [
"2558374dc67e43ee9378cd43",
"29c1808ad3104d4bb664b7e2",
"2dba22522f0f40a286826f6c",
"36792b54d1094c198c5abcd4",
"42bf946f87ed4857a4382c46",
"44c2161f408348e79890e86b",
"6319fb5dfe8d46fba0160733",
"7bf042d4b92f402ca2b5935e",
"882cc7e03cb842c2a507b589",
"8a57171e7e914c338ce008cc",
"906c23a6931244e08657169d",
"986aba66b09342beb0067825",
"bd57d5bfe8ea44a28804dd63",
"d04bad4a2a3b42049f13ba19",
"e527dc0623c54cd1a8785180",
"f53eb0667f8b40b3877d3b79",
"fbc1683730a5496d950da890"
],
"iterateDefaultGroup_v0" : [
"986aba66b09342beb0067825"
],
"iterateDefaultGroup_v1" : [
"44c2161f408348e79890e86b"
],
"iterateDefaultGroup_v2" : [
"7bf042d4b92f402ca2b5935e"
],
"iterateDefaultGroup_v3" : [
"7bf042d4b92f402ca2b5935e"
],
"iterateDefaultGroup_v4" : [
"7bf042d4b92f402ca2b5935e"
],
"iterateDefaultGroup_v5" : [
"7bf042d4b92f402ca2b5935e"
],
"iterateDefaultGroup_v6" : [
"7bf042d4b92f402ca2b5935e"
],
"iterateDefaultGroup_v7" : [
"7bf042d4b92f402ca2b5935e"
],
"iterateDefaultGroup_v8" : [
"7bf042d4b92f402ca2b5935e"
],
"iterateDefaultGroup_v9" : [
"7bf042d4b92f402ca2b5935e"
],
"iterateDefaultGroup_v10" : [
"29c1808ad3104d4bb664b7e2"
],
"iterateDefaultGroup_v11" : [
"906c23a6931244e08657169d"
],
"iterateDefaultGroup_v12" : [
"906c23a6931244e08657169d"
],
"iterateDefaultGroup_v13" : [
"f53eb0667f8b40b3877d3b79"
],
"iterateDefaultGroup_v14" : [
"f53eb0667f8b40b3877d3b79"
],
"iterateDefaultGroup_v15" : [
"42bf946f87ed4857a4382c46"
],
"iterateDefaultGroup_v16" : [
"42bf946f87ed4857a4382c46"
],
"iterateDefaultGroup_v17" : [
"2dba22522f0f40a286826f6c"
],
"iterateDefaultGroup_v18" : [
"bd57d5bfe8ea44a28804dd63"
],
"iterateDefaultGroup_v19" : [
"bd57d5bfe8ea44a28804dd63"
],
"iterateDefaultGroup_v20" : [
"d04bad4a2a3b42049f13ba19"
],
"iterateDefaultGroup_v21" : [
"2558374dc67e43ee9378cd43"
],
"iterateDefaultGroup_v22" : [
"2558374dc67e43ee9378cd43"
],
"iterateDefaultGroup_v23" : [
"fbc1683730a5496d950da890"
],
"iterateDefaultGroup_v24" : [
"8a57171e7e914c338ce008cc"
],
"iterateDefaultGroup_v25" : [
"e527dc0623c54cd1a8785180"
],
"iterateDefaultGroup_v26" : [
"882cc7e03cb842c2a507b589"
],
"iterateDefaultGroup_v27" : [
"6319fb5dfe8d46fba0160733"
],
"iterateDefaultGroup_v28" : [
"6319fb5dfe8d46fba0160733"
],
"iterateDefaultGroup_v29" : [
"e527dc0623c54cd1a8785180"
],
"iterateDefaultGroup_v30" : [
"36792b54d1094c198c5abcd4"
],
"iterateDefaultGroup_v31" : [
"36792b54d1094c198c5abcd4"
]
},
"entities.name" : {
"OTSROOT" : [
"2558374dc67e43ee9378cd43",
"29c1808ad3104d4bb664b7e2",
"2dba22522f0f40a286826f6c",
"36792b54d1094c198c5abcd4",
"42bf946f87ed4857a4382c46",
"44c2161f408348e79890e86b",
"6319fb5dfe8d46fba0160733",
"7bf042d4b92f402ca2b5935e",
"882cc7e03cb842c2a507b589",
"8a57171e7e914c338ce008cc",
"906c23a6931244e08657169d",
"986aba66b09342beb0067825",
"bd57d5bfe8ea44a28804dd63",
"d04bad4a2a3b42049f13ba19",
"e527dc0623c54cd1a8785180",
"f53eb0667f8b40b3877d3b79",
"fbc1683730a5496d950da890"
]
},
"aliases.active.name" : {

},
"runs.name" : {

},
"configurations.assigned" : {
"notprovided" : [
"2020-07-21T14:47:39.380-0500",
"2020-07-21T15:25:07.378-0500",
"2020-07-21T15:28:03.740-0500",
"2020-07-28T13:15:24.509-0500",
"2020-07-28T13:20:56.150-0500",
"2020-08-23T09:24:33.580-0400",
"2020-08-23T09:29:13.424-0400",
"2020-08-23T09:43:05.166-0400",
"2020-08-23T10:39:30.782-0400",
"2020-08-23T12:38:25.700-0400",
"2020-09-07T07:24:25.369-0400",
"2020-09-07T07:42:46.455-0400",
"2020-09-07T08:36:20.146-0400",
"2020-09-07T08:41:05.788-0400",
"2020-09-07T10:01:45.883-0400",
"2020-09-07T10:05:32.596-0400",
"2020-09-07T10:39:24.442-0400"
],
"iterateDefaultGroup_v0" : [
"2020-07-21T14:47:39.951-0500"
],
"iterateDefaultGroup_v1" : [
"2020-07-21T15:25:08.340-0500"
],
"iterateDefaultGroup_v2" : [
"2020-07-21T15:28:04.742-0500"
],
"iterateDefaultGroup_v3" : [
"2020-07-21T15:42:21.137-0500"
],
"iterateDefaultGroup_v4" : [
"2020-07-21T15:45:04.086-0500"
],
"iterateDefaultGroup_v5" : [
"2020-07-21T15:57:34.056-0500"
],
"iterateDefaultGroup_v6" : [
"2020-07-28T10:52:35.535-0500"
],
"iterateDefaultGroup_v7" : [
"2020-07-28T13:01:37.246-0500"
],
"iterateDefaultGroup_v8" : [
"2020-07-28T13:03:27.418-0500"
],
"iterateDefaultGroup_v9" : [
"2020-07-28T13:12:58.413-0500"
],
"iterateDefaultGroup_v10" : [
"2020-07-28T13:15:25.651-0500"
],
"iterateDefaultGroup_v11" : [
"2020-07-28T13:20:57.603-0500"
],
"iterateDefaultGroup_v12" : [
"2020-07-28T13:27:38.185-0500"
],
"iterateDefaultGroup_v13" : [
"2020-08-23T09:24:34.844-0400"
],
"iterateDefaultGroup_v14" : [
"2020-08-23T09:26:43.415-0400"
],
"iterateDefaultGroup_v15" : [
"2020-08-23T09:29:14.713-0400"
],
"iterateDefaultGroup_v16" : [
"2020-08-23T09:33:18.961-0400"
],
"iterateDefaultGroup_v17" : [
"2020-08-23T09:43:06.534-0400"
],
"iterateDefaultGroup_v18" : [
"2020-08-23T10:39:32.129-0400"
],
"iterateDefaultGroup_v19" : [
"2020-08-23T11:05:09.844-0400"
],
"iterateDefaultGroup_v20" : [
"2020-08-23T12:38:27.115-0400"
],
"iterateDefaultGroup_v21" : [
"2020-09-07T07:24:27.017-0400"
],
"iterateDefaultGroup_v22" : [
"2020-09-07T07:25:08.554-0400"
],
"iterateDefaultGroup_v23" : [
"2020-09-07T07:42:48.113-0400"
],
"iterateDefaultGroup_v24" : [
"2020-09-07T08:36:21.837-0400"
],
"iterateDefaultGroup_v25" : [
"2020-09-07T08:41:07.506-0400"
],
"iterateDefaultGroup_v26" : [
"2020-09-07T10:01:47.681-0400"
],
"iterateDefaultGroup_v27" : [
"2020-09-07T10:05:34.281-0400"
],
"iterateDefaultGroup_v28" : [
"2020-09-07T10:31:12.397-0400"
],
"iterateDefaultGroup_v29" : [
"2020-09-07T10:32:32.268-0400"
],
"iterateDefaultGroup_v30" : [
"2020-09-07T10:39:26.238-0400"
],
"iterateDefaultGroup_v31" : [
"2020-09-07T10:47:20.031-0400"
]
}
}