{
"document" : {
"data" : {
"NAME" : "MESSAGE_FACILITY_TABLE",
"COMMENT" : "Defaults for web console.",
"AUTHOR" : "admin",
"CREATION_TIME" : 1504628276,
"COL_TYPES" : {
"UID" : "STRING",
"STATUS" : "STRING",
"ENABLE_UDP_FORWARDING" : "STRING",
"FORWARD_TO_WEB_CONSOLE_GUI" : "STRING",
"WEB_CONSOLE_FORWARDING_IP_ADDRESS" : "STRING",
"WEB_CONSOLE_FORWARDING_PORT0" : "NUMBER",
"WEB_CONSOLE_FORWARDING_PORT1" : "NUMBER",
"FORWARD_TO_QT_VIEWER_GUI" : "STRING",
"QT_VIEWER_FORWARDING_IP_ADDRESS" : "STRING",
"QT_VIEWER_FORWARDING_PORT" : "NUMBER",
"COMMENT_DESCRIPTION" : "STRING",
"AUTHOR" : "STRING",
"RECORD_INSERTION_TIME" : "TIMESTAMP WITH TIMEZONE"
},
"DATA_SET" : [
{
"UID" : "MF_Entry",
"STATUS" : "On",
"ENABLE_UDP_FORWARDING" : "True",
"FORWARD_TO_WEB_CONSOLE_GUI" : "Yes",
"WEB_CONSOLE_FORWARDING_IP_ADDRESS" : "127.0.0.1",
"WEB_CONSOLE_FORWARDING_PORT0" : "30000",
"WEB_CONSOLE_FORWARDING_PORT1" : "30001",
"FORWARD_TO_QT_VIEWER_GUI" : "No",
"QT_VIEWER_FORWARDING_IP_ADDRESS" : "127.0.0.1",
"QT_VIEWER_FORWARDING_PORT" : "30000",
"COMMENT_DESCRIPTION" : "defaults with web console and no QT viewer",
"AUTHOR" : "admin",
"RECORD_INSERTION_TIME" : "1504628276"
}
]
},
"metadata" : {

},
"search" : [

]
},
"comments" : [

],
"origin" : {
"source" : "template",
"name" : "notprovided",
"format" : "json",
"created" : "2020-07-21T14:27:47.318-0500",
"rawdata" : [

]
},
"version" : "2",
"entities" : [
{
"name" : "OTSROOT",
"assigned" : "2020-07-21T14:27:47.319-0500"
}
],
"configurations" : [
{
"name" : "notprovided",
"assigned" : "2020-07-21T14:27:47.318-0500"
},
{
"name" : "DefaultContext_v2",
"assigned" : "2020-07-21T14:27:47.705-0500"
},
{
"name" : "DefaultContext_v3",
"assigned" : "2020-07-21T14:42:50.450-0500"
},
{
"name" : "DefaultContext_v4",
"assigned" : "2020-07-21T14:46:44.331-0500"
},
{
"name" : "DefaultContext_v5",
"assigned" : "2020-07-21T14:51:16.617-0500"
},
{
"name" : "DefaultContext_v6",
"assigned" : "2020-07-21T14:55:16.932-0500"
},
{
"name" : "DefaultContext_v7",
"assigned" : "2020-07-21T14:55:56.944-0500"
},
{
"name" : "DefaultContext_v8",
"assigned" : "2020-07-21T15:50:01.301-0500"
},
{
"name" : "DefaultContext_v9",
"assigned" : "2020-08-23T13:00:05.917-0400"
},
{
"name" : "DefaultContext_v10",
"assigned" : "2020-08-26T07:36:02.967-0400"
},
{
"name" : "DefaultContext_v11",
"assigned" : "2020-08-26T07:36:45.240-0400"
},
{
"name" : "DefaultContext_v12",
"assigned" : "2020-08-26T07:41:34.884-0400"
},
{
"name" : "DefaultContext_v13",
"assigned" : "2020-08-26T07:49:46.436-0400"
},
{
"name" : "DefaultContext_v14",
"assigned" : "2020-08-26T07:52:48.548-0400"
},
{
"name" : "DefaultContext_v15",
"assigned" : "2020-09-07T08:30:59.430-0400"
},
{
"name" : "DefaultContext_v16",
"assigned" : "2020-09-07T08:42:41.034-0400"
},
{
"name" : "DefaultContext_v17",
"assigned" : "2020-09-07T08:52:41.464-0400"
},
{
"name" : "DefaultContext_v18",
"assigned" : "2020-09-07T09:05:05.399-0400"
}
],
"changelog" : "notprovided",
"bookkeeping" : {
"isdeleted" : false,
"isreadonly" : false,
"updates" : [
{
"event" : "addConfiguration",
"timestamp" : "2020-07-21T14:27:47.318-0500",
"value" : {
"name" : "notprovided",
"assigned" : "2020-07-21T14:27:47.318-0500"
}
},
{
"event" : "setVersion",
"timestamp" : "2020-07-21T14:27:47.318-0500",
"value" : {
"name" : "2",
"assigned" : "2020-07-21T14:27:47.319-0500"
}
},
{
"event" : "setCollection",
"timestamp" : "2020-07-21T14:27:47.319-0500",
"value" : {
"name" : "MessageFacilityTable",
"assigned" : "2020-07-21T14:27:47.319-0500"
}
},
{
"event" : "addEntity",
"timestamp" : "2020-07-21T14:27:47.319-0500",
"value" : {
"name" : "OTSROOT",
"assigned" : "2020-07-21T14:27:47.319-0500"
}
},
{
"event" : "addConfiguration",
"timestamp" : "2020-07-21T14:27:47.706-0500",
"value" : {
"name" : "DefaultContext_v2",
"assigned" : "2020-07-21T14:27:47.705-0500"
}
},
{
"event" : "addConfiguration",
"timestamp" : "2020-07-21T14:42:50.450-0500",
"value" : {
"name" : "DefaultContext_v3",
"assigned" : "2020-07-21T14:42:50.450-0500"
}
},
{
"event" : "addConfiguration",
"timestamp" : "2020-07-21T14:46:44.331-0500",
"value" : {
"name" : "DefaultContext_v4",
"assigned" : "2020-07-21T14:46:44.331-0500"
}
},
{
"event" : "addConfiguration",
"timestamp" : "2020-07-21T14:51:16.617-0500",
"value" : {
"name" : "DefaultContext_v5",
"assigned" : "2020-07-21T14:51:16.617-0500"
}
},
{
"event" : "addConfiguration",
"timestamp" : "2020-07-21T14:55:16.932-0500",
"value" : {
"name" : "DefaultContext_v6",
"assigned" : "2020-07-21T14:55:16.932-0500"
}
},
{
"event" : "addConfiguration",
"timestamp" : "2020-07-21T14:55:56.944-0500",
"value" : {
"name" : "DefaultContext_v7",
"assigned" : "2020-07-21T14:55:56.944-0500"
}
},
{
"event" : "addConfiguration",
"timestamp" : "2020-07-21T15:50:01.301-0500",
"value" : {
"name" : "DefaultContext_v8",
"assigned" : "2020-07-21T15:50:01.301-0500"
}
},
{
"event" : "addConfiguration",
"timestamp" : "2020-08-23T13:00:05.917-0400",
"value" : {
"name" : "DefaultContext_v9",
"assigned" : "2020-08-23T13:00:05.917-0400"
}
},
{
"event" : "addConfiguration",
"timestamp" : "2020-08-26T07:36:02.967-0400",
"value" : {
"name" : "DefaultContext_v10",
"assigned" : "2020-08-26T07:36:02.967-0400"
}
},
{
"event" : "addConfiguration",
"timestamp" : "2020-08-26T07:36:45.240-0400",
"value" : {
"name" : "DefaultContext_v11",
"assigned" : "2020-08-26T07:36:45.240-0400"
}
},
{
"event" : "addConfiguration",
"timestamp" : "2020-08-26T07:41:34.884-0400",
"value" : {
"name" : "DefaultContext_v12",
"assigned" : "2020-08-26T07:41:34.884-0400"
}
},
{
"event" : "addConfiguration",
"timestamp" : "2020-08-26T07:49:46.436-0400",
"value" : {
"name" : "DefaultContext_v13",
"assigned" : "2020-08-26T07:49:46.436-0400"
}
},
{
"event" : "addConfiguration",
"timestamp" : "2020-08-26T07:52:48.548-0400",
"value" : {
"name" : "DefaultContext_v14",
"assigned" : "2020-08-26T07:52:48.548-0400"
}
},
{
"event" : "addConfiguration",
"timestamp" : "2020-09-07T08:30:59.430-0400",
"value" : {
"name" : "DefaultContext_v15",
"assigned" : "2020-09-07T08:30:59.430-0400"
}
},
{
"event" : "addConfiguration",
"timestamp" : "2020-09-07T08:42:41.034-0400",
"value" : {
"name" : "DefaultContext_v16",
"assigned" : "2020-09-07T08:42:41.034-0400"
}
},
{
"event" : "addConfiguration",
"timestamp" : "2020-09-07T08:52:41.464-0400",
"value" : {
"name" : "DefaultContext_v17",
"assigned" : "2020-09-07T08:52:41.464-0400"
}
},
{
"event" : "addConfiguration",
"timestamp" : "2020-09-07T09:05:05.399-0400",
"value" : {
"name" : "DefaultContext_v18",
"assigned" : "2020-09-07T09:05:05.399-0400"
}
}
],
"created" : "2020-07-21T14:27:47.318-0500"
},
"_id" : {
"$oid" : "e721bf94839f466b8e3ad76e"
},
"collection" : "MessageFacilityTable",
"aliases" : {
"active" : [

],
"history" : [

]
},
"runs" : [

],
"attachments" : [

],
"configtype" : "notprovided"
}