{
"document" : {
"data" : {
"NAME" : "FE_INTERFACE_TABLE",
"COMMENT" : "FE interfaces top level.",
"AUTHOR" : "admin",
"CREATION_TIME" : 1599489113,
"COL_TYPES" : {
"FE_INTERFACE_GROUP_ID" : "STRING",
"FE_INTERFACE_UID" : "STRING",
"STATUS" : "STRING",
"FE_INTERFACE_PLUGIN_NAME" : "STRING",
"LINK_TO_FE_TYPE_TABLE" : "STRING",
"LINK_TO_FE_TYPE_UID" : "STRING",
"LINK_TO_SLOW_CONTROLS_CHANNEL_TABLE" : "STRING",
"LINK_TO_SLOW_CONTROLS_CHANNEL_GROUP_ID" : "STRING",
"LINK_TO_SLOW_CONTROLS_SUPERVISOR_TABLE" : "STRING",
"LINK_TO_SLOW_CONTROLS_SUPERVISOR_UID" : "STRING",
"SLOW_CONTROLS_TX_SOCKET_IP_ADDRESS" : "STRING",
"SLOW_CONTROLS_TX_SOCKET_PORT" : "NUMBER",
"SLOW_CONTROLS_LOCAL_AGGREGATE_SAVING_ENABLED" : "STRING",
"SLOW_CONTROLS_LOCAL_FILE_PATH" : "STRING",
"SLOW_CONTROLS_RADIX_FILE_NAME" : "STRING",
"SLOW_CONTROLS_SAVE_BINARY_FILE" : "STRING",
"COMMENT_DESCRIPTION" : "STRING",
"AUTHOR" : "STRING",
"RECORD_INSERTION_TIME" : "TIMESTAMP WITH TIMEZONE"
},
"DATA_SET" : [
{
"FE_INTERFACE_GROUP_ID" : "HistoMakerFESupervisor0",
"FE_INTERFACE_UID" : "HistoMakerFEInterface0",
"STATUS" : "On",
"FE_INTERFACE_PLUGIN_NAME" : "FEHistoMakerInterface",
"LINK_TO_FE_TYPE_TABLE" : "FEHistoMakerInterfaceTable",
"LINK_TO_FE_TYPE_UID" : "HistoMakerFEInterface0",
"LINK_TO_SLOW_CONTROLS_CHANNEL_TABLE" : "NO_LINK",
"LINK_TO_SLOW_CONTROLS_CHANNEL_GROUP_ID" : "DEFAULT",
"LINK_TO_SLOW_CONTROLS_SUPERVISOR_TABLE" : "NO_LINK",
"LINK_TO_SLOW_CONTROLS_SUPERVISOR_UID" : "DEFAULT",
"SLOW_CONTROLS_TX_SOCKET_IP_ADDRESS" : "DEFAULT",
"SLOW_CONTROLS_TX_SOCKET_PORT" : "0",
"SLOW_CONTROLS_LOCAL_AGGREGATE_SAVING_ENABLED" : "No",
"SLOW_CONTROLS_LOCAL_FILE_PATH" : "DEFAULT",
"SLOW_CONTROLS_RADIX_FILE_NAME" : "DEFAULT",
"SLOW_CONTROLS_SAVE_BINARY_FILE" : "False",
"COMMENT_DESCRIPTION" : "No Comment",
"AUTHOR" : "admin",
"RECORD_INSERTION_TIME" : "1574284338"
},
{
"FE_INTERFACE_GROUP_ID" : "InnerTrackerFESupervisorPixelAlive",
"FE_INTERFACE_UID" : "InnerTrackerFEInterfacePixelAlive",
"STATUS" : "On",
"FE_INTERFACE_PLUGIN_NAME" : "FEMiddlewareInterface",
"LINK_TO_FE_TYPE_TABLE" : "FEMiddlewareInterfaceTable",
"LINK_TO_FE_TYPE_UID" : "InnerTrackerFEInterface0",
"LINK_TO_SLOW_CONTROLS_CHANNEL_TABLE" : "NO_LINK",
"LINK_TO_SLOW_CONTROLS_CHANNEL_GROUP_ID" : "DEFAULT",
"LINK_TO_SLOW_CONTROLS_SUPERVISOR_TABLE" : "NO_LINK",
"LINK_TO_SLOW_CONTROLS_SUPERVISOR_UID" : "DEFAULT",
"SLOW_CONTROLS_TX_SOCKET_IP_ADDRESS" : "DEFAULT",
"SLOW_CONTROLS_TX_SOCKET_PORT" : "0",
"SLOW_CONTROLS_LOCAL_AGGREGATE_SAVING_ENABLED" : "No",
"SLOW_CONTROLS_LOCAL_FILE_PATH" : "DEFAULT",
"SLOW_CONTROLS_RADIX_FILE_NAME" : "DEFAULT",
"SLOW_CONTROLS_SAVE_BINARY_FILE" : "False",
"COMMENT_DESCRIPTION" : "No Comment",
"AUTHOR" : "admin",
"RECORD_INSERTION_TIME" : "1599481482"
},
{
"FE_INTERFACE_GROUP_ID" : "InnerTrackerFESupervisorSCurve",
"FE_INTERFACE_UID" : "InnerTrackerFEInterfaceSCurve",
"STATUS" : "Off",
"FE_INTERFACE_PLUGIN_NAME" : "FEMiddlewareInterface",
"LINK_TO_FE_TYPE_TABLE" : "FEMiddlewareInterfaceTable",
"LINK_TO_FE_TYPE_UID" : "InnerTrackerFEInterfaceSCurve",
"LINK_TO_SLOW_CONTROLS_CHANNEL_TABLE" : "NO_LINK",
"LINK_TO_SLOW_CONTROLS_CHANNEL_GROUP_ID" : "DEFAULT",
"LINK_TO_SLOW_CONTROLS_SUPERVISOR_TABLE" : "NO_LINK",
"LINK_TO_SLOW_CONTROLS_SUPERVISOR_UID" : "DEFAULT",
"SLOW_CONTROLS_TX_SOCKET_IP_ADDRESS" : "DEFAULT",
"SLOW_CONTROLS_TX_SOCKET_PORT" : "0",
"SLOW_CONTROLS_LOCAL_AGGREGATE_SAVING_ENABLED" : "No",
"SLOW_CONTROLS_LOCAL_FILE_PATH" : "DEFAULT",
"SLOW_CONTROLS_RADIX_FILE_NAME" : "DEFAULT",
"SLOW_CONTROLS_SAVE_BINARY_FILE" : "False",
"COMMENT_DESCRIPTION" : "No Comment",
"AUTHOR" : "admin",
"RECORD_INSERTION_TIME" : "1599489107"
},
{
"FE_INTERFACE_GROUP_ID" : "InnerTrackerFESupervisorGain",
"FE_INTERFACE_UID" : "InnerTrackerFEInterfaceGain",
"STATUS" : "Off",
"FE_INTERFACE_PLUGIN_NAME" : "FEMiddlewareInterface",
"LINK_TO_FE_TYPE_TABLE" : "FEMiddlewareInterfaceTable",
"LINK_TO_FE_TYPE_UID" : "InnerTrackerFEInterfaceGain",
"LINK_TO_SLOW_CONTROLS_CHANNEL_TABLE" : "NO_LINK",
"LINK_TO_SLOW_CONTROLS_CHANNEL_GROUP_ID" : "DEFAULT",
"LINK_TO_SLOW_CONTROLS_SUPERVISOR_TABLE" : "NO_LINK",
"LINK_TO_SLOW_CONTROLS_SUPERVISOR_UID" : "DEFAULT",
"SLOW_CONTROLS_TX_SOCKET_IP_ADDRESS" : "DEFAULT",
"SLOW_CONTROLS_TX_SOCKET_PORT" : "0",
"SLOW_CONTROLS_LOCAL_AGGREGATE_SAVING_ENABLED" : "No",
"SLOW_CONTROLS_LOCAL_FILE_PATH" : "DEFAULT",
"SLOW_CONTROLS_RADIX_FILE_NAME" : "DEFAULT",
"SLOW_CONTROLS_SAVE_BINARY_FILE" : "False",
"COMMENT_DESCRIPTION" : "No Comment",
"AUTHOR" : "admin",
"RECORD_INSERTION_TIME" : "1599481511"
},
{
"FE_INTERFACE_GROUP_ID" : "InnerTrackerFESupervisorGainOpt",
"FE_INTERFACE_UID" : "InnerTrackerFEInterfaceGainOpt",
"STATUS" : "Off",
"FE_INTERFACE_PLUGIN_NAME" : "FEMiddlewareInterface",
"LINK_TO_FE_TYPE_TABLE" : "FEMiddlewareInterfaceTable",
"LINK_TO_FE_TYPE_UID" : "InnerTrackerFEInterfaceGainOpt",
"LINK_TO_SLOW_CONTROLS_CHANNEL_TABLE" : "NO_LINK",
"LINK_TO_SLOW_CONTROLS_CHANNEL_GROUP_ID" : "DEFAULT",
"LINK_TO_SLOW_CONTROLS_SUPERVISOR_TABLE" : "NO_LINK",
"LINK_TO_SLOW_CONTROLS_SUPERVISOR_UID" : "DEFAULT",
"SLOW_CONTROLS_TX_SOCKET_IP_ADDRESS" : "DEFAULT",
"SLOW_CONTROLS_TX_SOCKET_PORT" : "0",
"SLOW_CONTROLS_LOCAL_AGGREGATE_SAVING_ENABLED" : "No",
"SLOW_CONTROLS_LOCAL_FILE_PATH" : "DEFAULT",
"SLOW_CONTROLS_RADIX_FILE_NAME" : "DEFAULT",
"SLOW_CONTROLS_SAVE_BINARY_FILE" : "False",
"COMMENT_DESCRIPTION" : "No Comment",
"AUTHOR" : "admin",
"RECORD_INSERTION_TIME" : "1599481531"
}
]
},
"metadata" : {

},
"search" : [

]
},
"comments" : [

],
"origin" : {
"source" : "template",
"name" : "notprovided",
"format" : "json",
"created" : "2020-09-07T10:31:53.841-0400",
"rawdata" : [

]
},
"version" : "10",
"entities" : [
{
"name" : "OTSROOT",
"assigned" : "2020-09-07T10:31:53.841-0400"
}
],
"configurations" : [
{
"name" : "notprovided",
"assigned" : "2020-09-07T10:31:53.841-0400"
},
{
"name" : "DefaultConfig_v26",
"assigned" : "2020-09-07T10:31:55.248-0400"
}
],
"changelog" : "notprovided",
"bookkeeping" : {
"isdeleted" : false,
"isreadonly" : false,
"updates" : [
{
"event" : "addConfiguration",
"timestamp" : "2020-09-07T10:31:53.841-0400",
"value" : {
"name" : "notprovided",
"assigned" : "2020-09-07T10:31:53.841-0400"
}
},
{
"event" : "setVersion",
"timestamp" : "2020-09-07T10:31:53.841-0400",
"value" : {
"name" : "10",
"assigned" : "2020-09-07T10:31:53.841-0400"
}
},
{
"event" : "setCollection",
"timestamp" : "2020-09-07T10:31:53.841-0400",
"value" : {
"name" : "FEInterfaceTable",
"assigned" : "2020-09-07T10:31:53.841-0400"
}
},
{
"event" : "addEntity",
"timestamp" : "2020-09-07T10:31:53.841-0400",
"value" : {
"name" : "OTSROOT",
"assigned" : "2020-09-07T10:31:53.841-0400"
}
},
{
"event" : "addConfiguration",
"timestamp" : "2020-09-07T10:31:55.248-0400",
"value" : {
"name" : "DefaultConfig_v26",
"assigned" : "2020-09-07T10:31:55.248-0400"
}
}
],
"created" : "2020-09-07T10:31:53.841-0400"
},
"_id" : {
"$oid" : "88a2c750e9494fd6b807a40b"
},
"collection" : "FEInterfaceTable",
"aliases" : {
"active" : [

],
"history" : [

]
},
"runs" : [

],
"attachments" : [

],
"configtype" : "notprovided"
}