{
"document" : {
"data" : {
"NAME" : "DETECTOR_CONFIGURATION",
"COMMENT" : "FSSR Detector readout controller records.",
"AUTHOR" : "admin",
"CREATION_TIME" : 1509658131,
"COL_TYPES" : {
"DETECTOR_UID" : "VARCHAR2",
"DETECTOR_TYPE" : "VARCHAR2",
"STATUS" : "VARCHAR2",
"LINK_TO_DA_CS_CONFIGURATION" : "VARCHAR2",
"LINK_TO_DA_CS_UID" : "VARCHAR2",
"LINK_TO_MASK_CONFIGURATION" : "VARCHAR2",
"LINK_TO_MASK_UID" : "VARCHAR2",
"COMMENT_DESCRIPTION" : "VARCHAR2",
"AUTHOR" : "VARCHAR2",
"RECORD_INSERTION_TIME" : "TIMESTAMP WITH TIMEZONE"
},
"DATA_SET" : [
{
"DETECTOR_UID" : "FSSR_STA0_MOD0_ROC0",
"DETECTOR_TYPE" : "FSSR",
"STATUS" : "On",
"LINK_TO_DA_CS_CONFIGURATION" : "FSSRDACsConfiguration",
"LINK_TO_DA_CS_UID" : "FSSR_STA0_MOD0_ROC0",
"LINK_TO_MASK_CONFIGURATION" : "ROCBitMaskConfiguration",
"LINK_TO_MASK_UID" : "FSSR_STA0_MOD0_ROC0",
"COMMENT_DESCRIPTION" : "No Comment",
"AUTHOR" : "admin",
"RECORD_INSERTION_TIME" : "1509658131"
},
{
"DETECTOR_UID" : "FSSR_STA0_MOD0_ROC1",
"DETECTOR_TYPE" : "FSSR",
"STATUS" : "On",
"LINK_TO_DA_CS_CONFIGURATION" : "FSSRDACsConfiguration",
"LINK_TO_DA_CS_UID" : "FSSR_STA0_MOD0_ROC1",
"LINK_TO_MASK_CONFIGURATION" : "ROCBitMaskConfiguration",
"LINK_TO_MASK_UID" : "FSSR_STA0_MOD0_ROC1",
"COMMENT_DESCRIPTION" : "No Comment",
"AUTHOR" : "admin",
"RECORD_INSERTION_TIME" : "1509658131"
},
{
"DETECTOR_UID" : "FSSR_STA0_MOD0_ROC2",
"DETECTOR_TYPE" : "FSSR",
"STATUS" : "On",
"LINK_TO_DA_CS_CONFIGURATION" : "FSSRDACsConfiguration",
"LINK_TO_DA_CS_UID" : "FSSR_STA0_MOD0_ROC2",
"LINK_TO_MASK_CONFIGURATION" : "ROCBitMaskConfiguration",
"LINK_TO_MASK_UID" : "FSSR_STA0_MOD0_ROC2",
"COMMENT_DESCRIPTION" : "No Comment",
"AUTHOR" : "admin",
"RECORD_INSERTION_TIME" : "1509658131"
},
{
"DETECTOR_UID" : "FSSR_STA0_MOD0_ROC3",
"DETECTOR_TYPE" : "FSSR",
"STATUS" : "On",
"LINK_TO_DA_CS_CONFIGURATION" : "FSSRDACsConfiguration",
"LINK_TO_DA_CS_UID" : "FSSR_STA0_MOD0_ROC3",
"LINK_TO_MASK_CONFIGURATION" : "ROCBitMaskConfiguration",
"LINK_TO_MASK_UID" : "FSSR_STA0_MOD0_ROC3",
"COMMENT_DESCRIPTION" : "No Comment",
"AUTHOR" : "admin",
"RECORD_INSERTION_TIME" : "1509658131"
},
{
"DETECTOR_UID" : "FSSR_STA0_MOD0_ROC4",
"DETECTOR_TYPE" : "FSSR",
"STATUS" : "On",
"LINK_TO_DA_CS_CONFIGURATION" : "FSSRDACsConfiguration",
"LINK_TO_DA_CS_UID" : "FSSR_STA0_MOD0_ROC4",
"LINK_TO_MASK_CONFIGURATION" : "ROCBitMaskConfiguration",
"LINK_TO_MASK_UID" : "FSSR_STA0_MOD0_ROC4",
"COMMENT_DESCRIPTION" : "No Comment",
"AUTHOR" : "admin",
"RECORD_INSERTION_TIME" : "1509658131"
},
{
"DETECTOR_UID" : "FSSR_STA0_MOD1_ROC0",
"DETECTOR_TYPE" : "FSSR",
"STATUS" : "On",
"LINK_TO_DA_CS_CONFIGURATION" : "FSSRDACsConfiguration",
"LINK_TO_DA_CS_UID" : "FSSR_STA0_MOD1_ROC0",
"LINK_TO_MASK_CONFIGURATION" : "ROCBitMaskConfiguration",
"LINK_TO_MASK_UID" : "FSSR_STA0_MOD1_ROC0",
"COMMENT_DESCRIPTION" : "No Comment",
"AUTHOR" : "admin",
"RECORD_INSERTION_TIME" : "1509658131"
},
{
"DETECTOR_UID" : "FSSR_STA0_MOD1_ROC1",
"DETECTOR_TYPE" : "FSSR",
"STATUS" : "On",
"LINK_TO_DA_CS_CONFIGURATION" : "FSSRDACsConfiguration",
"LINK_TO_DA_CS_UID" : "FSSR_STA0_MOD1_ROC1",
"LINK_TO_MASK_CONFIGURATION" : "ROCBitMaskConfiguration",
"LINK_TO_MASK_UID" : "FSSR_STA0_MOD1_ROC1",
"COMMENT_DESCRIPTION" : "No Comment",
"AUTHOR" : "admin",
"RECORD_INSERTION_TIME" : "1509658131"
},
{
"DETECTOR_UID" : "FSSR_STA0_MOD1_ROC2",
"DETECTOR_TYPE" : "FSSR",
"STATUS" : "On",
"LINK_TO_DA_CS_CONFIGURATION" : "FSSRDACsConfiguration",
"LINK_TO_DA_CS_UID" : "FSSR_STA0_MOD1_ROC2",
"LINK_TO_MASK_CONFIGURATION" : "ROCBitMaskConfiguration",
"LINK_TO_MASK_UID" : "FSSR_STA0_MOD1_ROC2",
"COMMENT_DESCRIPTION" : "No Comment",
"AUTHOR" : "admin",
"RECORD_INSERTION_TIME" : "1509658131"
},
{
"DETECTOR_UID" : "FSSR_STA0_MOD1_ROC3",
"DETECTOR_TYPE" : "FSSR",
"STATUS" : "On",
"LINK_TO_DA_CS_CONFIGURATION" : "FSSRDACsConfiguration",
"LINK_TO_DA_CS_UID" : "FSSR_STA0_MOD1_ROC3",
"LINK_TO_MASK_CONFIGURATION" : "ROCBitMaskConfiguration",
"LINK_TO_MASK_UID" : "FSSR_STA0_MOD1_ROC3",
"COMMENT_DESCRIPTION" : "No Comment",
"AUTHOR" : "admin",
"RECORD_INSERTION_TIME" : "1509658131"
},
{
"DETECTOR_UID" : "FSSR_STA0_MOD1_ROC4",
"DETECTOR_TYPE" : "FSSR",
"STATUS" : "On",
"LINK_TO_DA_CS_CONFIGURATION" : "FSSRDACsConfiguration",
"LINK_TO_DA_CS_UID" : "FSSR_STA0_MOD1_ROC4",
"LINK_TO_MASK_CONFIGURATION" : "ROCBitMaskConfiguration",
"LINK_TO_MASK_UID" : "FSSR_STA0_MOD1_ROC4",
"COMMENT_DESCRIPTION" : "No Comment",
"AUTHOR" : "admin",
"RECORD_INSERTION_TIME" : "1509658131"
},
{
"DETECTOR_UID" : "FSSR_STA0_MOD2_ROC0",
"DETECTOR_TYPE" : "FSSR",
"STATUS" : "On",
"LINK_TO_DA_CS_CONFIGURATION" : "FSSRDACsConfiguration",
"LINK_TO_DA_CS_UID" : "FSSR_STA0_MOD2_ROC0",
"LINK_TO_MASK_CONFIGURATION" : "ROCBitMaskConfiguration",
"LINK_TO_MASK_UID" : "FSSR_STA0_MOD2_ROC0",
"COMMENT_DESCRIPTION" : "No Comment",
"AUTHOR" : "admin",
"RECORD_INSERTION_TIME" : "1509658131"
},
{
"DETECTOR_UID" : "FSSR_STA0_MOD2_ROC1",
"DETECTOR_TYPE" : "FSSR",
"STATUS" : "On",
"LINK_TO_DA_CS_CONFIGURATION" : "FSSRDACsConfiguration",
"LINK_TO_DA_CS_UID" : "FSSR_STA0_MOD2_ROC1",
"LINK_TO_MASK_CONFIGURATION" : "ROCBitMaskConfiguration",
"LINK_TO_MASK_UID" : "FSSR_STA0_MOD2_ROC1",
"COMMENT_DESCRIPTION" : "No Comment",
"AUTHOR" : "admin",
"RECORD_INSERTION_TIME" : "1509658131"
},
{
"DETECTOR_UID" : "FSSR_STA0_MOD2_ROC2",
"DETECTOR_TYPE" : "FSSR",
"STATUS" : "On",
"LINK_TO_DA_CS_CONFIGURATION" : "FSSRDACsConfiguration",
"LINK_TO_DA_CS_UID" : "FSSR_STA0_MOD2_ROC2",
"LINK_TO_MASK_CONFIGURATION" : "ROCBitMaskConfiguration",
"LINK_TO_MASK_UID" : "FSSR_STA0_MOD2_ROC2",
"COMMENT_DESCRIPTION" : "No Comment",
"AUTHOR" : "admin",
"RECORD_INSERTION_TIME" : "1509658131"
},
{
"DETECTOR_UID" : "FSSR_STA0_MOD2_ROC3",
"DETECTOR_TYPE" : "FSSR",
"STATUS" : "On",
"LINK_TO_DA_CS_CONFIGURATION" : "FSSRDACsConfiguration",
"LINK_TO_DA_CS_UID" : "FSSR_STA0_MOD2_ROC3",
"LINK_TO_MASK_CONFIGURATION" : "ROCBitMaskConfiguration",
"LINK_TO_MASK_UID" : "FSSR_STA0_MOD2_ROC3",
"COMMENT_DESCRIPTION" : "No Comment",
"AUTHOR" : "admin",
"RECORD_INSERTION_TIME" : "1509658131"
},
{
"DETECTOR_UID" : "FSSR_STA0_MOD2_ROC4",
"DETECTOR_TYPE" : "FSSR",
"STATUS" : "On",
"LINK_TO_DA_CS_CONFIGURATION" : "FSSRDACsConfiguration",
"LINK_TO_DA_CS_UID" : "FSSR_STA0_MOD2_ROC4",
"LINK_TO_MASK_CONFIGURATION" : "ROCBitMaskConfiguration",
"LINK_TO_MASK_UID" : "FSSR_STA0_MOD2_ROC4",
"COMMENT_DESCRIPTION" : "No Comment",
"AUTHOR" : "admin",
"RECORD_INSERTION_TIME" : "1509658131"
},
{
"DETECTOR_UID" : "FSSR_STA0_MOD3_ROC0",
"DETECTOR_TYPE" : "FSSR",
"STATUS" : "On",
"LINK_TO_DA_CS_CONFIGURATION" : "FSSRDACsConfiguration",
"LINK_TO_DA_CS_UID" : "FSSR_STA0_MOD3_ROC0",
"LINK_TO_MASK_CONFIGURATION" : "ROCBitMaskConfiguration",
"LINK_TO_MASK_UID" : "FSSR_STA0_MOD3_ROC0",
"COMMENT_DESCRIPTION" : "No Comment",
"AUTHOR" : "admin",
"RECORD_INSERTION_TIME" : "1509658131"
},
{
"DETECTOR_UID" : "FSSR_STA0_MOD3_ROC1",
"DETECTOR_TYPE" : "FSSR",
"STATUS" : "On",
"LINK_TO_DA_CS_CONFIGURATION" : "FSSRDACsConfiguration",
"LINK_TO_DA_CS_UID" : "FSSR_STA0_MOD3_ROC1",
"LINK_TO_MASK_CONFIGURATION" : "ROCBitMaskConfiguration",
"LINK_TO_MASK_UID" : "FSSR_STA0_MOD3_ROC1",
"COMMENT_DESCRIPTION" : "No Comment",
"AUTHOR" : "admin",
"RECORD_INSERTION_TIME" : "1509658131"
},
{
"DETECTOR_UID" : "FSSR_STA0_MOD3_ROC2",
"DETECTOR_TYPE" : "FSSR",
"STATUS" : "On",
"LINK_TO_DA_CS_CONFIGURATION" : "FSSRDACsConfiguration",
"LINK_TO_DA_CS_UID" : "FSSR_STA0_MOD3_ROC2",
"LINK_TO_MASK_CONFIGURATION" : "ROCBitMaskConfiguration",
"LINK_TO_MASK_UID" : "FSSR_STA0_MOD3_ROC2",
"COMMENT_DESCRIPTION" : "No Comment",
"AUTHOR" : "admin",
"RECORD_INSERTION_TIME" : "1509658131"
},
{
"DETECTOR_UID" : "FSSR_STA0_MOD3_ROC3",
"DETECTOR_TYPE" : "FSSR",
"STATUS" : "On",
"LINK_TO_DA_CS_CONFIGURATION" : "FSSRDACsConfiguration",
"LINK_TO_DA_CS_UID" : "FSSR_STA0_MOD3_ROC3",
"LINK_TO_MASK_CONFIGURATION" : "ROCBitMaskConfiguration",
"LINK_TO_MASK_UID" : "FSSR_STA0_MOD3_ROC3",
"COMMENT_DESCRIPTION" : "No Comment",
"AUTHOR" : "admin",
"RECORD_INSERTION_TIME" : "1509658131"
},
{
"DETECTOR_UID" : "FSSR_STA0_MOD3_ROC4",
"DETECTOR_TYPE" : "FSSR",
"STATUS" : "On",
"LINK_TO_DA_CS_CONFIGURATION" : "FSSRDACsConfiguration",
"LINK_TO_DA_CS_UID" : "FSSR_STA0_MOD3_ROC4",
"LINK_TO_MASK_CONFIGURATION" : "ROCBitMaskConfiguration",
"LINK_TO_MASK_UID" : "FSSR_STA0_MOD3_ROC4",
"COMMENT_DESCRIPTION" : "No Comment",
"AUTHOR" : "admin",
"RECORD_INSERTION_TIME" : "1509658131"
},
{
"DETECTOR_UID" : "FSSR_STA1_MOD0_ROC0",
"DETECTOR_TYPE" : "FSSR",
"STATUS" : "On",
"LINK_TO_DA_CS_CONFIGURATION" : "FSSRDACsConfiguration",
"LINK_TO_DA_CS_UID" : "FSSR_STA1_MOD0_ROC0",
"LINK_TO_MASK_CONFIGURATION" : "ROCBitMaskConfiguration",
"LINK_TO_MASK_UID" : "FSSR_STA1_MOD0_ROC0",
"COMMENT_DESCRIPTION" : "No Comment",
"AUTHOR" : "admin",
"RECORD_INSERTION_TIME" : "1509658131"
},
{
"DETECTOR_UID" : "FSSR_STA1_MOD0_ROC1",
"DETECTOR_TYPE" : "FSSR",
"STATUS" : "On",
"LINK_TO_DA_CS_CONFIGURATION" : "FSSRDACsConfiguration",
"LINK_TO_DA_CS_UID" : "FSSR_STA1_MOD0_ROC1",
"LINK_TO_MASK_CONFIGURATION" : "ROCBitMaskConfiguration",
"LINK_TO_MASK_UID" : "FSSR_STA1_MOD0_ROC1",
"COMMENT_DESCRIPTION" : "No Comment",
"AUTHOR" : "admin",
"RECORD_INSERTION_TIME" : "1509658131"
},
{
"DETECTOR_UID" : "FSSR_STA1_MOD0_ROC2",
"DETECTOR_TYPE" : "FSSR",
"STATUS" : "On",
"LINK_TO_DA_CS_CONFIGURATION" : "FSSRDACsConfiguration",
"LINK_TO_DA_CS_UID" : "FSSR_STA1_MOD0_ROC2",
"LINK_TO_MASK_CONFIGURATION" : "ROCBitMaskConfiguration",
"LINK_TO_MASK_UID" : "FSSR_STA1_MOD0_ROC2",
"COMMENT_DESCRIPTION" : "No Comment",
"AUTHOR" : "admin",
"RECORD_INSERTION_TIME" : "1509658131"
},
{
"DETECTOR_UID" : "FSSR_STA1_MOD0_ROC3",
"DETECTOR_TYPE" : "FSSR",
"STATUS" : "On",
"LINK_TO_DA_CS_CONFIGURATION" : "FSSRDACsConfiguration",
"LINK_TO_DA_CS_UID" : "FSSR_STA1_MOD0_ROC3",
"LINK_TO_MASK_CONFIGURATION" : "ROCBitMaskConfiguration",
"LINK_TO_MASK_UID" : "FSSR_STA1_MOD0_ROC3",
"COMMENT_DESCRIPTION" : "No Comment",
"AUTHOR" : "admin",
"RECORD_INSERTION_TIME" : "1509658131"
},
{
"DETECTOR_UID" : "FSSR_STA1_MOD0_ROC4",
"DETECTOR_TYPE" : "FSSR",
"STATUS" : "On",
"LINK_TO_DA_CS_CONFIGURATION" : "FSSRDACsConfiguration",
"LINK_TO_DA_CS_UID" : "FSSR_STA1_MOD0_ROC4",
"LINK_TO_MASK_CONFIGURATION" : "ROCBitMaskConfiguration",
"LINK_TO_MASK_UID" : "FSSR_STA1_MOD0_ROC4",
"COMMENT_DESCRIPTION" : "No Comment",
"AUTHOR" : "admin",
"RECORD_INSERTION_TIME" : "1509658131"
},
{
"DETECTOR_UID" : "FSSR_STA1_MOD1_ROC0",
"DETECTOR_TYPE" : "FSSR",
"STATUS" : "On",
"LINK_TO_DA_CS_CONFIGURATION" : "FSSRDACsConfiguration",
"LINK_TO_DA_CS_UID" : "FSSR_STA1_MOD1_ROC0",
"LINK_TO_MASK_CONFIGURATION" : "ROCBitMaskConfiguration",
"LINK_TO_MASK_UID" : "FSSR_STA1_MOD1_ROC0",
"COMMENT_DESCRIPTION" : "No Comment",
"AUTHOR" : "admin",
"RECORD_INSERTION_TIME" : "1509658131"
},
{
"DETECTOR_UID" : "FSSR_STA1_MOD1_ROC1",
"DETECTOR_TYPE" : "FSSR",
"STATUS" : "On",
"LINK_TO_DA_CS_CONFIGURATION" : "FSSRDACsConfiguration",
"LINK_TO_DA_CS_UID" : "FSSR_STA1_MOD1_ROC1",
"LINK_TO_MASK_CONFIGURATION" : "ROCBitMaskConfiguration",
"LINK_TO_MASK_UID" : "FSSR_STA1_MOD1_ROC1",
"COMMENT_DESCRIPTION" : "No Comment",
"AUTHOR" : "admin",
"RECORD_INSERTION_TIME" : "1509658131"
},
{
"DETECTOR_UID" : "FSSR_STA1_MOD1_ROC2",
"DETECTOR_TYPE" : "FSSR",
"STATUS" : "On",
"LINK_TO_DA_CS_CONFIGURATION" : "FSSRDACsConfiguration",
"LINK_TO_DA_CS_UID" : "FSSR_STA1_MOD1_ROC2",
"LINK_TO_MASK_CONFIGURATION" : "ROCBitMaskConfiguration",
"LINK_TO_MASK_UID" : "FSSR_STA1_MOD1_ROC2",
"COMMENT_DESCRIPTION" : "No Comment",
"AUTHOR" : "admin",
"RECORD_INSERTION_TIME" : "1509658131"
},
{
"DETECTOR_UID" : "FSSR_STA1_MOD1_ROC3",
"DETECTOR_TYPE" : "FSSR",
"STATUS" : "On",
"LINK_TO_DA_CS_CONFIGURATION" : "FSSRDACsConfiguration",
"LINK_TO_DA_CS_UID" : "FSSR_STA1_MOD1_ROC3",
"LINK_TO_MASK_CONFIGURATION" : "ROCBitMaskConfiguration",
"LINK_TO_MASK_UID" : "FSSR_STA1_MOD1_ROC3",
"COMMENT_DESCRIPTION" : "No Comment",
"AUTHOR" : "admin",
"RECORD_INSERTION_TIME" : "1509658131"
},
{
"DETECTOR_UID" : "FSSR_STA1_MOD1_ROC4",
"DETECTOR_TYPE" : "FSSR",
"STATUS" : "On",
"LINK_TO_DA_CS_CONFIGURATION" : "FSSRDACsConfiguration",
"LINK_TO_DA_CS_UID" : "FSSR_STA1_MOD1_ROC4",
"LINK_TO_MASK_CONFIGURATION" : "ROCBitMaskConfiguration",
"LINK_TO_MASK_UID" : "FSSR_STA1_MOD1_ROC4",
"COMMENT_DESCRIPTION" : "No Comment",
"AUTHOR" : "admin",
"RECORD_INSERTION_TIME" : "1509658131"
},
{
"DETECTOR_UID" : "FSSR_STA1_MOD2_ROC0",
"DETECTOR_TYPE" : "FSSR",
"STATUS" : "On",
"LINK_TO_DA_CS_CONFIGURATION" : "FSSRDACsConfiguration",
"LINK_TO_DA_CS_UID" : "FSSR_STA1_MOD2_ROC0",
"LINK_TO_MASK_CONFIGURATION" : "ROCBitMaskConfiguration",
"LINK_TO_MASK_UID" : "FSSR_STA1_MOD2_ROC0",
"COMMENT_DESCRIPTION" : "No Comment",
"AUTHOR" : "admin",
"RECORD_INSERTION_TIME" : "1509658131"
},
{
"DETECTOR_UID" : "FSSR_STA1_MOD2_ROC1",
"DETECTOR_TYPE" : "FSSR",
"STATUS" : "On",
"LINK_TO_DA_CS_CONFIGURATION" : "FSSRDACsConfiguration",
"LINK_TO_DA_CS_UID" : "FSSR_STA1_MOD2_ROC1",
"LINK_TO_MASK_CONFIGURATION" : "ROCBitMaskConfiguration",
"LINK_TO_MASK_UID" : "FSSR_STA1_MOD2_ROC1",
"COMMENT_DESCRIPTION" : "No Comment",
"AUTHOR" : "admin",
"RECORD_INSERTION_TIME" : "1509658131"
},
{
"DETECTOR_UID" : "FSSR_STA1_MOD2_ROC2",
"DETECTOR_TYPE" : "FSSR",
"STATUS" : "On",
"LINK_TO_DA_CS_CONFIGURATION" : "FSSRDACsConfiguration",
"LINK_TO_DA_CS_UID" : "FSSR_STA1_MOD2_ROC2",
"LINK_TO_MASK_CONFIGURATION" : "ROCBitMaskConfiguration",
"LINK_TO_MASK_UID" : "FSSR_STA1_MOD2_ROC2",
"COMMENT_DESCRIPTION" : "No Comment",
"AUTHOR" : "admin",
"RECORD_INSERTION_TIME" : "1509658131"
},
{
"DETECTOR_UID" : "FSSR_STA1_MOD2_ROC3",
"DETECTOR_TYPE" : "FSSR",
"STATUS" : "On",
"LINK_TO_DA_CS_CONFIGURATION" : "FSSRDACsConfiguration",
"LINK_TO_DA_CS_UID" : "FSSR_STA1_MOD2_ROC3",
"LINK_TO_MASK_CONFIGURATION" : "ROCBitMaskConfiguration",
"LINK_TO_MASK_UID" : "FSSR_STA1_MOD2_ROC3",
"COMMENT_DESCRIPTION" : "No Comment",
"AUTHOR" : "admin",
"RECORD_INSERTION_TIME" : "1509658131"
},
{
"DETECTOR_UID" : "FSSR_STA1_MOD2_ROC4",
"DETECTOR_TYPE" : "FSSR",
"STATUS" : "On",
"LINK_TO_DA_CS_CONFIGURATION" : "FSSRDACsConfiguration",
"LINK_TO_DA_CS_UID" : "FSSR_STA1_MOD2_ROC4",
"LINK_TO_MASK_CONFIGURATION" : "ROCBitMaskConfiguration",
"LINK_TO_MASK_UID" : "FSSR_STA1_MOD2_ROC4",
"COMMENT_DESCRIPTION" : "No Comment",
"AUTHOR" : "admin",
"RECORD_INSERTION_TIME" : "1509658131"
},
{
"DETECTOR_UID" : "FSSR_STA1_MOD3_ROC0",
"DETECTOR_TYPE" : "FSSR",
"STATUS" : "On",
"LINK_TO_DA_CS_CONFIGURATION" : "FSSRDACsConfiguration",
"LINK_TO_DA_CS_UID" : "FSSR_STA1_MOD3_ROC0",
"LINK_TO_MASK_CONFIGURATION" : "ROCBitMaskConfiguration",
"LINK_TO_MASK_UID" : "FSSR_STA1_MOD3_ROC0",
"COMMENT_DESCRIPTION" : "No Comment",
"AUTHOR" : "admin",
"RECORD_INSERTION_TIME" : "1509658131"
},
{
"DETECTOR_UID" : "FSSR_STA1_MOD3_ROC1",
"DETECTOR_TYPE" : "FSSR",
"STATUS" : "On",
"LINK_TO_DA_CS_CONFIGURATION" : "FSSRDACsConfiguration",
"LINK_TO_DA_CS_UID" : "FSSR_STA1_MOD3_ROC1",
"LINK_TO_MASK_CONFIGURATION" : "ROCBitMaskConfiguration",
"LINK_TO_MASK_UID" : "FSSR_STA1_MOD3_ROC1",
"COMMENT_DESCRIPTION" : "No Comment",
"AUTHOR" : "admin",
"RECORD_INSERTION_TIME" : "1509658131"
},
{
"DETECTOR_UID" : "FSSR_STA1_MOD3_ROC2",
"DETECTOR_TYPE" : "FSSR",
"STATUS" : "On",
"LINK_TO_DA_CS_CONFIGURATION" : "FSSRDACsConfiguration",
"LINK_TO_DA_CS_UID" : "FSSR_STA1_MOD3_ROC2",
"LINK_TO_MASK_CONFIGURATION" : "ROCBitMaskConfiguration",
"LINK_TO_MASK_UID" : "FSSR_STA1_MOD3_ROC2",
"COMMENT_DESCRIPTION" : "No Comment",
"AUTHOR" : "admin",
"RECORD_INSERTION_TIME" : "1509658131"
},
{
"DETECTOR_UID" : "FSSR_STA1_MOD3_ROC3",
"DETECTOR_TYPE" : "FSSR",
"STATUS" : "On",
"LINK_TO_DA_CS_CONFIGURATION" : "FSSRDACsConfiguration",
"LINK_TO_DA_CS_UID" : "FSSR_STA1_MOD3_ROC3",
"LINK_TO_MASK_CONFIGURATION" : "ROCBitMaskConfiguration",
"LINK_TO_MASK_UID" : "FSSR_STA1_MOD3_ROC3",
"COMMENT_DESCRIPTION" : "No Comment",
"AUTHOR" : "admin",
"RECORD_INSERTION_TIME" : "1509658131"
},
{
"DETECTOR_UID" : "FSSR_STA1_MOD3_ROC4",
"DETECTOR_TYPE" : "FSSR",
"STATUS" : "On",
"LINK_TO_DA_CS_CONFIGURATION" : "FSSRDACsConfiguration",
"LINK_TO_DA_CS_UID" : "FSSR_STA1_MOD3_ROC4",
"LINK_TO_MASK_CONFIGURATION" : "ROCBitMaskConfiguration",
"LINK_TO_MASK_UID" : "FSSR_STA1_MOD3_ROC4",
"COMMENT_DESCRIPTION" : "No Comment",
"AUTHOR" : "admin",
"RECORD_INSERTION_TIME" : "1509658131"
},
{
"DETECTOR_UID" : "FSSR_STA2_MOD0_ROC0",
"DETECTOR_TYPE" : "FSSR",
"STATUS" : "On",
"LINK_TO_DA_CS_CONFIGURATION" : "FSSRDACsConfiguration",
"LINK_TO_DA_CS_UID" : "FSSR_STA2_MOD0_ROC0",
"LINK_TO_MASK_CONFIGURATION" : "ROCBitMaskConfiguration",
"LINK_TO_MASK_UID" : "FSSR_STA2_MOD0_ROC0",
"COMMENT_DESCRIPTION" : "No Comment",
"AUTHOR" : "admin",
"RECORD_INSERTION_TIME" : "1509658131"
},
{
"DETECTOR_UID" : "FSSR_STA2_MOD0_ROC1",
"DETECTOR_TYPE" : "FSSR",
"STATUS" : "On",
"LINK_TO_DA_CS_CONFIGURATION" : "FSSRDACsConfiguration",
"LINK_TO_DA_CS_UID" : "FSSR_STA2_MOD0_ROC1",
"LINK_TO_MASK_CONFIGURATION" : "ROCBitMaskConfiguration",
"LINK_TO_MASK_UID" : "FSSR_STA2_MOD0_ROC1",
"COMMENT_DESCRIPTION" : "No Comment",
"AUTHOR" : "admin",
"RECORD_INSERTION_TIME" : "1509658131"
},
{
"DETECTOR_UID" : "FSSR_STA2_MOD0_ROC2",
"DETECTOR_TYPE" : "FSSR",
"STATUS" : "On",
"LINK_TO_DA_CS_CONFIGURATION" : "FSSRDACsConfiguration",
"LINK_TO_DA_CS_UID" : "FSSR_STA2_MOD0_ROC2",
"LINK_TO_MASK_CONFIGURATION" : "ROCBitMaskConfiguration",
"LINK_TO_MASK_UID" : "FSSR_STA2_MOD0_ROC2",
"COMMENT_DESCRIPTION" : "No Comment",
"AUTHOR" : "admin",
"RECORD_INSERTION_TIME" : "1509658131"
},
{
"DETECTOR_UID" : "FSSR_STA2_MOD0_ROC3",
"DETECTOR_TYPE" : "FSSR",
"STATUS" : "On",
"LINK_TO_DA_CS_CONFIGURATION" : "FSSRDACsConfiguration",
"LINK_TO_DA_CS_UID" : "FSSR_STA2_MOD0_ROC3",
"LINK_TO_MASK_CONFIGURATION" : "ROCBitMaskConfiguration",
"LINK_TO_MASK_UID" : "FSSR_STA2_MOD0_ROC3",
"COMMENT_DESCRIPTION" : "No Comment",
"AUTHOR" : "admin",
"RECORD_INSERTION_TIME" : "1509658131"
},
{
"DETECTOR_UID" : "FSSR_STA2_MOD0_ROC4",
"DETECTOR_TYPE" : "FSSR",
"STATUS" : "On",
"LINK_TO_DA_CS_CONFIGURATION" : "FSSRDACsConfiguration",
"LINK_TO_DA_CS_UID" : "FSSR_STA2_MOD0_ROC4",
"LINK_TO_MASK_CONFIGURATION" : "ROCBitMaskConfiguration",
"LINK_TO_MASK_UID" : "FSSR_STA2_MOD0_ROC4",
"COMMENT_DESCRIPTION" : "No Comment",
"AUTHOR" : "admin",
"RECORD_INSERTION_TIME" : "1509658131"
},
{
"DETECTOR_UID" : "FSSR_STA2_MOD1_ROC0",
"DETECTOR_TYPE" : "FSSR",
"STATUS" : "On",
"LINK_TO_DA_CS_CONFIGURATION" : "FSSRDACsConfiguration",
"LINK_TO_DA_CS_UID" : "FSSR_STA2_MOD1_ROC0",
"LINK_TO_MASK_CONFIGURATION" : "ROCBitMaskConfiguration",
"LINK_TO_MASK_UID" : "FSSR_STA2_MOD1_ROC0",
"COMMENT_DESCRIPTION" : "No Comment",
"AUTHOR" : "admin",
"RECORD_INSERTION_TIME" : "1509658131"
},
{
"DETECTOR_UID" : "FSSR_STA2_MOD1_ROC1",
"DETECTOR_TYPE" : "FSSR",
"STATUS" : "On",
"LINK_TO_DA_CS_CONFIGURATION" : "FSSRDACsConfiguration",
"LINK_TO_DA_CS_UID" : "FSSR_STA2_MOD1_ROC1",
"LINK_TO_MASK_CONFIGURATION" : "ROCBitMaskConfiguration",
"LINK_TO_MASK_UID" : "FSSR_STA2_MOD1_ROC1",
"COMMENT_DESCRIPTION" : "No Comment",
"AUTHOR" : "admin",
"RECORD_INSERTION_TIME" : "1509658131"
},
{
"DETECTOR_UID" : "FSSR_STA2_MOD1_ROC2",
"DETECTOR_TYPE" : "FSSR",
"STATUS" : "On",
"LINK_TO_DA_CS_CONFIGURATION" : "FSSRDACsConfiguration",
"LINK_TO_DA_CS_UID" : "FSSR_STA2_MOD1_ROC2",
"LINK_TO_MASK_CONFIGURATION" : "ROCBitMaskConfiguration",
"LINK_TO_MASK_UID" : "FSSR_STA2_MOD1_ROC2",
"COMMENT_DESCRIPTION" : "No Comment",
"AUTHOR" : "admin",
"RECORD_INSERTION_TIME" : "1509658131"
},
{
"DETECTOR_UID" : "FSSR_STA2_MOD1_ROC3",
"DETECTOR_TYPE" : "FSSR",
"STATUS" : "On",
"LINK_TO_DA_CS_CONFIGURATION" : "FSSRDACsConfiguration",
"LINK_TO_DA_CS_UID" : "FSSR_STA2_MOD1_ROC3",
"LINK_TO_MASK_CONFIGURATION" : "ROCBitMaskConfiguration",
"LINK_TO_MASK_UID" : "FSSR_STA2_MOD1_ROC3",
"COMMENT_DESCRIPTION" : "No Comment",
"AUTHOR" : "admin",
"RECORD_INSERTION_TIME" : "1509658131"
},
{
"DETECTOR_UID" : "FSSR_STA2_MOD1_ROC4",
"DETECTOR_TYPE" : "FSSR",
"STATUS" : "On",
"LINK_TO_DA_CS_CONFIGURATION" : "FSSRDACsConfiguration",
"LINK_TO_DA_CS_UID" : "FSSR_STA2_MOD1_ROC4",
"LINK_TO_MASK_CONFIGURATION" : "ROCBitMaskConfiguration",
"LINK_TO_MASK_UID" : "FSSR_STA2_MOD1_ROC4",
"COMMENT_DESCRIPTION" : "No Comment",
"AUTHOR" : "admin",
"RECORD_INSERTION_TIME" : "1509658131"
},
{
"DETECTOR_UID" : "FSSR_STA2_MOD2_ROC0",
"DETECTOR_TYPE" : "FSSR",
"STATUS" : "On",
"LINK_TO_DA_CS_CONFIGURATION" : "FSSRDACsConfiguration",
"LINK_TO_DA_CS_UID" : "FSSR_STA2_MOD2_ROC0",
"LINK_TO_MASK_CONFIGURATION" : "ROCBitMaskConfiguration",
"LINK_TO_MASK_UID" : "FSSR_STA2_MOD2_ROC0",
"COMMENT_DESCRIPTION" : "No Comment",
"AUTHOR" : "admin",
"RECORD_INSERTION_TIME" : "1509658131"
},
{
"DETECTOR_UID" : "FSSR_STA2_MOD2_ROC1",
"DETECTOR_TYPE" : "FSSR",
"STATUS" : "On",
"LINK_TO_DA_CS_CONFIGURATION" : "FSSRDACsConfiguration",
"LINK_TO_DA_CS_UID" : "FSSR_STA2_MOD2_ROC1",
"LINK_TO_MASK_CONFIGURATION" : "ROCBitMaskConfiguration",
"LINK_TO_MASK_UID" : "FSSR_STA2_MOD2_ROC1",
"COMMENT_DESCRIPTION" : "No Comment",
"AUTHOR" : "admin",
"RECORD_INSERTION_TIME" : "1509658131"
},
{
"DETECTOR_UID" : "FSSR_STA2_MOD2_ROC2",
"DETECTOR_TYPE" : "FSSR",
"STATUS" : "On",
"LINK_TO_DA_CS_CONFIGURATION" : "FSSRDACsConfiguration",
"LINK_TO_DA_CS_UID" : "FSSR_STA2_MOD2_ROC2",
"LINK_TO_MASK_CONFIGURATION" : "ROCBitMaskConfiguration",
"LINK_TO_MASK_UID" : "FSSR_STA2_MOD2_ROC2",
"COMMENT_DESCRIPTION" : "No Comment",
"AUTHOR" : "admin",
"RECORD_INSERTION_TIME" : "1509658131"
},
{
"DETECTOR_UID" : "FSSR_STA2_MOD2_ROC3",
"DETECTOR_TYPE" : "FSSR",
"STATUS" : "On",
"LINK_TO_DA_CS_CONFIGURATION" : "FSSRDACsConfiguration",
"LINK_TO_DA_CS_UID" : "FSSR_STA2_MOD2_ROC3",
"LINK_TO_MASK_CONFIGURATION" : "ROCBitMaskConfiguration",
"LINK_TO_MASK_UID" : "FSSR_STA2_MOD2_ROC3",
"COMMENT_DESCRIPTION" : "No Comment",
"AUTHOR" : "admin",
"RECORD_INSERTION_TIME" : "1509658131"
},
{
"DETECTOR_UID" : "FSSR_STA2_MOD2_ROC4",
"DETECTOR_TYPE" : "FSSR",
"STATUS" : "On",
"LINK_TO_DA_CS_CONFIGURATION" : "FSSRDACsConfiguration",
"LINK_TO_DA_CS_UID" : "FSSR_STA2_MOD2_ROC4",
"LINK_TO_MASK_CONFIGURATION" : "ROCBitMaskConfiguration",
"LINK_TO_MASK_UID" : "FSSR_STA2_MOD2_ROC4",
"COMMENT_DESCRIPTION" : "No Comment",
"AUTHOR" : "admin",
"RECORD_INSERTION_TIME" : "1509658131"
},
{
"DETECTOR_UID" : "FSSR_STA2_MOD3_ROC0",
"DETECTOR_TYPE" : "FSSR",
"STATUS" : "On",
"LINK_TO_DA_CS_CONFIGURATION" : "FSSRDACsConfiguration",
"LINK_TO_DA_CS_UID" : "FSSR_STA2_MOD3_ROC0",
"LINK_TO_MASK_CONFIGURATION" : "ROCBitMaskConfiguration",
"LINK_TO_MASK_UID" : "FSSR_STA2_MOD3_ROC0",
"COMMENT_DESCRIPTION" : "No Comment",
"AUTHOR" : "admin",
"RECORD_INSERTION_TIME" : "1509658131"
},
{
"DETECTOR_UID" : "FSSR_STA2_MOD3_ROC1",
"DETECTOR_TYPE" : "FSSR",
"STATUS" : "On",
"LINK_TO_DA_CS_CONFIGURATION" : "FSSRDACsConfiguration",
"LINK_TO_DA_CS_UID" : "FSSR_STA2_MOD3_ROC1",
"LINK_TO_MASK_CONFIGURATION" : "ROCBitMaskConfiguration",
"LINK_TO_MASK_UID" : "FSSR_STA2_MOD3_ROC1",
"COMMENT_DESCRIPTION" : "No Comment",
"AUTHOR" : "admin",
"RECORD_INSERTION_TIME" : "1509658131"
},
{
"DETECTOR_UID" : "FSSR_STA2_MOD3_ROC2",
"DETECTOR_TYPE" : "FSSR",
"STATUS" : "On",
"LINK_TO_DA_CS_CONFIGURATION" : "FSSRDACsConfiguration",
"LINK_TO_DA_CS_UID" : "FSSR_STA2_MOD3_ROC2",
"LINK_TO_MASK_CONFIGURATION" : "ROCBitMaskConfiguration",
"LINK_TO_MASK_UID" : "FSSR_STA2_MOD3_ROC2",
"COMMENT_DESCRIPTION" : "No Comment",
"AUTHOR" : "admin",
"RECORD_INSERTION_TIME" : "1509658131"
},
{
"DETECTOR_UID" : "FSSR_STA2_MOD3_ROC3",
"DETECTOR_TYPE" : "FSSR",
"STATUS" : "On",
"LINK_TO_DA_CS_CONFIGURATION" : "FSSRDACsConfiguration",
"LINK_TO_DA_CS_UID" : "FSSR_STA2_MOD3_ROC3",
"LINK_TO_MASK_CONFIGURATION" : "ROCBitMaskConfiguration",
"LINK_TO_MASK_UID" : "FSSR_STA2_MOD3_ROC3",
"COMMENT_DESCRIPTION" : "No Comment",
"AUTHOR" : "admin",
"RECORD_INSERTION_TIME" : "1509658131"
},
{
"DETECTOR_UID" : "FSSR_STA2_MOD3_ROC4",
"DETECTOR_TYPE" : "FSSR",
"STATUS" : "On",
"LINK_TO_DA_CS_CONFIGURATION" : "FSSRDACsConfiguration",
"LINK_TO_DA_CS_UID" : "FSSR_STA2_MOD3_ROC4",
"LINK_TO_MASK_CONFIGURATION" : "ROCBitMaskConfiguration",
"LINK_TO_MASK_UID" : "FSSR_STA2_MOD3_ROC4",
"COMMENT_DESCRIPTION" : "No Comment",
"AUTHOR" : "admin",
"RECORD_INSERTION_TIME" : "1509658131"
},
{
"DETECTOR_UID" : "FSSR_STA2_MOD4_ROC0",
"DETECTOR_TYPE" : "FSSR",
"STATUS" : "On",
"LINK_TO_DA_CS_CONFIGURATION" : "FSSRDACsConfiguration",
"LINK_TO_DA_CS_UID" : "FSSR_STA2_MOD4_ROC0",
"LINK_TO_MASK_CONFIGURATION" : "ROCBitMaskConfiguration",
"LINK_TO_MASK_UID" : "FSSR_STA2_MOD4_ROC0",
"COMMENT_DESCRIPTION" : "No Comment",
"AUTHOR" : "admin",
"RECORD_INSERTION_TIME" : "1509658131"
},
{
"DETECTOR_UID" : "FSSR_STA2_MOD4_ROC1",
"DETECTOR_TYPE" : "FSSR",
"STATUS" : "On",
"LINK_TO_DA_CS_CONFIGURATION" : "FSSRDACsConfiguration",
"LINK_TO_DA_CS_UID" : "FSSR_STA2_MOD4_ROC1",
"LINK_TO_MASK_CONFIGURATION" : "ROCBitMaskConfiguration",
"LINK_TO_MASK_UID" : "FSSR_STA2_MOD4_ROC1",
"COMMENT_DESCRIPTION" : "No Comment",
"AUTHOR" : "admin",
"RECORD_INSERTION_TIME" : "1509658131"
},
{
"DETECTOR_UID" : "FSSR_STA2_MOD4_ROC2",
"DETECTOR_TYPE" : "FSSR",
"STATUS" : "On",
"LINK_TO_DA_CS_CONFIGURATION" : "FSSRDACsConfiguration",
"LINK_TO_DA_CS_UID" : "FSSR_STA2_MOD4_ROC2",
"LINK_TO_MASK_CONFIGURATION" : "ROCBitMaskConfiguration",
"LINK_TO_MASK_UID" : "FSSR_STA2_MOD4_ROC2",
"COMMENT_DESCRIPTION" : "No Comment",
"AUTHOR" : "admin",
"RECORD_INSERTION_TIME" : "1509658131"
},
{
"DETECTOR_UID" : "FSSR_STA2_MOD4_ROC3",
"DETECTOR_TYPE" : "FSSR",
"STATUS" : "On",
"LINK_TO_DA_CS_CONFIGURATION" : "FSSRDACsConfiguration",
"LINK_TO_DA_CS_UID" : "FSSR_STA2_MOD4_ROC3",
"LINK_TO_MASK_CONFIGURATION" : "ROCBitMaskConfiguration",
"LINK_TO_MASK_UID" : "FSSR_STA2_MOD4_ROC3",
"COMMENT_DESCRIPTION" : "No Comment",
"AUTHOR" : "admin",
"RECORD_INSERTION_TIME" : "1509658131"
},
{
"DETECTOR_UID" : "FSSR_STA2_MOD4_ROC4",
"DETECTOR_TYPE" : "FSSR",
"STATUS" : "On",
"LINK_TO_DA_CS_CONFIGURATION" : "FSSRDACsConfiguration",
"LINK_TO_DA_CS_UID" : "FSSR_STA2_MOD4_ROC4",
"LINK_TO_MASK_CONFIGURATION" : "ROCBitMaskConfiguration",
"LINK_TO_MASK_UID" : "FSSR_STA2_MOD4_ROC4",
"COMMENT_DESCRIPTION" : "No Comment",
"AUTHOR" : "admin",
"RECORD_INSERTION_TIME" : "1509658131"
},
{
"DETECTOR_UID" : "FSSR_STA2_MOD5_ROC0",
"DETECTOR_TYPE" : "FSSR",
"STATUS" : "On",
"LINK_TO_DA_CS_CONFIGURATION" : "FSSRDACsConfiguration",
"LINK_TO_DA_CS_UID" : "FSSR_STA2_MOD5_ROC0",
"LINK_TO_MASK_CONFIGURATION" : "ROCBitMaskConfiguration",
"LINK_TO_MASK_UID" : "FSSR_STA2_MOD5_ROC0",
"COMMENT_DESCRIPTION" : "No Comment",
"AUTHOR" : "admin",
"RECORD_INSERTION_TIME" : "1509658131"
},
{
"DETECTOR_UID" : "FSSR_STA2_MOD5_ROC1",
"DETECTOR_TYPE" : "FSSR",
"STATUS" : "On",
"LINK_TO_DA_CS_CONFIGURATION" : "FSSRDACsConfiguration",
"LINK_TO_DA_CS_UID" : "FSSR_STA2_MOD5_ROC1",
"LINK_TO_MASK_CONFIGURATION" : "ROCBitMaskConfiguration",
"LINK_TO_MASK_UID" : "FSSR_STA2_MOD5_ROC1",
"COMMENT_DESCRIPTION" : "No Comment",
"AUTHOR" : "admin",
"RECORD_INSERTION_TIME" : "1509658131"
},
{
"DETECTOR_UID" : "FSSR_STA2_MOD5_ROC2",
"DETECTOR_TYPE" : "FSSR",
"STATUS" : "On",
"LINK_TO_DA_CS_CONFIGURATION" : "FSSRDACsConfiguration",
"LINK_TO_DA_CS_UID" : "FSSR_STA2_MOD5_ROC2",
"LINK_TO_MASK_CONFIGURATION" : "ROCBitMaskConfiguration",
"LINK_TO_MASK_UID" : "FSSR_STA2_MOD5_ROC2",
"COMMENT_DESCRIPTION" : "No Comment",
"AUTHOR" : "admin",
"RECORD_INSERTION_TIME" : "1509658131"
},
{
"DETECTOR_UID" : "FSSR_STA2_MOD5_ROC3",
"DETECTOR_TYPE" : "FSSR",
"STATUS" : "On",
"LINK_TO_DA_CS_CONFIGURATION" : "FSSRDACsConfiguration",
"LINK_TO_DA_CS_UID" : "FSSR_STA2_MOD5_ROC3",
"LINK_TO_MASK_CONFIGURATION" : "ROCBitMaskConfiguration",
"LINK_TO_MASK_UID" : "FSSR_STA2_MOD5_ROC3",
"COMMENT_DESCRIPTION" : "No Comment",
"AUTHOR" : "admin",
"RECORD_INSERTION_TIME" : "1509658131"
},
{
"DETECTOR_UID" : "FSSR_STA2_MOD5_ROC4",
"DETECTOR_TYPE" : "FSSR",
"STATUS" : "On",
"LINK_TO_DA_CS_CONFIGURATION" : "FSSRDACsConfiguration",
"LINK_TO_DA_CS_UID" : "FSSR_STA2_MOD5_ROC4",
"LINK_TO_MASK_CONFIGURATION" : "ROCBitMaskConfiguration",
"LINK_TO_MASK_UID" : "FSSR_STA2_MOD5_ROC4",
"COMMENT_DESCRIPTION" : "No Comment",
"AUTHOR" : "admin",
"RECORD_INSERTION_TIME" : "1509658131"
}
]
},
"metadata" : {

},
"search" : [

]
},
"comments" : [

],
"origin" : {
"source" : "template",
"name" : "notprovided",
"format" : "json",
"created" : "2017-11-08T15:56:03.532-0600",
"rawdata" : [

]
},
"version" : "0",
"entities" : [
{
"name" : "OTSROOT",
"assigned" : "2017-11-08T15:56:03.546-0600"
}
],
"configurations" : [
{
"name" : "notprovided",
"assigned" : "2017-11-08T15:56:03.538-0600"
},
{
"name" : "FTBFConfig_v0",
"assigned" : "2017-11-08T15:56:06.368-0600"
},
{
"name" : "FTBFConfig_v1",
"assigned" : "2017-11-09T09:56:31.134-0600"
},
{
"name" : "FTBFConfig_v2",
"assigned" : "2017-11-09T10:06:00.114-0600"
},
{
"name" : "FTBFConfig_v3",
"assigned" : "2017-11-09T10:37:11.671-0600"
},
{
"name" : "FTBFConfig_v4",
"assigned" : "2017-11-15T11:30:10.490-0600"
},
{
"name" : "FTBFConfig_v5",
"assigned" : "2017-11-15T11:54:57.316-0600"
},
{
"name" : "FTBFConfig_v6",
"assigned" : "2017-11-15T11:57:49.939-0600"
},
{
"name" : "FTBFConfig_v7",
"assigned" : "2017-11-15T12:42:32.403-0600"
},
{
"name" : "FTBFConfig_v8",
"assigned" : "2017-11-15T13:01:03.430-0600"
},
{
"name" : "FTBFConfig_v9",
"assigned" : "2017-11-15T13:02:56.766-0600"
},
{
"name" : "FTBFConfig_v10",
"assigned" : "2017-11-15T13:04:24.347-0600"
},
{
"name" : "FTBFConfig_v11",
"assigned" : "2017-11-15T13:07:51.855-0600"
},
{
"name" : "FTBFConfig_v12",
"assigned" : "2017-11-15T13:11:59.317-0600"
},
{
"name" : "FTBFConfig_v13",
"assigned" : "2017-11-15T13:13:53.266-0600"
},
{
"name" : "FTBFConfig_v14",
"assigned" : "2017-11-15T13:27:30.322-0600"
},
{
"name" : "FTBFConfig_v15",
"assigned" : "2017-11-15T13:35:47.269-0600"
},
{
"name" : "FTBFConfig_v16",
"assigned" : "2017-11-15T13:36:51.883-0600"
},
{
"name" : "FTBFConfig_v17",
"assigned" : "2017-11-15T15:33:30.428-0600"
},
{
"name" : "FTBFConfig_v18",
"assigned" : "2017-11-15T15:35:34.049-0600"
},
{
"name" : "FTBFConfig_v19",
"assigned" : "2017-11-15T15:38:02.904-0600"
},
{
"name" : "FTBFConfig_v20",
"assigned" : "2017-11-15T16:26:30.831-0600"
},
{
"name" : "FTBFConfig_v21",
"assigned" : "2017-11-16T09:22:31.712-0600"
},
{
"name" : "FTBFConfig_v22",
"assigned" : "2017-11-17T10:23:27.936-0600"
},
{
"name" : "FTBFConfig_v23",
"assigned" : "2017-11-17T17:26:45.499-0600"
},
{
"name" : "FTBFConfig_v24",
"assigned" : "2017-11-17T17:58:26.018-0600"
},
{
"name" : "FTBFConfig_v25",
"assigned" : "2017-11-17T18:24:45.687-0600"
},
{
"name" : "FTBFConfig_v26",
"assigned" : "2017-11-17T18:32:23.248-0600"
},
{
"name" : "FTBFConfig_v27",
"assigned" : "2017-11-17T18:43:30.443-0600"
},
{
"name" : "FTBFConfig_v28",
"assigned" : "2017-11-17T18:48:32.479-0600"
},
{
"name" : "FTBFConfig_v29",
"assigned" : "2017-11-20T14:48:31.087-0600"
},
{
"name" : "FTBFConfig_v30",
"assigned" : "2017-11-20T15:39:56.222-0600"
},
{
"name" : "FTBFConfig_v31",
"assigned" : "2017-11-20T16:41:02.244-0600"
},
{
"name" : "FTBFConfig_v32",
"assigned" : "2017-11-20T18:55:35.166-0600"
},
{
"name" : "FTBFConfig_v33",
"assigned" : "2017-11-20T18:57:30.448-0600"
},
{
"name" : "FTBFConfig_v34",
"assigned" : "2017-11-29T17:50:39.937-0600"
},
{
"name" : "FTBFConfig_v35",
"assigned" : "2017-11-29T18:00:32.897-0600"
},
{
"name" : "FTBFConfig_v36",
"assigned" : "2017-11-29T18:35:11.604-0600"
},
{
"name" : "FTBFConfig_v37",
"assigned" : "2017-12-01T09:36:18.057-0600"
},
{
"name" : "FTBFConfig_v38",
"assigned" : "2017-12-01T09:52:01.331-0600"
},
{
"name" : "FTBFConfig_v39",
"assigned" : "2017-12-01T11:51:58.598-0600"
},
{
"name" : "FTBFConfig_v40",
"assigned" : "2017-12-01T12:18:20.636-0600"
},
{
"name" : "FTBFConfig_v41",
"assigned" : "2017-12-01T12:21:02.691-0600"
},
{
"name" : "FTBFConfig_v42",
"assigned" : "2017-12-01T12:43:22.000-0600"
},
{
"name" : "FTBFConfig_v43",
"assigned" : "2017-12-01T12:57:59.821-0600"
},
{
"name" : "FTBFConfig_v44",
"assigned" : "2017-12-01T13:00:52.434-0600"
},
{
"name" : "FTBFConfig_v45",
"assigned" : "2017-12-01T13:25:49.042-0600"
},
{
"name" : "FTBFConfig_v46",
"assigned" : "2017-12-01T13:35:43.777-0600"
},
{
"name" : "FTBFConfig_v47",
"assigned" : "2017-12-01T14:00:52.098-0600"
},
{
"name" : "FTBFConfig_v48",
"assigned" : "2017-12-01T14:03:59.444-0600"
},
{
"name" : "FTBFConfig_v49",
"assigned" : "2017-12-01T15:31:59.595-0600"
},
{
"name" : "FTBFConfig_v52",
"assigned" : "2017-12-01T15:37:31.914-0600"
},
{
"name" : "FTBFConfig_v53",
"assigned" : "2017-12-01T15:40:59.111-0600"
},
{
"name" : "FTBFConfig_v54",
"assigned" : "2017-12-01T15:52:49.428-0600"
},
{
"name" : "FTBFConfig_v55",
"assigned" : "2017-12-01T15:54:34.577-0600"
},
{
"name" : "FTBFConfig_v56",
"assigned" : "2017-12-01T15:55:34.150-0600"
},
{
"name" : "FTBFConfig_v57",
"assigned" : "2017-12-01T15:56:39.989-0600"
},
{
"name" : "FTBFConfig_v58",
"assigned" : "2017-12-01T15:57:38.047-0600"
},
{
"name" : "FTBFConfig_v59",
"assigned" : "2017-12-01T15:58:29.963-0600"
},
{
"name" : "FTBFConfig_v60",
"assigned" : "2017-12-01T15:59:31.171-0600"
},
{
"name" : "FTBFConfig_v61",
"assigned" : "2017-12-01T16:19:41.000-0600"
},
{
"name" : "FTBFConfig_v62",
"assigned" : "2017-12-01T16:22:03.485-0600"
},
{
"name" : "FTBFConfig_v63",
"assigned" : "2017-12-01T16:31:24.112-0600"
},
{
"name" : "FTBFConfig_v64",
"assigned" : "2017-12-01T17:06:31.336-0600"
},
{
"name" : "FTBFConfig_v65",
"assigned" : "2017-12-01T17:32:43.465-0600"
},
{
"name" : "FTBFConfig_v66",
"assigned" : "2017-12-01T20:38:49.969-0600"
},
{
"name" : "FTBFConfig_v67",
"assigned" : "2017-12-01T21:25:01.317-0600"
},
{
"name" : "FTBFConfig_v68",
"assigned" : "2017-12-01T21:43:01.002-0600"
},
{
"name" : "FTBFConfig_v69",
"assigned" : "2017-12-01T21:44:59.600-0600"
},
{
"name" : "FTBFConfig_v70",
"assigned" : "2017-12-01T21:59:18.860-0600"
},
{
"name" : "FTBFConfigNim_v0",
"assigned" : "2017-12-01T22:00:05.593-0600"
},
{
"name" : "FTBFConfigNim_v1",
"assigned" : "2017-12-01T22:13:07.363-0600"
},
{
"name" : "FTBFConfigNim_v2",
"assigned" : "2017-12-01T22:15:54.607-0600"
},
{
"name" : "FTBFConfigNim_v3",
"assigned" : "2017-12-01T22:17:03.009-0600"
},
{
"name" : "FTBFConfigNim_v4",
"assigned" : "2017-12-01T22:19:05.683-0600"
},
{
"name" : "FTBFConfigNim_v5",
"assigned" : "2017-12-01T22:21:56.434-0600"
},
{
"name" : "FTBFConfigNim_v6",
"assigned" : "2017-12-01T22:23:12.572-0600"
},
{
"name" : "FTBFConfigNim_v7",
"assigned" : "2017-12-01T22:25:16.414-0600"
},
{
"name" : "FTBFConfigNim_v8",
"assigned" : "2017-12-01T22:27:04.097-0600"
},
{
"name" : "FTBFConfigNim_v9",
"assigned" : "2017-12-01T22:29:28.218-0600"
},
{
"name" : "FTBFConfigNim_v10",
"assigned" : "2017-12-01T22:52:33.451-0600"
},
{
"name" : "FTBFConfigNim_v11",
"assigned" : "2017-12-01T22:57:28.214-0600"
},
{
"name" : "FTBFConfigNim_v12",
"assigned" : "2017-12-01T23:00:06.408-0600"
},
{
"name" : "FTBFConfigNim_v13",
"assigned" : "2017-12-01T23:52:34.541-0600"
},
{
"name" : "FTBFConfigNim_v14",
"assigned" : "2017-12-01T23:58:08.998-0600"
},
{
"name" : "FTBFConfigNim_v15",
"assigned" : "2017-12-02T00:00:33.222-0600"
},
{
"name" : "FTBFConfigNim_v16",
"assigned" : "2017-12-02T00:13:08.382-0600"
},
{
"name" : "FTBFConfigNim_v17",
"assigned" : "2017-12-02T00:28:27.342-0600"
},
{
"name" : "FTBFConfigNim_v18",
"assigned" : "2017-12-02T00:29:33.402-0600"
},
{
"name" : "FTBFConfigNim_v19",
"assigned" : "2017-12-02T00:31:11.801-0600"
},
{
"name" : "FTBFConfigNim_v20",
"assigned" : "2017-12-02T00:57:26.434-0600"
},
{
"name" : "FTBFConfigNim_v21",
"assigned" : "2017-12-02T10:58:00.978-0600"
},
{
"name" : "FTBFConfigNim_v22",
"assigned" : "2017-12-02T11:08:17.182-0600"
},
{
"name" : "FTBFConfigNim_v23",
"assigned" : "2017-12-02T11:12:38.739-0600"
},
{
"name" : "FTBFConfigNim_v24",
"assigned" : "2017-12-02T11:18:41.638-0600"
},
{
"name" : "FTBFConfigNim_v25",
"assigned" : "2017-12-02T11:27:04.832-0600"
},
{
"name" : "FTBFConfigNim_v26",
"assigned" : "2017-12-02T11:38:35.880-0600"
},
{
"name" : "FTBFConfigNim_v27",
"assigned" : "2017-12-02T11:49:07.075-0600"
},
{
"name" : "FTBFConfigNim_v28",
"assigned" : "2017-12-02T11:55:08.548-0600"
},
{
"name" : "FTBFConfigNim_v29",
"assigned" : "2017-12-02T12:06:25.371-0600"
},
{
"name" : "FTBFConfig_v71",
"assigned" : "2017-12-02T12:24:14.025-0600"
},
{
"name" : "FTBFConfig_v72",
"assigned" : "2017-12-02T12:43:34.879-0600"
},
{
"name" : "FTBFConfig_v73",
"assigned" : "2017-12-02T13:55:34.547-0600"
},
{
"name" : "FTBFConfig_v74",
"assigned" : "2017-12-02T14:09:06.921-0600"
},
{
"name" : "FTBFConfig_v75",
"assigned" : "2017-12-02T14:12:17.680-0600"
},
{
"name" : "FTBFConfig_v76",
"assigned" : "2017-12-02T19:05:52.758-0600"
},
{
"name" : "FTBFConfig_v77",
"assigned" : "2017-12-02T19:12:12.627-0600"
},
{
"name" : "FTBFConfig_v78",
"assigned" : "2017-12-03T14:03:47.770-0600"
},
{
"name" : "FTBFConfig_v79",
"assigned" : "2017-12-03T14:09:06.027-0600"
},
{
"name" : "FTBFConfig_v80",
"assigned" : "2017-12-03T14:11:09.767-0600"
},
{
"name" : "FTBFConfig_v81",
"assigned" : "2017-12-03T14:22:32.809-0600"
},
{
"name" : "FTBFConfig_v82",
"assigned" : "2017-12-03T14:40:37.597-0600"
},
{
"name" : "FTBFConfig_v83",
"assigned" : "2017-12-03T14:45:04.966-0600"
},
{
"name" : "FTBFConfig_v84",
"assigned" : "2017-12-04T14:51:30.294-0600"
},
{
"name" : "FTBFConfig_v85",
"assigned" : "2017-12-04T14:55:43.470-0600"
},
{
"name" : "FTBFConfig_v86",
"assigned" : "2017-12-04T16:51:06.502-0600"
},
{
"name" : "FTBFConfig_v87",
"assigned" : "2017-12-04T16:56:47.140-0600"
},
{
"name" : "FTBFConfig_v88",
"assigned" : "2017-12-04T17:01:11.868-0600"
},
{
"name" : "FTBFConfig_v89",
"assigned" : "2017-12-04T17:03:56.980-0600"
},
{
"name" : "FTBFConfig_v90",
"assigned" : "2017-12-04T17:07:16.617-0600"
},
{
"name" : "FTBFConfig_v91",
"assigned" : "2017-12-04T17:09:25.743-0600"
},
{
"name" : "FTBFConfig_v92",
"assigned" : "2017-12-04T17:11:38.240-0600"
},
{
"name" : "FTBFConfig_v93",
"assigned" : "2017-12-04T21:05:20.816-0600"
},
{
"name" : "FTBFConfig_v94",
"assigned" : "2017-12-04T21:17:11.764-0600"
},
{
"name" : "FTBFConfig_v95",
"assigned" : "2017-12-04T21:41:17.427-0600"
},
{
"name" : "FTBFConfig_v96",
"assigned" : "2017-12-04T22:39:02.073-0600"
},
{
"name" : "FTBFConfig_v97",
"assigned" : "2017-12-04T23:01:12.573-0600"
},
{
"name" : "FTBFConfig_v98",
"assigned" : "2017-12-07T11:07:46.577-0600"
},
{
"name" : "FTBFConfig_v99",
"assigned" : "2017-12-07T11:49:59.264-0600"
},
{
"name" : "FTBFConfig_v100",
"assigned" : "2017-12-07T11:58:25.997-0600"
},
{
"name" : "FTBFConfig_v101",
"assigned" : "2017-12-08T13:30:48.165-0600"
},
{
"name" : "FTBFConfig_v102",
"assigned" : "2017-12-08T13:32:35.029-0600"
},
{
"name" : "FTBFConfig_v103",
"assigned" : "2017-12-12T11:03:04.841-0600"
},
{
"name" : "FTBFConfig_v104",
"assigned" : "2017-12-12T13:50:59.286-0600"
},
{
"name" : "FTBFConfig_v105",
"assigned" : "2017-12-12T15:25:05.293-0600"
},
{
"name" : "FTBFConfig_v106",
"assigned" : "2017-12-13T10:24:23.640-0600"
},
{
"name" : "FTBFConfig_v107",
"assigned" : "2017-12-13T10:27:02.380-0600"
},
{
"name" : "FTBFConfig_v108",
"assigned" : "2018-02-01T21:14:25.939-0600"
},
{
"name" : "FTBFConfig_v109",
"assigned" : "2018-02-01T21:21:03.074-0600"
},
{
"name" : "FTBFConfig_v110",
"assigned" : "2018-02-02T11:25:34.036-0600"
},
{
"name" : "FTBFConfig_v111",
"assigned" : "2018-02-02T11:37:12.856-0600"
},
{
"name" : "FTBFConfig_v112",
"assigned" : "2018-02-02T11:47:15.365-0600"
},
{
"name" : "FTBFConfig_v113",
"assigned" : "2018-02-02T11:53:36.616-0600"
},
{
"name" : "FTBFConfig_v114",
"assigned" : "2018-02-02T12:00:52.718-0600"
},
{
"name" : "FTBFConfig_v115",
"assigned" : "2018-02-02T12:27:14.191-0600"
},
{
"name" : "FTBFConfig_v116",
"assigned" : "2018-02-02T14:28:53.716-0600"
},
{
"name" : "FTBFConfig_v117",
"assigned" : "2018-02-02T14:30:20.057-0600"
},
{
"name" : "FTBFConfig_v118",
"assigned" : "2018-02-02T14:34:01.323-0600"
},
{
"name" : "FTBFConfig_v119",
"assigned" : "2018-02-02T14:36:27.919-0600"
},
{
"name" : "FTBFConfig_v120",
"assigned" : "2018-02-02T14:38:41.275-0600"
},
{
"name" : "FTBFConfig_v121",
"assigned" : "2018-02-02T14:41:50.574-0600"
},
{
"name" : "FTBFConfig_v122",
"assigned" : "2018-02-02T14:50:24.657-0600"
},
{
"name" : "FTBFConfig_v123",
"assigned" : "2018-02-02T14:52:57.511-0600"
},
{
"name" : "FTBFConfig_v124",
"assigned" : "2018-02-02T14:59:50.833-0600"
},
{
"name" : "FTBFConfig_v125",
"assigned" : "2018-02-02T15:04:08.946-0600"
},
{
"name" : "FTBFConfig_v126",
"assigned" : "2018-02-02T15:50:12.165-0600"
},
{
"name" : "FTBFConfig_v127",
"assigned" : "2018-02-02T15:51:31.649-0600"
},
{
"name" : "FTBFConfig_v128",
"assigned" : "2018-02-02T15:52:36.805-0600"
},
{
"name" : "FTBFConfig_v129",
"assigned" : "2018-02-02T16:02:45.711-0600"
},
{
"name" : "FTBFConfig_v130",
"assigned" : "2018-02-02T16:08:45.250-0600"
},
{
"name" : "FTBFConfig_v131",
"assigned" : "2018-02-02T16:11:31.104-0600"
},
{
"name" : "FTBFConfig_v132",
"assigned" : "2018-02-02T16:12:58.967-0600"
},
{
"name" : "FTBFConfig_v133",
"assigned" : "2018-02-02T16:14:29.556-0600"
},
{
"name" : "FTBFConfig_v134",
"assigned" : "2018-02-02T16:26:22.465-0600"
},
{
"name" : "FTBFConfig_v135",
"assigned" : "2018-02-02T16:27:09.578-0600"
},
{
"name" : "FTBFConfig_v136",
"assigned" : "2018-02-02T16:29:30.937-0600"
},
{
"name" : "FTBFConfig_v137",
"assigned" : "2018-02-02T16:31:41.542-0600"
},
{
"name" : "FTBFConfig_v138",
"assigned" : "2018-02-02T16:34:14.214-0600"
},
{
"name" : "FTBFConfig_v139",
"assigned" : "2018-02-02T17:39:30.264-0600"
},
{
"name" : "FTBFConfig_v140",
"assigned" : "2018-02-02T17:42:52.443-0600"
},
{
"name" : "FTBFConfig_v141",
"assigned" : "2018-02-02T17:47:37.629-0600"
},
{
"name" : "FTBFConfig_v142",
"assigned" : "2018-02-02T17:54:01.652-0600"
}
],
"changelog" : "notprovided",
"bookkeeping" : {
"isdeleted" : false,
"isreadonly" : false,
"updates" : [
{
"event" : "addConfiguration",
"timestamp" : "2017-11-08T15:56:03.538-0600",
"value" : {
"name" : "notprovided",
"assigned" : "2017-11-08T15:56:03.538-0600"
}
},
{
"event" : "setVersion",
"timestamp" : "2017-11-08T15:56:03.541-0600",
"value" : {
"name" : "0",
"assigned" : "2017-11-08T15:56:03.541-0600"
}
},
{
"event" : "setCollection",
"timestamp" : "2017-11-08T15:56:03.543-0600",
"value" : {
"name" : "DetectorConfiguration",
"assigned" : "2017-11-08T15:56:03.543-0600"
}
},
{
"event" : "addEntity",
"timestamp" : "2017-11-08T15:56:03.546-0600",
"value" : {
"name" : "OTSROOT",
"assigned" : "2017-11-08T15:56:03.546-0600"
}
},
{
"event" : "addConfiguration",
"timestamp" : "2017-11-08T15:56:06.368-0600",
"value" : {
"name" : "FTBFConfig_v0",
"assigned" : "2017-11-08T15:56:06.368-0600"
}
},
{
"event" : "addConfiguration",
"timestamp" : "2017-11-09T09:56:31.134-0600",
"value" : {
"name" : "FTBFConfig_v1",
"assigned" : "2017-11-09T09:56:31.134-0600"
}
},
{
"event" : "addConfiguration",
"timestamp" : "2017-11-09T10:06:00.114-0600",
"value" : {
"name" : "FTBFConfig_v2",
"assigned" : "2017-11-09T10:06:00.114-0600"
}
},
{
"event" : "addConfiguration",
"timestamp" : "2017-11-09T10:37:11.671-0600",
"value" : {
"name" : "FTBFConfig_v3",
"assigned" : "2017-11-09T10:37:11.671-0600"
}
},
{
"event" : "addConfiguration",
"timestamp" : "2017-11-15T11:30:10.490-0600",
"value" : {
"name" : "FTBFConfig_v4",
"assigned" : "2017-11-15T11:30:10.490-0600"
}
},
{
"event" : "addConfiguration",
"timestamp" : "2017-11-15T11:54:57.316-0600",
"value" : {
"name" : "FTBFConfig_v5",
"assigned" : "2017-11-15T11:54:57.316-0600"
}
},
{
"event" : "addConfiguration",
"timestamp" : "2017-11-15T11:57:49.939-0600",
"value" : {
"name" : "FTBFConfig_v6",
"assigned" : "2017-11-15T11:57:49.939-0600"
}
},
{
"event" : "addConfiguration",
"timestamp" : "2017-11-15T12:42:32.403-0600",
"value" : {
"name" : "FTBFConfig_v7",
"assigned" : "2017-11-15T12:42:32.403-0600"
}
},
{
"event" : "addConfiguration",
"timestamp" : "2017-11-15T13:01:03.430-0600",
"value" : {
"name" : "FTBFConfig_v8",
"assigned" : "2017-11-15T13:01:03.430-0600"
}
},
{
"event" : "addConfiguration",
"timestamp" : "2017-11-15T13:02:56.766-0600",
"value" : {
"name" : "FTBFConfig_v9",
"assigned" : "2017-11-15T13:02:56.766-0600"
}
},
{
"event" : "addConfiguration",
"timestamp" : "2017-11-15T13:04:24.347-0600",
"value" : {
"name" : "FTBFConfig_v10",
"assigned" : "2017-11-15T13:04:24.347-0600"
}
},
{
"event" : "addConfiguration",
"timestamp" : "2017-11-15T13:07:51.855-0600",
"value" : {
"name" : "FTBFConfig_v11",
"assigned" : "2017-11-15T13:07:51.855-0600"
}
},
{
"event" : "addConfiguration",
"timestamp" : "2017-11-15T13:11:59.317-0600",
"value" : {
"name" : "FTBFConfig_v12",
"assigned" : "2017-11-15T13:11:59.317-0600"
}
},
{
"event" : "addConfiguration",
"timestamp" : "2017-11-15T13:13:53.266-0600",
"value" : {
"name" : "FTBFConfig_v13",
"assigned" : "2017-11-15T13:13:53.266-0600"
}
},
{
"event" : "addConfiguration",
"timestamp" : "2017-11-15T13:27:30.322-0600",
"value" : {
"name" : "FTBFConfig_v14",
"assigned" : "2017-11-15T13:27:30.322-0600"
}
},
{
"event" : "addConfiguration",
"timestamp" : "2017-11-15T13:35:47.269-0600",
"value" : {
"name" : "FTBFConfig_v15",
"assigned" : "2017-11-15T13:35:47.269-0600"
}
},
{
"event" : "addConfiguration",
"timestamp" : "2017-11-15T13:36:51.883-0600",
"value" : {
"name" : "FTBFConfig_v16",
"assigned" : "2017-11-15T13:36:51.883-0600"
}
},
{
"event" : "addConfiguration",
"timestamp" : "2017-11-15T15:33:30.428-0600",
"value" : {
"name" : "FTBFConfig_v17",
"assigned" : "2017-11-15T15:33:30.428-0600"
}
},
{
"event" : "addConfiguration",
"timestamp" : "2017-11-15T15:35:34.049-0600",
"value" : {
"name" : "FTBFConfig_v18",
"assigned" : "2017-11-15T15:35:34.049-0600"
}
},
{
"event" : "addConfiguration",
"timestamp" : "2017-11-15T15:38:02.904-0600",
"value" : {
"name" : "FTBFConfig_v19",
"assigned" : "2017-11-15T15:38:02.904-0600"
}
},
{
"event" : "addConfiguration",
"timestamp" : "2017-11-15T16:26:30.831-0600",
"value" : {
"name" : "FTBFConfig_v20",
"assigned" : "2017-11-15T16:26:30.831-0600"
}
},
{
"event" : "addConfiguration",
"timestamp" : "2017-11-16T09:22:31.712-0600",
"value" : {
"name" : "FTBFConfig_v21",
"assigned" : "2017-11-16T09:22:31.712-0600"
}
},
{
"event" : "addConfiguration",
"timestamp" : "2017-11-17T10:23:27.936-0600",
"value" : {
"name" : "FTBFConfig_v22",
"assigned" : "2017-11-17T10:23:27.936-0600"
}
},
{
"event" : "addConfiguration",
"timestamp" : "2017-11-17T17:26:45.499-0600",
"value" : {
"name" : "FTBFConfig_v23",
"assigned" : "2017-11-17T17:26:45.499-0600"
}
},
{
"event" : "addConfiguration",
"timestamp" : "2017-11-17T17:58:26.018-0600",
"value" : {
"name" : "FTBFConfig_v24",
"assigned" : "2017-11-17T17:58:26.018-0600"
}
},
{
"event" : "addConfiguration",
"timestamp" : "2017-11-17T18:24:45.687-0600",
"value" : {
"name" : "FTBFConfig_v25",
"assigned" : "2017-11-17T18:24:45.687-0600"
}
},
{
"event" : "addConfiguration",
"timestamp" : "2017-11-17T18:32:23.248-0600",
"value" : {
"name" : "FTBFConfig_v26",
"assigned" : "2017-11-17T18:32:23.248-0600"
}
},
{
"event" : "addConfiguration",
"timestamp" : "2017-11-17T18:43:30.443-0600",
"value" : {
"name" : "FTBFConfig_v27",
"assigned" : "2017-11-17T18:43:30.443-0600"
}
},
{
"event" : "addConfiguration",
"timestamp" : "2017-11-17T18:48:32.479-0600",
"value" : {
"name" : "FTBFConfig_v28",
"assigned" : "2017-11-17T18:48:32.479-0600"
}
},
{
"event" : "addConfiguration",
"timestamp" : "2017-11-20T14:48:31.087-0600",
"value" : {
"name" : "FTBFConfig_v29",
"assigned" : "2017-11-20T14:48:31.087-0600"
}
},
{
"event" : "addConfiguration",
"timestamp" : "2017-11-20T15:39:56.222-0600",
"value" : {
"name" : "FTBFConfig_v30",
"assigned" : "2017-11-20T15:39:56.222-0600"
}
},
{
"event" : "addConfiguration",
"timestamp" : "2017-11-20T16:41:02.244-0600",
"value" : {
"name" : "FTBFConfig_v31",
"assigned" : "2017-11-20T16:41:02.244-0600"
}
},
{
"event" : "addConfiguration",
"timestamp" : "2017-11-20T18:55:35.166-0600",
"value" : {
"name" : "FTBFConfig_v32",
"assigned" : "2017-11-20T18:55:35.166-0600"
}
},
{
"event" : "addConfiguration",
"timestamp" : "2017-11-20T18:57:30.448-0600",
"value" : {
"name" : "FTBFConfig_v33",
"assigned" : "2017-11-20T18:57:30.448-0600"
}
},
{
"event" : "addConfiguration",
"timestamp" : "2017-11-29T17:50:39.937-0600",
"value" : {
"name" : "FTBFConfig_v34",
"assigned" : "2017-11-29T17:50:39.937-0600"
}
},
{
"event" : "addConfiguration",
"timestamp" : "2017-11-29T18:00:32.898-0600",
"value" : {
"name" : "FTBFConfig_v35",
"assigned" : "2017-11-29T18:00:32.897-0600"
}
},
{
"event" : "addConfiguration",
"timestamp" : "2017-11-29T18:35:11.604-0600",
"value" : {
"name" : "FTBFConfig_v36",
"assigned" : "2017-11-29T18:35:11.604-0600"
}
},
{
"event" : "addConfiguration",
"timestamp" : "2017-12-01T09:36:18.057-0600",
"value" : {
"name" : "FTBFConfig_v37",
"assigned" : "2017-12-01T09:36:18.057-0600"
}
},
{
"event" : "addConfiguration",
"timestamp" : "2017-12-01T09:52:01.331-0600",
"value" : {
"name" : "FTBFConfig_v38",
"assigned" : "2017-12-01T09:52:01.331-0600"
}
},
{
"event" : "addConfiguration",
"timestamp" : "2017-12-01T11:51:58.598-0600",
"value" : {
"name" : "FTBFConfig_v39",
"assigned" : "2017-12-01T11:51:58.598-0600"
}
},
{
"event" : "addConfiguration",
"timestamp" : "2017-12-01T12:18:20.636-0600",
"value" : {
"name" : "FTBFConfig_v40",
"assigned" : "2017-12-01T12:18:20.636-0600"
}
},
{
"event" : "addConfiguration",
"timestamp" : "2017-12-01T12:21:02.691-0600",
"value" : {
"name" : "FTBFConfig_v41",
"assigned" : "2017-12-01T12:21:02.691-0600"
}
},
{
"event" : "addConfiguration",
"timestamp" : "2017-12-01T12:43:22.000-0600",
"value" : {
"name" : "FTBFConfig_v42",
"assigned" : "2017-12-01T12:43:22.000-0600"
}
},
{
"event" : "addConfiguration",
"timestamp" : "2017-12-01T12:57:59.821-0600",
"value" : {
"name" : "FTBFConfig_v43",
"assigned" : "2017-12-01T12:57:59.821-0600"
}
},
{
"event" : "addConfiguration",
"timestamp" : "2017-12-01T13:00:52.434-0600",
"value" : {
"name" : "FTBFConfig_v44",
"assigned" : "2017-12-01T13:00:52.434-0600"
}
},
{
"event" : "addConfiguration",
"timestamp" : "2017-12-01T13:25:49.042-0600",
"value" : {
"name" : "FTBFConfig_v45",
"assigned" : "2017-12-01T13:25:49.042-0600"
}
},
{
"event" : "addConfiguration",
"timestamp" : "2017-12-01T13:35:43.777-0600",
"value" : {
"name" : "FTBFConfig_v46",
"assigned" : "2017-12-01T13:35:43.777-0600"
}
},
{
"event" : "addConfiguration",
"timestamp" : "2017-12-01T14:00:52.098-0600",
"value" : {
"name" : "FTBFConfig_v47",
"assigned" : "2017-12-01T14:00:52.098-0600"
}
},
{
"event" : "addConfiguration",
"timestamp" : "2017-12-01T14:03:59.444-0600",
"value" : {
"name" : "FTBFConfig_v48",
"assigned" : "2017-12-01T14:03:59.444-0600"
}
},
{
"event" : "addConfiguration",
"timestamp" : "2017-12-01T15:31:59.596-0600",
"value" : {
"name" : "FTBFConfig_v49",
"assigned" : "2017-12-01T15:31:59.595-0600"
}
},
{
"event" : "addConfiguration",
"timestamp" : "2017-12-01T15:37:31.914-0600",
"value" : {
"name" : "FTBFConfig_v52",
"assigned" : "2017-12-01T15:37:31.914-0600"
}
},
{
"event" : "addConfiguration",
"timestamp" : "2017-12-01T15:40:59.111-0600",
"value" : {
"name" : "FTBFConfig_v53",
"assigned" : "2017-12-01T15:40:59.111-0600"
}
},
{
"event" : "addConfiguration",
"timestamp" : "2017-12-01T15:52:49.428-0600",
"value" : {
"name" : "FTBFConfig_v54",
"assigned" : "2017-12-01T15:52:49.428-0600"
}
},
{
"event" : "addConfiguration",
"timestamp" : "2017-12-01T15:54:34.577-0600",
"value" : {
"name" : "FTBFConfig_v55",
"assigned" : "2017-12-01T15:54:34.577-0600"
}
},
{
"event" : "addConfiguration",
"timestamp" : "2017-12-01T15:55:34.150-0600",
"value" : {
"name" : "FTBFConfig_v56",
"assigned" : "2017-12-01T15:55:34.150-0600"
}
},
{
"event" : "addConfiguration",
"timestamp" : "2017-12-01T15:56:39.989-0600",
"value" : {
"name" : "FTBFConfig_v57",
"assigned" : "2017-12-01T15:56:39.989-0600"
}
},
{
"event" : "addConfiguration",
"timestamp" : "2017-12-01T15:57:38.047-0600",
"value" : {
"name" : "FTBFConfig_v58",
"assigned" : "2017-12-01T15:57:38.047-0600"
}
},
{
"event" : "addConfiguration",
"timestamp" : "2017-12-01T15:58:29.963-0600",
"value" : {
"name" : "FTBFConfig_v59",
"assigned" : "2017-12-01T15:58:29.963-0600"
}
},
{
"event" : "addConfiguration",
"timestamp" : "2017-12-01T15:59:31.171-0600",
"value" : {
"name" : "FTBFConfig_v60",
"assigned" : "2017-12-01T15:59:31.171-0600"
}
},
{
"event" : "addConfiguration",
"timestamp" : "2017-12-01T16:19:41.000-0600",
"value" : {
"name" : "FTBFConfig_v61",
"assigned" : "2017-12-01T16:19:41.000-0600"
}
},
{
"event" : "addConfiguration",
"timestamp" : "2017-12-01T16:22:03.485-0600",
"value" : {
"name" : "FTBFConfig_v62",
"assigned" : "2017-12-01T16:22:03.485-0600"
}
},
{
"event" : "addConfiguration",
"timestamp" : "2017-12-01T16:31:24.112-0600",
"value" : {
"name" : "FTBFConfig_v63",
"assigned" : "2017-12-01T16:31:24.112-0600"
}
},
{
"event" : "addConfiguration",
"timestamp" : "2017-12-01T17:06:31.336-0600",
"value" : {
"name" : "FTBFConfig_v64",
"assigned" : "2017-12-01T17:06:31.336-0600"
}
},
{
"event" : "addConfiguration",
"timestamp" : "2017-12-01T17:32:43.465-0600",
"value" : {
"name" : "FTBFConfig_v65",
"assigned" : "2017-12-01T17:32:43.465-0600"
}
},
{
"event" : "addConfiguration",
"timestamp" : "2017-12-01T20:38:49.969-0600",
"value" : {
"name" : "FTBFConfig_v66",
"assigned" : "2017-12-01T20:38:49.969-0600"
}
},
{
"event" : "addConfiguration",
"timestamp" : "2017-12-01T21:25:01.317-0600",
"value" : {
"name" : "FTBFConfig_v67",
"assigned" : "2017-12-01T21:25:01.317-0600"
}
},
{
"event" : "addConfiguration",
"timestamp" : "2017-12-01T21:43:01.002-0600",
"value" : {
"name" : "FTBFConfig_v68",
"assigned" : "2017-12-01T21:43:01.002-0600"
}
},
{
"event" : "addConfiguration",
"timestamp" : "2017-12-01T21:44:59.600-0600",
"value" : {
"name" : "FTBFConfig_v69",
"assigned" : "2017-12-01T21:44:59.600-0600"
}
},
{
"event" : "addConfiguration",
"timestamp" : "2017-12-01T21:59:18.860-0600",
"value" : {
"name" : "FTBFConfig_v70",
"assigned" : "2017-12-01T21:59:18.860-0600"
}
},
{
"event" : "addConfiguration",
"timestamp" : "2017-12-01T22:00:05.593-0600",
"value" : {
"name" : "FTBFConfigNim_v0",
"assigned" : "2017-12-01T22:00:05.593-0600"
}
},
{
"event" : "addConfiguration",
"timestamp" : "2017-12-01T22:13:07.363-0600",
"value" : {
"name" : "FTBFConfigNim_v1",
"assigned" : "2017-12-01T22:13:07.363-0600"
}
},
{
"event" : "addConfiguration",
"timestamp" : "2017-12-01T22:15:54.607-0600",
"value" : {
"name" : "FTBFConfigNim_v2",
"assigned" : "2017-12-01T22:15:54.607-0600"
}
},
{
"event" : "addConfiguration",
"timestamp" : "2017-12-01T22:17:03.009-0600",
"value" : {
"name" : "FTBFConfigNim_v3",
"assigned" : "2017-12-01T22:17:03.009-0600"
}
},
{
"event" : "addConfiguration",
"timestamp" : "2017-12-01T22:19:05.683-0600",
"value" : {
"name" : "FTBFConfigNim_v4",
"assigned" : "2017-12-01T22:19:05.683-0600"
}
},
{
"event" : "addConfiguration",
"timestamp" : "2017-12-01T22:21:56.435-0600",
"value" : {
"name" : "FTBFConfigNim_v5",
"assigned" : "2017-12-01T22:21:56.434-0600"
}
},
{
"event" : "addConfiguration",
"timestamp" : "2017-12-01T22:23:12.572-0600",
"value" : {
"name" : "FTBFConfigNim_v6",
"assigned" : "2017-12-01T22:23:12.572-0600"
}
},
{
"event" : "addConfiguration",
"timestamp" : "2017-12-01T22:25:16.414-0600",
"value" : {
"name" : "FTBFConfigNim_v7",
"assigned" : "2017-12-01T22:25:16.414-0600"
}
},
{
"event" : "addConfiguration",
"timestamp" : "2017-12-01T22:27:04.097-0600",
"value" : {
"name" : "FTBFConfigNim_v8",
"assigned" : "2017-12-01T22:27:04.097-0600"
}
},
{
"event" : "addConfiguration",
"timestamp" : "2017-12-01T22:29:28.218-0600",
"value" : {
"name" : "FTBFConfigNim_v9",
"assigned" : "2017-12-01T22:29:28.218-0600"
}
},
{
"event" : "addConfiguration",
"timestamp" : "2017-12-01T22:52:33.451-0600",
"value" : {
"name" : "FTBFConfigNim_v10",
"assigned" : "2017-12-01T22:52:33.451-0600"
}
},
{
"event" : "addConfiguration",
"timestamp" : "2017-12-01T22:57:28.214-0600",
"value" : {
"name" : "FTBFConfigNim_v11",
"assigned" : "2017-12-01T22:57:28.214-0600"
}
},
{
"event" : "addConfiguration",
"timestamp" : "2017-12-01T23:00:06.408-0600",
"value" : {
"name" : "FTBFConfigNim_v12",
"assigned" : "2017-12-01T23:00:06.408-0600"
}
},
{
"event" : "addConfiguration",
"timestamp" : "2017-12-01T23:52:34.541-0600",
"value" : {
"name" : "FTBFConfigNim_v13",
"assigned" : "2017-12-01T23:52:34.541-0600"
}
},
{
"event" : "addConfiguration",
"timestamp" : "2017-12-01T23:58:08.998-0600",
"value" : {
"name" : "FTBFConfigNim_v14",
"assigned" : "2017-12-01T23:58:08.998-0600"
}
},
{
"event" : "addConfiguration",
"timestamp" : "2017-12-02T00:00:33.222-0600",
"value" : {
"name" : "FTBFConfigNim_v15",
"assigned" : "2017-12-02T00:00:33.222-0600"
}
},
{
"event" : "addConfiguration",
"timestamp" : "2017-12-02T00:13:08.382-0600",
"value" : {
"name" : "FTBFConfigNim_v16",
"assigned" : "2017-12-02T00:13:08.382-0600"
}
},
{
"event" : "addConfiguration",
"timestamp" : "2017-12-02T00:28:27.342-0600",
"value" : {
"name" : "FTBFConfigNim_v17",
"assigned" : "2017-12-02T00:28:27.342-0600"
}
},
{
"event" : "addConfiguration",
"timestamp" : "2017-12-02T00:29:33.402-0600",
"value" : {
"name" : "FTBFConfigNim_v18",
"assigned" : "2017-12-02T00:29:33.402-0600"
}
},
{
"event" : "addConfiguration",
"timestamp" : "2017-12-02T00:31:11.802-0600",
"value" : {
"name" : "FTBFConfigNim_v19",
"assigned" : "2017-12-02T00:31:11.801-0600"
}
},
{
"event" : "addConfiguration",
"timestamp" : "2017-12-02T00:57:26.434-0600",
"value" : {
"name" : "FTBFConfigNim_v20",
"assigned" : "2017-12-02T00:57:26.434-0600"
}
},
{
"event" : "addConfiguration",
"timestamp" : "2017-12-02T10:58:00.979-0600",
"value" : {
"name" : "FTBFConfigNim_v21",
"assigned" : "2017-12-02T10:58:00.978-0600"
}
},
{
"event" : "addConfiguration",
"timestamp" : "2017-12-02T11:08:17.183-0600",
"value" : {
"name" : "FTBFConfigNim_v22",
"assigned" : "2017-12-02T11:08:17.182-0600"
}
},
{
"event" : "addConfiguration",
"timestamp" : "2017-12-02T11:12:38.740-0600",
"value" : {
"name" : "FTBFConfigNim_v23",
"assigned" : "2017-12-02T11:12:38.739-0600"
}
},
{
"event" : "addConfiguration",
"timestamp" : "2017-12-02T11:18:41.638-0600",
"value" : {
"name" : "FTBFConfigNim_v24",
"assigned" : "2017-12-02T11:18:41.638-0600"
}
},
{
"event" : "addConfiguration",
"timestamp" : "2017-12-02T11:27:04.832-0600",
"value" : {
"name" : "FTBFConfigNim_v25",
"assigned" : "2017-12-02T11:27:04.832-0600"
}
},
{
"event" : "addConfiguration",
"timestamp" : "2017-12-02T11:38:35.880-0600",
"value" : {
"name" : "FTBFConfigNim_v26",
"assigned" : "2017-12-02T11:38:35.880-0600"
}
},
{
"event" : "addConfiguration",
"timestamp" : "2017-12-02T11:49:07.075-0600",
"value" : {
"name" : "FTBFConfigNim_v27",
"assigned" : "2017-12-02T11:49:07.075-0600"
}
},
{
"event" : "addConfiguration",
"timestamp" : "2017-12-02T11:55:08.548-0600",
"value" : {
"name" : "FTBFConfigNim_v28",
"assigned" : "2017-12-02T11:55:08.548-0600"
}
},
{
"event" : "addConfiguration",
"timestamp" : "2017-12-02T12:06:25.371-0600",
"value" : {
"name" : "FTBFConfigNim_v29",
"assigned" : "2017-12-02T12:06:25.371-0600"
}
},
{
"event" : "addConfiguration",
"timestamp" : "2017-12-02T12:24:14.025-0600",
"value" : {
"name" : "FTBFConfig_v71",
"assigned" : "2017-12-02T12:24:14.025-0600"
}
},
{
"event" : "addConfiguration",
"timestamp" : "2017-12-02T12:43:34.879-0600",
"value" : {
"name" : "FTBFConfig_v72",
"assigned" : "2017-12-02T12:43:34.879-0600"
}
},
{
"event" : "addConfiguration",
"timestamp" : "2017-12-02T13:55:34.547-0600",
"value" : {
"name" : "FTBFConfig_v73",
"assigned" : "2017-12-02T13:55:34.547-0600"
}
},
{
"event" : "addConfiguration",
"timestamp" : "2017-12-02T14:09:06.921-0600",
"value" : {
"name" : "FTBFConfig_v74",
"assigned" : "2017-12-02T14:09:06.921-0600"
}
},
{
"event" : "addConfiguration",
"timestamp" : "2017-12-02T14:12:17.680-0600",
"value" : {
"name" : "FTBFConfig_v75",
"assigned" : "2017-12-02T14:12:17.680-0600"
}
},
{
"event" : "addConfiguration",
"timestamp" : "2017-12-02T19:05:52.758-0600",
"value" : {
"name" : "FTBFConfig_v76",
"assigned" : "2017-12-02T19:05:52.758-0600"
}
},
{
"event" : "addConfiguration",
"timestamp" : "2017-12-02T19:12:12.627-0600",
"value" : {
"name" : "FTBFConfig_v77",
"assigned" : "2017-12-02T19:12:12.627-0600"
}
},
{
"event" : "addConfiguration",
"timestamp" : "2017-12-03T14:03:47.771-0600",
"value" : {
"name" : "FTBFConfig_v78",
"assigned" : "2017-12-03T14:03:47.770-0600"
}
},
{
"event" : "addConfiguration",
"timestamp" : "2017-12-03T14:09:06.027-0600",
"value" : {
"name" : "FTBFConfig_v79",
"assigned" : "2017-12-03T14:09:06.027-0600"
}
},
{
"event" : "addConfiguration",
"timestamp" : "2017-12-03T14:11:09.767-0600",
"value" : {
"name" : "FTBFConfig_v80",
"assigned" : "2017-12-03T14:11:09.767-0600"
}
},
{
"event" : "addConfiguration",
"timestamp" : "2017-12-03T14:22:32.810-0600",
"value" : {
"name" : "FTBFConfig_v81",
"assigned" : "2017-12-03T14:22:32.809-0600"
}
},
{
"event" : "addConfiguration",
"timestamp" : "2017-12-03T14:40:37.597-0600",
"value" : {
"name" : "FTBFConfig_v82",
"assigned" : "2017-12-03T14:40:37.597-0600"
}
},
{
"event" : "addConfiguration",
"timestamp" : "2017-12-03T14:45:04.966-0600",
"value" : {
"name" : "FTBFConfig_v83",
"assigned" : "2017-12-03T14:45:04.966-0600"
}
},
{
"event" : "addConfiguration",
"timestamp" : "2017-12-04T14:51:30.294-0600",
"value" : {
"name" : "FTBFConfig_v84",
"assigned" : "2017-12-04T14:51:30.294-0600"
}
},
{
"event" : "addConfiguration",
"timestamp" : "2017-12-04T14:55:43.471-0600",
"value" : {
"name" : "FTBFConfig_v85",
"assigned" : "2017-12-04T14:55:43.470-0600"
}
},
{
"event" : "addConfiguration",
"timestamp" : "2017-12-04T16:51:06.502-0600",
"value" : {
"name" : "FTBFConfig_v86",
"assigned" : "2017-12-04T16:51:06.502-0600"
}
},
{
"event" : "addConfiguration",
"timestamp" : "2017-12-04T16:56:47.140-0600",
"value" : {
"name" : "FTBFConfig_v87",
"assigned" : "2017-12-04T16:56:47.140-0600"
}
},
{
"event" : "addConfiguration",
"timestamp" : "2017-12-04T17:01:11.868-0600",
"value" : {
"name" : "FTBFConfig_v88",
"assigned" : "2017-12-04T17:01:11.868-0600"
}
},
{
"event" : "addConfiguration",
"timestamp" : "2017-12-04T17:03:56.981-0600",
"value" : {
"name" : "FTBFConfig_v89",
"assigned" : "2017-12-04T17:03:56.980-0600"
}
},
{
"event" : "addConfiguration",
"timestamp" : "2017-12-04T17:07:16.617-0600",
"value" : {
"name" : "FTBFConfig_v90",
"assigned" : "2017-12-04T17:07:16.617-0600"
}
},
{
"event" : "addConfiguration",
"timestamp" : "2017-12-04T17:09:25.743-0600",
"value" : {
"name" : "FTBFConfig_v91",
"assigned" : "2017-12-04T17:09:25.743-0600"
}
},
{
"event" : "addConfiguration",
"timestamp" : "2017-12-04T17:11:38.240-0600",
"value" : {
"name" : "FTBFConfig_v92",
"assigned" : "2017-12-04T17:11:38.240-0600"
}
},
{
"event" : "addConfiguration",
"timestamp" : "2017-12-04T21:05:20.816-0600",
"value" : {
"name" : "FTBFConfig_v93",
"assigned" : "2017-12-04T21:05:20.816-0600"
}
},
{
"event" : "addConfiguration",
"timestamp" : "2017-12-04T21:17:11.764-0600",
"value" : {
"name" : "FTBFConfig_v94",
"assigned" : "2017-12-04T21:17:11.764-0600"
}
},
{
"event" : "addConfiguration",
"timestamp" : "2017-12-04T21:41:17.427-0600",
"value" : {
"name" : "FTBFConfig_v95",
"assigned" : "2017-12-04T21:41:17.427-0600"
}
},
{
"event" : "addConfiguration",
"timestamp" : "2017-12-04T22:39:02.074-0600",
"value" : {
"name" : "FTBFConfig_v96",
"assigned" : "2017-12-04T22:39:02.073-0600"
}
},
{
"event" : "addConfiguration",
"timestamp" : "2017-12-04T23:01:12.574-0600",
"value" : {
"name" : "FTBFConfig_v97",
"assigned" : "2017-12-04T23:01:12.573-0600"
}
},
{
"event" : "addConfiguration",
"timestamp" : "2017-12-07T11:07:46.577-0600",
"value" : {
"name" : "FTBFConfig_v98",
"assigned" : "2017-12-07T11:07:46.577-0600"
}
},
{
"event" : "addConfiguration",
"timestamp" : "2017-12-07T11:49:59.264-0600",
"value" : {
"name" : "FTBFConfig_v99",
"assigned" : "2017-12-07T11:49:59.264-0600"
}
},
{
"event" : "addConfiguration",
"timestamp" : "2017-12-07T11:58:25.997-0600",
"value" : {
"name" : "FTBFConfig_v100",
"assigned" : "2017-12-07T11:58:25.997-0600"
}
},
{
"event" : "addConfiguration",
"timestamp" : "2017-12-08T13:30:48.165-0600",
"value" : {
"name" : "FTBFConfig_v101",
"assigned" : "2017-12-08T13:30:48.165-0600"
}
},
{
"event" : "addConfiguration",
"timestamp" : "2017-12-08T13:32:35.029-0600",
"value" : {
"name" : "FTBFConfig_v102",
"assigned" : "2017-12-08T13:32:35.029-0600"
}
},
{
"event" : "addConfiguration",
"timestamp" : "2017-12-12T11:03:04.841-0600",
"value" : {
"name" : "FTBFConfig_v103",
"assigned" : "2017-12-12T11:03:04.841-0600"
}
},
{
"event" : "addConfiguration",
"timestamp" : "2017-12-12T13:50:59.286-0600",
"value" : {
"name" : "FTBFConfig_v104",
"assigned" : "2017-12-12T13:50:59.286-0600"
}
},
{
"event" : "addConfiguration",
"timestamp" : "2017-12-12T15:25:05.293-0600",
"value" : {
"name" : "FTBFConfig_v105",
"assigned" : "2017-12-12T15:25:05.293-0600"
}
},
{
"event" : "addConfiguration",
"timestamp" : "2017-12-13T10:24:23.640-0600",
"value" : {
"name" : "FTBFConfig_v106",
"assigned" : "2017-12-13T10:24:23.640-0600"
}
},
{
"event" : "addConfiguration",
"timestamp" : "2017-12-13T10:27:02.381-0600",
"value" : {
"name" : "FTBFConfig_v107",
"assigned" : "2017-12-13T10:27:02.380-0600"
}
},
{
"event" : "addConfiguration",
"timestamp" : "2018-02-01T21:14:25.939-0600",
"value" : {
"name" : "FTBFConfig_v108",
"assigned" : "2018-02-01T21:14:25.939-0600"
}
},
{
"event" : "addConfiguration",
"timestamp" : "2018-02-01T21:21:03.074-0600",
"value" : {
"name" : "FTBFConfig_v109",
"assigned" : "2018-02-01T21:21:03.074-0600"
}
},
{
"event" : "addConfiguration",
"timestamp" : "2018-02-02T11:25:34.036-0600",
"value" : {
"name" : "FTBFConfig_v110",
"assigned" : "2018-02-02T11:25:34.036-0600"
}
},
{
"event" : "addConfiguration",
"timestamp" : "2018-02-02T11:37:12.856-0600",
"value" : {
"name" : "FTBFConfig_v111",
"assigned" : "2018-02-02T11:37:12.856-0600"
}
},
{
"event" : "addConfiguration",
"timestamp" : "2018-02-02T11:47:15.365-0600",
"value" : {
"name" : "FTBFConfig_v112",
"assigned" : "2018-02-02T11:47:15.365-0600"
}
},
{
"event" : "addConfiguration",
"timestamp" : "2018-02-02T11:53:36.616-0600",
"value" : {
"name" : "FTBFConfig_v113",
"assigned" : "2018-02-02T11:53:36.616-0600"
}
},
{
"event" : "addConfiguration",
"timestamp" : "2018-02-02T12:00:52.719-0600",
"value" : {
"name" : "FTBFConfig_v114",
"assigned" : "2018-02-02T12:00:52.718-0600"
}
},
{
"event" : "addConfiguration",
"timestamp" : "2018-02-02T12:27:14.191-0600",
"value" : {
"name" : "FTBFConfig_v115",
"assigned" : "2018-02-02T12:27:14.191-0600"
}
},
{
"event" : "addConfiguration",
"timestamp" : "2018-02-02T14:28:53.717-0600",
"value" : {
"name" : "FTBFConfig_v116",
"assigned" : "2018-02-02T14:28:53.716-0600"
}
},
{
"event" : "addConfiguration",
"timestamp" : "2018-02-02T14:30:20.057-0600",
"value" : {
"name" : "FTBFConfig_v117",
"assigned" : "2018-02-02T14:30:20.057-0600"
}
},
{
"event" : "addConfiguration",
"timestamp" : "2018-02-02T14:34:01.323-0600",
"value" : {
"name" : "FTBFConfig_v118",
"assigned" : "2018-02-02T14:34:01.323-0600"
}
},
{
"event" : "addConfiguration",
"timestamp" : "2018-02-02T14:36:27.920-0600",
"value" : {
"name" : "FTBFConfig_v119",
"assigned" : "2018-02-02T14:36:27.919-0600"
}
},
{
"event" : "addConfiguration",
"timestamp" : "2018-02-02T14:38:41.275-0600",
"value" : {
"name" : "FTBFConfig_v120",
"assigned" : "2018-02-02T14:38:41.275-0600"
}
},
{
"event" : "addConfiguration",
"timestamp" : "2018-02-02T14:41:50.574-0600",
"value" : {
"name" : "FTBFConfig_v121",
"assigned" : "2018-02-02T14:41:50.574-0600"
}
},
{
"event" : "addConfiguration",
"timestamp" : "2018-02-02T14:50:24.657-0600",
"value" : {
"name" : "FTBFConfig_v122",
"assigned" : "2018-02-02T14:50:24.657-0600"
}
},
{
"event" : "addConfiguration",
"timestamp" : "2018-02-02T14:52:57.511-0600",
"value" : {
"name" : "FTBFConfig_v123",
"assigned" : "2018-02-02T14:52:57.511-0600"
}
},
{
"event" : "addConfiguration",
"timestamp" : "2018-02-02T14:59:50.833-0600",
"value" : {
"name" : "FTBFConfig_v124",
"assigned" : "2018-02-02T14:59:50.833-0600"
}
},
{
"event" : "addConfiguration",
"timestamp" : "2018-02-02T15:04:08.947-0600",
"value" : {
"name" : "FTBFConfig_v125",
"assigned" : "2018-02-02T15:04:08.946-0600"
}
},
{
"event" : "addConfiguration",
"timestamp" : "2018-02-02T15:50:12.165-0600",
"value" : {
"name" : "FTBFConfig_v126",
"assigned" : "2018-02-02T15:50:12.165-0600"
}
},
{
"event" : "addConfiguration",
"timestamp" : "2018-02-02T15:51:31.650-0600",
"value" : {
"name" : "FTBFConfig_v127",
"assigned" : "2018-02-02T15:51:31.649-0600"
}
},
{
"event" : "addConfiguration",
"timestamp" : "2018-02-02T15:52:36.806-0600",
"value" : {
"name" : "FTBFConfig_v128",
"assigned" : "2018-02-02T15:52:36.805-0600"
}
},
{
"event" : "addConfiguration",
"timestamp" : "2018-02-02T16:02:45.711-0600",
"value" : {
"name" : "FTBFConfig_v129",
"assigned" : "2018-02-02T16:02:45.711-0600"
}
},
{
"event" : "addConfiguration",
"timestamp" : "2018-02-02T16:08:45.251-0600",
"value" : {
"name" : "FTBFConfig_v130",
"assigned" : "2018-02-02T16:08:45.250-0600"
}
},
{
"event" : "addConfiguration",
"timestamp" : "2018-02-02T16:11:31.104-0600",
"value" : {
"name" : "FTBFConfig_v131",
"assigned" : "2018-02-02T16:11:31.104-0600"
}
},
{
"event" : "addConfiguration",
"timestamp" : "2018-02-02T16:12:58.967-0600",
"value" : {
"name" : "FTBFConfig_v132",
"assigned" : "2018-02-02T16:12:58.967-0600"
}
},
{
"event" : "addConfiguration",
"timestamp" : "2018-02-02T16:14:29.556-0600",
"value" : {
"name" : "FTBFConfig_v133",
"assigned" : "2018-02-02T16:14:29.556-0600"
}
},
{
"event" : "addConfiguration",
"timestamp" : "2018-02-02T16:26:22.465-0600",
"value" : {
"name" : "FTBFConfig_v134",
"assigned" : "2018-02-02T16:26:22.465-0600"
}
},
{
"event" : "addConfiguration",
"timestamp" : "2018-02-02T16:27:09.578-0600",
"value" : {
"name" : "FTBFConfig_v135",
"assigned" : "2018-02-02T16:27:09.578-0600"
}
},
{
"event" : "addConfiguration",
"timestamp" : "2018-02-02T16:29:30.937-0600",
"value" : {
"name" : "FTBFConfig_v136",
"assigned" : "2018-02-02T16:29:30.937-0600"
}
},
{
"event" : "addConfiguration",
"timestamp" : "2018-02-02T16:31:41.543-0600",
"value" : {
"name" : "FTBFConfig_v137",
"assigned" : "2018-02-02T16:31:41.542-0600"
}
},
{
"event" : "addConfiguration",
"timestamp" : "2018-02-02T16:34:14.214-0600",
"value" : {
"name" : "FTBFConfig_v138",
"assigned" : "2018-02-02T16:34:14.214-0600"
}
},
{
"event" : "addConfiguration",
"timestamp" : "2018-02-02T17:39:30.264-0600",
"value" : {
"name" : "FTBFConfig_v139",
"assigned" : "2018-02-02T17:39:30.264-0600"
}
},
{
"event" : "addConfiguration",
"timestamp" : "2018-02-02T17:42:52.443-0600",
"value" : {
"name" : "FTBFConfig_v140",
"assigned" : "2018-02-02T17:42:52.443-0600"
}
},
{
"event" : "addConfiguration",
"timestamp" : "2018-02-02T17:47:37.629-0600",
"value" : {
"name" : "FTBFConfig_v141",
"assigned" : "2018-02-02T17:47:37.629-0600"
}
},
{
"event" : "addConfiguration",
"timestamp" : "2018-02-02T17:54:01.652-0600",
"value" : {
"name" : "FTBFConfig_v142",
"assigned" : "2018-02-02T17:54:01.652-0600"
}
}
],
"created" : "2017-11-08T15:56:03.532-0600"
},
"_id" : {
"$oid" : "00aa1546cf1341279218a9ec"
},
"collection" : "DetectorConfiguration",
"aliases" : {
"active" : [

],
"history" : [

]
},
"runs" : [

],
"attachments" : [

],
"configtype" : "notprovided"
}