{
"ouid" : [
"1219c76378ee4a8aa650cf78",
"2e80de9eef79403eba404cdb",
"a97c2b5a2d044e13843fe74c",
"ca7cc6e3c4ac450ab91a297d",
"cb5b0e01b3094f848e53dd96",
"ce992370485d441eb495e951",
"d004457a76c446fdb46de1c1",
"f1b6ee6127744d9c85317ea9"
],
"version" : {
"0" : [
"2e80de9eef79403eba404cdb"
],
"1" : [
"cb5b0e01b3094f848e53dd96"
],
"2" : [
"a97c2b5a2d044e13843fe74c"
],
"3" : [
"1219c76378ee4a8aa650cf78"
],
"4" : [
"d004457a76c446fdb46de1c1"
],
"5" : [
"ca7cc6e3c4ac450ab91a297d"
],
"6" : [
"ce992370485d441eb495e951"
],
"7" : [
"f1b6ee6127744d9c85317ea9"
]
},
"configurations.name" : {
"notprovided" : [
"1219c76378ee4a8aa650cf78",
"2e80de9eef79403eba404cdb",
"a97c2b5a2d044e13843fe74c",
"ca7cc6e3c4ac450ab91a297d",
"cb5b0e01b3094f848e53dd96",
"ce992370485d441eb495e951",
"d004457a76c446fdb46de1c1",
"f1b6ee6127744d9c85317ea9"
],
"iterateDefaultGroup_v0" : [
"2e80de9eef79403eba404cdb"
],
"iterateDefaultGroup_v1" : [
"cb5b0e01b3094f848e53dd96"
],
"iterateDefaultGroup_v2" : [
"cb5b0e01b3094f848e53dd96"
],
"iterateDefaultGroup_v3" : [
"cb5b0e01b3094f848e53dd96"
],
"iterateDefaultGroup_v4" : [
"cb5b0e01b3094f848e53dd96"
],
"iterateDefaultGroup_v5" : [
"cb5b0e01b3094f848e53dd96"
],
"iterateDefaultGroup_v6" : [
"cb5b0e01b3094f848e53dd96"
],
"iterateDefaultGroup_v7" : [
"cb5b0e01b3094f848e53dd96"
],
"iterateDefaultGroup_v8" : [
"cb5b0e01b3094f848e53dd96"
],
"iterateDefaultGroup_v9" : [
"cb5b0e01b3094f848e53dd96"
],
"iterateDefaultGroup_v10" : [
"cb5b0e01b3094f848e53dd96"
],
"iterateDefaultGroup_v11" : [
"cb5b0e01b3094f848e53dd96"
],
"iterateDefaultGroup_v12" : [
"cb5b0e01b3094f848e53dd96"
],
"iterateDefaultGroup_v13" : [
"cb5b0e01b3094f848e53dd96"
],
"iterateDefaultGroup_v14" : [
"cb5b0e01b3094f848e53dd96"
],
"iterateDefaultGroup_v15" : [
"cb5b0e01b3094f848e53dd96"
],
"iterateDefaultGroup_v16" : [
"cb5b0e01b3094f848e53dd96"
],
"iterateDefaultGroup_v17" : [
"a97c2b5a2d044e13843fe74c"
],
"iterateDefaultGroup_v18" : [
"1219c76378ee4a8aa650cf78"
],
"iterateDefaultGroup_v19" : [
"1219c76378ee4a8aa650cf78"
],
"iterateDefaultGroup_v20" : [
"d004457a76c446fdb46de1c1"
],
"iterateDefaultGroup_v21" : [
"ca7cc6e3c4ac450ab91a297d"
],
"iterateDefaultGroup_v22" : [
"ca7cc6e3c4ac450ab91a297d"
],
"iterateDefaultGroup_v23" : [
"ce992370485d441eb495e951"
],
"iterateDefaultGroup_v24" : [
"f1b6ee6127744d9c85317ea9"
],
"iterateDefaultGroup_v25" : [
"f1b6ee6127744d9c85317ea9"
],
"iterateDefaultGroup_v26" : [
"f1b6ee6127744d9c85317ea9"
],
"iterateDefaultGroup_v27" : [
"f1b6ee6127744d9c85317ea9"
],
"iterateDefaultGroup_v28" : [
"f1b6ee6127744d9c85317ea9"
],
"iterateDefaultGroup_v29" : [
"f1b6ee6127744d9c85317ea9"
],
"iterateDefaultGroup_v30" : [
"f1b6ee6127744d9c85317ea9"
],
"iterateDefaultGroup_v31" : [
"f1b6ee6127744d9c85317ea9"
]
},
"entities.name" : {
"OTSROOT" : [
"1219c76378ee4a8aa650cf78",
"2e80de9eef79403eba404cdb",
"a97c2b5a2d044e13843fe74c",
"ca7cc6e3c4ac450ab91a297d",
"cb5b0e01b3094f848e53dd96",
"ce992370485d441eb495e951",
"d004457a76c446fdb46de1c1",
"f1b6ee6127744d9c85317ea9"
]
},
"aliases.active.name" : {

},
"runs.name" : {

},
"configurations.assigned" : {
"notprovided" : [
"2020-07-21T14:47:39.083-0500",
"2020-07-21T15:25:07.335-0500",
"2020-08-23T09:43:05.096-0400",
"2020-08-23T10:39:30.541-0400",
"2020-08-23T12:38:25.580-0400",
"2020-09-07T07:24:25.121-0400",
"2020-09-07T07:42:46.141-0400",
"2020-09-07T08:36:19.951-0400"
],
"iterateDefaultGroup_v0" : [
"2020-07-21T14:47:39.567-0500"
],
"iterateDefaultGroup_v1" : [
"2020-07-21T15:25:07.965-0500"
],
"iterateDefaultGroup_v2" : [
"2020-07-21T15:28:04.332-0500"
],
"iterateDefaultGroup_v3" : [
"2020-07-21T15:42:20.626-0500"
],
"iterateDefaultGroup_v4" : [
"2020-07-21T15:45:03.683-0500"
],
"iterateDefaultGroup_v5" : [
"2020-07-21T15:57:33.667-0500"
],
"iterateDefaultGroup_v6" : [
"2020-07-28T10:52:35.151-0500"
],
"iterateDefaultGroup_v7" : [
"2020-07-28T13:01:36.843-0500"
],
"iterateDefaultGroup_v8" : [
"2020-07-28T13:03:27.051-0500"
],
"iterateDefaultGroup_v9" : [
"2020-07-28T13:12:58.031-0500"
],
"iterateDefaultGroup_v10" : [
"2020-07-28T13:15:25.261-0500"
],
"iterateDefaultGroup_v11" : [
"2020-07-28T13:20:57.185-0500"
],
"iterateDefaultGroup_v12" : [
"2020-07-28T13:27:37.776-0500"
],
"iterateDefaultGroup_v13" : [
"2020-08-23T09:24:34.611-0400"
],
"iterateDefaultGroup_v14" : [
"2020-08-23T09:26:43.180-0400"
],
"iterateDefaultGroup_v15" : [
"2020-08-23T09:29:14.477-0400"
],
"iterateDefaultGroup_v16" : [
"2020-08-23T09:33:18.725-0400"
],
"iterateDefaultGroup_v17" : [
"2020-08-23T09:43:06.299-0400"
],
"iterateDefaultGroup_v18" : [
"2020-08-23T10:39:31.895-0400"
],
"iterateDefaultGroup_v19" : [
"2020-08-23T11:05:09.606-0400"
],
"iterateDefaultGroup_v20" : [
"2020-08-23T12:38:26.880-0400"
],
"iterateDefaultGroup_v21" : [
"2020-09-07T07:24:26.750-0400"
],
"iterateDefaultGroup_v22" : [
"2020-09-07T07:25:08.282-0400"
],
"iterateDefaultGroup_v23" : [
"2020-09-07T07:42:47.836-0400"
],
"iterateDefaultGroup_v24" : [
"2020-09-07T08:36:21.554-0400"
],
"iterateDefaultGroup_v25" : [
"2020-09-07T08:41:07.227-0400"
],
"iterateDefaultGroup_v26" : [
"2020-09-07T10:01:47.398-0400"
],
"iterateDefaultGroup_v27" : [
"2020-09-07T10:05:34.001-0400"
],
"iterateDefaultGroup_v28" : [
"2020-09-07T10:31:12.112-0400"
],
"iterateDefaultGroup_v29" : [
"2020-09-07T10:32:31.978-0400"
],
"iterateDefaultGroup_v30" : [
"2020-09-07T10:39:25.944-0400"
],
"iterateDefaultGroup_v31" : [
"2020-09-07T10:47:19.734-0400"
]
}
}