{
"document" : {
"data" : {
"NAME" : "FE_SUPERVISOR_CONFIGURATION",
"COMMENT" : "First attempt to connect to HW emulator.",
"AUTHOR" : "admin",
"CREATION_TIME" : 1497977803,
"COL_TYPES" : {
"SUPERVISOR_UID" : "VARCHAR2",
"LINK_TO_FE_INTERFACE_CONFIGURATION" : "VARCHAR2",
"LINK_TO_FE_INTERFACE_GROUP_ID" : "VARCHAR2",
"COMMENT_DESCRIPTION" : "VARCHAR2",
"AUTHOR" : "VARCHAR2",
"RECORD_INSERTION_TIME" : "TIMESTAMP WITH TIMEZONE"
},
"DATA_SET" : [
{
"SUPERVISOR_UID" : "FESupervisor0",
"LINK_TO_FE_INTERFACE_CONFIGURATION" : "FEInterfaceConfiguration",
"LINK_TO_FE_INTERFACE_GROUP_ID" : "FEGroupMiniModule0",
"COMMENT_DESCRIPTION" : "No Comment",
"AUTHOR" : "admin",
"RECORD_INSERTION_TIME" : "1497977803"
}
]
},
"metadata" : {

},
"search" : [

]
},
"comments" : [

],
"origin" : {
"source" : "template",
"name" : "notprovided",
"format" : "json",
"created" : "Fri Jul 07 22:54:21 2017",
"rawdata" : [

]
},
"version" : "0",
"entities" : [
{
"name" : "OTSROOT",
"assigned" : "Fri Jul 07 22:54:21 2017"
}
],
"configurations" : [
{
"name" : "notprovided",
"assigned" : "Fri Jul 07 22:54:21 2017"
},
{
"name" : "OTMiniModuleConfiguration_v0",
"assigned" : "Fri Jul 07 22:54:21 2017"
}
],
"changelog" : "notprovided",
"bookkeeping" : {
"isdeleted" : false,
"isreadonly" : false,
"updates" : [
{
"event" : "addConfiguration",
"timestamp" : "Fri Jul 07 22:54:21 2017",
"value" : {
"name" : "notprovided",
"assigned" : "Fri Jul 07 22:54:21 2017"
}
},
{
"event" : "setVersion",
"timestamp" : "Fri Jul 07 22:54:21 2017",
"value" : {
"name" : "0",
"assigned" : "Fri Jul 07 22:54:21 2017"
}
},
{
"event" : "setCollection",
"timestamp" : "Fri Jul 07 22:54:21 2017",
"value" : {
"name" : "FESupervisorConfiguration",
"assigned" : "Fri Jul 07 22:54:21 2017"
}
},
{
"event" : "addEntity",
"timestamp" : "Fri Jul 07 22:54:21 2017",
"value" : {
"name" : "OTSROOT",
"assigned" : "Fri Jul 07 22:54:21 2017"
}
},
{
"event" : "addConfiguration",
"timestamp" : "Fri Jul 07 22:54:21 2017",
"value" : {
"name" : "OTMiniModuleConfiguration_v0",
"assigned" : "Fri Jul 07 22:54:21 2017"
}
}
],
"created" : "Fri Jul 07 22:54:21 2017"
},
"_id" : {
"$oid" : "6fa67c268c874c43bf8ab4d4"
},
"collection" : "FESupervisorConfiguration",
"aliases" : {
"active" : [

],
"history" : [

]
},
"runs" : [

],
"attachments" : [

],
"configtype" : "notprovided"
}