{
"document" : {
"data" : {
"NAME" : "DATA_BUFFER_CONFIGURATION",
"COMMENT" : "Records for data buffer Producers and Consumers.",
"AUTHOR" : "admin",
"CREATION_TIME" : 1512164237,
"COL_TYPES" : {
"DATA_BUFFER_GROUP_ID" : "VARCHAR2",
"PROCESSOR_UID" : "VARCHAR2",
"PROCESSOR_TYPE" : "VARCHAR2",
"PROCESSOR_PLUGIN_NAME" : "VARCHAR2",
"LINK_TO_PROCESSOR_CONFIGURATION" : "VARCHAR2",
"LINK_TO_PROCESSOR_UID" : "VARCHAR2",
"STATUS" : "VARCHAR2",
"COMMENT_DESCRIPTION" : "VARCHAR2",
"AUTHOR" : "VARCHAR2",
"RECORD_INSERTION_TIME" : "TIMESTAMP WITH TIMEZONE"
},
"DATA_SET" : [
{
"DATA_BUFFER_GROUP_ID" : "reader0DBGroup | DBGroup0",
"PROCESSOR_UID" : "DB0Producer0",
"PROCESSOR_TYPE" : "Producer",
"PROCESSOR_PLUGIN_NAME" : "UDPDataListenerProducer",
"LINK_TO_PROCESSOR_CONFIGURATION" : "UDPDataListenerProducerConfiguration",
"LINK_TO_PROCESSOR_UID" : "UDPListener0",
"STATUS" : "On",
"COMMENT_DESCRIPTION" : "No Comment",
"AUTHOR" : "admin",
"RECORD_INSERTION_TIME" : "1479488752"
},
{
"DATA_BUFFER_GROUP_ID" : "reader0DBGroup | DBGroup0",
"PROCESSOR_UID" : "DB0Consumer0",
"PROCESSOR_TYPE" : "Consumer",
"PROCESSOR_PLUGIN_NAME" : "RawDataSaverConsumer",
"LINK_TO_PROCESSOR_CONFIGURATION" : "RawDataSaverConsumerConfiguration",
"LINK_TO_PROCESSOR_UID" : "RAWSaver0",
"STATUS" : "On",
"COMMENT_DESCRIPTION" : "No Comment",
"AUTHOR" : "admin",
"RECORD_INSERTION_TIME" : "1479770727"
},
{
"DATA_BUFFER_GROUP_ID" : "reader0DBGroup | DBGroup0",
"PROCESSOR_UID" : "DB0Consumer1",
"PROCESSOR_TYPE" : "Consumer",
"PROCESSOR_PLUGIN_NAME" : "ARTDAQConsumer",
"LINK_TO_PROCESSOR_CONFIGURATION" : "ARTDAQBoardReaderConfiguration",
"LINK_TO_PROCESSOR_UID" : "reader0",
"STATUS" : "On",
"COMMENT_DESCRIPTION" : "No Comment",
"AUTHOR" : "admin",
"RECORD_INSERTION_TIME" : "1508880470"
},
{
"DATA_BUFFER_GROUP_ID" : "DBGroup1",
"PROCESSOR_UID" : "DB1Producer0",
"PROCESSOR_TYPE" : "Producer",
"PROCESSOR_PLUGIN_NAME" : "UDPDataListenerProducer",
"LINK_TO_PROCESSOR_CONFIGURATION" : "UDPDataListenerProducerConfiguration",
"LINK_TO_PROCESSOR_UID" : "UDPListener1",
"STATUS" : "On",
"COMMENT_DESCRIPTION" : "No Comment",
"AUTHOR" : "eflumerf",
"RECORD_INSERTION_TIME" : "1509385066"
},
{
"DATA_BUFFER_GROUP_ID" : "DBGroup1",
"PROCESSOR_UID" : "DB1Consumer1",
"PROCESSOR_TYPE" : "Consumer",
"PROCESSOR_PLUGIN_NAME" : "DemoDQMHistosConsumer",
"LINK_TO_PROCESSOR_CONFIGURATION" : "DQMHistosConsumerConfiguration",
"LINK_TO_PROCESSOR_UID" : "DQMHistos0",
"STATUS" : "Off",
"COMMENT_DESCRIPTION" : "No Comment",
"AUTHOR" : "eflumerf",
"RECORD_INSERTION_TIME" : "1509384053"
},
{
"DATA_BUFFER_GROUP_ID" : "DBGroup0",
"PROCESSOR_UID" : "DB0Consumer2",
"PROCESSOR_TYPE" : "Consumer",
"PROCESSOR_PLUGIN_NAME" : "UDPDataStreamerConsumer",
"LINK_TO_PROCESSOR_CONFIGURATION" : "UDPDataStreamerConsumerConfiguration",
"LINK_TO_PROCESSOR_UID" : "UDPStreamer1",
"STATUS" : "Off",
"COMMENT_DESCRIPTION" : "No Comment",
"AUTHOR" : "admin",
"RECORD_INSERTION_TIME" : "1508871110"
},
{
"DATA_BUFFER_GROUP_ID" : "DBGroup1",
"PROCESSOR_UID" : "DB1Consumer2",
"PROCESSOR_TYPE" : "Consumer",
"PROCESSOR_PLUGIN_NAME" : "RootDQMHistosConsumer",
"LINK_TO_PROCESSOR_CONFIGURATION" : "RootDQMHistosConsumerConfiguration",
"LINK_TO_PROCESSOR_UID" : "RootDQMConsumer1",
"STATUS" : "On",
"COMMENT_DESCRIPTION" : "No Comment",
"AUTHOR" : "admin",
"RECORD_INSERTION_TIME" : "1509718256"
},
{
"DATA_BUFFER_GROUP_ID" : "DBGroup1",
"PROCESSOR_UID" : "DemoDQMConsumer",
"PROCESSOR_TYPE" : "Consumer",
"PROCESSOR_PLUGIN_NAME" : "DemoDQMHistosConsumer",
"LINK_TO_PROCESSOR_CONFIGURATION" : "DQMHistosConsumerConfiguration",
"LINK_TO_PROCESSOR_UID" : "DQMHistos0",
"STATUS" : "On",
"COMMENT_DESCRIPTION" : "No Comment",
"AUTHOR" : "admin",
"RECORD_INSERTION_TIME" : "1509718256"
},
{
"DATA_BUFFER_GROUP_ID" : "FSSR0_DataBuffer0",
"PROCESSOR_UID" : "FSSR0_DB0_Listener0",
"PROCESSOR_TYPE" : "Producer",
"PROCESSOR_PLUGIN_NAME" : "UDPDataListenerProducer",
"LINK_TO_PROCESSOR_CONFIGURATION" : "UDPDataListenerProducerConfiguration",
"LINK_TO_PROCESSOR_UID" : "FSSR0_DB0_Listener0",
"STATUS" : "On",
"COMMENT_DESCRIPTION" : "",
"AUTHOR" : "admin",
"RECORD_INSERTION_TIME" : "1509718256"
},
{
"DATA_BUFFER_GROUP_ID" : "FSSR0_DataBuffer0",
"PROCESSOR_UID" : "FSSR0_DB0_RawDataSaver0",
"PROCESSOR_TYPE" : "Consumer",
"PROCESSOR_PLUGIN_NAME" : "FSSRRawDataSaverConsumer",
"LINK_TO_PROCESSOR_CONFIGURATION" : "RawDataSaverConsumerConfiguration",
"LINK_TO_PROCESSOR_UID" : "FSSR0_DB0_RawDataSaver0",
"STATUS" : "On",
"COMMENT_DESCRIPTION" : "",
"AUTHOR" : "admin",
"RECORD_INSERTION_TIME" : "1509718256"
},
{
"DATA_BUFFER_GROUP_ID" : "FSSR0_DataBuffer0",
"PROCESSOR_UID" : "FSSR0_DB0_DataStreamer0",
"PROCESSOR_TYPE" : "Consumer",
"PROCESSOR_PLUGIN_NAME" : "UDPDataStreamerConsumer",
"LINK_TO_PROCESSOR_CONFIGURATION" : "UDPDataStreamerConsumerConfiguration",
"LINK_TO_PROCESSOR_UID" : "FSSR0_DB0_DataStreamer0",
"STATUS" : "On",
"COMMENT_DESCRIPTION" : "",
"AUTHOR" : "admin",
"RECORD_INSERTION_TIME" : "1509718256"
},
{
"DATA_BUFFER_GROUP_ID" : "FSSR1_DataBuffer0",
"PROCESSOR_UID" : "FSSR1_DB0_Listener0",
"PROCESSOR_TYPE" : "Producer",
"PROCESSOR_PLUGIN_NAME" : "UDPDataListenerProducer",
"LINK_TO_PROCESSOR_CONFIGURATION" : "UDPDataListenerProducerConfiguration",
"LINK_TO_PROCESSOR_UID" : "FSSR1_DB0_Listener0",
"STATUS" : "On",
"COMMENT_DESCRIPTION" : "",
"AUTHOR" : "admin",
"RECORD_INSERTION_TIME" : "1509718256"
},
{
"DATA_BUFFER_GROUP_ID" : "FSSR1_DataBuffer0",
"PROCESSOR_UID" : "FSSR1_DB0_RawDataSaver0",
"PROCESSOR_TYPE" : "Consumer",
"PROCESSOR_PLUGIN_NAME" : "FSSRRawDataSaverConsumer",
"LINK_TO_PROCESSOR_CONFIGURATION" : "RawDataSaverConsumerConfiguration",
"LINK_TO_PROCESSOR_UID" : "FSSR1_DB0_RawDataSaver0",
"STATUS" : "On",
"COMMENT_DESCRIPTION" : "",
"AUTHOR" : "admin",
"RECORD_INSERTION_TIME" : "1509718256"
},
{
"DATA_BUFFER_GROUP_ID" : "FSSR1_DataBuffer0",
"PROCESSOR_UID" : "FSSR1_DB0_DataStreamer0",
"PROCESSOR_TYPE" : "Consumer",
"PROCESSOR_PLUGIN_NAME" : "UDPDataStreamerConsumer",
"LINK_TO_PROCESSOR_CONFIGURATION" : "UDPDataStreamerConsumerConfiguration",
"LINK_TO_PROCESSOR_UID" : "FSSR1_DB0_DataStreamer0",
"STATUS" : "On",
"COMMENT_DESCRIPTION" : "",
"AUTHOR" : "admin",
"RECORD_INSERTION_TIME" : "1509718256"
},
{
"DATA_BUFFER_GROUP_ID" : "FSSR2_DataBuffer0",
"PROCESSOR_UID" : "FSSR2_DB0_Listener0",
"PROCESSOR_TYPE" : "Producer",
"PROCESSOR_PLUGIN_NAME" : "UDPDataListenerProducer",
"LINK_TO_PROCESSOR_CONFIGURATION" : "UDPDataListenerProducerConfiguration",
"LINK_TO_PROCESSOR_UID" : "FSSR2_DB0_Listener0",
"STATUS" : "On",
"COMMENT_DESCRIPTION" : "",
"AUTHOR" : "admin",
"RECORD_INSERTION_TIME" : "1509718256"
},
{
"DATA_BUFFER_GROUP_ID" : "FSSR2_DataBuffer0",
"PROCESSOR_UID" : "FSSR2_DB0_RawDataSaver0",
"PROCESSOR_TYPE" : "Consumer",
"PROCESSOR_PLUGIN_NAME" : "FSSRRawDataSaverConsumer",
"LINK_TO_PROCESSOR_CONFIGURATION" : "RawDataSaverConsumerConfiguration",
"LINK_TO_PROCESSOR_UID" : "FSSR2_DB0_RawDataSaver0",
"STATUS" : "On",
"COMMENT_DESCRIPTION" : "",
"AUTHOR" : "admin",
"RECORD_INSERTION_TIME" : "1509718256"
},
{
"DATA_BUFFER_GROUP_ID" : "FSSR2_DataBuffer0",
"PROCESSOR_UID" : "FSSR2_DB0_DataStreamer0",
"PROCESSOR_TYPE" : "Consumer",
"PROCESSOR_PLUGIN_NAME" : "UDPDataStreamerConsumer",
"LINK_TO_PROCESSOR_CONFIGURATION" : "UDPDataStreamerConsumerConfiguration",
"LINK_TO_PROCESSOR_UID" : "FSSR2_DB0_DataStreamer0",
"STATUS" : "On",
"COMMENT_DESCRIPTION" : "",
"AUTHOR" : "admin",
"RECORD_INSERTION_TIME" : "1509718256"
},
{
"DATA_BUFFER_GROUP_ID" : "FSSR2_DataBuffer0",
"PROCESSOR_UID" : "FSSR2_DB0_DataStreamer1",
"PROCESSOR_TYPE" : "Consumer",
"PROCESSOR_PLUGIN_NAME" : "UDPDataStreamerConsumer",
"LINK_TO_PROCESSOR_CONFIGURATION" : "UDPDataStreamerConsumerConfiguration",
"LINK_TO_PROCESSOR_UID" : "FSSR2_DB0_DataStreamer1",
"STATUS" : "On",
"COMMENT_DESCRIPTION" : "No Comment",
"AUTHOR" : "uplegger",
"RECORD_INSERTION_TIME" : "1510768666"
},
{
"DATA_BUFFER_GROUP_ID" : "FSSR3_DataBuffer0",
"PROCESSOR_UID" : "FSSR3_DB0_Listener0",
"PROCESSOR_TYPE" : "Producer",
"PROCESSOR_PLUGIN_NAME" : "UDPDataListenerProducer",
"LINK_TO_PROCESSOR_CONFIGURATION" : "UDPDataListenerProducerConfiguration",
"LINK_TO_PROCESSOR_UID" : "FSSR3_DB0_Listener0",
"STATUS" : "On",
"COMMENT_DESCRIPTION" : "",
"AUTHOR" : "uplegger",
"RECORD_INSERTION_TIME" : "1510768666"
},
{
"DATA_BUFFER_GROUP_ID" : "FSSR3_DataBuffer0",
"PROCESSOR_UID" : "FSSR3_DB0_RawDataSaver0",
"PROCESSOR_TYPE" : "Consumer",
"PROCESSOR_PLUGIN_NAME" : "FSSRRawDataSaverConsumer",
"LINK_TO_PROCESSOR_CONFIGURATION" : "RawDataSaverConsumerConfiguration",
"LINK_TO_PROCESSOR_UID" : "FSSR3_DB0_RawDataSaver0",
"STATUS" : "On",
"COMMENT_DESCRIPTION" : "",
"AUTHOR" : "uplegger",
"RECORD_INSERTION_TIME" : "1510768666"
},
{
"DATA_BUFFER_GROUP_ID" : "FSSR3_DataBuffer0",
"PROCESSOR_UID" : "FSSR3_DB0_DataStreamer0",
"PROCESSOR_TYPE" : "Consumer",
"PROCESSOR_PLUGIN_NAME" : "UDPDataStreamerConsumer",
"LINK_TO_PROCESSOR_CONFIGURATION" : "UDPDataStreamerConsumerConfiguration",
"LINK_TO_PROCESSOR_UID" : "FSSR3_DB0_DataStreamer0",
"STATUS" : "On",
"COMMENT_DESCRIPTION" : "",
"AUTHOR" : "uplegger",
"RECORD_INSERTION_TIME" : "1510768666"
},
{
"DATA_BUFFER_GROUP_ID" : "NIMPlus0_DataBuffer0",
"PROCESSOR_UID" : "NIMPlus0_DB0_Listener0",
"PROCESSOR_TYPE" : "Producer",
"PROCESSOR_PLUGIN_NAME" : "UDPDataListenerProducer",
"LINK_TO_PROCESSOR_CONFIGURATION" : "UDPDataListenerProducerConfiguration",
"LINK_TO_PROCESSOR_UID" : "NIMPlus0_DB0_Listener0",
"STATUS" : "On",
"COMMENT_DESCRIPTION" : "No Comment",
"AUTHOR" : "uplegger",
"RECORD_INSERTION_TIME" : "1510768666"
},
{
"DATA_BUFFER_GROUP_ID" : "NIMPlus0_DataBuffer0",
"PROCESSOR_UID" : "NIMPlus0_DB0_RawDataSaver0",
"PROCESSOR_TYPE" : "Consumer",
"PROCESSOR_PLUGIN_NAME" : "RawDataSaverConsumer",
"LINK_TO_PROCESSOR_CONFIGURATION" : "RawDataSaverConsumerConfiguration",
"LINK_TO_PROCESSOR_UID" : "NIMPlus0_DB0_RawDataSaver0",
"STATUS" : "On",
"COMMENT_DESCRIPTION" : "No Comment",
"AUTHOR" : "uplegger",
"RECORD_INSERTION_TIME" : "1510768666"
},
{
"DATA_BUFFER_GROUP_ID" : "CMSTiming0_DataBuffer0",
"PROCESSOR_UID" : "CMSTiming0_DB0_Listener0",
"PROCESSOR_TYPE" : "Producer",
"PROCESSOR_PLUGIN_NAME" : "UDPDataListenerProducer",
"LINK_TO_PROCESSOR_CONFIGURATION" : "UDPDataListenerProducerConfiguration",
"LINK_TO_PROCESSOR_UID" : "CMSTiming0_DB0_Listener0",
"STATUS" : "On",
"COMMENT_DESCRIPTION" : "",
"AUTHOR" : "uplegger",
"RECORD_INSERTION_TIME" : "1510768666"
},
{
"DATA_BUFFER_GROUP_ID" : "CMSTiming0_DataBuffer0",
"PROCESSOR_UID" : "CMSTiming0_DB0_RawDataSaver0",
"PROCESSOR_TYPE" : "Consumer",
"PROCESSOR_PLUGIN_NAME" : "CMSTimingRawDataSaverConsumer",
"LINK_TO_PROCESSOR_CONFIGURATION" : "RawDataSaverConsumerConfiguration",
"LINK_TO_PROCESSOR_UID" : "CMSTiming0_DB0_RawDataSaver0",
"STATUS" : "On",
"COMMENT_DESCRIPTION" : "",
"AUTHOR" : "uplegger",
"RECORD_INSERTION_TIME" : "1510768666"
},
{
"DATA_BUFFER_GROUP_ID" : "VisualBuffer",
"PROCESSOR_UID" : "VBListener0",
"PROCESSOR_TYPE" : "Producer",
"PROCESSOR_PLUGIN_NAME" : "UDPDataListenerProducer",
"LINK_TO_PROCESSOR_CONFIGURATION" : "UDPDataListenerProducerConfiguration",
"LINK_TO_PROCESSOR_UID" : "VBListener0",
"STATUS" : "On",
"COMMENT_DESCRIPTION" : "",
"AUTHOR" : "uplegger",
"RECORD_INSERTION_TIME" : "1510768666"
},
{
"DATA_BUFFER_GROUP_ID" : "VisualBuffer",
"PROCESSOR_UID" : "VBOTDQMHistos",
"PROCESSOR_TYPE" : "Consumer",
"PROCESSOR_PLUGIN_NAME" : "OTDQMHistosConsumer",
"LINK_TO_PROCESSOR_CONFIGURATION" : "OTDQMHistosConsumerConfiguration",
"LINK_TO_PROCESSOR_UID" : "VBOTDQMHistos",
"STATUS" : "On",
"COMMENT_DESCRIPTION" : "",
"AUTHOR" : "admin",
"RECORD_INSERTION_TIME" : "1512164237"
},
{
"DATA_BUFFER_GROUP_ID" : "VisualBuffer",
"PROCESSOR_UID" : "VBFSSRDQMHistos",
"PROCESSOR_TYPE" : "Consumer",
"PROCESSOR_PLUGIN_NAME" : "FSSRDQMHistosConsumer",
"LINK_TO_PROCESSOR_CONFIGURATION" : "FSSRDQMHistosConsumerConfiguration",
"LINK_TO_PROCESSOR_UID" : "VBFSSRDQMHistos",
"STATUS" : "Off",
"COMMENT_DESCRIPTION" : "",
"AUTHOR" : "admin",
"RECORD_INSERTION_TIME" : "1512164237"
},
{
"DATA_BUFFER_GROUP_ID" : "ARTDAQreaderStrips2",
"PROCESSOR_UID" : "ARTDAQreaderStrips2_ProducerOnly",
"PROCESSOR_TYPE" : "Producer",
"PROCESSOR_PLUGIN_NAME" : "ARTDAQProducer",
"LINK_TO_PROCESSOR_CONFIGURATION" : "ARTDAQBoardReaderConfiguration",
"LINK_TO_PROCESSOR_UID" : "readerStripsOnly0",
"STATUS" : "On",
"COMMENT_DESCRIPTION" : "No Comment",
"AUTHOR" : "admin",
"RECORD_INSERTION_TIME" : "1510781865"
}
]
},
"metadata" : {

},
"search" : [

]
},
"comments" : [

],
"origin" : {
"source" : "template",
"name" : "notprovided",
"format" : "json",
"created" : "2017-12-01T15:37:17.909-0600",
"rawdata" : [

]
},
"version" : "5",
"entities" : [
{
"name" : "OTSROOT",
"assigned" : "2017-12-01T15:37:17.916-0600"
}
],
"configurations" : [
{
"name" : "notprovided",
"assigned" : "2017-12-01T15:37:17.912-0600"
},
{
"name" : "FTBFConfig_v52",
"assigned" : "2017-12-01T15:37:31.384-0600"
},
{
"name" : "FTBFConfig_v53",
"assigned" : "2017-12-01T15:40:58.768-0600"
},
{
"name" : "FTBFConfig_v54",
"assigned" : "2017-12-01T15:52:49.097-0600"
},
{
"name" : "FTBFConfig_v55",
"assigned" : "2017-12-01T15:54:34.236-0600"
},
{
"name" : "FTBFConfig_v56",
"assigned" : "2017-12-01T15:55:33.808-0600"
},
{
"name" : "FTBFConfig_v57",
"assigned" : "2017-12-01T15:56:39.638-0600"
},
{
"name" : "FTBFConfig_v58",
"assigned" : "2017-12-01T15:57:37.693-0600"
},
{
"name" : "FTBFConfig_v59",
"assigned" : "2017-12-01T15:58:29.611-0600"
},
{
"name" : "FTBFConfig_v60",
"assigned" : "2017-12-01T15:59:30.819-0600"
},
{
"name" : "FTBFConfig_v61",
"assigned" : "2017-12-01T16:19:40.573-0600"
},
{
"name" : "FTBFConfig_v62",
"assigned" : "2017-12-01T16:22:03.123-0600"
},
{
"name" : "FTBFConfig_v63",
"assigned" : "2017-12-01T16:31:23.750-0600"
},
{
"name" : "FTBFConfig_v65",
"assigned" : "2017-12-01T17:32:43.094-0600"
},
{
"name" : "FTBFConfig_v66",
"assigned" : "2017-12-01T20:38:49.599-0600"
},
{
"name" : "FTBFConfig_v67",
"assigned" : "2017-12-01T21:25:00.938-0600"
},
{
"name" : "FTBFConfig_v68",
"assigned" : "2017-12-01T21:43:00.630-0600"
},
{
"name" : "FTBFConfig_v69",
"assigned" : "2017-12-01T21:44:59.230-0600"
},
{
"name" : "FTBFConfig_v70",
"assigned" : "2017-12-01T21:59:18.477-0600"
},
{
"name" : "FTBFConfigNim_v0",
"assigned" : "2017-12-01T22:00:05.206-0600"
},
{
"name" : "FTBFConfigNim_v1",
"assigned" : "2017-12-01T22:13:06.962-0600"
},
{
"name" : "FTBFConfigNim_v2",
"assigned" : "2017-12-01T22:15:54.212-0600"
},
{
"name" : "FTBFConfigNim_v3",
"assigned" : "2017-12-01T22:17:02.527-0600"
},
{
"name" : "FTBFConfigNim_v4",
"assigned" : "2017-12-01T22:19:05.283-0600"
},
{
"name" : "FTBFConfigNim_v5",
"assigned" : "2017-12-01T22:21:56.032-0600"
},
{
"name" : "FTBFConfigNim_v6",
"assigned" : "2017-12-01T22:23:12.169-0600"
},
{
"name" : "FTBFConfigNim_v7",
"assigned" : "2017-12-01T22:25:15.995-0600"
},
{
"name" : "FTBFConfigNim_v8",
"assigned" : "2017-12-01T22:27:03.635-0600"
},
{
"name" : "FTBFConfigNim_v9",
"assigned" : "2017-12-01T22:29:27.797-0600"
},
{
"name" : "FTBFConfigNim_v10",
"assigned" : "2017-12-01T22:52:32.949-0600"
},
{
"name" : "FTBFConfigNim_v11",
"assigned" : "2017-12-01T22:57:27.773-0600"
},
{
"name" : "FTBFConfigNim_v12",
"assigned" : "2017-12-01T23:00:05.992-0600"
},
{
"name" : "FTBFConfigNim_v13",
"assigned" : "2017-12-01T23:52:34.118-0600"
},
{
"name" : "FTBFConfigNim_v14",
"assigned" : "2017-12-01T23:58:08.535-0600"
},
{
"name" : "FTBFConfigNim_v15",
"assigned" : "2017-12-02T00:00:32.798-0600"
},
{
"name" : "FTBFConfigNim_v16",
"assigned" : "2017-12-02T00:13:07.949-0600"
},
{
"name" : "FTBFConfigNim_v17",
"assigned" : "2017-12-02T00:28:26.908-0600"
},
{
"name" : "FTBFConfigNim_v18",
"assigned" : "2017-12-02T00:29:32.972-0600"
},
{
"name" : "FTBFConfigNim_v19",
"assigned" : "2017-12-02T00:31:10.864-0600"
},
{
"name" : "FTBFConfigNim_v20",
"assigned" : "2017-12-02T00:57:26.007-0600"
},
{
"name" : "FTBFConfigNim_v21",
"assigned" : "2017-12-02T10:58:00.546-0600"
},
{
"name" : "FTBFConfigNim_v22",
"assigned" : "2017-12-02T11:08:16.745-0600"
},
{
"name" : "FTBFConfigNim_v23",
"assigned" : "2017-12-02T11:12:38.285-0600"
},
{
"name" : "FTBFConfigNim_v24",
"assigned" : "2017-12-02T11:18:41.197-0600"
},
{
"name" : "FTBFConfigNim_v25",
"assigned" : "2017-12-02T11:27:04.382-0600"
},
{
"name" : "FTBFConfigNim_v26",
"assigned" : "2017-12-02T11:38:35.429-0600"
},
{
"name" : "FTBFConfigNim_v27",
"assigned" : "2017-12-02T11:49:06.620-0600"
},
{
"name" : "FTBFConfigNim_v28",
"assigned" : "2017-12-02T11:55:08.076-0600"
},
{
"name" : "FTBFConfigNim_v29",
"assigned" : "2017-12-02T12:06:24.914-0600"
},
{
"name" : "FTBFConfig_v71",
"assigned" : "2017-12-02T12:24:13.559-0600"
},
{
"name" : "FTBFConfig_v72",
"assigned" : "2017-12-02T12:43:34.412-0600"
},
{
"name" : "FTBFConfig_v73",
"assigned" : "2017-12-02T13:55:34.067-0600"
},
{
"name" : "FTBFConfig_v74",
"assigned" : "2017-12-02T14:09:06.406-0600"
},
{
"name" : "FTBFConfig_v75",
"assigned" : "2017-12-02T14:12:17.194-0600"
},
{
"name" : "FTBFConfig_v76",
"assigned" : "2017-12-02T19:05:52.282-0600"
},
{
"name" : "FTBFConfig_v77",
"assigned" : "2017-12-02T19:12:12.148-0600"
},
{
"name" : "FTBFConfig_v78",
"assigned" : "2017-12-03T14:03:47.287-0600"
},
{
"name" : "FTBFConfig_v79",
"assigned" : "2017-12-03T14:09:05.536-0600"
},
{
"name" : "FTBFConfig_v80",
"assigned" : "2017-12-03T14:11:09.283-0600"
},
{
"name" : "FTBFConfig_v81",
"assigned" : "2017-12-03T14:22:32.318-0600"
},
{
"name" : "FTBFConfig_v82",
"assigned" : "2017-12-03T14:40:37.101-0600"
},
{
"name" : "FTBFConfig_v83",
"assigned" : "2017-12-03T14:45:04.469-0600"
},
{
"name" : "FTBFConfig_v84",
"assigned" : "2017-12-04T14:51:29.807-0600"
},
{
"name" : "FTBFConfig_v85",
"assigned" : "2017-12-04T14:55:42.975-0600"
},
{
"name" : "FTBFConfig_v86",
"assigned" : "2017-12-04T16:51:05.995-0600"
},
{
"name" : "FTBFConfig_v87",
"assigned" : "2017-12-04T16:56:46.639-0600"
},
{
"name" : "FTBFConfig_v88",
"assigned" : "2017-12-04T17:01:11.359-0600"
},
{
"name" : "FTBFConfig_v89",
"assigned" : "2017-12-04T17:03:56.472-0600"
},
{
"name" : "FTBFConfig_v90",
"assigned" : "2017-12-04T17:07:16.099-0600"
},
{
"name" : "FTBFConfig_v91",
"assigned" : "2017-12-04T17:09:25.226-0600"
},
{
"name" : "FTBFConfig_v92",
"assigned" : "2017-12-04T17:11:37.713-0600"
},
{
"name" : "FTBFConfig_v93",
"assigned" : "2017-12-04T21:05:20.305-0600"
},
{
"name" : "FTBFConfig_v94",
"assigned" : "2017-12-04T21:17:11.236-0600"
},
{
"name" : "FTBFConfig_v95",
"assigned" : "2017-12-04T21:41:16.907-0600"
},
{
"name" : "FTBFConfig_v96",
"assigned" : "2017-12-04T22:39:01.543-0600"
},
{
"name" : "FTBFConfig_v97",
"assigned" : "2017-12-04T23:01:12.047-0600"
},
{
"name" : "FTBFConfig_v98",
"assigned" : "2017-12-07T11:07:46.060-0600"
},
{
"name" : "FTBFConfig_v99",
"assigned" : "2017-12-07T11:49:58.742-0600"
},
{
"name" : "FTBFConfig_v100",
"assigned" : "2017-12-07T11:58:25.470-0600"
},
{
"name" : "FTBFConfig_v101",
"assigned" : "2017-12-08T13:30:47.633-0600"
},
{
"name" : "FTBFConfig_v102",
"assigned" : "2017-12-08T13:32:34.498-0600"
},
{
"name" : "FTBFConfig_v103",
"assigned" : "2017-12-12T11:03:04.299-0600"
},
{
"name" : "FTBFConfig_v104",
"assigned" : "2017-12-12T13:50:58.712-0600"
},
{
"name" : "FTBFConfig_v105",
"assigned" : "2017-12-12T15:25:04.735-0600"
},
{
"name" : "FTBFConfig_v106",
"assigned" : "2017-12-13T10:24:23.082-0600"
},
{
"name" : "FTBFConfig_v107",
"assigned" : "2017-12-13T10:27:01.827-0600"
},
{
"name" : "FTBFConfig_v108",
"assigned" : "2018-02-01T21:14:25.363-0600"
},
{
"name" : "FTBFConfig_v109",
"assigned" : "2018-02-01T21:21:02.492-0600"
},
{
"name" : "FTBFConfig_v110",
"assigned" : "2018-02-02T11:25:33.456-0600"
},
{
"name" : "FTBFConfig_v111",
"assigned" : "2018-02-02T11:37:12.272-0600"
},
{
"name" : "FTBFConfig_v112",
"assigned" : "2018-02-02T11:47:14.775-0600"
},
{
"name" : "FTBFConfig_v113",
"assigned" : "2018-02-02T11:53:36.024-0600"
},
{
"name" : "FTBFConfig_v114",
"assigned" : "2018-02-02T12:00:52.122-0600"
},
{
"name" : "FTBFConfig_v115",
"assigned" : "2018-02-02T12:27:13.597-0600"
},
{
"name" : "FTBFConfig_v116",
"assigned" : "2018-02-02T14:28:53.119-0600"
},
{
"name" : "FTBFConfig_v117",
"assigned" : "2018-02-02T14:30:19.456-0600"
},
{
"name" : "FTBFConfig_v118",
"assigned" : "2018-02-02T14:34:00.721-0600"
},
{
"name" : "FTBFConfig_v119",
"assigned" : "2018-02-02T14:36:27.317-0600"
},
{
"name" : "FTBFConfig_v120",
"assigned" : "2018-02-02T14:38:40.654-0600"
},
{
"name" : "FTBFConfig_v121",
"assigned" : "2018-02-02T14:41:49.967-0600"
},
{
"name" : "FTBFConfig_v122",
"assigned" : "2018-02-02T14:50:24.049-0600"
},
{
"name" : "FTBFConfig_v123",
"assigned" : "2018-02-02T14:52:56.894-0600"
},
{
"name" : "FTBFConfig_v124",
"assigned" : "2018-02-02T14:59:50.217-0600"
},
{
"name" : "FTBFConfig_v125",
"assigned" : "2018-02-02T15:04:08.324-0600"
},
{
"name" : "FTBFConfig_v126",
"assigned" : "2018-02-02T15:50:11.522-0600"
},
{
"name" : "FTBFConfig_v127",
"assigned" : "2018-02-02T15:51:31.022-0600"
},
{
"name" : "FTBFConfig_v128",
"assigned" : "2018-02-02T15:52:36.181-0600"
},
{
"name" : "FTBFConfig_v129",
"assigned" : "2018-02-02T16:02:45.081-0600"
},
{
"name" : "FTBFConfig_v130",
"assigned" : "2018-02-02T16:08:44.620-0600"
},
{
"name" : "FTBFConfig_v131",
"assigned" : "2018-02-02T16:11:30.470-0600"
},
{
"name" : "FTBFConfig_v132",
"assigned" : "2018-02-02T16:12:58.331-0600"
},
{
"name" : "FTBFConfig_v133",
"assigned" : "2018-02-02T16:14:28.920-0600"
},
{
"name" : "FTBFConfig_v134",
"assigned" : "2018-02-02T16:26:21.823-0600"
},
{
"name" : "FTBFConfig_v135",
"assigned" : "2018-02-02T16:27:08.934-0600"
},
{
"name" : "FTBFConfig_v136",
"assigned" : "2018-02-02T16:29:30.291-0600"
},
{
"name" : "FTBFConfig_v137",
"assigned" : "2018-02-02T16:31:40.893-0600"
},
{
"name" : "FTBFConfig_v138",
"assigned" : "2018-02-02T16:34:13.562-0600"
},
{
"name" : "FTBFConfig_v139",
"assigned" : "2018-02-02T17:39:29.608-0600"
},
{
"name" : "FTBFConfig_v140",
"assigned" : "2018-02-02T17:42:51.785-0600"
},
{
"name" : "FTBFConfig_v141",
"assigned" : "2018-02-02T17:47:36.969-0600"
},
{
"name" : "FTBFConfig_v142",
"assigned" : "2018-02-02T17:54:00.991-0600"
}
],
"changelog" : "notprovided",
"bookkeeping" : {
"isdeleted" : false,
"isreadonly" : false,
"updates" : [
{
"event" : "addConfiguration",
"timestamp" : "2017-12-01T15:37:17.912-0600",
"value" : {
"name" : "notprovided",
"assigned" : "2017-12-01T15:37:17.912-0600"
}
},
{
"event" : "setVersion",
"timestamp" : "2017-12-01T15:37:17.914-0600",
"value" : {
"name" : "5",
"assigned" : "2017-12-01T15:37:17.914-0600"
}
},
{
"event" : "setCollection",
"timestamp" : "2017-12-01T15:37:17.915-0600",
"value" : {
"name" : "DataBufferConfiguration",
"assigned" : "2017-12-01T15:37:17.915-0600"
}
},
{
"event" : "addEntity",
"timestamp" : "2017-12-01T15:37:17.916-0600",
"value" : {
"name" : "OTSROOT",
"assigned" : "2017-12-01T15:37:17.916-0600"
}
},
{
"event" : "addConfiguration",
"timestamp" : "2017-12-01T15:37:31.384-0600",
"value" : {
"name" : "FTBFConfig_v52",
"assigned" : "2017-12-01T15:37:31.384-0600"
}
},
{
"event" : "addConfiguration",
"timestamp" : "2017-12-01T15:40:58.768-0600",
"value" : {
"name" : "FTBFConfig_v53",
"assigned" : "2017-12-01T15:40:58.768-0600"
}
},
{
"event" : "addConfiguration",
"timestamp" : "2017-12-01T15:52:49.097-0600",
"value" : {
"name" : "FTBFConfig_v54",
"assigned" : "2017-12-01T15:52:49.097-0600"
}
},
{
"event" : "addConfiguration",
"timestamp" : "2017-12-01T15:54:34.236-0600",
"value" : {
"name" : "FTBFConfig_v55",
"assigned" : "2017-12-01T15:54:34.236-0600"
}
},
{
"event" : "addConfiguration",
"timestamp" : "2017-12-01T15:55:33.808-0600",
"value" : {
"name" : "FTBFConfig_v56",
"assigned" : "2017-12-01T15:55:33.808-0600"
}
},
{
"event" : "addConfiguration",
"timestamp" : "2017-12-01T15:56:39.638-0600",
"value" : {
"name" : "FTBFConfig_v57",
"assigned" : "2017-12-01T15:56:39.638-0600"
}
},
{
"event" : "addConfiguration",
"timestamp" : "2017-12-01T15:57:37.693-0600",
"value" : {
"name" : "FTBFConfig_v58",
"assigned" : "2017-12-01T15:57:37.693-0600"
}
},
{
"event" : "addConfiguration",
"timestamp" : "2017-12-01T15:58:29.611-0600",
"value" : {
"name" : "FTBFConfig_v59",
"assigned" : "2017-12-01T15:58:29.611-0600"
}
},
{
"event" : "addConfiguration",
"timestamp" : "2017-12-01T15:59:30.819-0600",
"value" : {
"name" : "FTBFConfig_v60",
"assigned" : "2017-12-01T15:59:30.819-0600"
}
},
{
"event" : "addConfiguration",
"timestamp" : "2017-12-01T16:19:40.574-0600",
"value" : {
"name" : "FTBFConfig_v61",
"assigned" : "2017-12-01T16:19:40.573-0600"
}
},
{
"event" : "addConfiguration",
"timestamp" : "2017-12-01T16:22:03.123-0600",
"value" : {
"name" : "FTBFConfig_v62",
"assigned" : "2017-12-01T16:22:03.123-0600"
}
},
{
"event" : "addConfiguration",
"timestamp" : "2017-12-01T16:31:23.750-0600",
"value" : {
"name" : "FTBFConfig_v63",
"assigned" : "2017-12-01T16:31:23.750-0600"
}
},
{
"event" : "addConfiguration",
"timestamp" : "2017-12-01T17:32:43.094-0600",
"value" : {
"name" : "FTBFConfig_v65",
"assigned" : "2017-12-01T17:32:43.094-0600"
}
},
{
"event" : "addConfiguration",
"timestamp" : "2017-12-01T20:38:49.599-0600",
"value" : {
"name" : "FTBFConfig_v66",
"assigned" : "2017-12-01T20:38:49.599-0600"
}
},
{
"event" : "addConfiguration",
"timestamp" : "2017-12-01T21:25:00.938-0600",
"value" : {
"name" : "FTBFConfig_v67",
"assigned" : "2017-12-01T21:25:00.938-0600"
}
},
{
"event" : "addConfiguration",
"timestamp" : "2017-12-01T21:43:00.630-0600",
"value" : {
"name" : "FTBFConfig_v68",
"assigned" : "2017-12-01T21:43:00.630-0600"
}
},
{
"event" : "addConfiguration",
"timestamp" : "2017-12-01T21:44:59.230-0600",
"value" : {
"name" : "FTBFConfig_v69",
"assigned" : "2017-12-01T21:44:59.230-0600"
}
},
{
"event" : "addConfiguration",
"timestamp" : "2017-12-01T21:59:18.477-0600",
"value" : {
"name" : "FTBFConfig_v70",
"assigned" : "2017-12-01T21:59:18.477-0600"
}
},
{
"event" : "addConfiguration",
"timestamp" : "2017-12-01T22:00:05.206-0600",
"value" : {
"name" : "FTBFConfigNim_v0",
"assigned" : "2017-12-01T22:00:05.206-0600"
}
},
{
"event" : "addConfiguration",
"timestamp" : "2017-12-01T22:13:06.962-0600",
"value" : {
"name" : "FTBFConfigNim_v1",
"assigned" : "2017-12-01T22:13:06.962-0600"
}
},
{
"event" : "addConfiguration",
"timestamp" : "2017-12-01T22:15:54.212-0600",
"value" : {
"name" : "FTBFConfigNim_v2",
"assigned" : "2017-12-01T22:15:54.212-0600"
}
},
{
"event" : "addConfiguration",
"timestamp" : "2017-12-01T22:17:02.527-0600",
"value" : {
"name" : "FTBFConfigNim_v3",
"assigned" : "2017-12-01T22:17:02.527-0600"
}
},
{
"event" : "addConfiguration",
"timestamp" : "2017-12-01T22:19:05.283-0600",
"value" : {
"name" : "FTBFConfigNim_v4",
"assigned" : "2017-12-01T22:19:05.283-0600"
}
},
{
"event" : "addConfiguration",
"timestamp" : "2017-12-01T22:21:56.032-0600",
"value" : {
"name" : "FTBFConfigNim_v5",
"assigned" : "2017-12-01T22:21:56.032-0600"
}
},
{
"event" : "addConfiguration",
"timestamp" : "2017-12-01T22:23:12.169-0600",
"value" : {
"name" : "FTBFConfigNim_v6",
"assigned" : "2017-12-01T22:23:12.169-0600"
}
},
{
"event" : "addConfiguration",
"timestamp" : "2017-12-01T22:25:15.995-0600",
"value" : {
"name" : "FTBFConfigNim_v7",
"assigned" : "2017-12-01T22:25:15.995-0600"
}
},
{
"event" : "addConfiguration",
"timestamp" : "2017-12-01T22:27:03.635-0600",
"value" : {
"name" : "FTBFConfigNim_v8",
"assigned" : "2017-12-01T22:27:03.635-0600"
}
},
{
"event" : "addConfiguration",
"timestamp" : "2017-12-01T22:29:27.798-0600",
"value" : {
"name" : "FTBFConfigNim_v9",
"assigned" : "2017-12-01T22:29:27.797-0600"
}
},
{
"event" : "addConfiguration",
"timestamp" : "2017-12-01T22:52:32.949-0600",
"value" : {
"name" : "FTBFConfigNim_v10",
"assigned" : "2017-12-01T22:52:32.949-0600"
}
},
{
"event" : "addConfiguration",
"timestamp" : "2017-12-01T22:57:27.773-0600",
"value" : {
"name" : "FTBFConfigNim_v11",
"assigned" : "2017-12-01T22:57:27.773-0600"
}
},
{
"event" : "addConfiguration",
"timestamp" : "2017-12-01T23:00:05.992-0600",
"value" : {
"name" : "FTBFConfigNim_v12",
"assigned" : "2017-12-01T23:00:05.992-0600"
}
},
{
"event" : "addConfiguration",
"timestamp" : "2017-12-01T23:52:34.119-0600",
"value" : {
"name" : "FTBFConfigNim_v13",
"assigned" : "2017-12-01T23:52:34.118-0600"
}
},
{
"event" : "addConfiguration",
"timestamp" : "2017-12-01T23:58:08.535-0600",
"value" : {
"name" : "FTBFConfigNim_v14",
"assigned" : "2017-12-01T23:58:08.535-0600"
}
},
{
"event" : "addConfiguration",
"timestamp" : "2017-12-02T00:00:32.798-0600",
"value" : {
"name" : "FTBFConfigNim_v15",
"assigned" : "2017-12-02T00:00:32.798-0600"
}
},
{
"event" : "addConfiguration",
"timestamp" : "2017-12-02T00:13:07.949-0600",
"value" : {
"name" : "FTBFConfigNim_v16",
"assigned" : "2017-12-02T00:13:07.949-0600"
}
},
{
"event" : "addConfiguration",
"timestamp" : "2017-12-02T00:28:26.908-0600",
"value" : {
"name" : "FTBFConfigNim_v17",
"assigned" : "2017-12-02T00:28:26.908-0600"
}
},
{
"event" : "addConfiguration",
"timestamp" : "2017-12-02T00:29:32.973-0600",
"value" : {
"name" : "FTBFConfigNim_v18",
"assigned" : "2017-12-02T00:29:32.972-0600"
}
},
{
"event" : "addConfiguration",
"timestamp" : "2017-12-02T00:31:10.864-0600",
"value" : {
"name" : "FTBFConfigNim_v19",
"assigned" : "2017-12-02T00:31:10.864-0600"
}
},
{
"event" : "addConfiguration",
"timestamp" : "2017-12-02T00:57:26.007-0600",
"value" : {
"name" : "FTBFConfigNim_v20",
"assigned" : "2017-12-02T00:57:26.007-0600"
}
},
{
"event" : "addConfiguration",
"timestamp" : "2017-12-02T10:58:00.546-0600",
"value" : {
"name" : "FTBFConfigNim_v21",
"assigned" : "2017-12-02T10:58:00.546-0600"
}
},
{
"event" : "addConfiguration",
"timestamp" : "2017-12-02T11:08:16.745-0600",
"value" : {
"name" : "FTBFConfigNim_v22",
"assigned" : "2017-12-02T11:08:16.745-0600"
}
},
{
"event" : "addConfiguration",
"timestamp" : "2017-12-02T11:12:38.285-0600",
"value" : {
"name" : "FTBFConfigNim_v23",
"assigned" : "2017-12-02T11:12:38.285-0600"
}
},
{
"event" : "addConfiguration",
"timestamp" : "2017-12-02T11:18:41.197-0600",
"value" : {
"name" : "FTBFConfigNim_v24",
"assigned" : "2017-12-02T11:18:41.197-0600"
}
},
{
"event" : "addConfiguration",
"timestamp" : "2017-12-02T11:27:04.382-0600",
"value" : {
"name" : "FTBFConfigNim_v25",
"assigned" : "2017-12-02T11:27:04.382-0600"
}
},
{
"event" : "addConfiguration",
"timestamp" : "2017-12-02T11:38:35.429-0600",
"value" : {
"name" : "FTBFConfigNim_v26",
"assigned" : "2017-12-02T11:38:35.429-0600"
}
},
{
"event" : "addConfiguration",
"timestamp" : "2017-12-02T11:49:06.620-0600",
"value" : {
"name" : "FTBFConfigNim_v27",
"assigned" : "2017-12-02T11:49:06.620-0600"
}
},
{
"event" : "addConfiguration",
"timestamp" : "2017-12-02T11:55:08.076-0600",
"value" : {
"name" : "FTBFConfigNim_v28",
"assigned" : "2017-12-02T11:55:08.076-0600"
}
},
{
"event" : "addConfiguration",
"timestamp" : "2017-12-02T12:06:24.914-0600",
"value" : {
"name" : "FTBFConfigNim_v29",
"assigned" : "2017-12-02T12:06:24.914-0600"
}
},
{
"event" : "addConfiguration",
"timestamp" : "2017-12-02T12:24:13.560-0600",
"value" : {
"name" : "FTBFConfig_v71",
"assigned" : "2017-12-02T12:24:13.559-0600"
}
},
{
"event" : "addConfiguration",
"timestamp" : "2017-12-02T12:43:34.412-0600",
"value" : {
"name" : "FTBFConfig_v72",
"assigned" : "2017-12-02T12:43:34.412-0600"
}
},
{
"event" : "addConfiguration",
"timestamp" : "2017-12-02T13:55:34.067-0600",
"value" : {
"name" : "FTBFConfig_v73",
"assigned" : "2017-12-02T13:55:34.067-0600"
}
},
{
"event" : "addConfiguration",
"timestamp" : "2017-12-02T14:09:06.406-0600",
"value" : {
"name" : "FTBFConfig_v74",
"assigned" : "2017-12-02T14:09:06.406-0600"
}
},
{
"event" : "addConfiguration",
"timestamp" : "2017-12-02T14:12:17.194-0600",
"value" : {
"name" : "FTBFConfig_v75",
"assigned" : "2017-12-02T14:12:17.194-0600"
}
},
{
"event" : "addConfiguration",
"timestamp" : "2017-12-02T19:05:52.282-0600",
"value" : {
"name" : "FTBFConfig_v76",
"assigned" : "2017-12-02T19:05:52.282-0600"
}
},
{
"event" : "addConfiguration",
"timestamp" : "2017-12-02T19:12:12.148-0600",
"value" : {
"name" : "FTBFConfig_v77",
"assigned" : "2017-12-02T19:12:12.148-0600"
}
},
{
"event" : "addConfiguration",
"timestamp" : "2017-12-03T14:03:47.287-0600",
"value" : {
"name" : "FTBFConfig_v78",
"assigned" : "2017-12-03T14:03:47.287-0600"
}
},
{
"event" : "addConfiguration",
"timestamp" : "2017-12-03T14:09:05.537-0600",
"value" : {
"name" : "FTBFConfig_v79",
"assigned" : "2017-12-03T14:09:05.536-0600"
}
},
{
"event" : "addConfiguration",
"timestamp" : "2017-12-03T14:11:09.283-0600",
"value" : {
"name" : "FTBFConfig_v80",
"assigned" : "2017-12-03T14:11:09.283-0600"
}
},
{
"event" : "addConfiguration",
"timestamp" : "2017-12-03T14:22:32.318-0600",
"value" : {
"name" : "FTBFConfig_v81",
"assigned" : "2017-12-03T14:22:32.318-0600"
}
},
{
"event" : "addConfiguration",
"timestamp" : "2017-12-03T14:40:37.101-0600",
"value" : {
"name" : "FTBFConfig_v82",
"assigned" : "2017-12-03T14:40:37.101-0600"
}
},
{
"event" : "addConfiguration",
"timestamp" : "2017-12-03T14:45:04.469-0600",
"value" : {
"name" : "FTBFConfig_v83",
"assigned" : "2017-12-03T14:45:04.469-0600"
}
},
{
"event" : "addConfiguration",
"timestamp" : "2017-12-04T14:51:29.808-0600",
"value" : {
"name" : "FTBFConfig_v84",
"assigned" : "2017-12-04T14:51:29.807-0600"
}
},
{
"event" : "addConfiguration",
"timestamp" : "2017-12-04T14:55:42.975-0600",
"value" : {
"name" : "FTBFConfig_v85",
"assigned" : "2017-12-04T14:55:42.975-0600"
}
},
{
"event" : "addConfiguration",
"timestamp" : "2017-12-04T16:51:05.995-0600",
"value" : {
"name" : "FTBFConfig_v86",
"assigned" : "2017-12-04T16:51:05.995-0600"
}
},
{
"event" : "addConfiguration",
"timestamp" : "2017-12-04T16:56:46.640-0600",
"value" : {
"name" : "FTBFConfig_v87",
"assigned" : "2017-12-04T16:56:46.639-0600"
}
},
{
"event" : "addConfiguration",
"timestamp" : "2017-12-04T17:01:11.359-0600",
"value" : {
"name" : "FTBFConfig_v88",
"assigned" : "2017-12-04T17:01:11.359-0600"
}
},
{
"event" : "addConfiguration",
"timestamp" : "2017-12-04T17:03:56.472-0600",
"value" : {
"name" : "FTBFConfig_v89",
"assigned" : "2017-12-04T17:03:56.472-0600"
}
},
{
"event" : "addConfiguration",
"timestamp" : "2017-12-04T17:07:16.099-0600",
"value" : {
"name" : "FTBFConfig_v90",
"assigned" : "2017-12-04T17:07:16.099-0600"
}
},
{
"event" : "addConfiguration",
"timestamp" : "2017-12-04T17:09:25.227-0600",
"value" : {
"name" : "FTBFConfig_v91",
"assigned" : "2017-12-04T17:09:25.226-0600"
}
},
{
"event" : "addConfiguration",
"timestamp" : "2017-12-04T17:11:37.713-0600",
"value" : {
"name" : "FTBFConfig_v92",
"assigned" : "2017-12-04T17:11:37.713-0600"
}
},
{
"event" : "addConfiguration",
"timestamp" : "2017-12-04T21:05:20.305-0600",
"value" : {
"name" : "FTBFConfig_v93",
"assigned" : "2017-12-04T21:05:20.305-0600"
}
},
{
"event" : "addConfiguration",
"timestamp" : "2017-12-04T21:17:11.236-0600",
"value" : {
"name" : "FTBFConfig_v94",
"assigned" : "2017-12-04T21:17:11.236-0600"
}
},
{
"event" : "addConfiguration",
"timestamp" : "2017-12-04T21:41:16.907-0600",
"value" : {
"name" : "FTBFConfig_v95",
"assigned" : "2017-12-04T21:41:16.907-0600"
}
},
{
"event" : "addConfiguration",
"timestamp" : "2017-12-04T22:39:01.543-0600",
"value" : {
"name" : "FTBFConfig_v96",
"assigned" : "2017-12-04T22:39:01.543-0600"
}
},
{
"event" : "addConfiguration",
"timestamp" : "2017-12-04T23:01:12.047-0600",
"value" : {
"name" : "FTBFConfig_v97",
"assigned" : "2017-12-04T23:01:12.047-0600"
}
},
{
"event" : "addConfiguration",
"timestamp" : "2017-12-07T11:07:46.060-0600",
"value" : {
"name" : "FTBFConfig_v98",
"assigned" : "2017-12-07T11:07:46.060-0600"
}
},
{
"event" : "addConfiguration",
"timestamp" : "2017-12-07T11:49:58.742-0600",
"value" : {
"name" : "FTBFConfig_v99",
"assigned" : "2017-12-07T11:49:58.742-0600"
}
},
{
"event" : "addConfiguration",
"timestamp" : "2017-12-07T11:58:25.470-0600",
"value" : {
"name" : "FTBFConfig_v100",
"assigned" : "2017-12-07T11:58:25.470-0600"
}
},
{
"event" : "addConfiguration",
"timestamp" : "2017-12-08T13:30:47.633-0600",
"value" : {
"name" : "FTBFConfig_v101",
"assigned" : "2017-12-08T13:30:47.633-0600"
}
},
{
"event" : "addConfiguration",
"timestamp" : "2017-12-08T13:32:34.498-0600",
"value" : {
"name" : "FTBFConfig_v102",
"assigned" : "2017-12-08T13:32:34.498-0600"
}
},
{
"event" : "addConfiguration",
"timestamp" : "2017-12-12T11:03:04.299-0600",
"value" : {
"name" : "FTBFConfig_v103",
"assigned" : "2017-12-12T11:03:04.299-0600"
}
},
{
"event" : "addConfiguration",
"timestamp" : "2017-12-12T13:50:58.713-0600",
"value" : {
"name" : "FTBFConfig_v104",
"assigned" : "2017-12-12T13:50:58.712-0600"
}
},
{
"event" : "addConfiguration",
"timestamp" : "2017-12-12T15:25:04.735-0600",
"value" : {
"name" : "FTBFConfig_v105",
"assigned" : "2017-12-12T15:25:04.735-0600"
}
},
{
"event" : "addConfiguration",
"timestamp" : "2017-12-13T10:24:23.082-0600",
"value" : {
"name" : "FTBFConfig_v106",
"assigned" : "2017-12-13T10:24:23.082-0600"
}
},
{
"event" : "addConfiguration",
"timestamp" : "2017-12-13T10:27:01.827-0600",
"value" : {
"name" : "FTBFConfig_v107",
"assigned" : "2017-12-13T10:27:01.827-0600"
}
},
{
"event" : "addConfiguration",
"timestamp" : "2018-02-01T21:14:25.363-0600",
"value" : {
"name" : "FTBFConfig_v108",
"assigned" : "2018-02-01T21:14:25.363-0600"
}
},
{
"event" : "addConfiguration",
"timestamp" : "2018-02-01T21:21:02.493-0600",
"value" : {
"name" : "FTBFConfig_v109",
"assigned" : "2018-02-01T21:21:02.492-0600"
}
},
{
"event" : "addConfiguration",
"timestamp" : "2018-02-02T11:25:33.457-0600",
"value" : {
"name" : "FTBFConfig_v110",
"assigned" : "2018-02-02T11:25:33.456-0600"
}
},
{
"event" : "addConfiguration",
"timestamp" : "2018-02-02T11:37:12.272-0600",
"value" : {
"name" : "FTBFConfig_v111",
"assigned" : "2018-02-02T11:37:12.272-0600"
}
},
{
"event" : "addConfiguration",
"timestamp" : "2018-02-02T11:47:14.775-0600",
"value" : {
"name" : "FTBFConfig_v112",
"assigned" : "2018-02-02T11:47:14.775-0600"
}
},
{
"event" : "addConfiguration",
"timestamp" : "2018-02-02T11:53:36.024-0600",
"value" : {
"name" : "FTBFConfig_v113",
"assigned" : "2018-02-02T11:53:36.024-0600"
}
},
{
"event" : "addConfiguration",
"timestamp" : "2018-02-02T12:00:52.122-0600",
"value" : {
"name" : "FTBFConfig_v114",
"assigned" : "2018-02-02T12:00:52.122-0600"
}
},
{
"event" : "addConfiguration",
"timestamp" : "2018-02-02T12:27:13.597-0600",
"value" : {
"name" : "FTBFConfig_v115",
"assigned" : "2018-02-02T12:27:13.597-0600"
}
},
{
"event" : "addConfiguration",
"timestamp" : "2018-02-02T14:28:53.120-0600",
"value" : {
"name" : "FTBFConfig_v116",
"assigned" : "2018-02-02T14:28:53.119-0600"
}
},
{
"event" : "addConfiguration",
"timestamp" : "2018-02-02T14:30:19.456-0600",
"value" : {
"name" : "FTBFConfig_v117",
"assigned" : "2018-02-02T14:30:19.456-0600"
}
},
{
"event" : "addConfiguration",
"timestamp" : "2018-02-02T14:34:00.721-0600",
"value" : {
"name" : "FTBFConfig_v118",
"assigned" : "2018-02-02T14:34:00.721-0600"
}
},
{
"event" : "addConfiguration",
"timestamp" : "2018-02-02T14:36:27.317-0600",
"value" : {
"name" : "FTBFConfig_v119",
"assigned" : "2018-02-02T14:36:27.317-0600"
}
},
{
"event" : "addConfiguration",
"timestamp" : "2018-02-02T14:38:40.654-0600",
"value" : {
"name" : "FTBFConfig_v120",
"assigned" : "2018-02-02T14:38:40.654-0600"
}
},
{
"event" : "addConfiguration",
"timestamp" : "2018-02-02T14:41:49.967-0600",
"value" : {
"name" : "FTBFConfig_v121",
"assigned" : "2018-02-02T14:41:49.967-0600"
}
},
{
"event" : "addConfiguration",
"timestamp" : "2018-02-02T14:50:24.050-0600",
"value" : {
"name" : "FTBFConfig_v122",
"assigned" : "2018-02-02T14:50:24.049-0600"
}
},
{
"event" : "addConfiguration",
"timestamp" : "2018-02-02T14:52:56.895-0600",
"value" : {
"name" : "FTBFConfig_v123",
"assigned" : "2018-02-02T14:52:56.894-0600"
}
},
{
"event" : "addConfiguration",
"timestamp" : "2018-02-02T14:59:50.217-0600",
"value" : {
"name" : "FTBFConfig_v124",
"assigned" : "2018-02-02T14:59:50.217-0600"
}
},
{
"event" : "addConfiguration",
"timestamp" : "2018-02-02T15:04:08.324-0600",
"value" : {
"name" : "FTBFConfig_v125",
"assigned" : "2018-02-02T15:04:08.324-0600"
}
},
{
"event" : "addConfiguration",
"timestamp" : "2018-02-02T15:50:11.522-0600",
"value" : {
"name" : "FTBFConfig_v126",
"assigned" : "2018-02-02T15:50:11.522-0600"
}
},
{
"event" : "addConfiguration",
"timestamp" : "2018-02-02T15:51:31.022-0600",
"value" : {
"name" : "FTBFConfig_v127",
"assigned" : "2018-02-02T15:51:31.022-0600"
}
},
{
"event" : "addConfiguration",
"timestamp" : "2018-02-02T15:52:36.181-0600",
"value" : {
"name" : "FTBFConfig_v128",
"assigned" : "2018-02-02T15:52:36.181-0600"
}
},
{
"event" : "addConfiguration",
"timestamp" : "2018-02-02T16:02:45.082-0600",
"value" : {
"name" : "FTBFConfig_v129",
"assigned" : "2018-02-02T16:02:45.081-0600"
}
},
{
"event" : "addConfiguration",
"timestamp" : "2018-02-02T16:08:44.620-0600",
"value" : {
"name" : "FTBFConfig_v130",
"assigned" : "2018-02-02T16:08:44.620-0600"
}
},
{
"event" : "addConfiguration",
"timestamp" : "2018-02-02T16:11:30.470-0600",
"value" : {
"name" : "FTBFConfig_v131",
"assigned" : "2018-02-02T16:11:30.470-0600"
}
},
{
"event" : "addConfiguration",
"timestamp" : "2018-02-02T16:12:58.331-0600",
"value" : {
"name" : "FTBFConfig_v132",
"assigned" : "2018-02-02T16:12:58.331-0600"
}
},
{
"event" : "addConfiguration",
"timestamp" : "2018-02-02T16:14:28.920-0600",
"value" : {
"name" : "FTBFConfig_v133",
"assigned" : "2018-02-02T16:14:28.920-0600"
}
},
{
"event" : "addConfiguration",
"timestamp" : "2018-02-02T16:26:21.824-0600",
"value" : {
"name" : "FTBFConfig_v134",
"assigned" : "2018-02-02T16:26:21.823-0600"
}
},
{
"event" : "addConfiguration",
"timestamp" : "2018-02-02T16:27:08.934-0600",
"value" : {
"name" : "FTBFConfig_v135",
"assigned" : "2018-02-02T16:27:08.934-0600"
}
},
{
"event" : "addConfiguration",
"timestamp" : "2018-02-02T16:29:30.292-0600",
"value" : {
"name" : "FTBFConfig_v136",
"assigned" : "2018-02-02T16:29:30.291-0600"
}
},
{
"event" : "addConfiguration",
"timestamp" : "2018-02-02T16:31:40.893-0600",
"value" : {
"name" : "FTBFConfig_v137",
"assigned" : "2018-02-02T16:31:40.893-0600"
}
},
{
"event" : "addConfiguration",
"timestamp" : "2018-02-02T16:34:13.562-0600",
"value" : {
"name" : "FTBFConfig_v138",
"assigned" : "2018-02-02T16:34:13.562-0600"
}
},
{
"event" : "addConfiguration",
"timestamp" : "2018-02-02T17:39:29.608-0600",
"value" : {
"name" : "FTBFConfig_v139",
"assigned" : "2018-02-02T17:39:29.608-0600"
}
},
{
"event" : "addConfiguration",
"timestamp" : "2018-02-02T17:42:51.785-0600",
"value" : {
"name" : "FTBFConfig_v140",
"assigned" : "2018-02-02T17:42:51.785-0600"
}
},
{
"event" : "addConfiguration",
"timestamp" : "2018-02-02T17:47:36.969-0600",
"value" : {
"name" : "FTBFConfig_v141",
"assigned" : "2018-02-02T17:47:36.969-0600"
}
},
{
"event" : "addConfiguration",
"timestamp" : "2018-02-02T17:54:00.991-0600",
"value" : {
"name" : "FTBFConfig_v142",
"assigned" : "2018-02-02T17:54:00.991-0600"
}
}
],
"created" : "2017-12-01T15:37:17.909-0600"
},
"_id" : {
"$oid" : "fe1d5c44182a489ab5a2a575"
},
"collection" : "DataBufferConfiguration",
"aliases" : {
"active" : [

],
"history" : [

]
},
"runs" : [

],
"attachments" : [

],
"configtype" : "notprovided"
}