{
"document" : {
"data" : {
"NAME" : "",
"COMMENT" : "",
"AUTHOR" : "",
"CREATION_TIME" : 1510242816,
"COL_TYPES" : {
"UNUSED_UID" : "NUMBER",
"COMMENT_DESCRIPTION" : "VARCHAR2",
"AUTHOR" : "VARCHAR2",
"GROUP_CREATION_TIME" : "TIMESTAMP WITH TIMEZONE"
},
"DATA_SET" : [
{
"UNUSED_UID" : "0",
"COMMENT_DESCRIPTION" : "",
"AUTHOR" : "uplegger",
"GROUP_CREATION_TIME" : "1510245429"
}
]
},
"metadata" : {

},
"search" : [

]
},
"comments" : [

],
"origin" : {
"source" : "template",
"name" : "notprovided",
"format" : "json",
"created" : "2017-11-09T10:37:09.493-0600",
"rawdata" : [

]
},
"version" : "4",
"entities" : [
{
"name" : "OTSROOT",
"assigned" : "2017-11-09T10:37:09.494-0600"
}
],
"configurations" : [
{
"name" : "notprovided",
"assigned" : "2017-11-09T10:37:09.494-0600"
},
{
"name" : "FTBFConfig_v3",
"assigned" : "2017-11-09T10:37:11.339-0600"
}
],
"changelog" : "notprovided",
"bookkeeping" : {
"isdeleted" : false,
"isreadonly" : false,
"updates" : [
{
"event" : "addConfiguration",
"timestamp" : "2017-11-09T10:37:09.494-0600",
"value" : {
"name" : "notprovided",
"assigned" : "2017-11-09T10:37:09.494-0600"
}
},
{
"event" : "setVersion",
"timestamp" : "2017-11-09T10:37:09.494-0600",
"value" : {
"name" : "4",
"assigned" : "2017-11-09T10:37:09.494-0600"
}
},
{
"event" : "setCollection",
"timestamp" : "2017-11-09T10:37:09.494-0600",
"value" : {
"name" : "ConfigurationGroupMetadata",
"assigned" : "2017-11-09T10:37:09.494-0600"
}
},
{
"event" : "addEntity",
"timestamp" : "2017-11-09T10:37:09.494-0600",
"value" : {
"name" : "OTSROOT",
"assigned" : "2017-11-09T10:37:09.494-0600"
}
},
{
"event" : "addConfiguration",
"timestamp" : "2017-11-09T10:37:11.339-0600",
"value" : {
"name" : "FTBFConfig_v3",
"assigned" : "2017-11-09T10:37:11.339-0600"
}
}
],
"created" : "2017-11-09T10:37:09.493-0600"
},
"_id" : {
"$oid" : "35c198fbc49f478ba5a0422c"
},
"collection" : "ConfigurationGroupMetadata",
"aliases" : {
"active" : [

],
"history" : [

]
},
"runs" : [

],
"attachments" : [

],
"configtype" : "notprovided"
}