{
"document" : {
"data" : {
"NAME" : "",
"COMMENT" : "",
"AUTHOR" : "",
"CREATION_TIME" : 1510242816,
"COL_TYPES" : {
"UNUSED_UID" : "NUMBER",
"COMMENT_DESCRIPTION" : "VARCHAR2",
"AUTHOR" : "VARCHAR2",
"GROUP_CREATION_TIME" : "TIMESTAMP WITH TIMEZONE"
},
"DATA_SET" : [
{
"UNUSED_UID" : "0",
"COMMENT_DESCRIPTION" : "",
"AUTHOR" : "rrivera",
"GROUP_CREATION_TIME" : "1510770576"
}
]
},
"metadata" : {

},
"search" : [

]
},
"comments" : [

],
"origin" : {
"source" : "template",
"name" : "notprovided",
"format" : "json",
"created" : "2017-11-15T12:29:36.273-0600",
"rawdata" : [

]
},
"version" : "49",
"entities" : [
{
"name" : "OTSROOT",
"assigned" : "2017-11-15T12:29:36.275-0600"
}
],
"configurations" : [
{
"name" : "notprovided",
"assigned" : "2017-11-15T12:29:36.274-0600"
},
{
"name" : "FTBFContext_v21",
"assigned" : "2017-11-15T12:29:36.320-0600"
}
],
"changelog" : "notprovided",
"bookkeeping" : {
"isdeleted" : false,
"isreadonly" : false,
"updates" : [
{
"event" : "addConfiguration",
"timestamp" : "2017-11-15T12:29:36.274-0600",
"value" : {
"name" : "notprovided",
"assigned" : "2017-11-15T12:29:36.274-0600"
}
},
{
"event" : "setVersion",
"timestamp" : "2017-11-15T12:29:36.274-0600",
"value" : {
"name" : "49",
"assigned" : "2017-11-15T12:29:36.274-0600"
}
},
{
"event" : "setCollection",
"timestamp" : "2017-11-15T12:29:36.274-0600",
"value" : {
"name" : "ConfigurationGroupMetadata",
"assigned" : "2017-11-15T12:29:36.274-0600"
}
},
{
"event" : "addEntity",
"timestamp" : "2017-11-15T12:29:36.275-0600",
"value" : {
"name" : "OTSROOT",
"assigned" : "2017-11-15T12:29:36.275-0600"
}
},
{
"event" : "addConfiguration",
"timestamp" : "2017-11-15T12:29:36.320-0600",
"value" : {
"name" : "FTBFContext_v21",
"assigned" : "2017-11-15T12:29:36.320-0600"
}
}
],
"created" : "2017-11-15T12:29:36.274-0600"
},
"_id" : {
"$oid" : "398a9472376b4e7e893a8f4d"
},
"collection" : "ConfigurationGroupMetadata",
"aliases" : {
"active" : [

],
"history" : [

]
},
"runs" : [

],
"attachments" : [

],
"configtype" : "notprovided"
}