{
"document" : {
"data" : {
"NAME" : "",
"COMMENT" : "",
"AUTHOR" : "",
"CREATION_TIME" : 1510242816,
"COL_TYPES" : {
"UNUSED_UID" : "NUMBER",
"COMMENT_DESCRIPTION" : "VARCHAR2",
"AUTHOR" : "VARCHAR2",
"GROUP_CREATION_TIME" : "TIMESTAMP WITH TIMEZONE"
},
"DATA_SET" : [
{
"UNUSED_UID" : "0",
"COMMENT_DESCRIPTION" : "",
"AUTHOR" : "uplegger",
"GROUP_CREATION_TIME" : "1510245545"
}
]
},
"metadata" : {

},
"search" : [

]
},
"comments" : [

],
"origin" : {
"source" : "template",
"name" : "notprovided",
"format" : "json",
"created" : "2017-11-09T10:39:05.160-0600",
"rawdata" : [

]
},
"version" : "7",
"entities" : [
{
"name" : "OTSROOT",
"assigned" : "2017-11-09T10:39:05.161-0600"
}
],
"configurations" : [
{
"name" : "notprovided",
"assigned" : "2017-11-09T10:39:05.160-0600"
},
{
"name" : "GroupAliasSaveWizBackbone_v0",
"assigned" : "2017-11-09T10:39:05.188-0600"
}
],
"changelog" : "notprovided",
"bookkeeping" : {
"isdeleted" : false,
"isreadonly" : false,
"updates" : [
{
"event" : "addConfiguration",
"timestamp" : "2017-11-09T10:39:05.160-0600",
"value" : {
"name" : "notprovided",
"assigned" : "2017-11-09T10:39:05.160-0600"
}
},
{
"event" : "setVersion",
"timestamp" : "2017-11-09T10:39:05.160-0600",
"value" : {
"name" : "7",
"assigned" : "2017-11-09T10:39:05.160-0600"
}
},
{
"event" : "setCollection",
"timestamp" : "2017-11-09T10:39:05.160-0600",
"value" : {
"name" : "ConfigurationGroupMetadata",
"assigned" : "2017-11-09T10:39:05.160-0600"
}
},
{
"event" : "addEntity",
"timestamp" : "2017-11-09T10:39:05.161-0600",
"value" : {
"name" : "OTSROOT",
"assigned" : "2017-11-09T10:39:05.161-0600"
}
},
{
"event" : "addConfiguration",
"timestamp" : "2017-11-09T10:39:05.188-0600",
"value" : {
"name" : "GroupAliasSaveWizBackbone_v0",
"assigned" : "2017-11-09T10:39:05.188-0600"
}
}
],
"created" : "2017-11-09T10:39:05.160-0600"
},
"_id" : {
"$oid" : "c6f8de081177491e8ab54306"
},
"collection" : "ConfigurationGroupMetadata",
"aliases" : {
"active" : [

],
"history" : [

]
},
"runs" : [

],
"attachments" : [

],
"configtype" : "notprovided"
}