{
"document" : {
"data" : {
"NAME" : "",
"COMMENT" : "",
"AUTHOR" : "",
"CREATION_TIME" : 1510242816,
"COL_TYPES" : {
"UNUSED_UID" : "NUMBER",
"COMMENT_DESCRIPTION" : "VARCHAR2",
"AUTHOR" : "VARCHAR2",
"GROUP_CREATION_TIME" : "TIMESTAMP WITH TIMEZONE"
},
"DATA_SET" : [
{
"UNUSED_UID" : "0",
"COMMENT_DESCRIPTION" : "",
"AUTHOR" : "admin",
"GROUP_CREATION_TIME" : "1512441266"
}
]
},
"metadata" : {

},
"search" : [

]
},
"comments" : [

],
"origin" : {
"source" : "template",
"name" : "notprovided",
"format" : "json",
"created" : "2017-12-04T20:34:26.948-0600",
"rawdata" : [

]
},
"version" : "363",
"entities" : [
{
"name" : "OTSROOT",
"assigned" : "2017-12-04T20:34:26.949-0600"
}
],
"configurations" : [
{
"name" : "notprovided",
"assigned" : "2017-12-04T20:34:26.948-0600"
},
{
"name" : "GroupAliasTreeEditWizBackbone_v63",
"assigned" : "2017-12-04T20:34:27.004-0600"
}
],
"changelog" : "notprovided",
"bookkeeping" : {
"isdeleted" : false,
"isreadonly" : false,
"updates" : [
{
"event" : "addConfiguration",
"timestamp" : "2017-12-04T20:34:26.949-0600",
"value" : {
"name" : "notprovided",
"assigned" : "2017-12-04T20:34:26.948-0600"
}
},
{
"event" : "setVersion",
"timestamp" : "2017-12-04T20:34:26.949-0600",
"value" : {
"name" : "363",
"assigned" : "2017-12-04T20:34:26.949-0600"
}
},
{
"event" : "setCollection",
"timestamp" : "2017-12-04T20:34:26.949-0600",
"value" : {
"name" : "ConfigurationGroupMetadata",
"assigned" : "2017-12-04T20:34:26.949-0600"
}
},
{
"event" : "addEntity",
"timestamp" : "2017-12-04T20:34:26.949-0600",
"value" : {
"name" : "OTSROOT",
"assigned" : "2017-12-04T20:34:26.949-0600"
}
},
{
"event" : "addConfiguration",
"timestamp" : "2017-12-04T20:34:27.005-0600",
"value" : {
"name" : "GroupAliasTreeEditWizBackbone_v63",
"assigned" : "2017-12-04T20:34:27.004-0600"
}
}
],
"created" : "2017-12-04T20:34:26.948-0600"
},
"_id" : {
"$oid" : "ffab63e72c224f12a2072958"
},
"collection" : "ConfigurationGroupMetadata",
"aliases" : {
"active" : [

],
"history" : [

]
},
"runs" : [

],
"attachments" : [

],
"configtype" : "notprovided"
}