{
"ouid" : [
"2da5a6ed45664255af85c8b5"
],
"version" : {
"0" : [
"2da5a6ed45664255af85c8b5"
]
},
"configurations.name" : {
"notprovided" : [
"2da5a6ed45664255af85c8b5"
],
"FTBFConfig_v0" : [
"2da5a6ed45664255af85c8b5"
],
"FTBFConfig_v1" : [
"2da5a6ed45664255af85c8b5"
],
"FTBFConfig_v2" : [
"2da5a6ed45664255af85c8b5"
],
"FTBFConfig_v3" : [
"2da5a6ed45664255af85c8b5"
],
"FTBFConfig_v4" : [
"2da5a6ed45664255af85c8b5"
],
"FTBFConfig_v5" : [
"2da5a6ed45664255af85c8b5"
],
"FTBFConfig_v6" : [
"2da5a6ed45664255af85c8b5"
],
"FTBFConfig_v7" : [
"2da5a6ed45664255af85c8b5"
],
"FTBFConfig_v8" : [
"2da5a6ed45664255af85c8b5"
],
"FTBFConfig_v9" : [
"2da5a6ed45664255af85c8b5"
],
"FTBFConfig_v10" : [
"2da5a6ed45664255af85c8b5"
],
"FTBFConfig_v11" : [
"2da5a6ed45664255af85c8b5"
],
"FTBFConfig_v12" : [
"2da5a6ed45664255af85c8b5"
],
"FTBFConfig_v13" : [
"2da5a6ed45664255af85c8b5"
],
"FTBFConfig_v14" : [
"2da5a6ed45664255af85c8b5"
],
"FTBFConfig_v15" : [
"2da5a6ed45664255af85c8b5"
],
"FTBFConfig_v16" : [
"2da5a6ed45664255af85c8b5"
],
"FTBFConfig_v17" : [
"2da5a6ed45664255af85c8b5"
],
"FTBFConfig_v18" : [
"2da5a6ed45664255af85c8b5"
],
"FTBFConfig_v19" : [
"2da5a6ed45664255af85c8b5"
],
"FTBFConfig_v20" : [
"2da5a6ed45664255af85c8b5"
],
"FTBFConfig_v21" : [
"2da5a6ed45664255af85c8b5"
],
"FTBFConfig_v22" : [
"2da5a6ed45664255af85c8b5"
],
"FTBFConfig_v23" : [
"2da5a6ed45664255af85c8b5"
],
"FTBFConfig_v24" : [
"2da5a6ed45664255af85c8b5"
],
"FTBFConfig_v25" : [
"2da5a6ed45664255af85c8b5"
],
"FTBFConfig_v26" : [
"2da5a6ed45664255af85c8b5"
],
"FTBFConfig_v27" : [
"2da5a6ed45664255af85c8b5"
],
"FTBFConfig_v28" : [
"2da5a6ed45664255af85c8b5"
],
"FTBFConfig_v29" : [
"2da5a6ed45664255af85c8b5"
],
"FTBFConfig_v30" : [
"2da5a6ed45664255af85c8b5"
],
"FTBFConfig_v31" : [
"2da5a6ed45664255af85c8b5"
],
"FTBFConfig_v32" : [
"2da5a6ed45664255af85c8b5"
],
"FTBFConfig_v33" : [
"2da5a6ed45664255af85c8b5"
],
"FTBFConfig_v34" : [
"2da5a6ed45664255af85c8b5"
],
"FTBFConfig_v35" : [
"2da5a6ed45664255af85c8b5"
],
"FTBFConfig_v36" : [
"2da5a6ed45664255af85c8b5"
],
"FTBFConfig_v37" : [
"2da5a6ed45664255af85c8b5"
],
"FTBFConfig_v38" : [
"2da5a6ed45664255af85c8b5"
],
"FTBFConfig_v39" : [
"2da5a6ed45664255af85c8b5"
],
"FTBFConfig_v40" : [
"2da5a6ed45664255af85c8b5"
],
"FTBFConfig_v41" : [
"2da5a6ed45664255af85c8b5"
],
"FTBFConfig_v42" : [
"2da5a6ed45664255af85c8b5"
],
"FTBFConfig_v43" : [
"2da5a6ed45664255af85c8b5"
],
"FTBFConfig_v44" : [
"2da5a6ed45664255af85c8b5"
],
"FTBFConfig_v45" : [
"2da5a6ed45664255af85c8b5"
],
"FTBFConfig_v46" : [
"2da5a6ed45664255af85c8b5"
],
"FTBFConfig_v47" : [
"2da5a6ed45664255af85c8b5"
],
"FTBFConfig_v48" : [
"2da5a6ed45664255af85c8b5"
],
"FTBFConfig_v49" : [
"2da5a6ed45664255af85c8b5"
],
"FTBFConfig_v51" : [
"2da5a6ed45664255af85c8b5"
],
"FTBFConfig_v52" : [
"2da5a6ed45664255af85c8b5"
],
"FTBFConfig_v53" : [
"2da5a6ed45664255af85c8b5"
],
"FTBFConfig_v54" : [
"2da5a6ed45664255af85c8b5"
],
"FTBFConfig_v55" : [
"2da5a6ed45664255af85c8b5"
],
"FTBFConfig_v56" : [
"2da5a6ed45664255af85c8b5"
],
"FTBFConfig_v57" : [
"2da5a6ed45664255af85c8b5"
],
"FTBFConfig_v58" : [
"2da5a6ed45664255af85c8b5"
],
"FTBFConfig_v59" : [
"2da5a6ed45664255af85c8b5"
],
"FTBFConfig_v60" : [
"2da5a6ed45664255af85c8b5"
],
"FTBFConfig_v61" : [
"2da5a6ed45664255af85c8b5"
],
"FTBFConfig_v62" : [
"2da5a6ed45664255af85c8b5"
],
"FTBFConfig_v63" : [
"2da5a6ed45664255af85c8b5"
],
"FTBFConfig_v64" : [
"2da5a6ed45664255af85c8b5"
],
"FTBFConfig_v65" : [
"2da5a6ed45664255af85c8b5"
],
"FTBFConfig_v66" : [
"2da5a6ed45664255af85c8b5"
],
"FTBFConfig_v67" : [
"2da5a6ed45664255af85c8b5"
],
"FTBFConfig_v68" : [
"2da5a6ed45664255af85c8b5"
],
"FTBFConfig_v69" : [
"2da5a6ed45664255af85c8b5"
],
"FTBFConfig_v70" : [
"2da5a6ed45664255af85c8b5"
],
"FTBFConfigNim_v0" : [
"2da5a6ed45664255af85c8b5"
],
"FTBFConfigNim_v1" : [
"2da5a6ed45664255af85c8b5"
],
"FTBFConfigNim_v2" : [
"2da5a6ed45664255af85c8b5"
],
"FTBFConfigNim_v3" : [
"2da5a6ed45664255af85c8b5"
],
"FTBFConfigNim_v4" : [
"2da5a6ed45664255af85c8b5"
],
"FTBFConfigNim_v5" : [
"2da5a6ed45664255af85c8b5"
],
"FTBFConfigNim_v6" : [
"2da5a6ed45664255af85c8b5"
],
"FTBFConfigNim_v7" : [
"2da5a6ed45664255af85c8b5"
],
"FTBFConfigNim_v8" : [
"2da5a6ed45664255af85c8b5"
],
"FTBFConfigNim_v9" : [
"2da5a6ed45664255af85c8b5"
],
"FTBFConfigNim_v10" : [
"2da5a6ed45664255af85c8b5"
],
"FTBFConfigNim_v11" : [
"2da5a6ed45664255af85c8b5"
],
"FTBFConfigNim_v12" : [
"2da5a6ed45664255af85c8b5"
],
"FTBFConfigNim_v13" : [
"2da5a6ed45664255af85c8b5"
],
"FTBFConfigNim_v14" : [
"2da5a6ed45664255af85c8b5"
],
"FTBFConfigNim_v15" : [
"2da5a6ed45664255af85c8b5"
],
"FTBFConfigNim_v16" : [
"2da5a6ed45664255af85c8b5"
],
"FTBFConfigNim_v17" : [
"2da5a6ed45664255af85c8b5"
],
"FTBFConfigNim_v18" : [
"2da5a6ed45664255af85c8b5"
],
"FTBFConfigNim_v19" : [
"2da5a6ed45664255af85c8b5"
],
"FTBFConfigNim_v20" : [
"2da5a6ed45664255af85c8b5"
],
"FTBFConfigNim_v21" : [
"2da5a6ed45664255af85c8b5"
],
"FTBFConfigNim_v22" : [
"2da5a6ed45664255af85c8b5"
],
"FTBFConfigNim_v23" : [
"2da5a6ed45664255af85c8b5"
],
"FTBFConfigNim_v24" : [
"2da5a6ed45664255af85c8b5"
],
"FTBFConfigNim_v25" : [
"2da5a6ed45664255af85c8b5"
],
"FTBFConfigNim_v26" : [
"2da5a6ed45664255af85c8b5"
],
"FTBFConfigNim_v27" : [
"2da5a6ed45664255af85c8b5"
],
"FTBFConfigNim_v28" : [
"2da5a6ed45664255af85c8b5"
],
"FTBFConfigNim_v29" : [
"2da5a6ed45664255af85c8b5"
],
"FTBFConfig_v71" : [
"2da5a6ed45664255af85c8b5"
],
"FTBFConfig_v72" : [
"2da5a6ed45664255af85c8b5"
],
"FTBFConfig_v73" : [
"2da5a6ed45664255af85c8b5"
],
"FTBFConfig_v74" : [
"2da5a6ed45664255af85c8b5"
],
"FTBFConfig_v75" : [
"2da5a6ed45664255af85c8b5"
],
"FTBFConfig_v76" : [
"2da5a6ed45664255af85c8b5"
],
"FTBFConfig_v77" : [
"2da5a6ed45664255af85c8b5"
],
"FTBFConfig_v78" : [
"2da5a6ed45664255af85c8b5"
],
"FTBFConfig_v79" : [
"2da5a6ed45664255af85c8b5"
],
"FTBFConfig_v80" : [
"2da5a6ed45664255af85c8b5"
],
"FTBFConfig_v81" : [
"2da5a6ed45664255af85c8b5"
],
"FTBFConfig_v82" : [
"2da5a6ed45664255af85c8b5"
],
"FTBFConfig_v83" : [
"2da5a6ed45664255af85c8b5"
],
"FTBFConfig_v84" : [
"2da5a6ed45664255af85c8b5"
],
"FTBFConfig_v85" : [
"2da5a6ed45664255af85c8b5"
],
"FTBFConfig_v86" : [
"2da5a6ed45664255af85c8b5"
],
"FTBFConfig_v87" : [
"2da5a6ed45664255af85c8b5"
],
"FTBFConfig_v88" : [
"2da5a6ed45664255af85c8b5"
],
"FTBFConfig_v89" : [
"2da5a6ed45664255af85c8b5"
],
"FTBFConfig_v90" : [
"2da5a6ed45664255af85c8b5"
],
"FTBFConfig_v91" : [
"2da5a6ed45664255af85c8b5"
],
"FTBFConfig_v92" : [
"2da5a6ed45664255af85c8b5"
],
"FTBFConfig_v93" : [
"2da5a6ed45664255af85c8b5"
],
"FTBFConfig_v94" : [
"2da5a6ed45664255af85c8b5"
],
"FTBFConfig_v95" : [
"2da5a6ed45664255af85c8b5"
],
"FTBFConfig_v96" : [
"2da5a6ed45664255af85c8b5"
],
"FTBFConfig_v97" : [
"2da5a6ed45664255af85c8b5"
],
"FTBFConfig_v98" : [
"2da5a6ed45664255af85c8b5"
],
"FTBFConfig_v99" : [
"2da5a6ed45664255af85c8b5"
],
"FTBFConfig_v100" : [
"2da5a6ed45664255af85c8b5"
],
"FTBFConfig_v101" : [
"2da5a6ed45664255af85c8b5"
],
"FTBFConfig_v102" : [
"2da5a6ed45664255af85c8b5"
],
"FTBFConfig_v103" : [
"2da5a6ed45664255af85c8b5"
],
"FTBFConfig_v104" : [
"2da5a6ed45664255af85c8b5"
],
"FTBFConfig_v105" : [
"2da5a6ed45664255af85c8b5"
],
"FTBFConfig_v106" : [
"2da5a6ed45664255af85c8b5"
],
"FTBFConfig_v107" : [
"2da5a6ed45664255af85c8b5"
],
"FTBFConfig_v108" : [
"2da5a6ed45664255af85c8b5"
],
"FTBFConfig_v109" : [
"2da5a6ed45664255af85c8b5"
],
"FTBFConfig_v110" : [
"2da5a6ed45664255af85c8b5"
],
"FTBFConfig_v111" : [
"2da5a6ed45664255af85c8b5"
],
"FTBFConfig_v112" : [
"2da5a6ed45664255af85c8b5"
],
"FTBFConfig_v113" : [
"2da5a6ed45664255af85c8b5"
],
"FTBFConfig_v114" : [
"2da5a6ed45664255af85c8b5"
],
"FTBFConfig_v115" : [
"2da5a6ed45664255af85c8b5"
],
"FTBFConfig_v116" : [
"2da5a6ed45664255af85c8b5"
],
"FTBFConfig_v117" : [
"2da5a6ed45664255af85c8b5"
],
"FTBFConfig_v118" : [
"2da5a6ed45664255af85c8b5"
],
"FTBFConfig_v119" : [
"2da5a6ed45664255af85c8b5"
],
"FTBFConfig_v120" : [
"2da5a6ed45664255af85c8b5"
],
"FTBFConfig_v121" : [
"2da5a6ed45664255af85c8b5"
],
"FTBFConfig_v122" : [
"2da5a6ed45664255af85c8b5"
],
"FTBFConfig_v123" : [
"2da5a6ed45664255af85c8b5"
],
"FTBFConfig_v124" : [
"2da5a6ed45664255af85c8b5"
],
"FTBFConfig_v125" : [
"2da5a6ed45664255af85c8b5"
],
"FTBFConfig_v126" : [
"2da5a6ed45664255af85c8b5"
],
"FTBFConfig_v127" : [
"2da5a6ed45664255af85c8b5"
],
"FTBFConfig_v128" : [
"2da5a6ed45664255af85c8b5"
],
"FTBFConfig_v129" : [
"2da5a6ed45664255af85c8b5"
],
"FTBFConfig_v130" : [
"2da5a6ed45664255af85c8b5"
],
"FTBFConfig_v131" : [
"2da5a6ed45664255af85c8b5"
],
"FTBFConfig_v132" : [
"2da5a6ed45664255af85c8b5"
],
"FTBFConfig_v133" : [
"2da5a6ed45664255af85c8b5"
],
"FTBFConfig_v134" : [
"2da5a6ed45664255af85c8b5"
],
"FTBFConfig_v135" : [
"2da5a6ed45664255af85c8b5"
],
"FTBFConfig_v136" : [
"2da5a6ed45664255af85c8b5"
],
"FTBFConfig_v137" : [
"2da5a6ed45664255af85c8b5"
],
"FTBFConfig_v138" : [
"2da5a6ed45664255af85c8b5"
],
"FTBFConfig_v139" : [
"2da5a6ed45664255af85c8b5"
],
"FTBFConfig_v140" : [
"2da5a6ed45664255af85c8b5"
],
"FTBFConfig_v141" : [
"2da5a6ed45664255af85c8b5"
],
"FTBFConfig_v142" : [
"2da5a6ed45664255af85c8b5"
]
},
"entities.name" : {
"OTSROOT" : [
"2da5a6ed45664255af85c8b5"
]
},
"aliases.active.name" : {

},
"runs.name" : {

},
"configurations.assigned" : {
"notprovided" : [
"2017-11-08T15:56:02.541-0600"
],
"FTBFConfig_v0" : [
"2017-11-08T15:56:05.137-0600"
],
"FTBFConfig_v1" : [
"2017-11-09T09:56:29.568-0600"
],
"FTBFConfig_v2" : [
"2017-11-09T10:05:58.525-0600"
],
"FTBFConfig_v3" : [
"2017-11-09T10:37:10.083-0600"
],
"FTBFConfig_v4" : [
"2017-11-15T11:30:08.825-0600"
],
"FTBFConfig_v5" : [
"2017-11-15T11:54:55.588-0600"
],
"FTBFConfig_v6" : [
"2017-11-15T11:57:48.213-0600"
],
"FTBFConfig_v7" : [
"2017-11-15T12:42:30.623-0600"
],
"FTBFConfig_v8" : [
"2017-11-15T13:01:01.577-0600"
],
"FTBFConfig_v9" : [
"2017-11-15T13:02:54.948-0600"
],
"FTBFConfig_v10" : [
"2017-11-15T13:04:22.540-0600"
],
"FTBFConfig_v11" : [
"2017-11-15T13:07:50.008-0600"
],
"FTBFConfig_v12" : [
"2017-11-15T13:11:57.440-0600"
],
"FTBFConfig_v13" : [
"2017-11-15T13:13:51.400-0600"
],
"FTBFConfig_v14" : [
"2017-11-15T13:27:24.421-0600"
],
"FTBFConfig_v15" : [
"2017-11-15T13:35:45.341-0600"
],
"FTBFConfig_v16" : [
"2017-11-15T13:36:49.976-0600"
],
"FTBFConfig_v17" : [
"2017-11-15T15:33:28.519-0600"
],
"FTBFConfig_v18" : [
"2017-11-15T15:35:32.091-0600"
],
"FTBFConfig_v19" : [
"2017-11-15T15:38:00.944-0600"
],
"FTBFConfig_v20" : [
"2017-11-15T16:26:28.581-0600"
],
"FTBFConfig_v21" : [
"2017-11-16T09:22:29.739-0600"
],
"FTBFConfig_v22" : [
"2017-11-17T10:23:25.923-0600"
],
"FTBFConfig_v23" : [
"2017-11-17T17:26:43.429-0600"
],
"FTBFConfig_v24" : [
"2017-11-17T17:58:23.854-0600"
],
"FTBFConfig_v25" : [
"2017-11-17T18:24:43.544-0600"
],
"FTBFConfig_v26" : [
"2017-11-17T18:32:20.315-0600"
],
"FTBFConfig_v27" : [
"2017-11-17T18:43:27.461-0600"
],
"FTBFConfig_v28" : [
"2017-11-17T18:48:29.468-0600"
],
"FTBFConfig_v29" : [
"2017-11-20T14:48:28.761-0600"
],
"FTBFConfig_v30" : [
"2017-11-20T15:39:54.012-0600"
],
"FTBFConfig_v31" : [
"2017-11-20T16:40:59.988-0600"
],
"FTBFConfig_v32" : [
"2017-11-20T18:55:32.790-0600"
],
"FTBFConfig_v33" : [
"2017-11-20T18:57:28.075-0600"
],
"FTBFConfig_v34" : [
"2017-11-29T17:50:37.552-0600"
],
"FTBFConfig_v35" : [
"2017-11-29T18:00:30.420-0600"
],
"FTBFConfig_v36" : [
"2017-11-29T18:35:09.284-0600"
],
"FTBFConfig_v37" : [
"2017-12-01T09:36:15.459-0600"
],
"FTBFConfig_v38" : [
"2017-12-01T09:51:58.815-0600"
],
"FTBFConfig_v39" : [
"2017-12-01T11:51:56.048-0600"
],
"FTBFConfig_v40" : [
"2017-12-01T12:18:18.018-0600"
],
"FTBFConfig_v41" : [
"2017-12-01T12:21:00.137-0600"
],
"FTBFConfig_v42" : [
"2017-12-01T12:43:19.250-0600"
],
"FTBFConfig_v43" : [
"2017-12-01T12:57:56.285-0600"
],
"FTBFConfig_v44" : [
"2017-12-01T13:00:48.842-0600"
],
"FTBFConfig_v45" : [
"2017-12-01T13:25:46.103-0600"
],
"FTBFConfig_v46" : [
"2017-12-01T13:35:40.925-0600"
],
"FTBFConfig_v47" : [
"2017-12-01T14:00:49.383-0600"
],
"FTBFConfig_v48" : [
"2017-12-01T14:03:56.621-0600"
],
"FTBFConfig_v49" : [
"2017-12-01T15:31:56.823-0600"
],
"FTBFConfig_v51" : [
"2017-12-01T15:36:38.225-0600"
],
"FTBFConfig_v52" : [
"2017-12-01T15:37:27.590-0600"
],
"FTBFConfig_v53" : [
"2017-12-01T15:40:56.337-0600"
],
"FTBFConfig_v54" : [
"2017-12-01T15:52:46.650-0600"
],
"FTBFConfig_v55" : [
"2017-12-01T15:54:31.773-0600"
],
"FTBFConfig_v56" : [
"2017-12-01T15:55:31.303-0600"
],
"FTBFConfig_v57" : [
"2017-12-01T15:56:37.099-0600"
],
"FTBFConfig_v58" : [
"2017-12-01T15:57:35.172-0600"
],
"FTBFConfig_v59" : [
"2017-12-01T15:58:27.060-0600"
],
"FTBFConfig_v60" : [
"2017-12-01T15:59:28.245-0600"
],
"FTBFConfig_v61" : [
"2017-12-01T16:19:37.945-0600"
],
"FTBFConfig_v62" : [
"2017-12-01T16:22:00.506-0600"
],
"FTBFConfig_v63" : [
"2017-12-01T16:31:21.113-0600"
],
"FTBFConfig_v64" : [
"2017-12-01T17:06:27.931-0600"
],
"FTBFConfig_v65" : [
"2017-12-01T17:32:40.303-0600"
],
"FTBFConfig_v66" : [
"2017-12-01T20:38:46.712-0600"
],
"FTBFConfig_v67" : [
"2017-12-01T21:24:58.185-0600"
],
"FTBFConfig_v68" : [
"2017-12-01T21:42:57.833-0600"
],
"FTBFConfig_v69" : [
"2017-12-01T21:44:56.440-0600"
],
"FTBFConfig_v70" : [
"2017-12-01T21:59:15.669-0600"
],
"FTBFConfigNim_v0" : [
"2017-12-01T22:00:02.369-0600"
],
"FTBFConfigNim_v1" : [
"2017-12-01T22:13:04.091-0600"
],
"FTBFConfigNim_v2" : [
"2017-12-01T22:15:51.303-0600"
],
"FTBFConfigNim_v3" : [
"2017-12-01T22:16:59.297-0600"
],
"FTBFConfigNim_v4" : [
"2017-12-01T22:19:02.368-0600"
],
"FTBFConfigNim_v5" : [
"2017-12-01T22:21:53.068-0600"
],
"FTBFConfigNim_v6" : [
"2017-12-01T22:23:09.220-0600"
],
"FTBFConfigNim_v7" : [
"2017-12-01T22:25:12.996-0600"
],
"FTBFConfigNim_v8" : [
"2017-12-01T22:27:00.523-0600"
],
"FTBFConfigNim_v9" : [
"2017-12-01T22:29:24.803-0600"
],
"FTBFConfigNim_v10" : [
"2017-12-01T22:52:29.904-0600"
],
"FTBFConfigNim_v11" : [
"2017-12-01T22:57:24.615-0600"
],
"FTBFConfigNim_v12" : [
"2017-12-01T23:00:02.954-0600"
],
"FTBFConfigNim_v13" : [
"2017-12-01T23:52:31.062-0600"
],
"FTBFConfigNim_v14" : [
"2017-12-01T23:58:05.456-0600"
],
"FTBFConfigNim_v15" : [
"2017-12-02T00:00:29.732-0600"
],
"FTBFConfigNim_v16" : [
"2017-12-02T00:13:04.817-0600"
],
"FTBFConfigNim_v17" : [
"2017-12-02T00:28:23.816-0600"
],
"FTBFConfigNim_v18" : [
"2017-12-02T00:29:29.850-0600"
],
"FTBFConfigNim_v19" : [
"2017-12-02T00:31:06.458-0600"
],
"FTBFConfigNim_v20" : [
"2017-12-02T00:57:22.827-0600"
],
"FTBFConfigNim_v21" : [
"2017-12-02T10:57:57.369-0600"
],
"FTBFConfigNim_v22" : [
"2017-12-02T11:08:13.531-0600"
],
"FTBFConfigNim_v23" : [
"2017-12-02T11:12:35.089-0600"
],
"FTBFConfigNim_v24" : [
"2017-12-02T11:18:37.903-0600"
],
"FTBFConfigNim_v25" : [
"2017-12-02T11:27:01.128-0600"
],
"FTBFConfigNim_v26" : [
"2017-12-02T11:38:32.173-0600"
],
"FTBFConfigNim_v27" : [
"2017-12-02T11:49:03.279-0600"
],
"FTBFConfigNim_v28" : [
"2017-12-02T11:55:04.744-0600"
],
"FTBFConfigNim_v29" : [
"2017-12-02T12:06:21.559-0600"
],
"FTBFConfig_v71" : [
"2017-12-02T12:24:10.193-0600"
],
"FTBFConfig_v72" : [
"2017-12-02T12:43:30.969-0600"
],
"FTBFConfig_v73" : [
"2017-12-02T13:55:30.547-0600"
],
"FTBFConfig_v74" : [
"2017-12-02T14:09:02.823-0600"
],
"FTBFConfig_v75" : [
"2017-12-02T14:12:13.671-0600"
],
"FTBFConfig_v76" : [
"2017-12-02T19:05:48.790-0600"
],
"FTBFConfig_v77" : [
"2017-12-02T19:12:08.588-0600"
],
"FTBFConfig_v78" : [
"2017-12-03T14:03:43.782-0600"
],
"FTBFConfig_v79" : [
"2017-12-03T14:09:01.938-0600"
],
"FTBFConfig_v80" : [
"2017-12-03T14:11:05.695-0600"
],
"FTBFConfig_v81" : [
"2017-12-03T14:22:28.733-0600"
],
"FTBFConfig_v82" : [
"2017-12-03T14:40:33.492-0600"
],
"FTBFConfig_v83" : [
"2017-12-03T14:45:00.779-0600"
],
"FTBFConfig_v84" : [
"2017-12-04T14:51:26.241-0600"
],
"FTBFConfig_v85" : [
"2017-12-04T14:55:39.365-0600"
],
"FTBFConfig_v86" : [
"2017-12-04T16:51:02.331-0600"
],
"FTBFConfig_v87" : [
"2017-12-04T16:56:42.959-0600"
],
"FTBFConfig_v88" : [
"2017-12-04T17:01:07.658-0600"
],
"FTBFConfig_v89" : [
"2017-12-04T17:03:52.720-0600"
],
"FTBFConfig_v90" : [
"2017-12-04T17:07:12.360-0600"
],
"FTBFConfig_v91" : [
"2017-12-04T17:09:21.475-0600"
],
"FTBFConfig_v92" : [
"2017-12-04T17:11:33.929-0600"
],
"FTBFConfig_v93" : [
"2017-12-04T21:05:16.545-0600"
],
"FTBFConfig_v94" : [
"2017-12-04T21:17:07.388-0600"
],
"FTBFConfig_v95" : [
"2017-12-04T21:41:13.123-0600"
],
"FTBFConfig_v96" : [
"2017-12-04T22:38:57.727-0600"
],
"FTBFConfig_v97" : [
"2017-12-04T23:01:08.215-0600"
],
"FTBFConfig_v98" : [
"2017-12-07T11:07:42.256-0600"
],
"FTBFConfig_v99" : [
"2017-12-07T11:49:54.933-0600"
],
"FTBFConfig_v100" : [
"2017-12-07T11:58:21.648-0600"
],
"FTBFConfig_v101" : [
"2017-12-08T13:30:43.722-0600"
],
"FTBFConfig_v102" : [
"2017-12-08T13:32:30.613-0600"
],
"FTBFConfig_v103" : [
"2017-12-12T11:03:00.378-0600"
],
"FTBFConfig_v104" : [
"2017-12-12T13:50:54.625-0600"
],
"FTBFConfig_v105" : [
"2017-12-12T15:25:00.630-0600"
],
"FTBFConfig_v106" : [
"2017-12-13T10:24:19.117-0600"
],
"FTBFConfig_v107" : [
"2017-12-13T10:26:57.882-0600"
],
"FTBFConfig_v108" : [
"2018-02-01T21:14:21.157-0600"
],
"FTBFConfig_v109" : [
"2018-02-01T21:20:58.247-0600"
],
"FTBFConfig_v110" : [
"2018-02-02T11:25:29.188-0600"
],
"FTBFConfig_v111" : [
"2018-02-02T11:37:08.017-0600"
],
"FTBFConfig_v112" : [
"2018-02-02T11:47:10.462-0600"
],
"FTBFConfig_v113" : [
"2018-02-02T11:53:31.709-0600"
],
"FTBFConfig_v114" : [
"2018-02-02T12:00:47.764-0600"
],
"FTBFConfig_v115" : [
"2018-02-02T12:27:09.262-0600"
],
"FTBFConfig_v116" : [
"2018-02-02T14:28:48.757-0600"
],
"FTBFConfig_v117" : [
"2018-02-02T14:30:15.098-0600"
],
"FTBFConfig_v118" : [
"2018-02-02T14:33:56.284-0600"
],
"FTBFConfig_v119" : [
"2018-02-02T14:36:22.874-0600"
],
"FTBFConfig_v120" : [
"2018-02-02T14:38:36.256-0600"
],
"FTBFConfig_v121" : [
"2018-02-02T14:41:45.568-0600"
],
"FTBFConfig_v122" : [
"2018-02-02T14:50:19.553-0600"
],
"FTBFConfig_v123" : [
"2018-02-02T14:52:52.421-0600"
],
"FTBFConfig_v124" : [
"2018-02-02T14:59:45.739-0600"
],
"FTBFConfig_v125" : [
"2018-02-02T15:04:03.822-0600"
],
"FTBFConfig_v126" : [
"2018-02-02T15:50:07.029-0600"
],
"FTBFConfig_v127" : [
"2018-02-02T15:51:26.482-0600"
],
"FTBFConfig_v128" : [
"2018-02-02T15:52:31.655-0600"
],
"FTBFConfig_v129" : [
"2018-02-02T16:02:40.525-0600"
],
"FTBFConfig_v130" : [
"2018-02-02T16:08:40.035-0600"
],
"FTBFConfig_v131" : [
"2018-02-02T16:11:25.803-0600"
],
"FTBFConfig_v132" : [
"2018-02-02T16:12:53.666-0600"
],
"FTBFConfig_v133" : [
"2018-02-02T16:14:24.227-0600"
],
"FTBFConfig_v134" : [
"2018-02-02T16:26:17.143-0600"
],
"FTBFConfig_v135" : [
"2018-02-02T16:27:04.251-0600"
],
"FTBFConfig_v136" : [
"2018-02-02T16:29:25.559-0600"
],
"FTBFConfig_v137" : [
"2018-02-02T16:31:36.061-0600"
],
"FTBFConfig_v138" : [
"2018-02-02T16:34:08.789-0600"
],
"FTBFConfig_v139" : [
"2018-02-02T17:39:24.815-0600"
],
"FTBFConfig_v140" : [
"2018-02-02T17:42:46.980-0600"
],
"FTBFConfig_v141" : [
"2018-02-02T17:47:32.139-0600"
],
"FTBFConfig_v142" : [
"2018-02-02T17:53:56.116-0600"
]
}
}