18 Dec 2019 23:25:46.971 [140696787331264] INFO  gov.fnal.dhcp.athenanu.p:2015 <> - xdaq version: 05.03.01, compiled on Apr 19 2019 at 09:24:24, 64bit
18 Dec 2019 23:25:46.973 [140696787331264] INFO  gov.fnal.dhcp.athenanu.p:2015 <> - Loaded profile: /home/otsdaq/otsdaq/srcs/otsdaq_cmsoutertracker/DataDefault/XDAQConfigurations/otsConfiguration_CMake.xml
18 Dec 2019 23:25:46.974 [140696787331264] INFO  gov.fnal.dhcp.athenanu.p:2015 <> - b2innub version: 02.05.01, compiled on Apr 19 2019 at 09:27:11
18 Dec 2019 23:25:46.975 [140696787331264] INFO  gov.fnal.dhcp.athenanu.p:2015 <> - executive version: 04.00.06, compiled on Apr 19 2019 at 09:26:38
18 Dec 2019 23:25:46.976 [140696787331264] INFO  gov.fnal.dhcp.athenanu.p:2015 <> - b2inutils version: 04.04.05, compiled on Apr 19 2019 at 09:27:18
18 Dec 2019 23:25:46.978 [140696787331264] INFO  gov.fnal.dhcp.athenanu.p:2015 <> - pthttp version: 04.05.07, compiled on Apr 19 2019 at 09:25:32
18 Dec 2019 23:25:46.978 [140696787331264] INFO  gov.fnal.dhcp.athenanu.p:2015 <> - ptfifo version: 04.03.01, compiled on Apr 19 2019 at 09:26:16
18 Dec 2019 23:25:46.979 [140696787331264] INFO  gov.fnal.dhcp.athenanu.p:2015 <> - xrelay version: 04.01.00, compiled on Apr 19 2019 at 09:27:04
18 Dec 2019 23:25:46.981 [140696787331264] INFO  gov.fnal.dhcp.athenanu.p:2015 <> - hyperdaq version: 05.02.01, compiled on Apr 19 2019 at 09:27:02
18 Dec 2019 23:25:46.981 [140696787331264] DEBUG gov.fnal.dhcp.athenanu.p:2015 <> - Create application descriptor for class: executive::Application id: 0
18 Dec 2019 23:25:46.997 [140696787331264] INFO  gov.fnal.dhcp.athenanu.p:2015.executive::Application.lid(0) <> - Log URL not set (was already console)
18 Dec 2019 23:25:46.997 [140696787331264] INFO  gov.fnal.dhcp.athenanu.p:2015.executive::Application.lid(0) <> - Changed Log level to INFO
18 Dec 2019 23:25:47.000 [140696787331264] INFO  gov.fnal.dhcp.athenanu.p:2015.pt::http::PeerTransportHTTP.lid(1) <> - No security policies on this server
18 Dec 2019 23:25:47.164 [140696787331264] INFO  gov.fnal.dhcp.athenanu.p:2015 <> - GatewaySupervisor_ version: 03.00.00, compiled on Dec 18 2019 at 16:57:21
18 Dec 2019 23:25:47.167 [140696787331264] INFO  gov.fnal.dhcp.athenanu.p:2015 <> - Chat version: 03.00.00, compiled on Dec 18 2019 at 17:23:16
18 Dec 2019 23:25:47.170 [140696787331264] INFO  gov.fnal.dhcp.athenanu.p:2015 <> - Console version: 03.00.00, compiled on Dec 18 2019 at 17:23:20
18 Dec 2019 23:25:47.172 [140696787331264] INFO  gov.fnal.dhcp.athenanu.p:2015 <> - Logbook version: 03.00.00, compiled on Dec 18 2019 at 17:23:22
18 Dec 2019 23:25:47.475 [140696787331264] INFO  gov.fnal.dhcp.athenanu.p:2015 <> - Visualization version: 03.00.00, compiled on Dec 18 2019 at 17:23:24
18 Dec 2019 23:25:47.484 [140696787331264] INFO  gov.fnal.dhcp.athenanu.p:2015 <> - ConfigurationGUI version: 03.00.00, compiled on Dec 18 2019 at 17:23:17
18 Dec 2019 23:25:47.487 [140696787331264] INFO  gov.fnal.dhcp.athenanu.p:2015 <> - MacroMaker version: 03.00.00, compiled on Dec 18 2019 at 17:24:59
12-18 17:25:47.489889                                  FSM dbg FSM-GatewaySupervisor	<> Constructing FiniteStateMachine
12-18 17:25:47.490143                    MessageFacility.h dbg Configuring message facility with /home/otsdaq/otsdaq/srcs/otsdaq_cmsoutertracker/DataDefault/MessageFacilityConfigurations/MessageFacilityGen.fcl
udp: {
	type: UDP
	threshold: DEBUG
	port: 30000
	host: "127.0.0.1"
}
console: {
	type: "OTS"
	threshold: "DEBUG"
	filename_delimit: "/srcs/"
	format_string: "|%L:%N:%f [%u]	%m"

}

file: {}
|Info:configureMessageFacility:configureMessageFacility.cc [290]	Message Facility Application . configured with: debugModules:["*"] destinations:{console:{filename_delimit:"/srcs/" format_string:"|%L:%N:%f [%u]\t%m" threshold:"DEBUG" type:"OTS"} file:{} udp:{host:"127.0.0.1" port:30000 threshold:"DEBUG" type:"UDP"}}
|Info:_TCPConnect:TCPConnect.cc [334]	Resolving host 127.0.0.1, on port 30000
%MSG-i _TCPConnect:  DAQ 18-Dec-2019 17:25:47 CST Booted TCPConnect.cc:334
Resolving host 127.0.0.1, on port 30000
%MSG
|Info:_TCPConnect:TCPConnect.cc [241]	Resolving ip athenanu.dhcp.fnal.gov
%MSG-i _TCPConnect:  DAQ 18-Dec-2019 17:25:47 CST Booted TCPConnect.cc:241
Resolving ip athenanu.dhcp.fnal.gov
%MSG
%MSG-i configureMessageFacility:  Early 18-Dec-2019 17:25:47 CST pre-events configureMessageFacility.cc:290
Message Facility Application . configured with: debugModules:["*"] destinations:{console:{filename_delimit:"/srcs/" format_string:"|%L:%N:%f [%u]\t%m" threshold:"DEBUG" type:"OTS"} file:{} udp:{host:"127.0.0.1" port:30000 threshold:"DEBUG" type:"UDP"}}
%MSG
|Debug:FSM:otsdaq/otsdaq/FiniteStateMachine/RunControlStateMachine.cc [97]	FSM-GatewaySupervisor	<> Resetting RunControlStateMachine with name 'GatewaySupervisor'...
|Debug:CorePropertySupervisorBase.cc:otsdaq/otsdaq/CoreSupervisors/CorePropertySupervisorBase.cc [27]	GatewaySupervisor-UNINITIALIZED_supervisorApplicationUID	<> application->getApplicationContext()->getContextDescriptor()->getURL() = http://athenanu.dhcp.fnal.gov:2015
|Debug:CorePropertySupervisorBase.cc:otsdaq/otsdaq/CoreSupervisors/CorePropertySupervisorBase.cc [28]	GatewaySupervisor-UNINITIALIZED_supervisorApplicationUID	<> application->getApplicationDescriptor()->getLocalId() = 200
|Debug:CorePropertySupervisorBase.cc:otsdaq/otsdaq/CoreSupervisors/CorePropertySupervisorBase.cc [29]	GatewaySupervisor-UNINITIALIZED_supervisorApplicationUID	<> supervisorClass_ = ots::GatewaySupervisor
|Debug:CorePropertySupervisorBase.cc:otsdaq/otsdaq/CoreSupervisors/CorePropertySupervisorBase.cc [30]	GatewaySupervisor-UNINITIALIZED_supervisorApplicationUID	<> supervisorClassNoNamespace_ = GatewaySupervisor
|Debug:AllSupervisorInfo.cc:otsdaq/otsdaq/SupervisorInfo/AllSupervisorInfo.cc [42]	Initializing info based on XDAQ context...
|Debug:SupervisorDescriptorInfoBase.cc:otsdaq/otsdaq/SupervisorInfo/SupervisorDescriptorInfoBase.cc [33]	Init
|Debug:AllSupervisorInfo.cc:otsdaq/otsdaq/SupervisorInfo/AllSupervisorInfo.cc [98]	Initializing info for Normal mode XDAQ context...
|Debug:TableBase:otsdaq/otsdaq/TableCore/TableBase.cc [1107]	TableBase-TableGroupMetadata	<> Using Mock-up view
|Debug:ConfigurationManager:otsdaq/otsdaq/ConfigurationInterface/ConfigurationManager.cc [163]	username_ = READONLY_USER
|Debug:ConfigurationManager:otsdaq/otsdaq/ConfigurationInterface/ConfigurationManager.cc [205]	ACTIVE_GROUPS_FILENAME = /home/otsdaq/otsdaq/srcs/otsdaq_cmsoutertracker/DataDefault/ServiceData/ActiveTableGroups.cfg
|Debug:ConfigurationManager:otsdaq/otsdaq/ConfigurationInterface/ConfigurationManager.cc [206]	ARTDAQ_DATABASE_URI = filesystemdb:///home/otsdaq/otsdaq/srcs/otsdaq_cmsoutertracker/databases/filesystemdb/default_db
|Debug:ConfigurationManager:otsdaq/otsdaq/ConfigurationInterface/ConfigurationManager.cc [1343]	------------------------------------- init start    	 [for all plug-ins in Context group 'DefaultContext(15)']
|Debug:MessageFacilityTable_table.cc:otsdaq/otsdaq/TablePlugins/MessageFacilityTable_table.cc [113]	Forwarding to Web GUI with UDP forward MesageFacility table.
|Debug:MessageFacilityTable_table.cc:otsdaq/otsdaq/TablePlugins/MessageFacilityTable_table.cc [236]	Opened.. /home/otsdaq/otsdaq/srcs/otsdaq_cmsoutertracker/DataDefault/MessageFacilityConfigurations/MessageFacilityGen.fcl
|Debug:MessageFacilityTable_table.cc:otsdaq/otsdaq/TablePlugins/MessageFacilityTable_table.cc [248]	Opened.. /home/otsdaq/otsdaq/srcs/otsdaq_cmsoutertracker/DataDefault/MessageFacilityConfigurations/MessageFacilityGen.fcl
|Debug:XDAQContextTable_table.cc:otsdaq/otsdaq/TablePlugins/XDAQContextTable_table.cc [251]	Fixing deprecated Supervisor class from ots::Supervisor to ots::GatewaySupervisor
|Debug:ConfigurationManager:otsdaq/otsdaq/ConfigurationInterface/ConfigurationManager.cc [1510]	------------------------------------- init complete 	 [for all plug-ins in Context group 'DefaultContext(15)']
|Debug:ConfigurationManager:otsdaq/otsdaq/ConfigurationInterface/ConfigurationManager.cc [1343]	------------------------------------- init start    	 [for all plug-ins in Backbone group 'TableEditWizBackbone(19)']
|Debug:ConfigurationManager:otsdaq/otsdaq/ConfigurationInterface/ConfigurationManager.cc [1510]	------------------------------------- init complete 	 [for all plug-ins in Backbone group 'TableEditWizBackbone(19)']
|Warning:ConfigurationManager:otsdaq/otsdaq/ConfigurationInterface/ConfigurationManager.cc [1336]	Not loading group because it is not of type Context or Backbone (it is type 'Configuration').
Not loading group because it is not of type Context or Backbone (it is type 'Configuration').
|Debug:AllSupervisorInfo.cc:otsdaq/otsdaq/SupervisorInfo/AllSupervisorInfo.cc [318]	Supervisor Info initialization complete!
|Debug:ConfigurationManager:otsdaq/otsdaq/ConfigurationInterface/ConfigurationManager.cc [422]	Destroying Backbone Key: 19
|Debug:ConfigurationManager:otsdaq/otsdaq/ConfigurationInterface/ConfigurationManager.cc [440]	Destroying Context Key: 15
|Debug:CorePropertySupervisorBase.cc:otsdaq/otsdaq/CoreSupervisors/CorePropertySupervisorBase.cc [71]	GatewaySupervisor-UNINITIALIZED_supervisorApplicationUID	<> Getting configuration specific info for supervisor 'Supervisor' of class ots::GatewaySupervisor.
|Debug:TableBase:otsdaq/otsdaq/TableCore/TableBase.cc [1107]	TableBase-TableGroupMetadata	<> Using Mock-up view
|Debug:ConfigurationManager:otsdaq/otsdaq/ConfigurationInterface/ConfigurationManager.cc [163]	username_ = READONLY_USER
|Debug:ConfigurationManager:otsdaq/otsdaq/ConfigurationInterface/ConfigurationManager.cc [205]	ACTIVE_GROUPS_FILENAME = /home/otsdaq/otsdaq/srcs/otsdaq_cmsoutertracker/DataDefault/ServiceData/ActiveTableGroups.cfg
|Debug:ConfigurationManager:otsdaq/otsdaq/ConfigurationInterface/ConfigurationManager.cc [206]	ARTDAQ_DATABASE_URI = filesystemdb:///home/otsdaq/otsdaq/srcs/otsdaq_cmsoutertracker/databases/filesystemdb/default_db
|Debug:ConfigurationManager:otsdaq/otsdaq/ConfigurationInterface/ConfigurationManager.cc [1343]	------------------------------------- init start    	 [for all plug-ins in Context group 'DefaultContext(15)']
|Debug:MessageFacilityTable_table.cc:otsdaq/otsdaq/TablePlugins/MessageFacilityTable_table.cc [113]	Forwarding to Web GUI with UDP forward MesageFacility table.
|Debug:MessageFacilityTable_table.cc:otsdaq/otsdaq/TablePlugins/MessageFacilityTable_table.cc [236]	Opened.. /home/otsdaq/otsdaq/srcs/otsdaq_cmsoutertracker/DataDefault/MessageFacilityConfigurations/MessageFacilityGen.fcl
|Debug:MessageFacilityTable_table.cc:otsdaq/otsdaq/TablePlugins/MessageFacilityTable_table.cc [248]	Opened.. /home/otsdaq/otsdaq/srcs/otsdaq_cmsoutertracker/DataDefault/MessageFacilityConfigurations/MessageFacilityGen.fcl
|Debug:XDAQContextTable_table.cc:otsdaq/otsdaq/TablePlugins/XDAQContextTable_table.cc [251]	Fixing deprecated Supervisor class from ots::Supervisor to ots::GatewaySupervisor
|Debug:ConfigurationManager:otsdaq/otsdaq/ConfigurationInterface/ConfigurationManager.cc [1510]	------------------------------------- init complete 	 [for all plug-ins in Context group 'DefaultContext(15)']
|Debug:ConfigurationManager:otsdaq/otsdaq/ConfigurationInterface/ConfigurationManager.cc [1343]	------------------------------------- init start    	 [for all plug-ins in Backbone group 'TableEditWizBackbone(19)']
|Debug:ConfigurationManager:otsdaq/otsdaq/ConfigurationInterface/ConfigurationManager.cc [1510]	------------------------------------- init complete 	 [for all plug-ins in Backbone group 'TableEditWizBackbone(19)']
|Warning:ConfigurationManager:otsdaq/otsdaq/ConfigurationInterface/ConfigurationManager.cc [1336]	Not loading group because it is not of type Context or Backbone (it is type 'Configuration').
Not loading group because it is not of type Context or Backbone (it is type 'Configuration').
|Debug:CorePropertySupervisorBase.cc:otsdaq/otsdaq/CoreSupervisors/CorePropertySupervisorBase.cc [109]	GatewaySupervisor-Supervisor	<> CorePropertySupervisorBase::supervisorContextUID_ = MainContext
|Debug:CorePropertySupervisorBase.cc:otsdaq/otsdaq/CoreSupervisors/CorePropertySupervisorBase.cc [110]	GatewaySupervisor-Supervisor	<> CorePropertySupervisorBase::supervisorApplicationUID_ = Supervisor
|Debug:CorePropertySupervisorBase.cc:otsdaq/otsdaq/CoreSupervisors/CorePropertySupervisorBase.cc [111]	GatewaySupervisor-Supervisor	<> CorePropertySupervisorBase::supervisorConfigurationPath_ = /MainContext/LinkToApplicationTable/Supervisor/LinkToSupervisorTable
|Debug:CorePropertySupervisorBase.cc:otsdaq/otsdaq/CoreSupervisors/CorePropertySupervisorBase.cc [147]	hostname = athenanu.dhcp.fnal.gov
|Debug:CorePropertySupervisorBase.cc:otsdaq/otsdaq/CoreSupervisors/CorePropertySupervisorBase.cc [161]	Marked alive: /home/otsdaq/otsdaq/srcs/otsdaq_cmsoutertracker/DataDefault/Logs/otsdaq_is_alive-athenanu.dhcp.fnal.gov-2015.dat
|Debug:WebUsers:otsdaq/otsdaq/WebUsersUtilities/WebUsers.cc [477]	/home/otsdaq/otsdaq/srcs/otsdaq_cmsoutertracker/DataDefault/ServiceData/LoginData/HashesData//hashes.xml
|Debug:WebUsers:otsdaq/otsdaq/WebUsersUtilities/WebUsers.cc [530]	0 Hashes found.
|Debug:WebUsers:otsdaq/otsdaq/WebUsersUtilities/WebUsers.cc [593]	Found Users database next user Id: 1
|Debug:WebUsers:otsdaq/otsdaq/WebUsersUtilities/WebUsers.cc [735]	1 Users found.
|Debug:WebUsers:otsdaq/otsdaq/WebUsersUtilities/WebUsers.cc [738]	User 0: Name: admin		Display Name: Administrator		Email: root@otsdaq.fnal.gov		Permissions: allUsers: 255
|Debug:WebUsers:otsdaq/otsdaq/WebUsersUtilities/WebUsers.cc [2879]	The current security type is NoSecurity
|Debug:WebUsers:otsdaq/otsdaq/WebUsersUtilities/WebUsers.cc [2889]	CareAboutCookieCodes_: 0
|Debug:WebUsers:otsdaq/otsdaq/WebUsersUtilities/WebUsers.cc [388]	/home/otsdaq/otsdaq/srcs/otsdaq_cmsoutertracker/DataDefault/ServiceData/LoginData/UsersData//activeSessions.sv
|Info:WebUsers:otsdaq/otsdaq/WebUsersUtilities/WebUsers.cc [392]	Persistent active sessions were not found to be loaded at file: /home/otsdaq/otsdaq/srcs/otsdaq_cmsoutertracker/DataDefault/ServiceData/LoginData/UsersData//activeSessions.sv
Persistent active sessions were not found to be loaded at file: /home/otsdaq/otsdaq/srcs/otsdaq_cmsoutertracker/DataDefault/ServiceData/LoginData/UsersData//activeSessions.sv
|Debug:WebUsers:otsdaq/otsdaq/WebUsersUtilities/WebUsers.cc [2835]	Attempting to load username with lock: admin
|Debug:WebUsers:otsdaq/otsdaq/WebUsersUtilities/WebUsers.cc [2849]	Setting lock
|Debug:WebUsers:otsdaq/otsdaq/WebUsersUtilities/WebUsers.cc [2645]	actingUser = admin
|Debug:WebUsers:otsdaq/otsdaq/WebUsersUtilities/WebUsers.cc [2646]	Permissions: allUsers: 255
|Debug:WebUsers:otsdaq/otsdaq/WebUsersUtilities/WebUsers.cc [2647]	usersUsernameWithLock_ = 
|Debug:WebUsers:otsdaq/otsdaq/WebUsersUtilities/WebUsers.cc [2648]	lock = 1
|Debug:WebUsers:otsdaq/otsdaq/WebUsersUtilities/WebUsers.cc [2649]	username = admin
|Debug:WebUsers:otsdaq/otsdaq/WebUsersUtilities/WebUsers.cc [2650]	isUsernameActive(username) = 0
|Info:WebUsers:otsdaq/otsdaq/WebUsersUtilities/WebUsers.cc [2676]	User 'admin' has locked out the system!
User 'admin' has locked out the system!
|Info:WebUsers:otsdaq/otsdaq/WebUsersUtilities/WebUsers.cc [2676]	User 'admin' has locked out the system!
User 'admin' has locked out the system!
|Debug:WebUsers:otsdaq/otsdaq/WebUsersUtilities/WebUsers.cc [154]	Done with Web Users initialization!
|Debug:WorkLoopManager.cc:otsdaq/otsdaq/WorkLoopManager/WorkLoopManager.cc [19]	Request name: StateMachine jobName: StateMachine
|Debug:WorkLoopManager.cc:otsdaq/otsdaq/WorkLoopManager/WorkLoopManager.cc [19]	Request name: InfoRequest jobName: InfoRequest
|Debug:Iterator:otsdaq/otsdaq/GatewaySupervisor/Iterator.cc [29]	Iterator constructed.
|Debug:Iterator:otsdaq/otsdaq/GatewaySupervisor/Iterator.cc [30]	Iterator constructed.
|Debug:GatewaySupervisor:otsdaq/otsdaq/GatewaySupervisor/GatewaySupervisor.cc [62]	
|Debug:GatewaySupervisor:otsdaq/otsdaq/GatewaySupervisor/GatewaySupervisor.cc [71]	Security: NoSecurity
|Debug:GatewaySupervisor:otsdaq/otsdaq/GatewaySupervisor/GatewaySupervisor.cc [153]	Enabling state changes over UDP...
|Debug:GatewaySupervisor:otsdaq/otsdaq/GatewaySupervisor/GatewaySupervisor.cc [180]	App Status checking is disabled.
|Debug:Socket.cc:otsdaq/otsdaq/NetworkUtilities/Socket.cc [30]	Socket constructor 131.225.179.157:17000
|Debug:Socket.cc:otsdaq/otsdaq/NetworkUtilities/Socket.cc [44]	IPAddress: 131.225.179.157 port: 17000 htons: 26690
|Debug:Socket.cc:otsdaq/otsdaq/NetworkUtilities/Socket.cc [56]	Constructed socket for port 17000=17000 htons: 26690
|Debug:TransmitterSocket.cc:otsdaq/otsdaq/NetworkUtilities/TransmitterSocket.cc [12]	TransmitterSocket constructor 
|Debug:ReceiverSocket.cc:otsdaq/otsdaq/NetworkUtilities/ReceiverSocket.cc [26]	ReceiverSocket constructor
|Debug:CorePropertySupervisorBase.cc:otsdaq/otsdaq/CoreSupervisors/CorePropertySupervisorBase.cc [27]	ChatSupervisor-UNINITIALIZED_supervisorApplicationUID	<> application->getApplicationContext()->getContextDescriptor()->getURL() = http://athenanu.dhcp.fnal.gov:2015
|Debug:CorePropertySupervisorBase.cc:otsdaq/otsdaq/CoreSupervisors/CorePropertySupervisorBase.cc [28]	ChatSupervisor-UNINITIALIZED_supervisorApplicationUID	<> application->getApplicationDescriptor()->getLocalId() = 250
|Debug:TransceiverSocket.cc:otsdaq/otsdaq/NetworkUtilities/TransceiverSocket.cc [15]	TransceiverSocket constructor 131.225.179.157:17000
|Debug:CorePropertySupervisorBase.cc:otsdaq/otsdaq/CoreSupervisors/CorePropertySupervisorBase.cc [29]	ChatSupervisor-UNINITIALIZED_supervisorApplicationUID	<> supervisorClass_ = ots::ChatSupervisor
|Debug:Socket.cc:otsdaq/otsdaq/NetworkUtilities/Socket.cc [83]	Initializing port 17000 htons: 26690
|Debug:Socket.cc:otsdaq/otsdaq/NetworkUtilities/Socket.cc [107]	]	Binding port: 17000
|Debug:CorePropertySupervisorBase.cc:otsdaq/otsdaq/CoreSupervisors/CorePropertySupervisorBase.cc [30]	ChatSupervisor-UNINITIALIZED_supervisorApplicationUID	<> supervisorClassNoNamespace_ = ChatSupervisor
|Debug:Socket.cc:otsdaq/otsdaq/NetworkUtilities/Socket.cc [119]	]	Socket Number: 7 for port: 17000 initialized.
|Debug:AllSupervisorInfo.cc:otsdaq/otsdaq/SupervisorInfo/AllSupervisorInfo.cc [42]	Initializing info based on XDAQ context...
|Debug:Socket.cc:otsdaq/otsdaq/NetworkUtilities/Socket.cc [134]	:):):):):):):):):):):):):):):):):):):):):):):):):):):):):):):):):):):)
|Debug:SupervisorDescriptorInfoBase.cc:otsdaq/otsdaq/SupervisorInfo/SupervisorDescriptorInfoBase.cc [33]	Init
|Debug:Socket.cc:otsdaq/otsdaq/NetworkUtilities/Socket.cc [137]	:):):):):):):):):):):):):):):):):):):):):):):):):):):):):):):):):):):)
|Debug:AllSupervisorInfo.cc:otsdaq/otsdaq/SupervisorInfo/AllSupervisorInfo.cc [98]	Initializing info for Normal mode XDAQ context...
|Debug:Socket.cc:otsdaq/otsdaq/NetworkUtilities/Socket.cc [140]	SOCKET ON PORT: 17000 ON IP: 131.225.179.157 INITIALIZED OK!
|Debug:TableBase:otsdaq/otsdaq/TableCore/TableBase.cc [1107]	TableBase-TableGroupMetadata	<> Using Mock-up view
|Debug:Socket.cc:otsdaq/otsdaq/NetworkUtilities/Socket.cc [141]	:):):):):):):):):):):):):):):):):):):):):):):):):):):):):):):):):):):)
|Debug:Socket.cc:otsdaq/otsdaq/NetworkUtilities/Socket.cc [144]	:):):):):):):):):):):):):):):):):):):):):):):):):):):):):):):):):):):)
|Debug:Socket.cc:otsdaq/otsdaq/NetworkUtilities/Socket.cc [150]	]	Socket Number: 7 for port: 17000 initialized.
|Debug:Socket.cc:otsdaq/otsdaq/NetworkUtilities/Socket.cc [164]	Setting socket receive buffer size = 65536 0x10000
|Debug:ConfigurationManager:otsdaq/otsdaq/ConfigurationInterface/ConfigurationManager.cc [163]	username_ = READONLY_USER
|Debug:ConfigurationManager:otsdaq/otsdaq/ConfigurationInterface/ConfigurationManager.cc [205]	ACTIVE_GROUPS_FILENAME = /home/otsdaq/otsdaq/srcs/otsdaq_cmsoutertracker/DataDefault/ServiceData/ActiveTableGroups.cfg
|Debug:ConfigurationManager:otsdaq/otsdaq/ConfigurationInterface/ConfigurationManager.cc [206]	ARTDAQ_DATABASE_URI = filesystemdb:///home/otsdaq/otsdaq/srcs/otsdaq_cmsoutertracker/databases/filesystemdb/default_db
|Debug:ConfigurationManager:otsdaq/otsdaq/ConfigurationInterface/ConfigurationManager.cc [1343]	------------------------------------- init start    	 [for all plug-ins in Context group 'DefaultContext(15)']
|Debug:MessageFacilityTable_table.cc:otsdaq/otsdaq/TablePlugins/MessageFacilityTable_table.cc [113]	Forwarding to Web GUI with UDP forward MesageFacility table.
|Debug:MessageFacilityTable_table.cc:otsdaq/otsdaq/TablePlugins/MessageFacilityTable_table.cc [236]	Opened.. /home/otsdaq/otsdaq/srcs/otsdaq_cmsoutertracker/DataDefault/MessageFacilityConfigurations/MessageFacilityGen.fcl
|Debug:MessageFacilityTable_table.cc:otsdaq/otsdaq/TablePlugins/MessageFacilityTable_table.cc [248]	Opened.. /home/otsdaq/otsdaq/srcs/otsdaq_cmsoutertracker/DataDefault/MessageFacilityConfigurations/MessageFacilityGen.fcl
|Debug:XDAQContextTable_table.cc:otsdaq/otsdaq/TablePlugins/XDAQContextTable_table.cc [251]	Fixing deprecated Supervisor class from ots::Supervisor to ots::GatewaySupervisor
|Debug:ConfigurationManager:otsdaq/otsdaq/ConfigurationInterface/ConfigurationManager.cc [1510]	------------------------------------- init complete 	 [for all plug-ins in Context group 'DefaultContext(15)']
|Debug:ConfigurationManager:otsdaq/otsdaq/ConfigurationInterface/ConfigurationManager.cc [1343]	------------------------------------- init start    	 [for all plug-ins in Backbone group 'TableEditWizBackbone(19)']
|Debug:ConfigurationManager:otsdaq/otsdaq/ConfigurationInterface/ConfigurationManager.cc [1510]	------------------------------------- init complete 	 [for all plug-ins in Backbone group 'TableEditWizBackbone(19)']
|Warning:ConfigurationManager:otsdaq/otsdaq/ConfigurationInterface/ConfigurationManager.cc [1336]	Not loading group because it is not of type Context or Backbone (it is type 'Configuration').
Not loading group because it is not of type Context or Backbone (it is type 'Configuration').
|Debug:AllSupervisorInfo.cc:otsdaq/otsdaq/SupervisorInfo/AllSupervisorInfo.cc [318]	Supervisor Info initialization complete!
|Debug:ConfigurationManager:otsdaq/otsdaq/ConfigurationInterface/ConfigurationManager.cc [422]	Destroying Backbone Key: 19
|Debug:ConfigurationManager:otsdaq/otsdaq/ConfigurationInterface/ConfigurationManager.cc [440]	Destroying Context Key: 15
|Debug:CorePropertySupervisorBase.cc:otsdaq/otsdaq/CoreSupervisors/CorePropertySupervisorBase.cc [71]	ChatSupervisor-UNINITIALIZED_supervisorApplicationUID	<> Getting configuration specific info for supervisor 'ChatSupervisor' of class ots::ChatSupervisor.
|Debug:TableBase:otsdaq/otsdaq/TableCore/TableBase.cc [1107]	TableBase-TableGroupMetadata	<> Using Mock-up view
|Debug:ConfigurationManager:otsdaq/otsdaq/ConfigurationInterface/ConfigurationManager.cc [163]	username_ = READONLY_USER
|Debug:ConfigurationManager:otsdaq/otsdaq/ConfigurationInterface/ConfigurationManager.cc [205]	ACTIVE_GROUPS_FILENAME = /home/otsdaq/otsdaq/srcs/otsdaq_cmsoutertracker/DataDefault/ServiceData/ActiveTableGroups.cfg
|Debug:ConfigurationManager:otsdaq/otsdaq/ConfigurationInterface/ConfigurationManager.cc [206]	ARTDAQ_DATABASE_URI = filesystemdb:///home/otsdaq/otsdaq/srcs/otsdaq_cmsoutertracker/databases/filesystemdb/default_db
|Debug:ConfigurationManager:otsdaq/otsdaq/ConfigurationInterface/ConfigurationManager.cc [1343]	------------------------------------- init start    	 [for all plug-ins in Context group 'DefaultContext(15)']
|Debug:MessageFacilityTable_table.cc:otsdaq/otsdaq/TablePlugins/MessageFacilityTable_table.cc [113]	Forwarding to Web GUI with UDP forward MesageFacility table.
|Debug:MessageFacilityTable_table.cc:otsdaq/otsdaq/TablePlugins/MessageFacilityTable_table.cc [236]	Opened.. /home/otsdaq/otsdaq/srcs/otsdaq_cmsoutertracker/DataDefault/MessageFacilityConfigurations/MessageFacilityGen.fcl
|Debug:MessageFacilityTable_table.cc:otsdaq/otsdaq/TablePlugins/MessageFacilityTable_table.cc [248]	Opened.. /home/otsdaq/otsdaq/srcs/otsdaq_cmsoutertracker/DataDefault/MessageFacilityConfigurations/MessageFacilityGen.fcl
|Debug:XDAQContextTable_table.cc:otsdaq/otsdaq/TablePlugins/XDAQContextTable_table.cc [251]	Fixing deprecated Supervisor class from ots::Supervisor to ots::GatewaySupervisor
|Debug:ConfigurationManager:otsdaq/otsdaq/ConfigurationInterface/ConfigurationManager.cc [1510]	------------------------------------- init complete 	 [for all plug-ins in Context group 'DefaultContext(15)']
|Debug:ConfigurationManager:otsdaq/otsdaq/ConfigurationInterface/ConfigurationManager.cc [1343]	------------------------------------- init start    	 [for all plug-ins in Backbone group 'TableEditWizBackbone(19)']
|Debug:ConfigurationManager:otsdaq/otsdaq/ConfigurationInterface/ConfigurationManager.cc [1510]	------------------------------------- init complete 	 [for all plug-ins in Backbone group 'TableEditWizBackbone(19)']
|Warning:ConfigurationManager:otsdaq/otsdaq/ConfigurationInterface/ConfigurationManager.cc [1336]	Not loading group because it is not of type Context or Backbone (it is type 'Configuration').
Not loading group because it is not of type Context or Backbone (it is type 'Configuration').
|Debug:CorePropertySupervisorBase.cc:otsdaq/otsdaq/CoreSupervisors/CorePropertySupervisorBase.cc [109]	ChatSupervisor-ChatSupervisor	<> CorePropertySupervisorBase::supervisorContextUID_ = MainContext
|Debug:CorePropertySupervisorBase.cc:otsdaq/otsdaq/CoreSupervisors/CorePropertySupervisorBase.cc [110]	ChatSupervisor-ChatSupervisor	<> CorePropertySupervisorBase::supervisorApplicationUID_ = ChatSupervisor
|Debug:CorePropertySupervisorBase.cc:otsdaq/otsdaq/CoreSupervisors/CorePropertySupervisorBase.cc [111]	ChatSupervisor-ChatSupervisor	<> CorePropertySupervisorBase::supervisorConfigurationPath_ = /MainContext/LinkToApplicationTable/ChatSupervisor/LinkToSupervisorTable
|Debug:CorePropertySupervisorBase.cc:otsdaq/otsdaq/CoreSupervisors/CorePropertySupervisorBase.cc [147]	hostname = athenanu.dhcp.fnal.gov
|Debug:CorePropertySupervisorBase.cc:otsdaq/otsdaq/CoreSupervisors/CorePropertySupervisorBase.cc [161]	Marked alive: /home/otsdaq/otsdaq/srcs/otsdaq_cmsoutertracker/DataDefault/Logs/otsdaq_is_alive-athenanu.dhcp.fnal.gov-2015.dat
|Debug:FSM:otsdaq/otsdaq/FiniteStateMachine/FiniteStateMachine.cc [19]	FSM-ChatSupervisor:ChatSupervisor	<> Constructing FiniteStateMachine
|Debug:FSM:otsdaq/otsdaq/FiniteStateMachine/RunControlStateMachine.cc [97]	FSM-ChatSupervisor:ChatSupervisor	<> Resetting RunControlStateMachine with name 'ChatSupervisor:ChatSupervisor'...
|Debug:WorkLoopManager.cc:otsdaq/otsdaq/WorkLoopManager/WorkLoopManager.cc [19]	Request name: StateMachine jobName: StateMachine
|Debug:CoreSupervisorBase.cc:otsdaq/otsdaq/CoreSupervisors/CoreSupervisorBase.cc [25]	ChatSupervisor-ChatSupervisor	<> Constructor.
|Debug:CoreSupervisorBase.cc:otsdaq/otsdaq/CoreSupervisors/CoreSupervisorBase.cc [39]	ChatSupervisor-ChatSupervisor	<> Constructed.
|Debug:CorePropertySupervisorBase.cc:otsdaq/otsdaq/CoreSupervisors/CorePropertySupervisorBase.cc [27]	ConsoleSupervisor-UNINITIALIZED_supervisorApplicationUID	<> application->getApplicationContext()->getContextDescriptor()->getURL() = http://athenanu.dhcp.fnal.gov:2015
|Debug:CorePropertySupervisorBase.cc:otsdaq/otsdaq/CoreSupervisors/CorePropertySupervisorBase.cc [28]	ConsoleSupervisor-UNINITIALIZED_supervisorApplicationUID	<> application->getApplicationDescriptor()->getLocalId() = 260
|Debug:CorePropertySupervisorBase.cc:otsdaq/otsdaq/CoreSupervisors/CorePropertySupervisorBase.cc [29]	ConsoleSupervisor-UNINITIALIZED_supervisorApplicationUID	<> supervisorClass_ = ots::ConsoleSupervisor
|Debug:CorePropertySupervisorBase.cc:otsdaq/otsdaq/CoreSupervisors/CorePropertySupervisorBase.cc [30]	ConsoleSupervisor-UNINITIALIZED_supervisorApplicationUID	<> supervisorClassNoNamespace_ = ConsoleSupervisor
|Debug:AllSupervisorInfo.cc:otsdaq/otsdaq/SupervisorInfo/AllSupervisorInfo.cc [42]	Initializing info based on XDAQ context...
|Debug:SupervisorDescriptorInfoBase.cc:otsdaq/otsdaq/SupervisorInfo/SupervisorDescriptorInfoBase.cc [33]	Init
|Debug:AllSupervisorInfo.cc:otsdaq/otsdaq/SupervisorInfo/AllSupervisorInfo.cc [98]	Initializing info for Normal mode XDAQ context...
|Debug:TableBase:otsdaq/otsdaq/TableCore/TableBase.cc [1107]	TableBase-TableGroupMetadata	<> Using Mock-up view
|Debug:ConfigurationManager:otsdaq/otsdaq/ConfigurationInterface/ConfigurationManager.cc [163]	username_ = READONLY_USER
|Debug:ConfigurationManager:otsdaq/otsdaq/ConfigurationInterface/ConfigurationManager.cc [205]	ACTIVE_GROUPS_FILENAME = /home/otsdaq/otsdaq/srcs/otsdaq_cmsoutertracker/DataDefault/ServiceData/ActiveTableGroups.cfg
|Debug:ConfigurationManager:otsdaq/otsdaq/ConfigurationInterface/ConfigurationManager.cc [206]	ARTDAQ_DATABASE_URI = filesystemdb:///home/otsdaq/otsdaq/srcs/otsdaq_cmsoutertracker/databases/filesystemdb/default_db
|Debug:ConfigurationManager:otsdaq/otsdaq/ConfigurationInterface/ConfigurationManager.cc [1343]	------------------------------------- init start    	 [for all plug-ins in Context group 'DefaultContext(15)']
|Debug:MessageFacilityTable_table.cc:otsdaq/otsdaq/TablePlugins/MessageFacilityTable_table.cc [113]	Forwarding to Web GUI with UDP forward MesageFacility table.
|Debug:MessageFacilityTable_table.cc:otsdaq/otsdaq/TablePlugins/MessageFacilityTable_table.cc [236]	Opened.. /home/otsdaq/otsdaq/srcs/otsdaq_cmsoutertracker/DataDefault/MessageFacilityConfigurations/MessageFacilityGen.fcl
|Debug:MessageFacilityTable_table.cc:otsdaq/otsdaq/TablePlugins/MessageFacilityTable_table.cc [248]	Opened.. /home/otsdaq/otsdaq/srcs/otsdaq_cmsoutertracker/DataDefault/MessageFacilityConfigurations/MessageFacilityGen.fcl
|Debug:XDAQContextTable_table.cc:otsdaq/otsdaq/TablePlugins/XDAQContextTable_table.cc [251]	Fixing deprecated Supervisor class from ots::Supervisor to ots::GatewaySupervisor
|Debug:ConfigurationManager:otsdaq/otsdaq/ConfigurationInterface/ConfigurationManager.cc [1510]	------------------------------------- init complete 	 [for all plug-ins in Context group 'DefaultContext(15)']
|Debug:ConfigurationManager:otsdaq/otsdaq/ConfigurationInterface/ConfigurationManager.cc [1343]	------------------------------------- init start    	 [for all plug-ins in Backbone group 'TableEditWizBackbone(19)']
|Debug:ConfigurationManager:otsdaq/otsdaq/ConfigurationInterface/ConfigurationManager.cc [1510]	------------------------------------- init complete 	 [for all plug-ins in Backbone group 'TableEditWizBackbone(19)']
|Warning:ConfigurationManager:otsdaq/otsdaq/ConfigurationInterface/ConfigurationManager.cc [1336]	Not loading group because it is not of type Context or Backbone (it is type 'Configuration').
Not loading group because it is not of type Context or Backbone (it is type 'Configuration').
|Debug:AllSupervisorInfo.cc:otsdaq/otsdaq/SupervisorInfo/AllSupervisorInfo.cc [318]	Supervisor Info initialization complete!
|Debug:ConfigurationManager:otsdaq/otsdaq/ConfigurationInterface/ConfigurationManager.cc [422]	Destroying Backbone Key: 19
|Debug:ConfigurationManager:otsdaq/otsdaq/ConfigurationInterface/ConfigurationManager.cc [440]	Destroying Context Key: 15
|Debug:CorePropertySupervisorBase.cc:otsdaq/otsdaq/CoreSupervisors/CorePropertySupervisorBase.cc [71]	ConsoleSupervisor-UNINITIALIZED_supervisorApplicationUID	<> Getting configuration specific info for supervisor 'ConsoleSupervisor' of class ots::ConsoleSupervisor.
|Debug:TableBase:otsdaq/otsdaq/TableCore/TableBase.cc [1107]	TableBase-TableGroupMetadata	<> Using Mock-up view
|Debug:ConfigurationManager:otsdaq/otsdaq/ConfigurationInterface/ConfigurationManager.cc [163]	username_ = READONLY_USER
|Debug:ConfigurationManager:otsdaq/otsdaq/ConfigurationInterface/ConfigurationManager.cc [205]	ACTIVE_GROUPS_FILENAME = /home/otsdaq/otsdaq/srcs/otsdaq_cmsoutertracker/DataDefault/ServiceData/ActiveTableGroups.cfg
|Debug:ConfigurationManager:otsdaq/otsdaq/ConfigurationInterface/ConfigurationManager.cc [206]	ARTDAQ_DATABASE_URI = filesystemdb:///home/otsdaq/otsdaq/srcs/otsdaq_cmsoutertracker/databases/filesystemdb/default_db
|Debug:ConfigurationManager:otsdaq/otsdaq/ConfigurationInterface/ConfigurationManager.cc [1343]	------------------------------------- init start    	 [for all plug-ins in Context group 'DefaultContext(15)']
|Debug:MessageFacilityTable_table.cc:otsdaq/otsdaq/TablePlugins/MessageFacilityTable_table.cc [113]	Forwarding to Web GUI with UDP forward MesageFacility table.
|Debug:MessageFacilityTable_table.cc:otsdaq/otsdaq/TablePlugins/MessageFacilityTable_table.cc [236]	Opened.. /home/otsdaq/otsdaq/srcs/otsdaq_cmsoutertracker/DataDefault/MessageFacilityConfigurations/MessageFacilityGen.fcl
|Debug:MessageFacilityTable_table.cc:otsdaq/otsdaq/TablePlugins/MessageFacilityTable_table.cc [248]	Opened.. /home/otsdaq/otsdaq/srcs/otsdaq_cmsoutertracker/DataDefault/MessageFacilityConfigurations/MessageFacilityGen.fcl
|Debug:XDAQContextTable_table.cc:otsdaq/otsdaq/TablePlugins/XDAQContextTable_table.cc [251]	Fixing deprecated Supervisor class from ots::Supervisor to ots::GatewaySupervisor
|Debug:ConfigurationManager:otsdaq/otsdaq/ConfigurationInterface/ConfigurationManager.cc [1510]	------------------------------------- init complete 	 [for all plug-ins in Context group 'DefaultContext(15)']
|Debug:ConfigurationManager:otsdaq/otsdaq/ConfigurationInterface/ConfigurationManager.cc [1343]	------------------------------------- init start    	 [for all plug-ins in Backbone group 'TableEditWizBackbone(19)']
|Debug:ConfigurationManager:otsdaq/otsdaq/ConfigurationInterface/ConfigurationManager.cc [1510]	------------------------------------- init complete 	 [for all plug-ins in Backbone group 'TableEditWizBackbone(19)']
|Warning:ConfigurationManager:otsdaq/otsdaq/ConfigurationInterface/ConfigurationManager.cc [1336]	Not loading group because it is not of type Context or Backbone (it is type 'Configuration').
Not loading group because it is not of type Context or Backbone (it is type 'Configuration').
|Debug:CorePropertySupervisorBase.cc:otsdaq/otsdaq/CoreSupervisors/CorePropertySupervisorBase.cc [109]	ConsoleSupervisor-ConsoleSupervisor	<> CorePropertySupervisorBase::supervisorContextUID_ = MainContext
|Debug:CorePropertySupervisorBase.cc:otsdaq/otsdaq/CoreSupervisors/CorePropertySupervisorBase.cc [110]	ConsoleSupervisor-ConsoleSupervisor	<> CorePropertySupervisorBase::supervisorApplicationUID_ = ConsoleSupervisor
|Debug:CorePropertySupervisorBase.cc:otsdaq/otsdaq/CoreSupervisors/CorePropertySupervisorBase.cc [111]	ConsoleSupervisor-ConsoleSupervisor	<> CorePropertySupervisorBase::supervisorConfigurationPath_ = /MainContext/LinkToApplicationTable/ConsoleSupervisor/LinkToSupervisorTable
|Debug:CorePropertySupervisorBase.cc:otsdaq/otsdaq/CoreSupervisors/CorePropertySupervisorBase.cc [147]	hostname = athenanu.dhcp.fnal.gov
|Debug:CorePropertySupervisorBase.cc:otsdaq/otsdaq/CoreSupervisors/CorePropertySupervisorBase.cc [161]	Marked alive: /home/otsdaq/otsdaq/srcs/otsdaq_cmsoutertracker/DataDefault/Logs/otsdaq_is_alive-athenanu.dhcp.fnal.gov-2015.dat
|Debug:FSM:otsdaq/otsdaq/FiniteStateMachine/FiniteStateMachine.cc [19]	FSM-ConsoleSupervisor:ConsoleSupervisor	<> Constructing FiniteStateMachine
|Debug:FSM:otsdaq/otsdaq/FiniteStateMachine/RunControlStateMachine.cc [97]	FSM-ConsoleSupervisor:ConsoleSupervisor	<> Resetting RunControlStateMachine with name 'ConsoleSupervisor:ConsoleSupervisor'...
|Debug:WorkLoopManager.cc:otsdaq/otsdaq/WorkLoopManager/WorkLoopManager.cc [19]	Request name: StateMachine jobName: StateMachine
|Debug:CoreSupervisorBase.cc:otsdaq/otsdaq/CoreSupervisors/CoreSupervisorBase.cc [25]	ConsoleSupervisor-ConsoleSupervisor	<> Constructor.
|Debug:CoreSupervisorBase.cc:otsdaq/otsdaq/CoreSupervisors/CoreSupervisorBase.cc [39]	ConsoleSupervisor-ConsoleSupervisor	<> Constructed.
|Debug:Console:otsdaq_utilities/otsdaq-utilities/Console/ConsoleSupervisor.cc [50]	ConsoleSupervisor-ConsoleSupervisor	<> Constructor started.
|Debug:Console:otsdaq_utilities/otsdaq-utilities/Console/ConsoleSupervisor.cc [59]	ConsoleSupervisor-ConsoleSupervisor	<> Constructor complete.
|Debug:Console:otsdaq_utilities/otsdaq-utilities/Console/ConsoleSupervisor.cc [88]	
|Debug:Socket.cc:otsdaq/otsdaq/NetworkUtilities/Socket.cc [30]	Socket constructor 127.0.0.1:30001
|Debug:Socket.cc:otsdaq/otsdaq/NetworkUtilities/Socket.cc [44]	IPAddress: 127.0.0.1 port: 30001 htons: 12661
|Debug:Socket.cc:otsdaq/otsdaq/NetworkUtilities/Socket.cc [56]	Constructed socket for port 30001=30001 htons: 12661
|Debug:ReceiverSocket.cc:otsdaq/otsdaq/NetworkUtilities/ReceiverSocket.cc [19]	ReceiverSocket constructor 127.0.0.1:30001
|Debug:Socket.cc:otsdaq/otsdaq/NetworkUtilities/Socket.cc [83]	Initializing port 30001 htons: 12661
|Debug:Socket.cc:otsdaq/otsdaq/NetworkUtilities/Socket.cc [107]	]	Binding port: 30001
|Debug:Socket.cc:otsdaq/otsdaq/NetworkUtilities/Socket.cc [119]	]	Socket Number: 8 for port: 30001 initialized.
|Debug:Socket.cc:otsdaq/otsdaq/NetworkUtilities/Socket.cc [134]	:):):):):):):):):):):):):):):):):):):):):):):):):):):):):):):):):):):)
|Debug:Socket.cc:otsdaq/otsdaq/NetworkUtilities/Socket.cc [137]	:):):):):):):):):):):):):):):):):):):):):):):):):):):):):):):):):):):)
|Debug:Socket.cc:otsdaq/otsdaq/NetworkUtilities/Socket.cc [140]	SOCKET ON PORT: 30001 ON IP: 127.0.0.1 INITIALIZED OK!
|Debug:Socket.cc:otsdaq/otsdaq/NetworkUtilities/Socket.cc [141]	:):):):):):):):):):):):):):):):):):):):):):):):):):):):):):):):):):):)
|Debug:Socket.cc:otsdaq/otsdaq/NetworkUtilities/Socket.cc [144]	:):):):):):):):):):):):):):):):):):):):):):):):):):):):):):):):):):):)
|Debug:Socket.cc:otsdaq/otsdaq/NetworkUtilities/Socket.cc [150]	]	Socket Number: 8 for port: 30001 initialized.
|Debug:Socket.cc:otsdaq/otsdaq/NetworkUtilities/Socket.cc [164]	Setting socket receive buffer size = 1048576 0x100000
|Debug:Console:otsdaq_utilities/otsdaq-utilities/Console/ConsoleSupervisor.cc [164]	DEBUG messages look like this.
|Debug:CorePropertySupervisorBase.cc:otsdaq/otsdaq/CoreSupervisors/CorePropertySupervisorBase.cc [27]	LogbookSupervisor-UNINITIALIZED_supervisorApplicationUID	<> application->getApplicationContext()->getContextDescriptor()->getURL() = http://athenanu.dhcp.fnal.gov:2015
|Debug:CorePropertySupervisorBase.cc:otsdaq/otsdaq/CoreSupervisors/CorePropertySupervisorBase.cc [28]	LogbookSupervisor-UNINITIALIZED_supervisorApplicationUID	<> application->getApplicationDescriptor()->getLocalId() = 261
|Debug:CorePropertySupervisorBase.cc:otsdaq/otsdaq/CoreSupervisors/CorePropertySupervisorBase.cc [29]	LogbookSupervisor-UNINITIALIZED_supervisorApplicationUID	<> supervisorClass_ = ots::LogbookSupervisor
|Debug:CorePropertySupervisorBase.cc:otsdaq/otsdaq/CoreSupervisors/CorePropertySupervisorBase.cc [30]	LogbookSupervisor-UNINITIALIZED_supervisorApplicationUID	<> supervisorClassNoNamespace_ = LogbookSupervisor
|Debug:AllSupervisorInfo.cc:otsdaq/otsdaq/SupervisorInfo/AllSupervisorInfo.cc [42]	Initializing info based on XDAQ context...
|Debug:SupervisorDescriptorInfoBase.cc:otsdaq/otsdaq/SupervisorInfo/SupervisorDescriptorInfoBase.cc [33]	Init
|Debug:AllSupervisorInfo.cc:otsdaq/otsdaq/SupervisorInfo/AllSupervisorInfo.cc [98]	Initializing info for Normal mode XDAQ context...
|Debug:TableBase:otsdaq/otsdaq/TableCore/TableBase.cc [1107]	TableBase-TableGroupMetadata	<> Using Mock-up view
|Debug:ConfigurationManager:otsdaq/otsdaq/ConfigurationInterface/ConfigurationManager.cc [163]	username_ = READONLY_USER
|Debug:ConfigurationManager:otsdaq/otsdaq/ConfigurationInterface/ConfigurationManager.cc [205]	ACTIVE_GROUPS_FILENAME = /home/otsdaq/otsdaq/srcs/otsdaq_cmsoutertracker/DataDefault/ServiceData/ActiveTableGroups.cfg
|Debug:ConfigurationManager:otsdaq/otsdaq/ConfigurationInterface/ConfigurationManager.cc [206]	ARTDAQ_DATABASE_URI = filesystemdb:///home/otsdaq/otsdaq/srcs/otsdaq_cmsoutertracker/databases/filesystemdb/default_db
|Debug:ConfigurationManager:otsdaq/otsdaq/ConfigurationInterface/ConfigurationManager.cc [1343]	------------------------------------- init start    	 [for all plug-ins in Context group 'DefaultContext(15)']
|Debug:MessageFacilityTable_table.cc:otsdaq/otsdaq/TablePlugins/MessageFacilityTable_table.cc [113]	Forwarding to Web GUI with UDP forward MesageFacility table.
|Debug:MessageFacilityTable_table.cc:otsdaq/otsdaq/TablePlugins/MessageFacilityTable_table.cc [236]	Opened.. /home/otsdaq/otsdaq/srcs/otsdaq_cmsoutertracker/DataDefault/MessageFacilityConfigurations/MessageFacilityGen.fcl
|Debug:MessageFacilityTable_table.cc:otsdaq/otsdaq/TablePlugins/MessageFacilityTable_table.cc [248]	Opened.. /home/otsdaq/otsdaq/srcs/otsdaq_cmsoutertracker/DataDefault/MessageFacilityConfigurations/MessageFacilityGen.fcl
|Debug:XDAQContextTable_table.cc:otsdaq/otsdaq/TablePlugins/XDAQContextTable_table.cc [251]	Fixing deprecated Supervisor class from ots::Supervisor to ots::GatewaySupervisor
|Debug:ConfigurationManager:otsdaq/otsdaq/ConfigurationInterface/ConfigurationManager.cc [1510]	------------------------------------- init complete 	 [for all plug-ins in Context group 'DefaultContext(15)']
|Debug:ConfigurationManager:otsdaq/otsdaq/ConfigurationInterface/ConfigurationManager.cc [1343]	------------------------------------- init start    	 [for all plug-ins in Backbone group 'TableEditWizBackbone(19)']
|Debug:ConfigurationManager:otsdaq/otsdaq/ConfigurationInterface/ConfigurationManager.cc [1510]	------------------------------------- init complete 	 [for all plug-ins in Backbone group 'TableEditWizBackbone(19)']
|Warning:ConfigurationManager:otsdaq/otsdaq/ConfigurationInterface/ConfigurationManager.cc [1336]	Not loading group because it is not of type Context or Backbone (it is type 'Configuration').
Not loading group because it is not of type Context or Backbone (it is type 'Configuration').
|Debug:AllSupervisorInfo.cc:otsdaq/otsdaq/SupervisorInfo/AllSupervisorInfo.cc [318]	Supervisor Info initialization complete!
|Debug:ConfigurationManager:otsdaq/otsdaq/ConfigurationInterface/ConfigurationManager.cc [422]	Destroying Backbone Key: 19
|Debug:ConfigurationManager:otsdaq/otsdaq/ConfigurationInterface/ConfigurationManager.cc [440]	Destroying Context Key: 15
|Debug:CorePropertySupervisorBase.cc:otsdaq/otsdaq/CoreSupervisors/CorePropertySupervisorBase.cc [71]	LogbookSupervisor-UNINITIALIZED_supervisorApplicationUID	<> Getting configuration specific info for supervisor 'LogbookSupervisor' of class ots::LogbookSupervisor.
|Debug:TableBase:otsdaq/otsdaq/TableCore/TableBase.cc [1107]	TableBase-TableGroupMetadata	<> Using Mock-up view
|Debug:ConfigurationManager:otsdaq/otsdaq/ConfigurationInterface/ConfigurationManager.cc [163]	username_ = READONLY_USER
|Debug:ConfigurationManager:otsdaq/otsdaq/ConfigurationInterface/ConfigurationManager.cc [205]	ACTIVE_GROUPS_FILENAME = /home/otsdaq/otsdaq/srcs/otsdaq_cmsoutertracker/DataDefault/ServiceData/ActiveTableGroups.cfg
|Debug:ConfigurationManager:otsdaq/otsdaq/ConfigurationInterface/ConfigurationManager.cc [206]	ARTDAQ_DATABASE_URI = filesystemdb:///home/otsdaq/otsdaq/srcs/otsdaq_cmsoutertracker/databases/filesystemdb/default_db
|Debug:ConfigurationManager:otsdaq/otsdaq/ConfigurationInterface/ConfigurationManager.cc [1343]	------------------------------------- init start    	 [for all plug-ins in Context group 'DefaultContext(15)']
|Debug:MessageFacilityTable_table.cc:otsdaq/otsdaq/TablePlugins/MessageFacilityTable_table.cc [113]	Forwarding to Web GUI with UDP forward MesageFacility table.
|Debug:MessageFacilityTable_table.cc:otsdaq/otsdaq/TablePlugins/MessageFacilityTable_table.cc [236]	Opened.. /home/otsdaq/otsdaq/srcs/otsdaq_cmsoutertracker/DataDefault/MessageFacilityConfigurations/MessageFacilityGen.fcl
|Debug:MessageFacilityTable_table.cc:otsdaq/otsdaq/TablePlugins/MessageFacilityTable_table.cc [248]	Opened.. /home/otsdaq/otsdaq/srcs/otsdaq_cmsoutertracker/DataDefault/MessageFacilityConfigurations/MessageFacilityGen.fcl
|Debug:XDAQContextTable_table.cc:otsdaq/otsdaq/TablePlugins/XDAQContextTable_table.cc [251]	Fixing deprecated Supervisor class from ots::Supervisor to ots::GatewaySupervisor
|Debug:ConfigurationManager:otsdaq/otsdaq/ConfigurationInterface/ConfigurationManager.cc [1510]	------------------------------------- init complete 	 [for all plug-ins in Context group 'DefaultContext(15)']
|Debug:ConfigurationManager:otsdaq/otsdaq/ConfigurationInterface/ConfigurationManager.cc [1343]	------------------------------------- init start    	 [for all plug-ins in Backbone group 'TableEditWizBackbone(19)']
|Debug:ConfigurationManager:otsdaq/otsdaq/ConfigurationInterface/ConfigurationManager.cc [1510]	------------------------------------- init complete 	 [for all plug-ins in Backbone group 'TableEditWizBackbone(19)']
|Warning:ConfigurationManager:otsdaq/otsdaq/ConfigurationInterface/ConfigurationManager.cc [1336]	Not loading group because it is not of type Context or Backbone (it is type 'Configuration').
Not loading group because it is not of type Context or Backbone (it is type 'Configuration').
|Debug:CorePropertySupervisorBase.cc:otsdaq/otsdaq/CoreSupervisors/CorePropertySupervisorBase.cc [109]	LogbookSupervisor-LogbookSupervisor	<> CorePropertySupervisorBase::supervisorContextUID_ = MainContext
|Debug:CorePropertySupervisorBase.cc:otsdaq/otsdaq/CoreSupervisors/CorePropertySupervisorBase.cc [110]	LogbookSupervisor-LogbookSupervisor	<> CorePropertySupervisorBase::supervisorApplicationUID_ = LogbookSupervisor
|Debug:CorePropertySupervisorBase.cc:otsdaq/otsdaq/CoreSupervisors/CorePropertySupervisorBase.cc [111]	LogbookSupervisor-LogbookSupervisor	<> CorePropertySupervisorBase::supervisorConfigurationPath_ = /MainContext/LinkToApplicationTable/LogbookSupervisor/LinkToSupervisorTable
|Debug:CorePropertySupervisorBase.cc:otsdaq/otsdaq/CoreSupervisors/CorePropertySupervisorBase.cc [147]	hostname = athenanu.dhcp.fnal.gov
|Debug:CorePropertySupervisorBase.cc:otsdaq/otsdaq/CoreSupervisors/CorePropertySupervisorBase.cc [161]	Marked alive: /home/otsdaq/otsdaq/srcs/otsdaq_cmsoutertracker/DataDefault/Logs/otsdaq_is_alive-athenanu.dhcp.fnal.gov-2015.dat
|Debug:FSM:otsdaq/otsdaq/FiniteStateMachine/FiniteStateMachine.cc [19]	FSM-LogbookSupervisor:LogbookSupervisor	<> Constructing FiniteStateMachine
|Debug:FSM:otsdaq/otsdaq/FiniteStateMachine/RunControlStateMachine.cc [97]	FSM-LogbookSupervisor:LogbookSupervisor	<> Resetting RunControlStateMachine with name 'LogbookSupervisor:LogbookSupervisor'...
|Debug:WorkLoopManager.cc:otsdaq/otsdaq/WorkLoopManager/WorkLoopManager.cc [19]	Request name: StateMachine jobName: StateMachine
|Debug:CoreSupervisorBase.cc:otsdaq/otsdaq/CoreSupervisors/CoreSupervisorBase.cc [25]	LogbookSupervisor-LogbookSupervisor	<> Constructor.
|Debug:CoreSupervisorBase.cc:otsdaq/otsdaq/CoreSupervisors/CoreSupervisorBase.cc [39]	LogbookSupervisor-LogbookSupervisor	<> Constructed.
|Debug:Logbook:otsdaq_utilities/otsdaq-utilities/Logbook/LogbookSupervisor.cc [168]	Active Experiment is 
|Debug:CorePropertySupervisorBase.cc:otsdaq/otsdaq/CoreSupervisors/CorePropertySupervisorBase.cc [27]	VisualSupervisor-UNINITIALIZED_supervisorApplicationUID	<> application->getApplicationContext()->getContextDescriptor()->getURL() = http://athenanu.dhcp.fnal.gov:2015
|Debug:CorePropertySupervisorBase.cc:otsdaq/otsdaq/CoreSupervisors/CorePropertySupervisorBase.cc [28]	VisualSupervisor-UNINITIALIZED_supervisorApplicationUID	<> application->getApplicationDescriptor()->getLocalId() = 270
|Debug:CorePropertySupervisorBase.cc:otsdaq/otsdaq/CoreSupervisors/CorePropertySupervisorBase.cc [29]	VisualSupervisor-UNINITIALIZED_supervisorApplicationUID	<> supervisorClass_ = ots::VisualSupervisor
|Debug:CorePropertySupervisorBase.cc:otsdaq/otsdaq/CoreSupervisors/CorePropertySupervisorBase.cc [30]	VisualSupervisor-UNINITIALIZED_supervisorApplicationUID	<> supervisorClassNoNamespace_ = VisualSupervisor
|Debug:AllSupervisorInfo.cc:otsdaq/otsdaq/SupervisorInfo/AllSupervisorInfo.cc [42]	Initializing info based on XDAQ context...
|Debug:SupervisorDescriptorInfoBase.cc:otsdaq/otsdaq/SupervisorInfo/SupervisorDescriptorInfoBase.cc [33]	Init
|Debug:AllSupervisorInfo.cc:otsdaq/otsdaq/SupervisorInfo/AllSupervisorInfo.cc [98]	Initializing info for Normal mode XDAQ context...
|Debug:TableBase:otsdaq/otsdaq/TableCore/TableBase.cc [1107]	TableBase-TableGroupMetadata	<> Using Mock-up view
|Debug:ConfigurationManager:otsdaq/otsdaq/ConfigurationInterface/ConfigurationManager.cc [163]	username_ = READONLY_USER
|Debug:ConfigurationManager:otsdaq/otsdaq/ConfigurationInterface/ConfigurationManager.cc [205]	ACTIVE_GROUPS_FILENAME = /home/otsdaq/otsdaq/srcs/otsdaq_cmsoutertracker/DataDefault/ServiceData/ActiveTableGroups.cfg
|Debug:ConfigurationManager:otsdaq/otsdaq/ConfigurationInterface/ConfigurationManager.cc [206]	ARTDAQ_DATABASE_URI = filesystemdb:///home/otsdaq/otsdaq/srcs/otsdaq_cmsoutertracker/databases/filesystemdb/default_db
|Debug:ConfigurationManager:otsdaq/otsdaq/ConfigurationInterface/ConfigurationManager.cc [1343]	------------------------------------- init start    	 [for all plug-ins in Context group 'DefaultContext(15)']
|Debug:MessageFacilityTable_table.cc:otsdaq/otsdaq/TablePlugins/MessageFacilityTable_table.cc [113]	Forwarding to Web GUI with UDP forward MesageFacility table.
|Debug:MessageFacilityTable_table.cc:otsdaq/otsdaq/TablePlugins/MessageFacilityTable_table.cc [236]	Opened.. /home/otsdaq/otsdaq/srcs/otsdaq_cmsoutertracker/DataDefault/MessageFacilityConfigurations/MessageFacilityGen.fcl
|Debug:MessageFacilityTable_table.cc:otsdaq/otsdaq/TablePlugins/MessageFacilityTable_table.cc [248]	Opened.. /home/otsdaq/otsdaq/srcs/otsdaq_cmsoutertracker/DataDefault/MessageFacilityConfigurations/MessageFacilityGen.fcl
|Debug:XDAQContextTable_table.cc:otsdaq/otsdaq/TablePlugins/XDAQContextTable_table.cc [251]	Fixing deprecated Supervisor class from ots::Supervisor to ots::GatewaySupervisor
|Debug:ConfigurationManager:otsdaq/otsdaq/ConfigurationInterface/ConfigurationManager.cc [1510]	------------------------------------- init complete 	 [for all plug-ins in Context group 'DefaultContext(15)']
|Debug:ConfigurationManager:otsdaq/otsdaq/ConfigurationInterface/ConfigurationManager.cc [1343]	------------------------------------- init start    	 [for all plug-ins in Backbone group 'TableEditWizBackbone(19)']
|Debug:ConfigurationManager:otsdaq/otsdaq/ConfigurationInterface/ConfigurationManager.cc [1510]	------------------------------------- init complete 	 [for all plug-ins in Backbone group 'TableEditWizBackbone(19)']
|Warning:ConfigurationManager:otsdaq/otsdaq/ConfigurationInterface/ConfigurationManager.cc [1336]	Not loading group because it is not of type Context or Backbone (it is type 'Configuration').
Not loading group because it is not of type Context or Backbone (it is type 'Configuration').
|Debug:AllSupervisorInfo.cc:otsdaq/otsdaq/SupervisorInfo/AllSupervisorInfo.cc [318]	Supervisor Info initialization complete!
|Debug:ConfigurationManager:otsdaq/otsdaq/ConfigurationInterface/ConfigurationManager.cc [422]	Destroying Backbone Key: 19
|Debug:ConfigurationManager:otsdaq/otsdaq/ConfigurationInterface/ConfigurationManager.cc [440]	Destroying Context Key: 15
|Debug:CorePropertySupervisorBase.cc:otsdaq/otsdaq/CoreSupervisors/CorePropertySupervisorBase.cc [71]	VisualSupervisor-UNINITIALIZED_supervisorApplicationUID	<> Getting configuration specific info for supervisor 'VisualSupervisor' of class ots::VisualSupervisor.
|Debug:TableBase:otsdaq/otsdaq/TableCore/TableBase.cc [1107]	TableBase-TableGroupMetadata	<> Using Mock-up view
|Debug:ConfigurationManager:otsdaq/otsdaq/ConfigurationInterface/ConfigurationManager.cc [163]	username_ = READONLY_USER
|Debug:ConfigurationManager:otsdaq/otsdaq/ConfigurationInterface/ConfigurationManager.cc [205]	ACTIVE_GROUPS_FILENAME = /home/otsdaq/otsdaq/srcs/otsdaq_cmsoutertracker/DataDefault/ServiceData/ActiveTableGroups.cfg
|Debug:ConfigurationManager:otsdaq/otsdaq/ConfigurationInterface/ConfigurationManager.cc [206]	ARTDAQ_DATABASE_URI = filesystemdb:///home/otsdaq/otsdaq/srcs/otsdaq_cmsoutertracker/databases/filesystemdb/default_db
|Debug:ConfigurationManager:otsdaq/otsdaq/ConfigurationInterface/ConfigurationManager.cc [1343]	------------------------------------- init start    	 [for all plug-ins in Context group 'DefaultContext(15)']
|Debug:Console:otsdaq_utilities/otsdaq-utilities/Console/ConsoleSupervisor.cc [185]	Console has first message.
|Info:Console:otsdaq_utilities/otsdaq-utilities/Console/ConsoleSupervisor.cc [189]	INFO messages look like this.
INFO messages look like this.
|Warning:Console:otsdaq_utilities/otsdaq-utilities/Console/ConsoleSupervisor.cc [190]	WARNING messages look like this.
WARNING messages look like this.
|Error:Console:otsdaq_utilities/otsdaq-utilities/Console/ConsoleSupervisor.cc [191]	ERROR messages look like this.
ERROR messages look like this.
:Console:otsdaq_utilities/otsdaq-utilities/Console/ConsoleSupervisor.cc [232]	Missed packets from xdaq.exe! Sequence IDs 4 to 0.
:Console:otsdaq_utilities/otsdaq-utilities/Console/ConsoleSupervisor.cc [232]	Missed packets from xdaq.exe! Sequence IDs 2 to 3.
:Console:otsdaq_utilities/otsdaq-utilities/Console/ConsoleSupervisor.cc [232]	Missed packets from xdaq.exe! Sequence IDs 169 to 279.
|Debug:MessageFacilityTable_table.cc:otsdaq/otsdaq/TablePlugins/MessageFacilityTable_table.cc [113]	Forwarding to Web GUI with UDP forward MesageFacility table.
|Debug:MessageFacilityTable_table.cc:otsdaq/otsdaq/TablePlugins/MessageFacilityTable_table.cc [236]	Opened.. /home/otsdaq/otsdaq/srcs/otsdaq_cmsoutertracker/DataDefault/MessageFacilityConfigurations/MessageFacilityGen.fcl
|Debug:MessageFacilityTable_table.cc:otsdaq/otsdaq/TablePlugins/MessageFacilityTable_table.cc [248]	Opened.. /home/otsdaq/otsdaq/srcs/otsdaq_cmsoutertracker/DataDefault/MessageFacilityConfigurations/MessageFacilityGen.fcl
|Debug:XDAQContextTable_table.cc:otsdaq/otsdaq/TablePlugins/XDAQContextTable_table.cc [251]	Fixing deprecated Supervisor class from ots::Supervisor to ots::GatewaySupervisor
|Debug:ConfigurationManager:otsdaq/otsdaq/ConfigurationInterface/ConfigurationManager.cc [1510]	------------------------------------- init complete 	 [for all plug-ins in Context group 'DefaultContext(15)']
|Debug:ConfigurationManager:otsdaq/otsdaq/ConfigurationInterface/ConfigurationManager.cc [1343]	------------------------------------- init start    	 [for all plug-ins in Backbone group 'TableEditWizBackbone(19)']
|Debug:ConfigurationManager:otsdaq/otsdaq/ConfigurationInterface/ConfigurationManager.cc [1510]	------------------------------------- init complete 	 [for all plug-ins in Backbone group 'TableEditWizBackbone(19)']
|Warning:ConfigurationManager:otsdaq/otsdaq/ConfigurationInterface/ConfigurationManager.cc [1336]	Not loading group because it is not of type Context or Backbone (it is type 'Configuration').
Not loading group because it is not of type Context or Backbone (it is type 'Configuration').
|Debug:CorePropertySupervisorBase.cc:otsdaq/otsdaq/CoreSupervisors/CorePropertySupervisorBase.cc [109]	VisualSupervisor-VisualSupervisor	<> CorePropertySupervisorBase::supervisorContextUID_ = MainContext
|Debug:CorePropertySupervisorBase.cc:otsdaq/otsdaq/CoreSupervisors/CorePropertySupervisorBase.cc [110]	VisualSupervisor-VisualSupervisor	<> CorePropertySupervisorBase::supervisorApplicationUID_ = VisualSupervisor
|Debug:CorePropertySupervisorBase.cc:otsdaq/otsdaq/CoreSupervisors/CorePropertySupervisorBase.cc [111]	VisualSupervisor-VisualSupervisor	<> CorePropertySupervisorBase::supervisorConfigurationPath_ = /MainContext/LinkToApplicationTable/VisualSupervisor/LinkToSupervisorTable
|Debug:CorePropertySupervisorBase.cc:otsdaq/otsdaq/CoreSupervisors/CorePropertySupervisorBase.cc [147]	hostname = athenanu.dhcp.fnal.gov
|Debug:CorePropertySupervisorBase.cc:otsdaq/otsdaq/CoreSupervisors/CorePropertySupervisorBase.cc [161]	Marked alive: /home/otsdaq/otsdaq/srcs/otsdaq_cmsoutertracker/DataDefault/Logs/otsdaq_is_alive-athenanu.dhcp.fnal.gov-2015.dat
|Debug:FSM:otsdaq/otsdaq/FiniteStateMachine/FiniteStateMachine.cc [19]	FSM-VisualSupervisor:VisualSupervisor	<> Constructing FiniteStateMachine
|Debug:FSM:otsdaq/otsdaq/FiniteStateMachine/RunControlStateMachine.cc [97]	FSM-VisualSupervisor:VisualSupervisor	<> Resetting RunControlStateMachine with name 'VisualSupervisor:VisualSupervisor'...
|Debug:WorkLoopManager.cc:otsdaq/otsdaq/WorkLoopManager/WorkLoopManager.cc [19]	Request name: StateMachine jobName: StateMachine
|Debug:CoreSupervisorBase.cc:otsdaq/otsdaq/CoreSupervisors/CoreSupervisorBase.cc [25]	VisualSupervisor-VisualSupervisor	<> Constructor.
|Debug:CoreSupervisorBase.cc:otsdaq/otsdaq/CoreSupervisors/CoreSupervisorBase.cc [39]	VisualSupervisor-VisualSupervisor	<> Constructed.
|Debug:Visualizer:otsdaq_utilities/otsdaq-utilities/Visualization/VisualSupervisor.cc [67]	VisualSupervisor-VisualSupervisor	<> Constructor.
|Debug:DataManagerSingleton.h:otsdaq/otsdaq/DataManager/DataManagerSingleton.h [34]	Creating supervisor application UID: VisualSupervisor POINTER: (nil)
|Debug:Configurable.cc:otsdaq/otsdaq/Configurable/Configurable.cc [13]	X	<>  Configurable class constructed. 
|Debug:DataManager.cc:otsdaq/otsdaq/DataManager/DataManager.cc [36]	X	<> Constructed.
|Debug:DataManagerSingleton.h:otsdaq/otsdaq/DataManager/DataManagerSingleton.h [36]	Creating supervisor application UID: VisualSupervisor POINTER: 0xd4ee70
|Debug:Visualizer:otsdaq_utilities/otsdaq-utilities/Visualization/VisualSupervisor.cc [78]	VisualSupervisor-VisualSupervisor	<> Done instantiating Visual data manager.
|Debug:Visualizer:otsdaq_utilities/otsdaq-utilities/Visualization/VisualSupervisor.cc [82]	VisualSupervisor-VisualSupervisor	<> Constructed.
|Debug:CorePropertySupervisorBase.cc:otsdaq/otsdaq/CoreSupervisors/CorePropertySupervisorBase.cc [27]	ConfigurationGUISupervisor-UNINITIALIZED_supervisorApplicationUID	<> application->getApplicationContext()->getContextDescriptor()->getURL() = http://athenanu.dhcp.fnal.gov:2015
|Debug:CorePropertySupervisorBase.cc:otsdaq/otsdaq/CoreSupervisors/CorePropertySupervisorBase.cc [28]	ConfigurationGUISupervisor-UNINITIALIZED_supervisorApplicationUID	<> application->getApplicationDescriptor()->getLocalId() = 281
|Debug:CorePropertySupervisorBase.cc:otsdaq/otsdaq/CoreSupervisors/CorePropertySupervisorBase.cc [29]	ConfigurationGUISupervisor-UNINITIALIZED_supervisorApplicationUID	<> supervisorClass_ = ots::ConfigurationGUISupervisor
|Debug:CorePropertySupervisorBase.cc:otsdaq/otsdaq/CoreSupervisors/CorePropertySupervisorBase.cc [30]	ConfigurationGUISupervisor-UNINITIALIZED_supervisorApplicationUID	<> supervisorClassNoNamespace_ = ConfigurationGUISupervisor
|Debug:AllSupervisorInfo.cc:otsdaq/otsdaq/SupervisorInfo/AllSupervisorInfo.cc [42]	Initializing info based on XDAQ context...
|Debug:SupervisorDescriptorInfoBase.cc:otsdaq/otsdaq/SupervisorInfo/SupervisorDescriptorInfoBase.cc [33]	Init
|Debug:AllSupervisorInfo.cc:otsdaq/otsdaq/SupervisorInfo/AllSupervisorInfo.cc [98]	Initializing info for Normal mode XDAQ context...
|Debug:TableBase:otsdaq/otsdaq/TableCore/TableBase.cc [1107]	TableBase-TableGroupMetadata	<> Using Mock-up view
|Debug:ConfigurationManager:otsdaq/otsdaq/ConfigurationInterface/ConfigurationManager.cc [163]	username_ = READONLY_USER
|Debug:ConfigurationManager:otsdaq/otsdaq/ConfigurationInterface/ConfigurationManager.cc [205]	ACTIVE_GROUPS_FILENAME = /home/otsdaq/otsdaq/srcs/otsdaq_cmsoutertracker/DataDefault/ServiceData/ActiveTableGroups.cfg
|Debug:ConfigurationManager:otsdaq/otsdaq/ConfigurationInterface/ConfigurationManager.cc [206]	ARTDAQ_DATABASE_URI = filesystemdb:///home/otsdaq/otsdaq/srcs/otsdaq_cmsoutertracker/databases/filesystemdb/default_db
|Debug:ConfigurationManager:otsdaq/otsdaq/ConfigurationInterface/ConfigurationManager.cc [1343]	------------------------------------- init start    	 [for all plug-ins in Context group 'DefaultContext(15)']
|Debug:MessageFacilityTable_table.cc:otsdaq/otsdaq/TablePlugins/MessageFacilityTable_table.cc [113]	Forwarding to Web GUI with UDP forward MesageFacility table.
|Debug:MessageFacilityTable_table.cc:otsdaq/otsdaq/TablePlugins/MessageFacilityTable_table.cc [236]	Opened.. /home/otsdaq/otsdaq/srcs/otsdaq_cmsoutertracker/DataDefault/MessageFacilityConfigurations/MessageFacilityGen.fcl
|Debug:MessageFacilityTable_table.cc:otsdaq/otsdaq/TablePlugins/MessageFacilityTable_table.cc [248]	Opened.. /home/otsdaq/otsdaq/srcs/otsdaq_cmsoutertracker/DataDefault/MessageFacilityConfigurations/MessageFacilityGen.fcl
|Debug:XDAQContextTable_table.cc:otsdaq/otsdaq/TablePlugins/XDAQContextTable_table.cc [251]	Fixing deprecated Supervisor class from ots::Supervisor to ots::GatewaySupervisor
|Debug:ConfigurationManager:otsdaq/otsdaq/ConfigurationInterface/ConfigurationManager.cc [1510]	------------------------------------- init complete 	 [for all plug-ins in Context group 'DefaultContext(15)']
|Debug:ConfigurationManager:otsdaq/otsdaq/ConfigurationInterface/ConfigurationManager.cc [1343]	------------------------------------- init start    	 [for all plug-ins in Backbone group 'TableEditWizBackbone(19)']
|Debug:ConfigurationManager:otsdaq/otsdaq/ConfigurationInterface/ConfigurationManager.cc [1510]	------------------------------------- init complete 	 [for all plug-ins in Backbone group 'TableEditWizBackbone(19)']
|Warning:ConfigurationManager:otsdaq/otsdaq/ConfigurationInterface/ConfigurationManager.cc [1336]	Not loading group because it is not of type Context or Backbone (it is type 'Configuration').
Not loading group because it is not of type Context or Backbone (it is type 'Configuration').
|Debug:AllSupervisorInfo.cc:otsdaq/otsdaq/SupervisorInfo/AllSupervisorInfo.cc [318]	Supervisor Info initialization complete!
|Debug:ConfigurationManager:otsdaq/otsdaq/ConfigurationInterface/ConfigurationManager.cc [422]	Destroying Backbone Key: 19
|Debug:ConfigurationManager:otsdaq/otsdaq/ConfigurationInterface/ConfigurationManager.cc [440]	Destroying Context Key: 15
|Debug:CorePropertySupervisorBase.cc:otsdaq/otsdaq/CoreSupervisors/CorePropertySupervisorBase.cc [71]	ConfigurationGUISupervisor-UNINITIALIZED_supervisorApplicationUID	<> Getting configuration specific info for supervisor 'ConfigurationGUISupervisor' of class ots::ConfigurationGUISupervisor.
|Debug:TableBase:otsdaq/otsdaq/TableCore/TableBase.cc [1107]	TableBase-TableGroupMetadata	<> Using Mock-up view
|Debug:ConfigurationManager:otsdaq/otsdaq/ConfigurationInterface/ConfigurationManager.cc [163]	username_ = READONLY_USER
|Debug:ConfigurationManager:otsdaq/otsdaq/ConfigurationInterface/ConfigurationManager.cc [205]	ACTIVE_GROUPS_FILENAME = /home/otsdaq/otsdaq/srcs/otsdaq_cmsoutertracker/DataDefault/ServiceData/ActiveTableGroups.cfg
|Debug:ConfigurationManager:otsdaq/otsdaq/ConfigurationInterface/ConfigurationManager.cc [206]	ARTDAQ_DATABASE_URI = filesystemdb:///home/otsdaq/otsdaq/srcs/otsdaq_cmsoutertracker/databases/filesystemdb/default_db
|Debug:ConfigurationManager:otsdaq/otsdaq/ConfigurationInterface/ConfigurationManager.cc [1343]	------------------------------------- init start    	 [for all plug-ins in Context group 'DefaultContext(15)']
|Debug:MessageFacilityTable_table.cc:otsdaq/otsdaq/TablePlugins/MessageFacilityTable_table.cc [113]	Forwarding to Web GUI with UDP forward MesageFacility table.
|Debug:MessageFacilityTable_table.cc:otsdaq/otsdaq/TablePlugins/MessageFacilityTable_table.cc [236]	Opened.. /home/otsdaq/otsdaq/srcs/otsdaq_cmsoutertracker/DataDefault/MessageFacilityConfigurations/MessageFacilityGen.fcl
|Debug:MessageFacilityTable_table.cc:otsdaq/otsdaq/TablePlugins/MessageFacilityTable_table.cc [248]	Opened.. /home/otsdaq/otsdaq/srcs/otsdaq_cmsoutertracker/DataDefault/MessageFacilityConfigurations/MessageFacilityGen.fcl
|Debug:XDAQContextTable_table.cc:otsdaq/otsdaq/TablePlugins/XDAQContextTable_table.cc [251]	Fixing deprecated Supervisor class from ots::Supervisor to ots::GatewaySupervisor
|Debug:ConfigurationManager:otsdaq/otsdaq/ConfigurationInterface/ConfigurationManager.cc [1510]	------------------------------------- init complete 	 [for all plug-ins in Context group 'DefaultContext(15)']
|Debug:ConfigurationManager:otsdaq/otsdaq/ConfigurationInterface/ConfigurationManager.cc [1343]	------------------------------------- init start    	 [for all plug-ins in Backbone group 'TableEditWizBackbone(19)']
|Debug:ConfigurationManager:otsdaq/otsdaq/ConfigurationInterface/ConfigurationManager.cc [1510]	------------------------------------- init complete 	 [for all plug-ins in Backbone group 'TableEditWizBackbone(19)']
|Warning:ConfigurationManager:otsdaq/otsdaq/ConfigurationInterface/ConfigurationManager.cc [1336]	Not loading group because it is not of type Context or Backbone (it is type 'Configuration').
Not loading group because it is not of type Context or Backbone (it is type 'Configuration').
|Debug:CorePropertySupervisorBase.cc:otsdaq/otsdaq/CoreSupervisors/CorePropertySupervisorBase.cc [109]	ConfigurationGUISupervisor-ConfigurationGUISupervisor	<> CorePropertySupervisorBase::supervisorContextUID_ = MainContext
|Debug:CorePropertySupervisorBase.cc:otsdaq/otsdaq/CoreSupervisors/CorePropertySupervisorBase.cc [110]	ConfigurationGUISupervisor-ConfigurationGUISupervisor	<> CorePropertySupervisorBase::supervisorApplicationUID_ = ConfigurationGUISupervisor
|Debug:CorePropertySupervisorBase.cc:otsdaq/otsdaq/CoreSupervisors/CorePropertySupervisorBase.cc [111]	ConfigurationGUISupervisor-ConfigurationGUISupervisor	<> CorePropertySupervisorBase::supervisorConfigurationPath_ = /MainContext/LinkToApplicationTable/ConfigurationGUISupervisor/LinkToSupervisorTable
|Debug:CorePropertySupervisorBase.cc:otsdaq/otsdaq/CoreSupervisors/CorePropertySupervisorBase.cc [147]	hostname = athenanu.dhcp.fnal.gov
|Debug:CorePropertySupervisorBase.cc:otsdaq/otsdaq/CoreSupervisors/CorePropertySupervisorBase.cc [161]	Marked alive: /home/otsdaq/otsdaq/srcs/otsdaq_cmsoutertracker/DataDefault/Logs/otsdaq_is_alive-athenanu.dhcp.fnal.gov-2015.dat
|Debug:FSM:otsdaq/otsdaq/FiniteStateMachine/FiniteStateMachine.cc [19]	FSM-ConfigurationGUISupervisor:ConfigurationGUISupervisor	<> Constructing FiniteStateMachine
|Debug:FSM:otsdaq/otsdaq/FiniteStateMachine/RunControlStateMachine.cc [97]	FSM-ConfigurationGUISupervisor:ConfigurationGUISupervisor	<> Resetting RunControlStateMachine with name 'ConfigurationGUISupervisor:ConfigurationGUISupervisor'...
|Debug:WorkLoopManager.cc:otsdaq/otsdaq/WorkLoopManager/WorkLoopManager.cc [19]	Request name: StateMachine jobName: StateMachine
|Debug:CoreSupervisorBase.cc:otsdaq/otsdaq/CoreSupervisors/CoreSupervisorBase.cc [25]	ConfigurationGUISupervisor-ConfigurationGUISupervisor	<> Constructor.
|Debug:CoreSupervisorBase.cc:otsdaq/otsdaq/CoreSupervisors/CoreSupervisorBase.cc [39]	ConfigurationGUISupervisor-ConfigurationGUISupervisor	<> Constructed.
|Debug:CfgGUI:otsdaq_utilities/otsdaq-utilities/ConfigurationGUI/ConfigurationGUISupervisor.cc [46]	ConfigurationGUISupervisor-ConfigurationGUISupervisor	<> Constructor started.
|Debug:CfgGUI:otsdaq_utilities/otsdaq-utilities/ConfigurationGUI/ConfigurationGUISupervisor.cc [63]	ConfigurationGUISupervisor-ConfigurationGUISupervisor	<> Initializing...
|Debug:CfgGUI:otsdaq_utilities/otsdaq-utilities/ConfigurationGUI/ConfigurationGUISupervisor.cc [65]	ConfigurationGUISupervisor-ConfigurationGUISupervisor	<> Activating saved context, which may prepare for normal mode...
|Debug:CfgGUI:otsdaq_utilities/otsdaq-utilities/ConfigurationGUI/ConfigurationGUISupervisor.cc [6812]	ConfigurationGUISupervisor-ConfigurationGUISupervisor	<> Attempting test activation of the context group.
|Debug:TableBase:otsdaq/otsdaq/TableCore/TableBase.cc [1107]	TableBase-TableGroupMetadata	<> Using Mock-up view
|Debug:ConfigurationManager:otsdaq/otsdaq/ConfigurationInterface/ConfigurationManager.cc [163]	username_ = READONLY_USER
|Debug:ConfigurationManager:otsdaq/otsdaq/ConfigurationInterface/ConfigurationManager.cc [205]	ACTIVE_GROUPS_FILENAME = /home/otsdaq/otsdaq/srcs/otsdaq_cmsoutertracker/DataDefault/ServiceData/ActiveTableGroups.cfg
|Debug:ConfigurationManager:otsdaq/otsdaq/ConfigurationInterface/ConfigurationManager.cc [206]	ARTDAQ_DATABASE_URI = filesystemdb:///home/otsdaq/otsdaq/srcs/otsdaq_cmsoutertracker/databases/filesystemdb/default_db
|Debug:ConfigurationManager:otsdaq/otsdaq/ConfigurationInterface/ConfigurationManager.cc [1343]	------------------------------------- init start    	 [for all plug-ins in Context group 'DefaultContext(15)']
|Debug:MessageFacilityTable_table.cc:otsdaq/otsdaq/TablePlugins/MessageFacilityTable_table.cc [113]	Forwarding to Web GUI with UDP forward MesageFacility table.
|Debug:MessageFacilityTable_table.cc:otsdaq/otsdaq/TablePlugins/MessageFacilityTable_table.cc [236]	Opened.. /home/otsdaq/otsdaq/srcs/otsdaq_cmsoutertracker/DataDefault/MessageFacilityConfigurations/MessageFacilityGen.fcl
|Debug:MessageFacilityTable_table.cc:otsdaq/otsdaq/TablePlugins/MessageFacilityTable_table.cc [248]	Opened.. /home/otsdaq/otsdaq/srcs/otsdaq_cmsoutertracker/DataDefault/MessageFacilityConfigurations/MessageFacilityGen.fcl
|Debug:XDAQContextTable_table.cc:otsdaq/otsdaq/TablePlugins/XDAQContextTable_table.cc [251]	Fixing deprecated Supervisor class from ots::Supervisor to ots::GatewaySupervisor
|Debug:ConfigurationManager:otsdaq/otsdaq/ConfigurationInterface/ConfigurationManager.cc [1510]	------------------------------------- init complete 	 [for all plug-ins in Context group 'DefaultContext(15)']
|Debug:ConfigurationManager:otsdaq/otsdaq/ConfigurationInterface/ConfigurationManager.cc [1343]	------------------------------------- init start    	 [for all plug-ins in Backbone group 'TableEditWizBackbone(19)']
|Debug:ConfigurationManager:otsdaq/otsdaq/ConfigurationInterface/ConfigurationManager.cc [1510]	------------------------------------- init complete 	 [for all plug-ins in Backbone group 'TableEditWizBackbone(19)']
|Warning:ConfigurationManager:otsdaq/otsdaq/ConfigurationInterface/ConfigurationManager.cc [1336]	Not loading group because it is not of type Context or Backbone (it is type 'Configuration').
Not loading group because it is not of type Context or Backbone (it is type 'Configuration').
|Debug:ConfigurationManager:otsdaq/otsdaq/ConfigurationInterface/ConfigurationManager.cc [422]	Destroying Backbone Key: 19
|Debug:ConfigurationManager:otsdaq/otsdaq/ConfigurationInterface/ConfigurationManager.cc [440]	Destroying Context Key: 15
|Debug:CfgGUI:otsdaq_utilities/otsdaq-utilities/ConfigurationGUI/ConfigurationGUISupervisor.cc [54]	ConfigurationGUISupervisor-ConfigurationGUISupervisor	<> Constructor complete.
|Debug:CorePropertySupervisorBase.cc:otsdaq/otsdaq/CoreSupervisors/CorePropertySupervisorBase.cc [27]	MacroMakerSupervisor-UNINITIALIZED_supervisorApplicationUID	<> application->getApplicationContext()->getContextDescriptor()->getURL() = http://athenanu.dhcp.fnal.gov:2015
|Debug:CorePropertySupervisorBase.cc:otsdaq/otsdaq/CoreSupervisors/CorePropertySupervisorBase.cc [28]	MacroMakerSupervisor-UNINITIALIZED_supervisorApplicationUID	<> application->getApplicationDescriptor()->getLocalId() = 300
|Debug:CorePropertySupervisorBase.cc:otsdaq/otsdaq/CoreSupervisors/CorePropertySupervisorBase.cc [29]	MacroMakerSupervisor-UNINITIALIZED_supervisorApplicationUID	<> supervisorClass_ = ots::MacroMakerSupervisor
|Debug:CorePropertySupervisorBase.cc:otsdaq/otsdaq/CoreSupervisors/CorePropertySupervisorBase.cc [30]	MacroMakerSupervisor-UNINITIALIZED_supervisorApplicationUID	<> supervisorClassNoNamespace_ = MacroMakerSupervisor
|Debug:AllSupervisorInfo.cc:otsdaq/otsdaq/SupervisorInfo/AllSupervisorInfo.cc [42]	Initializing info based on XDAQ context...
|Debug:SupervisorDescriptorInfoBase.cc:otsdaq/otsdaq/SupervisorInfo/SupervisorDescriptorInfoBase.cc [33]	Init
|Debug:AllSupervisorInfo.cc:otsdaq/otsdaq/SupervisorInfo/AllSupervisorInfo.cc [98]	Initializing info for Normal mode XDAQ context...
|Debug:TableBase:otsdaq/otsdaq/TableCore/TableBase.cc [1107]	TableBase-TableGroupMetadata	<> Using Mock-up view
|Debug:ConfigurationManager:otsdaq/otsdaq/ConfigurationInterface/ConfigurationManager.cc [163]	username_ = READONLY_USER
|Debug:ConfigurationManager:otsdaq/otsdaq/ConfigurationInterface/ConfigurationManager.cc [205]	ACTIVE_GROUPS_FILENAME = /home/otsdaq/otsdaq/srcs/otsdaq_cmsoutertracker/DataDefault/ServiceData/ActiveTableGroups.cfg
|Debug:ConfigurationManager:otsdaq/otsdaq/ConfigurationInterface/ConfigurationManager.cc [206]	ARTDAQ_DATABASE_URI = filesystemdb:///home/otsdaq/otsdaq/srcs/otsdaq_cmsoutertracker/databases/filesystemdb/default_db
|Debug:ConfigurationManager:otsdaq/otsdaq/ConfigurationInterface/ConfigurationManager.cc [1343]	------------------------------------- init start    	 [for all plug-ins in Context group 'DefaultContext(15)']
|Debug:MessageFacilityTable_table.cc:otsdaq/otsdaq/TablePlugins/MessageFacilityTable_table.cc [113]	Forwarding to Web GUI with UDP forward MesageFacility table.
|Debug:MessageFacilityTable_table.cc:otsdaq/otsdaq/TablePlugins/MessageFacilityTable_table.cc [236]	Opened.. /home/otsdaq/otsdaq/srcs/otsdaq_cmsoutertracker/DataDefault/MessageFacilityConfigurations/MessageFacilityGen.fcl
|Debug:MessageFacilityTable_table.cc:otsdaq/otsdaq/TablePlugins/MessageFacilityTable_table.cc [248]	Opened.. /home/otsdaq/otsdaq/srcs/otsdaq_cmsoutertracker/DataDefault/MessageFacilityConfigurations/MessageFacilityGen.fcl
|Debug:XDAQContextTable_table.cc:otsdaq/otsdaq/TablePlugins/XDAQContextTable_table.cc [251]	Fixing deprecated Supervisor class from ots::Supervisor to ots::GatewaySupervisor
|Debug:ConfigurationManager:otsdaq/otsdaq/ConfigurationInterface/ConfigurationManager.cc [1510]	------------------------------------- init complete 	 [for all plug-ins in Context group 'DefaultContext(15)']
|Debug:ConfigurationManager:otsdaq/otsdaq/ConfigurationInterface/ConfigurationManager.cc [1343]	------------------------------------- init start    	 [for all plug-ins in Backbone group 'TableEditWizBackbone(19)']
|Debug:ConfigurationManager:otsdaq/otsdaq/ConfigurationInterface/ConfigurationManager.cc [1510]	------------------------------------- init complete 	 [for all plug-ins in Backbone group 'TableEditWizBackbone(19)']
|Warning:ConfigurationManager:otsdaq/otsdaq/ConfigurationInterface/ConfigurationManager.cc [1336]	Not loading group because it is not of type Context or Backbone (it is type 'Configuration').
Not loading group because it is not of type Context or Backbone (it is type 'Configuration').
|Debug:AllSupervisorInfo.cc:otsdaq/otsdaq/SupervisorInfo/AllSupervisorInfo.cc [318]	Supervisor Info initialization complete!
|Debug:ConfigurationManager:otsdaq/otsdaq/ConfigurationInterface/ConfigurationManager.cc [422]	Destroying Backbone Key: 19
|Debug:ConfigurationManager:otsdaq/otsdaq/ConfigurationInterface/ConfigurationManager.cc [440]	Destroying Context Key: 15
|Debug:CorePropertySupervisorBase.cc:otsdaq/otsdaq/CoreSupervisors/CorePropertySupervisorBase.cc [71]	MacroMakerSupervisor-UNINITIALIZED_supervisorApplicationUID	<> Getting configuration specific info for supervisor 'MacroMakerSupervisor' of class ots::MacroMakerSupervisor.
|Debug:TableBase:otsdaq/otsdaq/TableCore/TableBase.cc [1107]	TableBase-TableGroupMetadata	<> Using Mock-up view
|Debug:ConfigurationManager:otsdaq/otsdaq/ConfigurationInterface/ConfigurationManager.cc [163]	username_ = READONLY_USER
|Debug:ConfigurationManager:otsdaq/otsdaq/ConfigurationInterface/ConfigurationManager.cc [205]	ACTIVE_GROUPS_FILENAME = /home/otsdaq/otsdaq/srcs/otsdaq_cmsoutertracker/DataDefault/ServiceData/ActiveTableGroups.cfg
|Debug:ConfigurationManager:otsdaq/otsdaq/ConfigurationInterface/ConfigurationManager.cc [206]	ARTDAQ_DATABASE_URI = filesystemdb:///home/otsdaq/otsdaq/srcs/otsdaq_cmsoutertracker/databases/filesystemdb/default_db
|Debug:ConfigurationManager:otsdaq/otsdaq/ConfigurationInterface/ConfigurationManager.cc [1343]	------------------------------------- init start    	 [for all plug-ins in Context group 'DefaultContext(15)']
|Debug:MessageFacilityTable_table.cc:otsdaq/otsdaq/TablePlugins/MessageFacilityTable_table.cc [113]	Forwarding to Web GUI with UDP forward MesageFacility table.
|Debug:MessageFacilityTable_table.cc:otsdaq/otsdaq/TablePlugins/MessageFacilityTable_table.cc [236]	Opened.. /home/otsdaq/otsdaq/srcs/otsdaq_cmsoutertracker/DataDefault/MessageFacilityConfigurations/MessageFacilityGen.fcl
|Debug:MessageFacilityTable_table.cc:otsdaq/otsdaq/TablePlugins/MessageFacilityTable_table.cc [248]	Opened.. /home/otsdaq/otsdaq/srcs/otsdaq_cmsoutertracker/DataDefault/MessageFacilityConfigurations/MessageFacilityGen.fcl
|Debug:XDAQContextTable_table.cc:otsdaq/otsdaq/TablePlugins/XDAQContextTable_table.cc [251]	Fixing deprecated Supervisor class from ots::Supervisor to ots::GatewaySupervisor
|Debug:ConfigurationManager:otsdaq/otsdaq/ConfigurationInterface/ConfigurationManager.cc [1510]	------------------------------------- init complete 	 [for all plug-ins in Context group 'DefaultContext(15)']
|Debug:ConfigurationManager:otsdaq/otsdaq/ConfigurationInterface/ConfigurationManager.cc [1343]	------------------------------------- init start    	 [for all plug-ins in Backbone group 'TableEditWizBackbone(19)']
|Debug:ConfigurationManager:otsdaq/otsdaq/ConfigurationInterface/ConfigurationManager.cc [1510]	------------------------------------- init complete 	 [for all plug-ins in Backbone group 'TableEditWizBackbone(19)']
|Warning:ConfigurationManager:otsdaq/otsdaq/ConfigurationInterface/ConfigurationManager.cc [1336]	Not loading group because it is not of type Context or Backbone (it is type 'Configuration').
Not loading group because it is not of type Context or Backbone (it is type 'Configuration').
|Debug:CorePropertySupervisorBase.cc:otsdaq/otsdaq/CoreSupervisors/CorePropertySupervisorBase.cc [109]	MacroMakerSupervisor-MacroMakerSupervisor	<> CorePropertySupervisorBase::supervisorContextUID_ = MainContext
|Debug:CorePropertySupervisorBase.cc:otsdaq/otsdaq/CoreSupervisors/CorePropertySupervisorBase.cc [110]	MacroMakerSupervisor-MacroMakerSupervisor	<> CorePropertySupervisorBase::supervisorApplicationUID_ = MacroMakerSupervisor
|Debug:CorePropertySupervisorBase.cc:otsdaq/otsdaq/CoreSupervisors/CorePropertySupervisorBase.cc [111]	MacroMakerSupervisor-MacroMakerSupervisor	<> CorePropertySupervisorBase::supervisorConfigurationPath_ = /MainContext/LinkToApplicationTable/MacroMakerSupervisor/LinkToSupervisorTable
|Debug:CorePropertySupervisorBase.cc:otsdaq/otsdaq/CoreSupervisors/CorePropertySupervisorBase.cc [147]	hostname = athenanu.dhcp.fnal.gov
|Debug:CorePropertySupervisorBase.cc:otsdaq/otsdaq/CoreSupervisors/CorePropertySupervisorBase.cc [161]	Marked alive: /home/otsdaq/otsdaq/srcs/otsdaq_cmsoutertracker/DataDefault/Logs/otsdaq_is_alive-athenanu.dhcp.fnal.gov-2015.dat
|Debug:FSM:otsdaq/otsdaq/FiniteStateMachine/FiniteStateMachine.cc [19]	FSM-MacroMakerSupervisor:MacroMakerSupervisor	<> Constructing FiniteStateMachine
|Debug:FSM:otsdaq/otsdaq/FiniteStateMachine/RunControlStateMachine.cc [97]	FSM-MacroMakerSupervisor:MacroMakerSupervisor	<> Resetting RunControlStateMachine with name 'MacroMakerSupervisor:MacroMakerSupervisor'...
|Debug:WorkLoopManager.cc:otsdaq/otsdaq/WorkLoopManager/WorkLoopManager.cc [19]	Request name: StateMachine jobName: StateMachine
|Debug:CoreSupervisorBase.cc:otsdaq/otsdaq/CoreSupervisors/CoreSupervisorBase.cc [25]	MacroMakerSupervisor-MacroMakerSupervisor	<> Constructor.
|Debug:CoreSupervisorBase.cc:otsdaq/otsdaq/CoreSupervisors/CoreSupervisorBase.cc [39]	MacroMakerSupervisor-MacroMakerSupervisor	<> Constructed.
|Debug:MacroMaker:otsdaq_utilities/otsdaq-utilities/MacroMaker/MacroMakerSupervisor.cc [35]	MacroMakerSupervisor-MacroMakerSupervisor	<> Constructing...
|Debug:MacroMaker:otsdaq_utilities/otsdaq-utilities/MacroMaker/MacroMakerSupervisor.cc [62]	MacroMakerSupervisor-MacroMakerSupervisor	<> Not Macro Maker only mode.
|Debug:MacroMaker:otsdaq_utilities/otsdaq-utilities/MacroMaker/MacroMakerSupervisor.cc [67]	MacroMakerSupervisor-MacroMakerSupervisor	<> Constructed.
18 Dec 2019 23:25:48.887 [140696787331264] INFO  gov.fnal.dhcp.athenanu.p:2015 <> - Ready.
18 Dec 2019 23:26:06.427 [140696306460416] ERROR gov.fnal.dhcp.athenanu.p:2015.executive::Application.lid(0).xdaq.SOAPDispatcher <> - Missing id or class specification in Content-Location
|Debug:GatewaySupervisor:otsdaq/otsdaq/GatewaySupervisor/GatewaySupervisor.cc [444]	Making System Logbook Entry: ots started.
|Debug:GatewaySupervisor:otsdaq/otsdaq/GatewaySupervisor/GatewaySupervisor.cc [456]	Making logbook entry: ots started.
|Debug:GatewaySupervisor:otsdaq/otsdaq/GatewaySupervisor/GatewaySupervisor.cc [457]	Making logbook entry: ots started.
|Debug:Logbook:otsdaq_utilities/otsdaq-utilities/Logbook/LogbookSupervisor.cc [486]	Received External Supervisor System Entry ots started.
|Debug:Logbook:otsdaq_utilities/otsdaq-utilities/Logbook/LogbookSupervisor.cc [487]	Active Experiment is  
|Debug:Logbook:otsdaq_utilities/otsdaq-utilities/Logbook/LogbookSupervisor.cc [504]	Warning - Currently, no Active Experiment.
|Debug:GatewaySupervisor:otsdaq/otsdaq/GatewaySupervisor/GatewaySupervisor.cc [492]	Returned Status: Warning - Currently, no Active Experiment.
|Debug:GatewaySupervisor:otsdaq/otsdaq/GatewaySupervisor/GatewaySupervisor.cc [2301]	Start
|Debug:GatewaySupervisor:otsdaq/otsdaq/GatewaySupervisor/GatewaySupervisor.cc [2304]	*** Login RequestType = login
|Debug:GatewaySupervisor:otsdaq/otsdaq/GatewaySupervisor/GatewaySupervisor.cc [444]	Making System Logbook Entry: admin logged in.
|Debug:GatewaySupervisor:otsdaq/otsdaq/GatewaySupervisor/GatewaySupervisor.cc [456]	Making logbook entry: admin logged in.
|Debug:GatewaySupervisor:otsdaq/otsdaq/GatewaySupervisor/GatewaySupervisor.cc [457]	Making logbook entry: admin logged in.
|Debug:Logbook:otsdaq_utilities/otsdaq-utilities/Logbook/LogbookSupervisor.cc [486]	Received External Supervisor System Entry admin logged in.
|Debug:Logbook:otsdaq_utilities/otsdaq-utilities/Logbook/LogbookSupervisor.cc [487]	Active Experiment is  
|Debug:Logbook:otsdaq_utilities/otsdaq-utilities/Logbook/LogbookSupervisor.cc [504]	Warning - Currently, no Active Experiment.
|Debug:GatewaySupervisor:otsdaq/otsdaq/GatewaySupervisor/GatewaySupervisor.cc [492]	Returned Status: Warning - Currently, no Active Experiment.
|Debug:WebUsers:otsdaq/otsdaq/WebUsersUtilities/WebUsers.cc [2420]	StringMacros::mapToString(permissionMap) = allUsers: 255
|Debug:WebUsers:otsdaq/otsdaq/WebUsersUtilities/WebUsers.cc [2425]	Gettings settings for user: admin
|Debug:WebUsers:otsdaq/otsdaq/WebUsersUtilities/WebUsers.cc [2432]	Preferences file: /home/otsdaq/otsdaq/srcs/otsdaq_cmsoutertracker/DataDefault/ServiceData/LoginData/UsersData/UserPreferencesData/admin.pref
otsdaq/otsdaq/XmlUtilities/HttpXmlDocument.cc [523]	File not accessible.
|Debug:WebUsers:otsdaq/otsdaq/WebUsersUtilities/WebUsers.cc [2436]	Preferences are defaults.
otsdaq/otsdaq/XmlUtilities/HttpXmlDocument.cc [523]	File not accessible.
|Debug:WebUsers:otsdaq/otsdaq/WebUsersUtilities/WebUsers.cc [2487]	System Preferences are defaults.
|Debug:WebUsers:otsdaq/otsdaq/WebUsersUtilities/WebUsers.cc [2497]	StringMacros::mapToString(permissionMap) = allUsers: 255
|Debug:WebUsers:otsdaq/otsdaq/WebUsersUtilities/WebUsers.cc [1605]	Found 0 active sessions for uid 0
|Debug:GatewaySupervisor:otsdaq/otsdaq/GatewaySupervisor/GatewaySupervisor.cc [2515]	Done
|Debug:CorePropertySupervisorBase.cc:otsdaq/otsdaq/CoreSupervisors/CorePropertySupervisorBase.cc [381]	GatewaySupervisor-Supervisor	<> No user supervisor property settings found in the configuration tree, going with the defaults.
|Debug:CorePropertySupervisorBase.cc:otsdaq/otsdaq/CoreSupervisors/CorePropertySupervisorBase.cc [328]	GatewaySupervisor-Supervisor	<> Final supervisor property settings:
|Debug:CorePropertySupervisorBase.cc:otsdaq/otsdaq/CoreSupervisors/CorePropertySupervisorBase.cc [330]	GatewaySupervisor-Supervisor	<> 	AllowNoLoginRequestTypes = 
|Debug:CorePropertySupervisorBase.cc:otsdaq/otsdaq/CoreSupervisors/CorePropertySupervisorBase.cc [330]	GatewaySupervisor-Supervisor	<> 	AutomatedRequestTypes = getSystemMessages | getCurrentState | getIterationPlanStatus
|Debug:CorePropertySupervisorBase.cc:otsdaq/otsdaq/CoreSupervisors/CorePropertySupervisorBase.cc [330]	GatewaySupervisor-Supervisor	<> 	CheckUserLockRequestTypes = 
|Debug:CorePropertySupervisorBase.cc:otsdaq/otsdaq/CoreSupervisors/CorePropertySupervisorBase.cc [330]	GatewaySupervisor-Supervisor	<> 	NoXmlWhiteSpaceRequestTypes = 
|Debug:CorePropertySupervisorBase.cc:otsdaq/otsdaq/CoreSupervisors/CorePropertySupervisorBase.cc [330]	GatewaySupervisor-Supervisor	<> 	NonXMLRequestTypes = 
|Debug:CorePropertySupervisorBase.cc:otsdaq/otsdaq/CoreSupervisors/CorePropertySupervisorBase.cc [330]	GatewaySupervisor-Supervisor	<> 	RequireSecurityRequestTypes = 
|Debug:CorePropertySupervisorBase.cc:otsdaq/otsdaq/CoreSupervisors/CorePropertySupervisorBase.cc [330]	GatewaySupervisor-Supervisor	<> 	RequireUserLockRequestTypes = gatewayLaunchOTS | gatewayLaunchWiz
|Debug:CorePropertySupervisorBase.cc:otsdaq/otsdaq/CoreSupervisors/CorePropertySupervisorBase.cc [330]	GatewaySupervisor-Supervisor	<> 	UserGroupsAllowed = 
|Debug:CorePropertySupervisorBase.cc:otsdaq/otsdaq/CoreSupervisors/CorePropertySupervisorBase.cc [330]	GatewaySupervisor-Supervisor	<> 	UserGroupsDisallowed = 
|Debug:CorePropertySupervisorBase.cc:otsdaq/otsdaq/CoreSupervisors/CorePropertySupervisorBase.cc [330]	GatewaySupervisor-Supervisor	<> 	UserPermissionsThreshold = *=1 | gatewayLaunchOTS=-1 | gatewayLaunchWiz=-1
|Debug:GatewaySupervisor:otsdaq/otsdaq/GatewaySupervisor/GatewaySupervisor.cc [3213]	icon.caption_ = State Machine
|Debug:GatewaySupervisor:otsdaq/otsdaq/GatewaySupervisor/GatewaySupervisor.cc [3214]	icon.permissionThresholdString_ = allUsers:1
|Debug:GatewaySupervisor:otsdaq/otsdaq/GatewaySupervisor/GatewaySupervisor.cc [3213]	icon.caption_ = Chat
|Debug:GatewaySupervisor:otsdaq/otsdaq/GatewaySupervisor/GatewaySupervisor.cc [3214]	icon.permissionThresholdString_ = allUsers:1
|Debug:GatewaySupervisor:otsdaq/otsdaq/GatewaySupervisor/GatewaySupervisor.cc [3213]	icon.caption_ = Logbook
|Debug:GatewaySupervisor:otsdaq/otsdaq/GatewaySupervisor/GatewaySupervisor.cc [3214]	icon.permissionThresholdString_ = allUsers:1
|Debug:GatewaySupervisor:otsdaq/otsdaq/GatewaySupervisor/GatewaySupervisor.cc [3213]	icon.caption_ = Visualizer
|Debug:GatewaySupervisor:otsdaq/otsdaq/GatewaySupervisor/GatewaySupervisor.cc [3214]	icon.permissionThresholdString_ = allUsers:1
|Debug:GatewaySupervisor:otsdaq/otsdaq/GatewaySupervisor/GatewaySupervisor.cc [3213]	icon.caption_ = Macro Maker
|Debug:GatewaySupervisor:otsdaq/otsdaq/GatewaySupervisor/GatewaySupervisor.cc [3214]	icon.permissionThresholdString_ = allUsers:1
|Debug:GatewaySupervisor:otsdaq/otsdaq/GatewaySupervisor/GatewaySupervisor.cc [3213]	icon.caption_ = Console
|Debug:GatewaySupervisor:otsdaq/otsdaq/GatewaySupervisor/GatewaySupervisor.cc [3214]	icon.permissionThresholdString_ = allUsers:255
|Debug:GatewaySupervisor:otsdaq/otsdaq/GatewaySupervisor/GatewaySupervisor.cc [3213]	icon.caption_ = Configure
|Debug:GatewaySupervisor:otsdaq/otsdaq/GatewaySupervisor/GatewaySupervisor.cc [3214]	icon.permissionThresholdString_ = allUsers:10
|Debug:GatewaySupervisor:otsdaq/otsdaq/GatewaySupervisor/GatewaySupervisor.cc [3213]	icon.caption_ = Front-ends
|Debug:GatewaySupervisor:otsdaq/otsdaq/GatewaySupervisor/GatewaySupervisor.cc [3214]	icon.permissionThresholdString_ = allUsers:10
|Debug:GatewaySupervisor:otsdaq/otsdaq/GatewaySupervisor/GatewaySupervisor.cc [3213]	icon.caption_ = Data Processors
|Debug:GatewaySupervisor:otsdaq/otsdaq/GatewaySupervisor/GatewaySupervisor.cc [3214]	icon.permissionThresholdString_ = allUsers:10
|Debug:GatewaySupervisor:otsdaq/otsdaq/GatewaySupervisor/GatewaySupervisor.cc [3213]	icon.caption_ = NIM+
|Debug:GatewaySupervisor:otsdaq/otsdaq/GatewaySupervisor/GatewaySupervisor.cc [3214]	icon.permissionThresholdString_ = allUsers:1
|Debug:GatewaySupervisor:otsdaq/otsdaq/GatewaySupervisor/GatewaySupervisor.cc [3213]	icon.caption_ = Status
|Debug:GatewaySupervisor:otsdaq/otsdaq/GatewaySupervisor/GatewaySupervisor.cc [3214]	icon.permissionThresholdString_ = allUsers:1
|Debug:GatewaySupervisor:otsdaq/otsdaq/GatewaySupervisor/GatewaySupervisor.cc [3213]	icon.caption_ = Elog
|Debug:GatewaySupervisor:otsdaq/otsdaq/GatewaySupervisor/GatewaySupervisor.cc [3214]	icon.permissionThresholdString_ = allUsers:1
|Debug:GatewaySupervisor:otsdaq/otsdaq/GatewaySupervisor/GatewaySupervisor.cc [3213]	icon.caption_ = Elog
|Debug:GatewaySupervisor:otsdaq/otsdaq/GatewaySupervisor/GatewaySupervisor.cc [3214]	icon.permissionThresholdString_ = allUsers:1
|Debug:GatewaySupervisor:otsdaq/otsdaq/GatewaySupervisor/GatewaySupervisor.cc [3213]	icon.caption_ = Status
|Debug:GatewaySupervisor:otsdaq/otsdaq/GatewaySupervisor/GatewaySupervisor.cc [3214]	icon.permissionThresholdString_ = allUsers:1
|Debug:GatewaySupervisor:otsdaq/otsdaq/GatewaySupervisor/GatewaySupervisor.cc [3213]	icon.caption_ = Smart Launch
|Debug:GatewaySupervisor:otsdaq/otsdaq/GatewaySupervisor/GatewaySupervisor.cc [3214]	icon.permissionThresholdString_ = allUsers:255
|Debug:GatewaySupervisor:otsdaq/otsdaq/GatewaySupervisor/GatewaySupervisor.cc [3213]	icon.caption_ = DTC Supervisor
|Debug:GatewaySupervisor:otsdaq/otsdaq/GatewaySupervisor/GatewaySupervisor.cc [3214]	icon.permissionThresholdString_ = allUsers:1
|Debug:GatewaySupervisor:otsdaq/otsdaq/GatewaySupervisor/GatewaySupervisor.cc [3240]	iconString = State Machine,FSM,1,1,icon-Physics.gif,/WebPath/html/StateMachine.html?fsm_name=OtherRuns0,,Chat,CHAT,1,1,icon-Chat.png,/WebPath/html/Chat.html?urn=250,,Logbook,LOG,1,1,icon-Logbook.png,/WebPath/html/Logbook.html?urn=261,,Visualizer,VIS,0,1,icon-Visualizer.png,/WebPath/html/Visualization.html?urn=270,,Macro Maker,MM,1,1,icon-MacroMaker.png,/WebPath/html/MacroMaker.html?urn=300,,Console,CON,1,1,icon-Console.png,/WebPath/html/Console.html?urn=260,,Configure,CFG,0,1,icon-Configure.png,/urn:xdaq-application:lid=281,,Front-ends,CFG,0,1,icon-Configure.png,/WebPath/html/ConfigurationGUI_subset.html?urn=281&,Config Subsets,Data Processors,CFG,0,1,icon-Configure.png,/WebPath/html/ConfigurationGUI_subset.html?urn=281&,Config Subsets,NIM+,NIM+,0,1,icon-Configure.png,/WebPath/NimPlusWebPath/html/NimPlus_app.html?urn=281,Config Subsets,Status,Accelerator,1,1,0,http://www-bd.fnal.gov/notifyservlet/www?project=&refresh=on&infolinks=top,FTBF Extras,Elog,Accelerator,0,1,0,https://www-bd.fnal.gov/Elog/?orLogName=Operations,FTBF Extras,Elog,FTBF,0,1,0,http://dbweb6.fnal.gov:8080/ECL/test_beam/E/index,FTBF Extras,Status,FTBF,0,1,0,https://www-bd.fnal.gov/synoptic/display/MTest/FTBF_Status,FTBF Extras,Smart Launch,LAUNCH,1,1,/WebPath/FTBFWebPath/images/icon-Rocket.png,/WebPath/FTBFWebPath/html/SmartLaunch.html?urn=281,,DTC Supervisor,OT,1,1,0,http://ftbftracker02.fnal.gov:2020/urn:xdaq-application:lid=51/MainPage,FTBF Extras
|Debug:GatewaySupervisor:otsdaq/otsdaq/GatewaySupervisor/GatewaySupervisor.cc [2521]	Start
|Debug:GatewaySupervisor:otsdaq/otsdaq/GatewaySupervisor/GatewaySupervisor.cc [2525]	Tooltip RequestType = check
|Debug:GatewaySupervisor:otsdaq/otsdaq/GatewaySupervisor/GatewaySupervisor.cc [2568]	Done
|Debug:GatewaySupervisor:otsdaq/otsdaq/GatewaySupervisor/GatewaySupervisor.cc [2726]	GatewaySupervisor-Supervisor	<> fsmName = OtherRuns0
|Debug:ConfigurationManager:otsdaq/otsdaq/ConfigurationInterface/ConfigurationManager.cc [422]	Destroying Backbone Key: 19
|Debug:ConfigurationManager:otsdaq/otsdaq/ConfigurationInterface/ConfigurationManager.cc [440]	Destroying Context Key: 15
|Debug:ConfigurationManager:otsdaq/otsdaq/ConfigurationInterface/ConfigurationManager.cc [205]	ACTIVE_GROUPS_FILENAME = /home/otsdaq/otsdaq/srcs/otsdaq_cmsoutertracker/DataDefault/ServiceData/ActiveTableGroups.cfg
|Debug:ConfigurationManager:otsdaq/otsdaq/ConfigurationInterface/ConfigurationManager.cc [206]	ARTDAQ_DATABASE_URI = filesystemdb:///home/otsdaq/otsdaq/srcs/otsdaq_cmsoutertracker/databases/filesystemdb/default_db
|Debug:ConfigurationManager:otsdaq/otsdaq/ConfigurationInterface/ConfigurationManager.cc [1343]	------------------------------------- init start    	 [for all plug-ins in Context group 'DefaultContext(15)']
|Debug:XDAQContextTable_table.cc:otsdaq/otsdaq/TablePlugins/XDAQContextTable_table.cc [251]	Fixing deprecated Supervisor class from ots::Supervisor to ots::GatewaySupervisor
|Debug:ConfigurationManager:otsdaq/otsdaq/ConfigurationInterface/ConfigurationManager.cc [1510]	------------------------------------- init complete 	 [for all plug-ins in Context group 'DefaultContext(15)']
|Debug:ConfigurationManager:otsdaq/otsdaq/ConfigurationInterface/ConfigurationManager.cc [1343]	------------------------------------- init start    	 [for all plug-ins in Backbone group 'TableEditWizBackbone(19)']
|Debug:ConfigurationManager:otsdaq/otsdaq/ConfigurationInterface/ConfigurationManager.cc [1510]	------------------------------------- init complete 	 [for all plug-ins in Backbone group 'TableEditWizBackbone(19)']
|Debug:ConfigurationManager:otsdaq/otsdaq/ConfigurationInterface/ConfigurationManager.cc [1343]	------------------------------------- init start    	 [for all plug-ins in Configuration group 'DefaultConfig(18)']
|Debug:FESlowControlsTable_table.cc:otsdaq/otsdaq/TablePlugins/FESlowControlsTable_table.cc [25]	isFirstAppInContext = 0
|Debug:ConfigurationManager:otsdaq/otsdaq/ConfigurationInterface/ConfigurationManager.cc [1510]	------------------------------------- init complete 	 [for all plug-ins in Configuration group 'DefaultConfig(18)']
|Debug:GatewaySupervisor:otsdaq/otsdaq/GatewaySupervisor/GatewaySupervisor.cc [2759]	stateMachineAliasFilter  = !*Context*
|Debug:GatewaySupervisor:otsdaq/otsdaq/GatewaySupervisor/GatewaySupervisor.cc [2871]	Load preferences: /home/otsdaq/otsdaq/srcs/otsdaq_cmsoutertracker/DataDefault/ServiceData/RunControlData/FSMLastGroupAlias-admin.pref
|Debug:GatewaySupervisor:otsdaq/otsdaq/GatewaySupervisor/GatewaySupervisor.cc [2877]	tmpLastAlias: T992Config
|Debug:WebUsers:otsdaq/otsdaq/WebUsersUtilities/WebUsers.cc [2567]	Preferences file: /home/otsdaq/otsdaq/srcs/otsdaq_cmsoutertracker/DataDefault/ServiceData/LoginData/UsersData/UserPreferencesData/generic_Default_FSM_View/admin_Default_FSM_View.pref
|Debug:WebUsers:otsdaq/otsdaq/WebUsersUtilities/WebUsers.cc [2581]	Read value 1
|Debug:Console:otsdaq_utilities/otsdaq-utilities/Console/ConsoleSupervisor.cc [265]	Console is alive and waiting... (if no messages, next heartbeat is in two minutes)
|Debug:GatewaySupervisor:otsdaq/otsdaq/GatewaySupervisor/GatewaySupervisor.cc [3563]	Can't open file: /home/otsdaq/otsdaq/srcs/otsdaq_cmsoutertracker/DataDefault/ServiceData/RunNumber//OtherRuns0NextRunNumber.txt
|Debug:GatewaySupervisor:otsdaq/otsdaq/GatewaySupervisor/GatewaySupervisor.cc [3565]	Creating file and setting Run Number to 1: /home/otsdaq/otsdaq/srcs/otsdaq_cmsoutertracker/DataDefault/ServiceData/RunNumber//OtherRuns0NextRunNumber.txt
